<?xml version="1.0" encoding="UTF-8" standalone="no"?>
<!-- Created with Inkscape (http://www.inkscape.org/) -->

<svg
   xmlns:dc="http://purl.org/dc/elements/1.1/"
   xmlns:cc="http://creativecommons.org/ns#"
   xmlns:rdf="http://www.w3.org/1999/02/22-rdf-syntax-ns#"
   xmlns:svg="http://www.w3.org/2000/svg"
   xmlns="http://www.w3.org/2000/svg"
   xmlns:sodipodi="http://sodipodi.sourceforge.net/DTD/sodipodi-0.dtd"
   xmlns:inkscape="http://www.inkscape.org/namespaces/inkscape"
   width="190.66667mm"
   height="164.15877mm"
   viewBox="0 0 190.66667 164.15877"
   version="1.1"
   id="svg8"
   sodipodi:docname="future_HPC_architecture.svg"
   inkscape:version="0.92.5 (2060ec1f9f, 2020-04-08)">
  <defs
     id="defs2">
    <marker
       inkscape:isstock="true"
       style="overflow:visible"
       id="marker5724"
       refX="0"
       refY="0"
       orient="auto"
       inkscape:stockid="Arrow2Sstart">
      <path
         transform="matrix(0.3,0,0,0.3,-0.69,0)"
         d="M 8.7185878,4.0337352 -2.2072895,0.01601326 8.7185884,-4.0017078 c -1.7454984,2.3720609 -1.7354408,5.6174519 -6e-7,8.035443 z"
         style="fill:#000000;fill-opacity:1;fill-rule:evenodd;stroke:#000000;stroke-width:0.625;stroke-linejoin:round;stroke-opacity:1"
         id="path5722"
         inkscape:connector-curvature="0" />
    </marker>
    <marker
       inkscape:isstock="true"
       style="overflow:visible"
       id="marker5718"
       refX="0"
       refY="0"
       orient="auto"
       inkscape:stockid="Arrow2Send">
      <path
         transform="matrix(-0.3,0,0,-0.3,0.69,0)"
         d="M 8.7185878,4.0337352 -2.2072895,0.01601326 8.7185884,-4.0017078 c -1.7454984,2.3720609 -1.7354408,5.6174519 -6e-7,8.035443 z"
         style="fill:#000000;fill-opacity:1;fill-rule:evenodd;stroke:#000000;stroke-width:0.625;stroke-linejoin:round;stroke-opacity:1"
         id="path5716"
         inkscape:connector-curvature="0" />
    </marker>
    <marker
       inkscape:isstock="true"
       style="overflow:visible"
       id="marker5712"
       refX="0"
       refY="0"
       orient="auto"
       inkscape:stockid="Arrow1Send">
      <path
         transform="matrix(-0.2,0,0,-0.2,-1.2,0)"
         style="fill:#000000;fill-opacity:1;fill-rule:evenodd;stroke:#000000;stroke-width:1.00000003pt;stroke-opacity:1"
         d="M 0,0 5,-5 -12.5,0 5,5 Z"
         id="path5710"
         inkscape:connector-curvature="0" />
    </marker>
    <marker
       inkscape:isstock="true"
       style="overflow:visible"
       id="marker5718-3"
       refX="0"
       refY="0"
       orient="auto"
       inkscape:stockid="Arrow2Send">
      <path
         inkscape:connector-curvature="0"
         transform="matrix(-0.3,0,0,-0.3,0.69,0)"
         d="M 8.7185878,4.0337352 -2.2072895,0.01601326 8.7185884,-4.0017078 c -1.7454984,2.3720609 -1.7354408,5.6174519 -6e-7,8.035443 z"
         style="fill:#000000;fill-opacity:1;fill-rule:evenodd;stroke:#000000;stroke-width:0.625;stroke-linejoin:round;stroke-opacity:1"
         id="path5716-0" />
    </marker>
    <marker
       inkscape:stockid="Arrow2Sstart"
       orient="auto"
       refY="0"
       refX="0"
       id="Arrow2Sstart-04"
       style="overflow:visible"
       inkscape:isstock="true"
       inkscape:collect="always">
      <path
         inkscape:connector-curvature="0"
         id="path5476-2"
         style="fill:#000000;fill-opacity:1;fill-rule:evenodd;stroke:#000000;stroke-width:0.625;stroke-linejoin:round;stroke-opacity:1"
         d="M 8.7185878,4.0337352 -2.2072895,0.01601326 8.7185884,-4.0017078 c -1.7454984,2.3720609 -1.7354408,5.6174519 -6e-7,8.035443 z"
         transform="matrix(0.3,0,0,0.3,-0.69,0)" />
    </marker>
    <marker
       inkscape:stockid="Arrow2Send"
       orient="auto"
       refY="0"
       refX="0"
       id="Arrow2Send-2"
       style="overflow:visible"
       inkscape:isstock="true"
       inkscape:collect="always">
      <path
         inkscape:connector-curvature="0"
         id="path5479-2"
         style="fill:#000000;fill-opacity:1;fill-rule:evenodd;stroke:#000000;stroke-width:0.625;stroke-linejoin:round;stroke-opacity:1"
         d="M 8.7185878,4.0337352 -2.2072895,0.01601326 8.7185884,-4.0017078 c -1.7454984,2.3720609 -1.7354408,5.6174519 -6e-7,8.035443 z"
         transform="matrix(-0.3,0,0,-0.3,0.69,0)" />
    </marker>
    <marker
       inkscape:isstock="true"
       style="overflow:visible"
       id="marker5718-0"
       refX="0"
       refY="0"
       orient="auto"
       inkscape:stockid="Arrow2Send">
      <path
         inkscape:connector-curvature="0"
         transform="matrix(-0.3,0,0,-0.3,0.69,0)"
         d="M 8.7185878,4.0337352 -2.2072895,0.01601326 8.7185884,-4.0017078 c -1.7454984,2.3720609 -1.7354408,5.6174519 -6e-7,8.035443 z"
         style="fill:#000000;fill-opacity:1;fill-rule:evenodd;stroke:#000000;stroke-width:0.625;stroke-linejoin:round;stroke-opacity:1"
         id="path5716-5" />
    </marker>
  </defs>
  <sodipodi:namedview
     id="base"
     pagecolor="#ffffff"
     bordercolor="#666666"
     borderopacity="1.0"
     inkscape:pageopacity="0.0"
     inkscape:pageshadow="2"
     inkscape:zoom="0.65291854"
     inkscape:cx="515.70848"
     inkscape:cy="151.11884"
     inkscape:document-units="mm"
     inkscape:current-layer="layer1"
     showgrid="true"
     inkscape:window-width="1920"
     inkscape:window-height="1016"
     inkscape:window-x="0"
     inkscape:window-y="27"
     inkscape:window-maximized="1"
     showguides="false"
     fit-margin-top="5"
     fit-margin-right="5"
     fit-margin-bottom="5"
     fit-margin-left="5">
    <inkscape:grid
       type="xygrid"
       id="grid4548"
       originx="-227.45834"
       originy="63.583344" />
  </sodipodi:namedview>
  <metadata
     id="metadata5">
    <rdf:RDF>
      <cc:Work
         rdf:about="">
        <dc:format>image/svg+xml</dc:format>
        <dc:type
           rdf:resource="http://purl.org/dc/dcmitype/StillImage" />
        <dc:title></dc:title>
      </cc:Work>
    </rdf:RDF>
  </metadata>
  <g
     inkscape:label="Layer 1"
     inkscape:groupmode="layer"
     id="layer1"
     transform="translate(-227.45835,-196.42458)">
    <flowRoot
       xml:space="preserve"
       id="flowRoot4499"
       style="font-style:normal;font-variant:normal;font-weight:normal;font-stretch:normal;font-size:24px;line-height:125%;font-family:'TeX Gyre Adventor';-inkscape-font-specification:'TeX Gyre Adventor';letter-spacing:0px;word-spacing:0px;fill:#000000;fill-opacity:1;stroke:none;stroke-width:1px;stroke-linecap:butt;stroke-linejoin:miter;stroke-opacity:1"
       transform="matrix(0.26458333,0,0,0.26458333,-11.370276,3.6917725)"><flowRegion
         id="flowRegion4501"
         style="font-style:normal;font-variant:normal;font-weight:normal;font-stretch:normal;font-family:'TeX Gyre Adventor';-inkscape-font-specification:'TeX Gyre Adventor'"><rect
           id="rect4503"
           width="19.484777"
           height="31.662764"
           x="104.73068"
           y="352.87097"
           style="font-style:normal;font-variant:normal;font-weight:normal;font-stretch:normal;font-family:'TeX Gyre Adventor';-inkscape-font-specification:'TeX Gyre Adventor'" /></flowRegion><flowPara
         id="flowPara4505">HowHost</flowPara></flowRoot>    <flowRoot
       xml:space="preserve"
       id="flowRoot5434"
       style="font-style:normal;font-variant:normal;font-weight:normal;font-stretch:normal;font-size:24px;line-height:125%;font-family:'TeX Gyre Adventor';-inkscape-font-specification:'TeX Gyre Adventor';letter-spacing:0px;word-spacing:0px;fill:#000000;fill-opacity:1;stroke:none;stroke-width:1px;stroke-linecap:butt;stroke-linejoin:miter;stroke-opacity:1"
       transform="translate(-11.370276,3.6917725)"><flowRegion
         id="flowRegion5436"
         style="font-style:normal;font-variant:normal;font-weight:normal;font-stretch:normal;font-family:'TeX Gyre Adventor';-inkscape-font-specification:'TeX Gyre Adventor'"><rect
           id="rect5438"
           width="700"
           height="700"
           x="140"
           y="82.519684"
           style="font-style:normal;font-variant:normal;font-weight:normal;font-stretch:normal;font-family:'TeX Gyre Adventor';-inkscape-font-specification:'TeX Gyre Adventor'" /></flowRegion><flowPara
         id="flowPara5440" /></flowRoot>    <flowRoot
       xml:space="preserve"
       id="flowRoot4499-1"
       style="font-style:normal;font-variant:normal;font-weight:normal;font-stretch:normal;font-size:24px;line-height:125%;font-family:'Times New Roman';-inkscape-font-specification:'Times New Roman, ';letter-spacing:0px;word-spacing:0px;fill:#000000;fill-opacity:1;stroke:none;stroke-width:1px;stroke-linecap:butt;stroke-linejoin:miter;stroke-opacity:1"
       transform="matrix(0.26458333,0,0,0.26458333,212.98958,0)"><flowRegion
         id="flowRegion4501-6"
         style="font-style:normal;font-variant:normal;font-weight:normal;font-stretch:normal;font-family:'Times New Roman';-inkscape-font-specification:'Times New Roman, '"><rect
           id="rect4503-3"
           width="19.484777"
           height="31.662764"
           x="104.73068"
           y="352.87097"
           style="font-style:normal;font-variant:normal;font-weight:normal;font-stretch:normal;font-family:'Times New Roman';-inkscape-font-specification:'Times New Roman, '" /></flowRegion><flowPara
         id="flowPara4505-9">HowHost</flowPara></flowRoot>    <flowRoot
       xml:space="preserve"
       id="flowRoot5434-9"
       style="font-style:normal;font-variant:normal;font-weight:normal;font-stretch:normal;font-size:24px;line-height:125%;font-family:'Times New Roman';-inkscape-font-specification:'Times New Roman, ';letter-spacing:0px;word-spacing:0px;fill:#000000;fill-opacity:1;stroke:none;stroke-width:1px;stroke-linecap:butt;stroke-linejoin:miter;stroke-opacity:1"
       transform="translate(212.98958)"><flowRegion
         id="flowRegion5436-4"
         style="font-style:normal;font-variant:normal;font-weight:normal;font-stretch:normal;font-family:'Times New Roman';-inkscape-font-specification:'Times New Roman, '"><rect
           id="rect5438-9"
           width="700"
           height="700"
           x="140"
           y="82.519684"
           style="font-style:normal;font-variant:normal;font-weight:normal;font-stretch:normal;font-family:'Times New Roman';-inkscape-font-specification:'Times New Roman, '" /></flowRegion><flowPara
         id="flowPara5440-5" /></flowRoot>    <g
       id="g5695"
       transform="translate(3.3333333e-6,21.166673)">
      <rect
         y="228.20833"
         x="232.83334"
         height="31.750006"
         width="179.91667"
         id="rect4485-5"
         style="opacity:1;vector-effect:none;fill:none;fill-opacity:0.81742739;stroke:#000000;stroke-width:0.75;stroke-linecap:round;stroke-linejoin:round;stroke-miterlimit:4;stroke-dasharray:none;stroke-dashoffset:0;stroke-opacity:1" />
      <text
         id="text4489-2"
         y="218.92485"
         x="238.6346"
         style="font-style:normal;font-variant:normal;font-weight:normal;font-stretch:normal;font-size:6.3499999px;line-height:125%;font-family:'TeX Gyre Schola';-inkscape-font-specification:'TeX Gyre Schola';letter-spacing:0px;word-spacing:0px;fill:#000000;fill-opacity:1;stroke:none;stroke-width:0.26458332px;stroke-linecap:butt;stroke-linejoin:miter;stroke-opacity:1"
         xml:space="preserve"><tspan
           style="font-style:normal;font-variant:normal;font-weight:normal;font-stretch:normal;font-family:'TeX Gyre Schola';-inkscape-font-specification:'TeX Gyre Schola';stroke-width:0.26458332px"
           y="218.92485"
           x="238.6346"
           id="tspan4487-90"
           sodipodi:role="line">Instructions</tspan></text>
      <text
         id="text4493-2"
         y="195.5802"
         x="310.01346"
         style="font-style:normal;font-variant:normal;font-weight:normal;font-stretch:normal;font-size:6.3499999px;line-height:125%;font-family:'TeX Gyre Schola';-inkscape-font-specification:'TeX Gyre Schola';letter-spacing:0px;word-spacing:0px;fill:#000000;fill-opacity:1;stroke:none;stroke-width:0.26458332px;stroke-linecap:butt;stroke-linejoin:miter;stroke-opacity:1"
         xml:space="preserve"><tspan
           style="font-style:normal;font-variant:normal;font-weight:normal;font-stretch:normal;font-family:'TeX Gyre Schola';-inkscape-font-specification:'TeX Gyre Schola';stroke-width:0.26458332px"
           y="195.5802"
           x="310.01346"
           id="tspan4491-8"
           sodipodi:role="line">Main Memory</tspan></text>
      <text
         id="text4497-3"
         y="219.71246"
         x="346.38733"
         style="font-style:normal;font-variant:normal;font-weight:normal;font-stretch:normal;font-size:6.3499999px;line-height:125%;font-family:'TeX Gyre Schola';-inkscape-font-specification:'TeX Gyre Schola';letter-spacing:0px;word-spacing:0px;fill:#000000;fill-opacity:1;stroke:none;stroke-width:0.26458332px;stroke-linecap:butt;stroke-linejoin:miter;stroke-opacity:1"
         xml:space="preserve"><tspan
           style="font-style:normal;font-variant:normal;font-weight:normal;font-stretch:normal;font-family:'TeX Gyre Schola';-inkscape-font-specification:'TeX Gyre Schola';stroke-width:0.26458332px"
           y="219.71246"
           x="346.38733"
           id="tspan4495-80"
           sodipodi:role="line">Data</tspan></text>
      <text
         id="text4509-4"
         y="244.7016"
         x="306.64816"
         style="font-style:normal;font-variant:normal;font-weight:normal;font-stretch:normal;font-size:6.3499999px;line-height:125%;font-family:'TeX Gyre Schola';-inkscape-font-specification:'TeX Gyre Schola';letter-spacing:0px;word-spacing:0px;fill:#000000;fill-opacity:1;stroke:none;stroke-width:0.26458332px;stroke-linecap:butt;stroke-linejoin:miter;stroke-opacity:1"
         xml:space="preserve"><tspan
           id="tspan4511-0"
           style="font-style:normal;font-variant:normal;font-weight:normal;font-stretch:normal;font-family:'TeX Gyre Schola';-inkscape-font-specification:'TeX Gyre Schola';stroke-width:0.26458332px"
           y="244.7016"
           x="306.64816"
           sodipodi:role="line">Host CPU</tspan></text>
      <text
         id="text4517-9"
         y="276.84058"
         x="258.63455"
         style="font-style:normal;font-variant:normal;font-weight:normal;font-stretch:normal;font-size:6.3499999px;line-height:125%;font-family:'TeX Gyre Schola';-inkscape-font-specification:'TeX Gyre Schola';letter-spacing:0px;word-spacing:0px;fill:#000000;fill-opacity:1;stroke:none;stroke-width:0.26458332px;stroke-linecap:butt;stroke-linejoin:miter;stroke-opacity:1"
         xml:space="preserve"><tspan
           style="font-style:normal;font-variant:normal;font-weight:normal;font-stretch:normal;font-family:'TeX Gyre Schola';-inkscape-font-specification:'TeX Gyre Schola';stroke-width:0.26458332px"
           y="276.84058"
           x="258.63455"
           id="tspan4515-1"
           sodipodi:role="line">FPGA</tspan></text>
      <text
         id="text4525-9"
         y="276.84058"
         x="325.99643"
         style="font-style:normal;font-variant:normal;font-weight:normal;font-stretch:normal;font-size:6.3499999px;line-height:125%;font-family:'TeX Gyre Schola';-inkscape-font-specification:'TeX Gyre Schola';letter-spacing:0px;word-spacing:0px;fill:#000000;fill-opacity:1;stroke:none;stroke-width:0.26458332px;stroke-linecap:butt;stroke-linejoin:miter;stroke-opacity:1"
         xml:space="preserve"><tspan
           style="font-style:normal;font-variant:normal;font-weight:normal;font-stretch:normal;font-family:'TeX Gyre Schola';-inkscape-font-specification:'TeX Gyre Schola';stroke-width:0.26458332px"
           y="276.84058"
           x="325.99643"
           id="tspan4523-6"
           sodipodi:role="line">GPU</tspan></text>
      <text
         id="text4529-2"
         y="268.90308"
         x="376.69955"
         style="font-style:normal;font-variant:normal;font-weight:normal;font-stretch:normal;font-size:6.3499999px;line-height:125%;font-family:'TeX Gyre Schola';-inkscape-font-specification:'TeX Gyre Schola';letter-spacing:0px;word-spacing:0px;fill:#000000;fill-opacity:1;stroke:none;stroke-width:0.26458332px;stroke-linecap:butt;stroke-linejoin:miter;stroke-opacity:1"
         xml:space="preserve"><tspan
           style="font-style:normal;font-variant:normal;font-weight:normal;font-stretch:normal;font-family:'TeX Gyre Schola';-inkscape-font-specification:'TeX Gyre Schola';stroke-width:0.26458332px"
           y="268.90308"
           x="376.69955"
           id="tspan4527-5"
           sodipodi:role="line">Quantum </tspan><tspan
           id="tspan4531-4"
           style="font-style:normal;font-variant:normal;font-weight:normal;font-stretch:normal;font-family:'TeX Gyre Schola';-inkscape-font-specification:'TeX Gyre Schola';stroke-width:0.26458332px"
           y="276.84058"
           x="376.69955"
           sodipodi:role="line">Accelerator</tspan></text>
      <rect
         y="180.6329"
         x="268.01611"
         height="26.421154"
         width="109.55112"
         id="rect4485-3-4"
         style="opacity:1;vector-effect:none;fill:none;fill-opacity:0.81742739;stroke:#000000;stroke-width:0.75;stroke-linecap:round;stroke-linejoin:round;stroke-miterlimit:4;stroke-dasharray:none;stroke-dashoffset:0;stroke-opacity:1" />
      <text
         id="text4521-9"
         y="287.85419"
         x="239.51299"
         style="font-style:normal;font-variant:normal;font-weight:normal;font-stretch:normal;font-size:6.3499999px;line-height:125%;font-family:'TeX Gyre Schola';-inkscape-font-specification:'TeX Gyre Schola';letter-spacing:0px;word-spacing:0px;fill:#000000;fill-opacity:1;stroke:none;stroke-width:0.26458332px;stroke-linecap:butt;stroke-linejoin:miter;stroke-opacity:1"
         xml:space="preserve"><tspan
           style="font-style:normal;font-variant:normal;font-weight:normal;font-stretch:normal;font-family:'TeX Gyre Schola';-inkscape-font-specification:'TeX Gyre Schola';stroke-width:0.26458332px"
           y="287.85419"
           x="239.51299"
           id="tspan4519-9"
           sodipodi:role="line">I/O Blocks</tspan></text>
      <rect
         y="281.125"
         x="232.83334"
         height="52.916668"
         width="52.916668"
         id="rect4550-3"
         style="opacity:1;vector-effect:none;fill:none;fill-opacity:0.81742739;stroke:#000000;stroke-width:0.75;stroke-linecap:round;stroke-linejoin:round;stroke-miterlimit:4;stroke-dasharray:none;stroke-dashoffset:0;stroke-opacity:1" />
      <rect
         y="291.70831"
         x="243.41667"
         height="42.333355"
         width="42.333351"
         id="rect4550-6-6"
         style="opacity:1;vector-effect:none;fill:none;fill-opacity:0.81742739;stroke:#000000;stroke-width:0.75;stroke-linecap:round;stroke-linejoin:round;stroke-miterlimit:4;stroke-dasharray:none;stroke-dashoffset:0;stroke-opacity:1" />
      <text
         id="text4521-3-0"
         y="287.85419"
         x="303.013"
         style="font-style:normal;font-variant:normal;font-weight:normal;font-stretch:normal;font-size:6.3499999px;line-height:125%;font-family:'TeX Gyre Schola';-inkscape-font-specification:'TeX Gyre Schola';letter-spacing:0px;word-spacing:0px;fill:#000000;fill-opacity:1;stroke:none;stroke-width:0.26458332px;stroke-linecap:butt;stroke-linejoin:miter;stroke-opacity:1"
         xml:space="preserve"><tspan
           style="font-style:normal;font-variant:normal;font-weight:normal;font-stretch:normal;font-family:'TeX Gyre Schola';-inkscape-font-specification:'TeX Gyre Schola';stroke-width:0.26458332px"
           y="287.85419"
           x="303.013"
           id="tspan4519-5-5"
           sodipodi:role="line">Control Logic</tspan></text>
      <rect
         y="281.125"
         x="296.33334"
         height="52.916668"
         width="52.916668"
         id="rect4550-62-0"
         style="opacity:1;vector-effect:none;fill:none;fill-opacity:0.81742739;stroke:#000000;stroke-width:0.75;stroke-linecap:round;stroke-linejoin:round;stroke-miterlimit:4;stroke-dasharray:none;stroke-dashoffset:0;stroke-opacity:1" />
      <rect
         y="291.70831"
         x="306.91669"
         height="42.333355"
         width="42.333351"
         id="rect4550-6-9-2"
         style="opacity:1;vector-effect:none;fill:none;fill-opacity:0.81742739;stroke:#000000;stroke-width:0.75;stroke-linecap:round;stroke-linejoin:round;stroke-miterlimit:4;stroke-dasharray:none;stroke-dashoffset:0;stroke-opacity:1" />
      <text
         id="text4521-2-9"
         y="287.85419"
         x="366.51294"
         style="font-style:normal;font-variant:normal;font-weight:normal;font-stretch:normal;font-size:6.3499999px;line-height:125%;font-family:'TeX Gyre Schola';-inkscape-font-specification:'TeX Gyre Schola';letter-spacing:0px;word-spacing:0px;fill:#000000;fill-opacity:1;stroke:none;stroke-width:0.26458332px;stroke-linecap:butt;stroke-linejoin:miter;stroke-opacity:1"
         xml:space="preserve"><tspan
           style="font-style:normal;font-variant:normal;font-weight:normal;font-stretch:normal;font-family:'TeX Gyre Schola';-inkscape-font-specification:'TeX Gyre Schola';stroke-width:0.26458332px"
           y="287.85419"
           x="366.51294"
           id="tspan4519-7-4"
           sodipodi:role="line">Control Logic</tspan></text>
      <rect
         y="281.125"
         x="359.83331"
         height="52.916668"
         width="52.916668"
         id="rect4550-0-3"
         style="opacity:1;vector-effect:none;fill:none;fill-opacity:0.81742739;stroke:#000000;stroke-width:0.75;stroke-linecap:round;stroke-linejoin:round;stroke-miterlimit:4;stroke-dasharray:none;stroke-dashoffset:0;stroke-opacity:1" />
      <rect
         y="291.70831"
         x="370.41666"
         height="42.333355"
         width="42.333351"
         id="rect4550-6-93-5"
         style="opacity:1;vector-effect:none;fill:none;fill-opacity:0.81742739;stroke:#000000;stroke-width:0.75;stroke-linecap:round;stroke-linejoin:round;stroke-miterlimit:4;stroke-dasharray:none;stroke-dashoffset:0;stroke-opacity:1" />
      <path
         inkscape:connector-curvature="0"
         id="path4645-1"
         d="M 296.33333,207.04166 V 180.58333"
         style="fill:none;fill-rule:evenodd;stroke:#000000;stroke-width:0.75;stroke-linecap:butt;stroke-linejoin:miter;stroke-miterlimit:4;stroke-dasharray:3.00000003, 3.00000003;stroke-dashoffset:0;stroke-opacity:1" />
      <text
         transform="rotate(-90)"
         id="text4635-74"
         y="313.77258"
         x="-274.6922"
         style="font-style:normal;font-variant:normal;font-weight:normal;font-stretch:normal;font-size:4.23333311px;line-height:125%;font-family:'TeX Gyre Schola';-inkscape-font-specification:'TeX Gyre Schola';letter-spacing:0px;word-spacing:0px;fill:#000000;fill-opacity:1;stroke:none;stroke-width:0.26458332px;stroke-linecap:butt;stroke-linejoin:miter;stroke-opacity:1"
         xml:space="preserve"><tspan
           style="font-style:normal;font-variant:normal;font-weight:normal;font-stretch:normal;font-family:'TeX Gyre Schola';-inkscape-font-specification:'TeX Gyre Schola';stroke-width:0.26458332px"
           y="313.77258"
           x="-274.6922"
           id="tspan4633-3"
           sodipodi:role="line">GPU</tspan></text>
      <path
         sodipodi:nodetypes="cccccccccccc"
         inkscape:connector-curvature="0"
         id="path4659-1"
         d="m 317.5,263.6625 h -1.32292 v 13.22916 H 317.5 l -5.29167,3.96874 -5.29166,-3.96874 h 1.32291 V 263.6625 h -1.32291 l 5.29166,-3.96875 v 0 z"
         style="fill:none;fill-rule:evenodd;stroke:#000000;stroke-width:0.75;stroke-linecap:butt;stroke-linejoin:miter;stroke-miterlimit:4;stroke-dasharray:none;stroke-opacity:1" />
      <text
         transform="rotate(-90)"
         id="text4631-4"
         y="247.62672"
         x="-276.02002"
         style="font-style:normal;font-variant:normal;font-weight:normal;font-stretch:normal;font-size:4.23333311px;line-height:125%;font-family:'TeX Gyre Schola';-inkscape-font-specification:'TeX Gyre Schola';letter-spacing:0px;word-spacing:0px;fill:#000000;fill-opacity:1;stroke:none;stroke-width:0.26458332px;stroke-linecap:butt;stroke-linejoin:miter;stroke-opacity:1"
         xml:space="preserve"><tspan
           style="font-style:normal;font-variant:normal;font-weight:normal;font-stretch:normal;font-family:'TeX Gyre Schola';-inkscape-font-specification:'TeX Gyre Schola';stroke-width:0.26458332px"
           y="247.62672"
           x="-276.02002"
           id="tspan4629-69"
           sodipodi:role="line">FPGA</tspan></text>
      <path
         sodipodi:nodetypes="cccccccccccc"
         inkscape:connector-curvature="0"
         id="path4659-3-4"
         d="m 251.35417,263.6625 h -1.32292 v 13.22916 h 1.32292 l -5.29167,3.96874 -5.29167,-3.96874 h 1.32292 V 263.6625 h -1.32292 l 5.29167,-3.96875 v 0 z"
         style="fill:none;fill-rule:evenodd;stroke:#000000;stroke-width:0.75;stroke-linecap:butt;stroke-linejoin:miter;stroke-miterlimit:4;stroke-dasharray:none;stroke-opacity:1" />
      <text
         transform="rotate(-90)"
         id="text4639-2"
         y="370.12881"
         x="-278.87881"
         style="font-style:normal;font-variant:normal;font-weight:normal;font-stretch:normal;font-size:4.23333311px;line-height:125%;font-family:'TeX Gyre Schola';-inkscape-font-specification:'TeX Gyre Schola';letter-spacing:0px;word-spacing:0px;fill:#000000;fill-opacity:1;stroke:none;stroke-width:0.26458332px;stroke-linecap:butt;stroke-linejoin:miter;stroke-opacity:1"
         xml:space="preserve"><tspan
           style="font-style:normal;font-variant:normal;font-weight:normal;font-stretch:normal;font-family:'TeX Gyre Schola';-inkscape-font-specification:'TeX Gyre Schola';stroke-width:0.26458332px"
           y="370.12881"
           x="-278.87881"
           id="tspan4637-2"
           sodipodi:role="line">Q-Accel</tspan></text>
      <path
         sodipodi:nodetypes="cccccccccccc"
         inkscape:connector-curvature="0"
         id="path4659-6-6"
         d="m 373.85626,263.6625 h -1.32293 v 13.22916 h 1.32293 l -5.29168,3.96874 -5.29165,-3.96874 h 1.32292 V 263.6625 h -1.32292 l 5.29167,-3.96875 v 0 z"
         style="fill:none;fill-rule:evenodd;stroke:#000000;stroke-width:0.75;stroke-linecap:butt;stroke-linejoin:miter;stroke-miterlimit:4;stroke-dasharray:none;stroke-opacity:1" />
      <rect
         y="294.35413"
         x="309.5625"
         height="5.2916718"
         width="15.875006"
         id="rect5094-4"
         style="opacity:1;vector-effect:none;fill:none;fill-opacity:0.81742739;stroke:#000000;stroke-width:0.75;stroke-linecap:round;stroke-linejoin:round;stroke-miterlimit:4;stroke-dasharray:none;stroke-dashoffset:0;stroke-opacity:1" />
      <rect
         y="299.64584"
         x="309.56253"
         height="10.583333"
         width="15.875"
         id="rect5096-1"
         style="opacity:1;vector-effect:none;fill:none;fill-opacity:0.81742739;stroke:#000000;stroke-width:0.75;stroke-linecap:round;stroke-linejoin:round;stroke-miterlimit:4;stroke-dasharray:none;stroke-dashoffset:0;stroke-opacity:1" />
      <rect
         y="294.35413"
         x="330.72919"
         height="5.2916718"
         width="15.875006"
         id="rect5094-1-2"
         style="opacity:1;vector-effect:none;fill:none;fill-opacity:0.81742739;stroke:#000000;stroke-width:0.75;stroke-linecap:round;stroke-linejoin:round;stroke-miterlimit:4;stroke-dasharray:none;stroke-dashoffset:0;stroke-opacity:1" />
      <rect
         y="299.64584"
         x="330.72919"
         height="10.583333"
         width="15.875"
         id="rect5096-2-8"
         style="opacity:1;vector-effect:none;fill:none;fill-opacity:0.81742739;stroke:#000000;stroke-width:0.75;stroke-linecap:round;stroke-linejoin:round;stroke-miterlimit:4;stroke-dasharray:none;stroke-dashoffset:0;stroke-opacity:1" />
      <rect
         y="315.52081"
         x="330.72919"
         height="5.2916718"
         width="15.875006"
         id="rect5094-9-8"
         style="opacity:1;vector-effect:none;fill:none;fill-opacity:0.81742739;stroke:#000000;stroke-width:0.75;stroke-linecap:round;stroke-linejoin:round;stroke-miterlimit:4;stroke-dasharray:none;stroke-dashoffset:0;stroke-opacity:1" />
      <rect
         y="320.8125"
         x="330.72919"
         height="10.583333"
         width="15.875"
         id="rect5096-3-92"
         style="opacity:1;vector-effect:none;fill:none;fill-opacity:0.81742739;stroke:#000000;stroke-width:0.75;stroke-linecap:round;stroke-linejoin:round;stroke-miterlimit:4;stroke-dasharray:none;stroke-dashoffset:0;stroke-opacity:1" />
      <rect
         y="315.52081"
         x="309.56253"
         height="5.2916718"
         width="15.875006"
         id="rect5094-19-8"
         style="opacity:1;vector-effect:none;fill:none;fill-opacity:0.81742739;stroke:#000000;stroke-width:0.75;stroke-linecap:round;stroke-linejoin:round;stroke-miterlimit:4;stroke-dasharray:none;stroke-dashoffset:0;stroke-opacity:1" />
      <rect
         y="320.8125"
         x="309.56253"
         height="10.583333"
         width="15.875"
         id="rect5096-4-88"
         style="opacity:1;vector-effect:none;fill:none;fill-opacity:0.81742739;stroke:#000000;stroke-width:0.75;stroke-linecap:round;stroke-linejoin:round;stroke-miterlimit:4;stroke-dasharray:none;stroke-dashoffset:0;stroke-opacity:1" />
      <text
         id="text5134-6"
         y="306.76242"
         x="312.34903"
         style="font-style:normal;font-variant:normal;font-weight:normal;font-stretch:normal;font-size:4.93888903px;line-height:125%;font-family:'TeX Gyre Schola';-inkscape-font-specification:'TeX Gyre Schola';letter-spacing:0px;word-spacing:0px;fill:#000000;fill-opacity:1;stroke:none;stroke-width:0.26458332px;stroke-linecap:butt;stroke-linejoin:miter;stroke-opacity:1"
         xml:space="preserve"><tspan
           style="font-style:normal;font-variant:normal;font-weight:normal;font-stretch:normal;font-family:'TeX Gyre Schola';-inkscape-font-specification:'TeX Gyre Schola';stroke-width:0.26458332px"
           y="306.76242"
           x="312.34903"
           id="tspan5132-83"
           sodipodi:role="line">GPU</tspan></text>
      <text
         id="text5134-7-8"
         y="306.76245"
         x="333.51569"
         style="font-style:normal;font-variant:normal;font-weight:normal;font-stretch:normal;font-size:4.93888903px;line-height:125%;font-family:'TeX Gyre Schola';-inkscape-font-specification:'TeX Gyre Schola';letter-spacing:0px;word-spacing:0px;fill:#000000;fill-opacity:1;stroke:none;stroke-width:0.26458332px;stroke-linecap:butt;stroke-linejoin:miter;stroke-opacity:1"
         xml:space="preserve"><tspan
           style="font-style:normal;font-variant:normal;font-weight:normal;font-stretch:normal;font-family:'TeX Gyre Schola';-inkscape-font-specification:'TeX Gyre Schola';stroke-width:0.26458332px"
           y="306.76245"
           x="333.51569"
           id="tspan5132-8-3"
           sodipodi:role="line">GPU</tspan></text>
      <text
         id="text5134-4-3"
         y="327.16251"
         x="333.51569"
         style="font-style:normal;font-variant:normal;font-weight:normal;font-stretch:normal;font-size:4.93888903px;line-height:125%;font-family:'TeX Gyre Schola';-inkscape-font-specification:'TeX Gyre Schola';letter-spacing:0px;word-spacing:0px;fill:#000000;fill-opacity:1;stroke:none;stroke-width:0.26458332px;stroke-linecap:butt;stroke-linejoin:miter;stroke-opacity:1"
         xml:space="preserve"><tspan
           style="font-style:normal;font-variant:normal;font-weight:normal;font-stretch:normal;font-family:'TeX Gyre Schola';-inkscape-font-specification:'TeX Gyre Schola';stroke-width:0.26458332px"
           y="327.16251"
           x="333.51569"
           id="tspan5132-5-3"
           sodipodi:role="line">GPU</tspan></text>
      <text
         id="text5134-0-8"
         y="327.92911"
         x="312.34903"
         style="font-style:normal;font-variant:normal;font-weight:normal;font-stretch:normal;font-size:4.93888903px;line-height:125%;font-family:'TeX Gyre Schola';-inkscape-font-specification:'TeX Gyre Schola';letter-spacing:0px;word-spacing:0px;fill:#000000;fill-opacity:1;stroke:none;stroke-width:0.26458332px;stroke-linecap:butt;stroke-linejoin:miter;stroke-opacity:1"
         xml:space="preserve"><tspan
           style="font-style:normal;font-variant:normal;font-weight:normal;font-stretch:normal;font-family:'TeX Gyre Schola';-inkscape-font-specification:'TeX Gyre Schola';stroke-width:0.26458332px"
           y="327.92911"
           x="312.34903"
           id="tspan5132-3-04"
           sodipodi:role="line">GPU</tspan></text>
      <rect
         style="opacity:1;vector-effect:none;fill:#6c5353;fill-opacity:0.81742739;stroke:#b41f3d;stroke-width:0;stroke-linecap:round;stroke-linejoin:round;stroke-miterlimit:4;stroke-dasharray:none;stroke-dashoffset:0;stroke-opacity:1"
         id="rect4703-76"
         width="3.96875"
         height="3.96875"
         x="250.69272"
         y="298.98438" />
      <rect
         style="opacity:1;vector-effect:none;fill:#6c5353;fill-opacity:0.81742739;stroke:#b41f3d;stroke-width:0;stroke-linecap:round;stroke-linejoin:round;stroke-miterlimit:4;stroke-dasharray:none;stroke-dashoffset:0;stroke-opacity:1"
         id="rect4703-7-8"
         width="3.96875"
         height="3.96875"
         x="258.63022"
         y="298.98438" />
      <rect
         style="opacity:1;vector-effect:none;fill:#6c5353;fill-opacity:0.81742739;stroke:#b41f3d;stroke-width:0;stroke-linecap:round;stroke-linejoin:round;stroke-miterlimit:4;stroke-dasharray:none;stroke-dashoffset:0;stroke-opacity:1"
         id="rect4703-5-9"
         width="3.96875"
         height="3.96875"
         x="266.56772"
         y="298.98438" />
      <rect
         style="opacity:1;vector-effect:none;fill:#6c5353;fill-opacity:0.81742739;stroke:#b41f3d;stroke-width:0;stroke-linecap:round;stroke-linejoin:round;stroke-miterlimit:4;stroke-dasharray:none;stroke-dashoffset:0;stroke-opacity:1"
         id="rect4703-3-0"
         width="3.96875"
         height="3.96875"
         x="274.50522"
         y="298.98438" />
      <path
         style="fill:#6c5353;fill-rule:evenodd;stroke:#000000;stroke-width:0.26458332px;stroke-linecap:butt;stroke-linejoin:miter;stroke-opacity:1"
         d="m 248.70834,294.35417 v 37.04166 0"
         id="path4701-6"
         inkscape:connector-curvature="0" />
      <path
         style="fill:#6c5353;fill-rule:evenodd;stroke:#000000;stroke-width:0.26458332px;stroke-linecap:butt;stroke-linejoin:miter;stroke-opacity:1"
         d="m 256.64584,294.35417 v 37.04166 0"
         id="path4701-2-8"
         inkscape:connector-curvature="0" />
      <path
         style="fill:#6c5353;fill-rule:evenodd;stroke:#000000;stroke-width:0.26458332px;stroke-linecap:butt;stroke-linejoin:miter;stroke-opacity:1"
         d="m 264.58334,294.35417 v 37.04166 0"
         id="path4701-9-79"
         inkscape:connector-curvature="0" />
      <path
         style="fill:#6c5353;fill-rule:evenodd;stroke:#000000;stroke-width:0.26458332px;stroke-linecap:butt;stroke-linejoin:miter;stroke-opacity:1"
         d="m 272.52084,294.35417 v 37.04166 0"
         id="path4701-1-03"
         inkscape:connector-curvature="0" />
      <path
         style="fill:#6c5353;fill-rule:evenodd;stroke:#000000;stroke-width:0.26458332px;stroke-linecap:butt;stroke-linejoin:miter;stroke-opacity:1"
         d="m 280.45834,294.35417 v 37.04166 0"
         id="path4701-27-3"
         inkscape:connector-curvature="0" />
      <rect
         style="opacity:1;vector-effect:none;fill:#6c5353;fill-opacity:0.81742739;stroke:#b41f3d;stroke-width:0;stroke-linecap:round;stroke-linejoin:round;stroke-miterlimit:4;stroke-dasharray:none;stroke-dashoffset:0;stroke-opacity:1"
         id="rect4703-0-3"
         width="3.96875"
         height="3.96875"
         x="250.69272"
         y="306.92188" />
      <rect
         style="opacity:1;vector-effect:none;fill:#6c5353;fill-opacity:0.81742739;stroke:#b41f3d;stroke-width:0;stroke-linecap:round;stroke-linejoin:round;stroke-miterlimit:4;stroke-dasharray:none;stroke-dashoffset:0;stroke-opacity:1"
         id="rect4703-7-9-7"
         width="3.96875"
         height="3.96875"
         x="258.63022"
         y="306.92188" />
      <rect
         style="opacity:1;vector-effect:none;fill:#6c5353;fill-opacity:0.81742739;stroke:#b41f3d;stroke-width:0;stroke-linecap:round;stroke-linejoin:round;stroke-miterlimit:4;stroke-dasharray:none;stroke-dashoffset:0;stroke-opacity:1"
         id="rect4703-5-3-32"
         width="3.96875"
         height="3.96875"
         x="266.56772"
         y="306.92188" />
      <rect
         style="opacity:1;vector-effect:none;fill:#6c5353;fill-opacity:0.81742739;stroke:#b41f3d;stroke-width:0;stroke-linecap:round;stroke-linejoin:round;stroke-miterlimit:4;stroke-dasharray:none;stroke-dashoffset:0;stroke-opacity:1"
         id="rect4703-3-6-6"
         width="3.96875"
         height="3.96875"
         x="274.50522"
         y="306.92188" />
      <rect
         style="opacity:1;vector-effect:none;fill:#6c5353;fill-opacity:0.81742739;stroke:#b41f3d;stroke-width:0;stroke-linecap:round;stroke-linejoin:round;stroke-miterlimit:4;stroke-dasharray:none;stroke-dashoffset:0;stroke-opacity:1"
         id="rect4703-0-6-5"
         width="3.96875"
         height="3.96875"
         x="250.69272"
         y="314.85938" />
      <rect
         style="opacity:1;vector-effect:none;fill:#6c5353;fill-opacity:0.81742739;stroke:#b41f3d;stroke-width:0;stroke-linecap:round;stroke-linejoin:round;stroke-miterlimit:4;stroke-dasharray:none;stroke-dashoffset:0;stroke-opacity:1"
         id="rect4703-7-9-2-2"
         width="3.96875"
         height="3.96875"
         x="258.63022"
         y="314.85938" />
      <rect
         style="opacity:1;vector-effect:none;fill:#6c5353;fill-opacity:0.81742739;stroke:#b41f3d;stroke-width:0;stroke-linecap:round;stroke-linejoin:round;stroke-miterlimit:4;stroke-dasharray:none;stroke-dashoffset:0;stroke-opacity:1"
         id="rect4703-5-3-6-6"
         width="3.96875"
         height="3.96875"
         x="266.56772"
         y="314.85938" />
      <rect
         style="opacity:1;vector-effect:none;fill:#6c5353;fill-opacity:0.81742739;stroke:#b41f3d;stroke-width:0;stroke-linecap:round;stroke-linejoin:round;stroke-miterlimit:4;stroke-dasharray:none;stroke-dashoffset:0;stroke-opacity:1"
         id="rect4703-3-6-1-5"
         width="3.96875"
         height="3.96875"
         x="274.50522"
         y="314.85938" />
      <rect
         style="opacity:1;vector-effect:none;fill:#6c5353;fill-opacity:0.81742739;stroke:#b41f3d;stroke-width:0;stroke-linecap:round;stroke-linejoin:round;stroke-miterlimit:4;stroke-dasharray:none;stroke-dashoffset:0;stroke-opacity:1"
         id="rect4703-0-7-8"
         width="3.96875"
         height="3.96875"
         x="250.69272"
         y="322.79688" />
      <rect
         style="opacity:1;vector-effect:none;fill:#6c5353;fill-opacity:0.81742739;stroke:#b41f3d;stroke-width:0;stroke-linecap:round;stroke-linejoin:round;stroke-miterlimit:4;stroke-dasharray:none;stroke-dashoffset:0;stroke-opacity:1"
         id="rect4703-7-9-9-7"
         width="3.96875"
         height="3.96875"
         x="258.63022"
         y="322.79688" />
      <rect
         style="opacity:1;vector-effect:none;fill:#6c5353;fill-opacity:0.81742739;stroke:#b41f3d;stroke-width:0;stroke-linecap:round;stroke-linejoin:round;stroke-miterlimit:4;stroke-dasharray:none;stroke-dashoffset:0;stroke-opacity:1"
         id="rect4703-5-3-2-9"
         width="3.96875"
         height="3.96875"
         x="266.56772"
         y="322.79688" />
      <rect
         style="opacity:1;vector-effect:none;fill:#6c5353;fill-opacity:0.81742739;stroke:#b41f3d;stroke-width:0;stroke-linecap:round;stroke-linejoin:round;stroke-miterlimit:4;stroke-dasharray:none;stroke-dashoffset:0;stroke-opacity:1"
         id="rect4703-3-6-0-6"
         width="3.96875"
         height="3.96875"
         x="274.50522"
         y="322.79688" />
      <path
         inkscape:connector-curvature="0"
         id="path4701-28-0"
         d="m 246.06252,328.74999 h 37.04166 v 0"
         style="fill:#6c5353;fill-rule:evenodd;stroke:#000000;stroke-width:0.26458332px;stroke-linecap:butt;stroke-linejoin:miter;stroke-opacity:1" />
      <path
         inkscape:connector-curvature="0"
         id="path4701-2-9-41"
         d="m 246.06252,320.81249 h 37.04166 v 0"
         style="fill:#6c5353;fill-rule:evenodd;stroke:#000000;stroke-width:0.26458332px;stroke-linecap:butt;stroke-linejoin:miter;stroke-opacity:1" />
      <path
         inkscape:connector-curvature="0"
         id="path4701-9-7-0"
         d="m 246.06252,312.87499 h 37.04166 v 0"
         style="fill:#6c5353;fill-rule:evenodd;stroke:#000000;stroke-width:0.26458332px;stroke-linecap:butt;stroke-linejoin:miter;stroke-opacity:1" />
      <path
         inkscape:connector-curvature="0"
         id="path4701-1-3-48"
         d="m 246.06252,304.93749 h 37.04166 v 0"
         style="fill:#6c5353;fill-rule:evenodd;stroke:#000000;stroke-width:0.26458332px;stroke-linecap:butt;stroke-linejoin:miter;stroke-opacity:1" />
      <path
         inkscape:connector-curvature="0"
         id="path4701-27-6-7"
         d="m 246.06252,296.99999 h 37.04166 v 0"
         style="fill:#6c5353;fill-rule:evenodd;stroke:#000000;stroke-width:0.26458332px;stroke-linecap:butt;stroke-linejoin:miter;stroke-opacity:1" />
      <text
         id="text5172-08"
         y="301.98331"
         x="250.767"
         style="font-style:normal;font-variant:normal;font-weight:normal;font-stretch:normal;font-size:2.82222223px;line-height:125%;font-family:'TeX Gyre Schola';-inkscape-font-specification:'TeX Gyre Schola';letter-spacing:0px;word-spacing:0px;fill:#000000;fill-opacity:1;stroke:none;stroke-width:0.26458332px;stroke-linecap:butt;stroke-linejoin:miter;stroke-opacity:1"
         xml:space="preserve"><tspan
           id="tspan5174-62"
           style="font-style:normal;font-variant:normal;font-weight:normal;font-stretch:normal;font-size:2.82222223px;font-family:'TeX Gyre Schola';-inkscape-font-specification:'TeX Gyre Schola';stroke-width:0.26458332px"
           y="301.98331"
           x="250.767"
           sodipodi:role="line">LB</tspan></text>
      <text
         id="text5172-6-4"
         y="301.98331"
         x="274.5795"
         style="font-style:normal;font-variant:normal;font-weight:normal;font-stretch:normal;font-size:2.82222223px;line-height:125%;font-family:'TeX Gyre Schola';-inkscape-font-specification:'TeX Gyre Schola';letter-spacing:0px;word-spacing:0px;fill:#000000;fill-opacity:1;stroke:none;stroke-width:0.26458332px;stroke-linecap:butt;stroke-linejoin:miter;stroke-opacity:1"
         xml:space="preserve"><tspan
           id="tspan5174-1-7"
           style="font-style:normal;font-variant:normal;font-weight:normal;font-stretch:normal;font-size:2.82222223px;font-family:'TeX Gyre Schola';-inkscape-font-specification:'TeX Gyre Schola';stroke-width:0.26458332px"
           y="301.98331"
           x="274.5795"
           sodipodi:role="line">LB</tspan></text>
      <text
         id="text5172-0-9"
         y="325.79584"
         x="274.5795"
         style="font-style:normal;font-variant:normal;font-weight:normal;font-stretch:normal;font-size:2.82222223px;line-height:125%;font-family:'TeX Gyre Schola';-inkscape-font-specification:'TeX Gyre Schola';letter-spacing:0px;word-spacing:0px;fill:#000000;fill-opacity:1;stroke:none;stroke-width:0.26458332px;stroke-linecap:butt;stroke-linejoin:miter;stroke-opacity:1"
         xml:space="preserve"><tspan
           id="tspan5174-6-39"
           style="font-style:normal;font-variant:normal;font-weight:normal;font-stretch:normal;font-size:2.82222223px;font-family:'TeX Gyre Schola';-inkscape-font-specification:'TeX Gyre Schola';stroke-width:0.26458332px"
           y="325.79584"
           x="274.5795"
           sodipodi:role="line">LB</tspan></text>
      <text
         id="text5172-3-2"
         y="325.79584"
         x="250.767"
         style="font-style:normal;font-variant:normal;font-weight:normal;font-stretch:normal;font-size:2.82222223px;line-height:125%;font-family:'TeX Gyre Schola';-inkscape-font-specification:'TeX Gyre Schola';letter-spacing:0px;word-spacing:0px;fill:#000000;fill-opacity:1;stroke:none;stroke-width:0.26458332px;stroke-linecap:butt;stroke-linejoin:miter;stroke-opacity:1"
         xml:space="preserve"><tspan
           id="tspan5174-2-8"
           style="font-style:normal;font-variant:normal;font-weight:normal;font-stretch:normal;font-size:2.82222223px;font-family:'TeX Gyre Schola';-inkscape-font-specification:'TeX Gyre Schola';stroke-width:0.26458332px"
           y="325.79584"
           x="250.767"
           sodipodi:role="line">LB</tspan></text>
      <text
         id="text5172-06-3"
         y="309.92084"
         x="250.767"
         style="font-style:normal;font-variant:normal;font-weight:normal;font-stretch:normal;font-size:2.82222223px;line-height:125%;font-family:'TeX Gyre Schola';-inkscape-font-specification:'TeX Gyre Schola';letter-spacing:0px;word-spacing:0px;fill:#000000;fill-opacity:1;stroke:none;stroke-width:0.26458332px;stroke-linecap:butt;stroke-linejoin:miter;stroke-opacity:1"
         xml:space="preserve"><tspan
           id="tspan5174-15-0"
           style="font-style:normal;font-variant:normal;font-weight:normal;font-stretch:normal;font-size:2.82222223px;font-family:'TeX Gyre Schola';-inkscape-font-specification:'TeX Gyre Schola';stroke-width:0.26458332px"
           y="309.92084"
           x="250.767"
           sodipodi:role="line">LB</tspan></text>
      <text
         id="text5172-5-1"
         y="317.85834"
         x="250.767"
         style="font-style:normal;font-variant:normal;font-weight:normal;font-stretch:normal;font-size:2.82222223px;line-height:125%;font-family:'TeX Gyre Schola';-inkscape-font-specification:'TeX Gyre Schola';letter-spacing:0px;word-spacing:0px;fill:#000000;fill-opacity:1;stroke:none;stroke-width:0.26458332px;stroke-linecap:butt;stroke-linejoin:miter;stroke-opacity:1"
         xml:space="preserve"><tspan
           id="tspan5174-4-7"
           style="font-style:normal;font-variant:normal;font-weight:normal;font-stretch:normal;font-size:2.82222223px;font-family:'TeX Gyre Schola';-inkscape-font-specification:'TeX Gyre Schola';stroke-width:0.26458332px"
           y="317.85834"
           x="250.767"
           sodipodi:role="line">LB</tspan></text>
      <text
         id="text5172-7-8"
         y="301.98331"
         x="258.7045"
         style="font-style:normal;font-variant:normal;font-weight:normal;font-stretch:normal;font-size:2.82222223px;line-height:125%;font-family:'TeX Gyre Schola';-inkscape-font-specification:'TeX Gyre Schola';letter-spacing:0px;word-spacing:0px;fill:#000000;fill-opacity:1;stroke:none;stroke-width:0.26458332px;stroke-linecap:butt;stroke-linejoin:miter;stroke-opacity:1"
         xml:space="preserve"><tspan
           id="tspan5174-65-91"
           style="font-style:normal;font-variant:normal;font-weight:normal;font-stretch:normal;font-size:2.82222223px;font-family:'TeX Gyre Schola';-inkscape-font-specification:'TeX Gyre Schola';stroke-width:0.26458332px"
           y="301.98331"
           x="258.7045"
           sodipodi:role="line">LB</tspan></text>
      <text
         id="text5172-69-5"
         y="301.98331"
         x="266.642"
         style="font-style:normal;font-variant:normal;font-weight:normal;font-stretch:normal;font-size:2.82222223px;line-height:125%;font-family:'TeX Gyre Schola';-inkscape-font-specification:'TeX Gyre Schola';letter-spacing:0px;word-spacing:0px;fill:#000000;fill-opacity:1;stroke:none;stroke-width:0.26458332px;stroke-linecap:butt;stroke-linejoin:miter;stroke-opacity:1"
         xml:space="preserve"><tspan
           id="tspan5174-3-4"
           style="font-style:normal;font-variant:normal;font-weight:normal;font-stretch:normal;font-size:2.82222223px;font-family:'TeX Gyre Schola';-inkscape-font-specification:'TeX Gyre Schola';stroke-width:0.26458332px"
           y="301.98331"
           x="266.642"
           sodipodi:role="line">LB</tspan></text>
      <text
         id="text5172-74-9"
         y="309.92084"
         x="266.642"
         style="font-style:normal;font-variant:normal;font-weight:normal;font-stretch:normal;font-size:2.82222223px;line-height:125%;font-family:'TeX Gyre Schola';-inkscape-font-specification:'TeX Gyre Schola';letter-spacing:0px;word-spacing:0px;fill:#000000;fill-opacity:1;stroke:none;stroke-width:0.26458332px;stroke-linecap:butt;stroke-linejoin:miter;stroke-opacity:1"
         xml:space="preserve"><tspan
           id="tspan5174-5-2"
           style="font-style:normal;font-variant:normal;font-weight:normal;font-stretch:normal;font-size:2.82222223px;font-family:'TeX Gyre Schola';-inkscape-font-specification:'TeX Gyre Schola';stroke-width:0.26458332px"
           y="309.92084"
           x="266.642"
           sodipodi:role="line">LB</tspan></text>
      <text
         id="text5172-2-57"
         y="309.92084"
         x="258.7045"
         style="font-style:normal;font-variant:normal;font-weight:normal;font-stretch:normal;font-size:2.82222223px;line-height:125%;font-family:'TeX Gyre Schola';-inkscape-font-specification:'TeX Gyre Schola';letter-spacing:0px;word-spacing:0px;fill:#000000;fill-opacity:1;stroke:none;stroke-width:0.26458332px;stroke-linecap:butt;stroke-linejoin:miter;stroke-opacity:1"
         xml:space="preserve"><tspan
           id="tspan5174-54-4"
           style="font-style:normal;font-variant:normal;font-weight:normal;font-stretch:normal;font-size:2.82222223px;font-family:'TeX Gyre Schola';-inkscape-font-specification:'TeX Gyre Schola';stroke-width:0.26458332px"
           y="309.92084"
           x="258.7045"
           sodipodi:role="line">LB</tspan></text>
      <text
         id="text5172-744-9"
         y="309.92084"
         x="274.5795"
         style="font-style:normal;font-variant:normal;font-weight:normal;font-stretch:normal;font-size:2.82222223px;line-height:125%;font-family:'TeX Gyre Schola';-inkscape-font-specification:'TeX Gyre Schola';letter-spacing:0px;word-spacing:0px;fill:#000000;fill-opacity:1;stroke:none;stroke-width:0.26458332px;stroke-linecap:butt;stroke-linejoin:miter;stroke-opacity:1"
         xml:space="preserve"><tspan
           id="tspan5174-30-9"
           style="font-style:normal;font-variant:normal;font-weight:normal;font-stretch:normal;font-size:2.82222223px;font-family:'TeX Gyre Schola';-inkscape-font-specification:'TeX Gyre Schola';stroke-width:0.26458332px"
           y="309.92084"
           x="274.5795"
           sodipodi:role="line">LB</tspan></text>
      <text
         id="text5172-78-4"
         y="317.85834"
         x="274.5795"
         style="font-style:normal;font-variant:normal;font-weight:normal;font-stretch:normal;font-size:2.82222223px;line-height:125%;font-family:'TeX Gyre Schola';-inkscape-font-specification:'TeX Gyre Schola';letter-spacing:0px;word-spacing:0px;fill:#000000;fill-opacity:1;stroke:none;stroke-width:0.26458332px;stroke-linecap:butt;stroke-linejoin:miter;stroke-opacity:1"
         xml:space="preserve"><tspan
           id="tspan5174-68-5"
           style="font-style:normal;font-variant:normal;font-weight:normal;font-stretch:normal;font-size:2.82222223px;font-family:'TeX Gyre Schola';-inkscape-font-specification:'TeX Gyre Schola';stroke-width:0.26458332px"
           y="317.85834"
           x="274.5795"
           sodipodi:role="line">LB</tspan></text>
      <text
         id="text5172-8-9"
         y="317.85834"
         x="266.642"
         style="font-style:normal;font-variant:normal;font-weight:normal;font-stretch:normal;font-size:2.82222223px;line-height:125%;font-family:'TeX Gyre Schola';-inkscape-font-specification:'TeX Gyre Schola';letter-spacing:0px;word-spacing:0px;fill:#000000;fill-opacity:1;stroke:none;stroke-width:0.26458332px;stroke-linecap:butt;stroke-linejoin:miter;stroke-opacity:1"
         xml:space="preserve"><tspan
           id="tspan5174-43-35"
           style="font-style:normal;font-variant:normal;font-weight:normal;font-stretch:normal;font-size:2.82222223px;font-family:'TeX Gyre Schola';-inkscape-font-specification:'TeX Gyre Schola';stroke-width:0.26458332px"
           y="317.85834"
           x="266.642"
           sodipodi:role="line">LB</tspan></text>
      <text
         id="text5172-1-70"
         y="317.85834"
         x="258.7045"
         style="font-style:normal;font-variant:normal;font-weight:normal;font-stretch:normal;font-size:2.82222223px;line-height:125%;font-family:'TeX Gyre Schola';-inkscape-font-specification:'TeX Gyre Schola';letter-spacing:0px;word-spacing:0px;fill:#000000;fill-opacity:1;stroke:none;stroke-width:0.26458332px;stroke-linecap:butt;stroke-linejoin:miter;stroke-opacity:1"
         xml:space="preserve"><tspan
           id="tspan5174-49-8"
           style="font-style:normal;font-variant:normal;font-weight:normal;font-stretch:normal;font-size:2.82222223px;font-family:'TeX Gyre Schola';-inkscape-font-specification:'TeX Gyre Schola';stroke-width:0.26458332px"
           y="317.85834"
           x="258.7045"
           sodipodi:role="line">LB</tspan></text>
      <text
         id="text5172-20-1"
         y="325.79584"
         x="258.7045"
         style="font-style:normal;font-variant:normal;font-weight:normal;font-stretch:normal;font-size:2.82222223px;line-height:125%;font-family:'TeX Gyre Schola';-inkscape-font-specification:'TeX Gyre Schola';letter-spacing:0px;word-spacing:0px;fill:#000000;fill-opacity:1;stroke:none;stroke-width:0.26458332px;stroke-linecap:butt;stroke-linejoin:miter;stroke-opacity:1"
         xml:space="preserve"><tspan
           id="tspan5174-689-9"
           style="font-style:normal;font-variant:normal;font-weight:normal;font-stretch:normal;font-size:2.82222223px;font-family:'TeX Gyre Schola';-inkscape-font-specification:'TeX Gyre Schola';stroke-width:0.26458332px"
           y="325.79584"
           x="258.7045"
           sodipodi:role="line">LB</tspan></text>
      <text
         id="text5172-26-9"
         y="325.79584"
         x="266.642"
         style="font-style:normal;font-variant:normal;font-weight:normal;font-stretch:normal;font-size:2.82222223px;line-height:125%;font-family:'TeX Gyre Schola';-inkscape-font-specification:'TeX Gyre Schola';letter-spacing:0px;word-spacing:0px;fill:#000000;fill-opacity:1;stroke:none;stroke-width:0.26458332px;stroke-linecap:butt;stroke-linejoin:miter;stroke-opacity:1"
         xml:space="preserve"><tspan
           id="tspan5174-64-7"
           style="font-style:normal;font-variant:normal;font-weight:normal;font-stretch:normal;font-size:2.82222223px;font-family:'TeX Gyre Schola';-inkscape-font-specification:'TeX Gyre Schola';stroke-width:0.26458332px"
           y="325.79584"
           x="266.642"
           sodipodi:role="line">LB</tspan></text>
      <text
         id="text5376-8"
         y="331.81351"
         x="383.96683"
         style="font-style:normal;font-variant:normal;font-weight:normal;font-stretch:normal;font-size:6.3499999px;line-height:125%;font-family:'TeX Gyre Schola';-inkscape-font-specification:'TeX Gyre Schola';letter-spacing:0px;word-spacing:0px;fill:#000000;fill-opacity:1;stroke:none;stroke-width:0.26458332px;stroke-linecap:butt;stroke-linejoin:miter;stroke-opacity:1"
         xml:space="preserve"><tspan
           style="font-style:normal;font-variant:normal;font-weight:normal;font-stretch:normal;font-family:'TeX Gyre Schola';-inkscape-font-specification:'TeX Gyre Schola';stroke-width:0.26458332px"
           y="331.81351"
           x="383.96683"
           id="tspan5374-2"
           sodipodi:role="line">Q-bits</tspan></text>
      <rect
         y="295.41248"
         x="373.0625"
         height="15.875"
         width="37.041668"
         id="rect5378-5"
         style="opacity:1;vector-effect:none;fill:none;fill-opacity:0.81742739;stroke:#000000;stroke-width:0.75;stroke-linecap:round;stroke-linejoin:round;stroke-miterlimit:4;stroke-dasharray:none;stroke-dashoffset:0;stroke-opacity:1" />
      <text
         id="text5382-3"
         y="301.18497"
         x="391.12448"
         style="font-style:normal;font-variant:normal;font-weight:normal;font-stretch:normal;font-size:6.3499999px;line-height:125%;font-family:'TeX Gyre Schola';-inkscape-font-specification:'TeX Gyre Schola';text-align:center;letter-spacing:0px;word-spacing:0px;text-anchor:middle;fill:#000000;fill-opacity:1;stroke:none;stroke-width:0.26458332px;stroke-linecap:butt;stroke-linejoin:miter;stroke-opacity:1"
         xml:space="preserve"><tspan
           style="font-style:normal;font-variant:normal;font-weight:normal;font-stretch:normal;font-family:'TeX Gyre Schola';-inkscape-font-specification:'TeX Gyre Schola';text-align:center;text-anchor:middle;stroke-width:0.26458332px"
           y="301.18497"
           x="391.12448"
           id="tspan5380-4"
           sodipodi:role="line">Error</tspan><tspan
           id="tspan5384-90"
           style="font-style:normal;font-variant:normal;font-weight:normal;font-stretch:normal;font-family:'TeX Gyre Schola';-inkscape-font-specification:'TeX Gyre Schola';text-align:center;text-anchor:middle;stroke-width:0.26458332px"
           y="309.12247"
           x="391.12448"
           sodipodi:role="line">Correction</tspan></text>
      <rect
         y="313.93332"
         x="378.22189"
         height="10.583333"
         width="10.583333"
         id="rect5370-2"
         style="opacity:1;vector-effect:none;fill:none;fill-opacity:0.81742739;stroke:#000000;stroke-width:0.75;stroke-linecap:round;stroke-linejoin:round;stroke-miterlimit:4;stroke-dasharray:none;stroke-dashoffset:0;stroke-opacity:1" />
      <path
         inkscape:connector-curvature="0"
         id="path5388-0"
         d="m 379.67708,321.88454 h 2.64582 v -2.64583 h 1.32293 l -2.64584,-2.64584 -2.64584,2.64584 h 1.32293 z"
         style="fill:#241c1c;fill-rule:evenodd;stroke:#000000;stroke-width:0.1322917px;stroke-linecap:butt;stroke-linejoin:miter;stroke-opacity:1" />
      <path
         inkscape:transform-center-y="36.334956"
         inkscape:transform-center-x="12.828937"
         inkscape:connector-curvature="0"
         id="path5388-9-1"
         d="m 387.35001,316.56547 h -2.64583 v 2.64583 h -1.32292 l 2.64584,2.64584 2.64583,-2.64584 h -1.32292 z"
         style="fill:#241c1c;fill-rule:evenodd;stroke:#000000;stroke-width:0.1322917px;stroke-linecap:butt;stroke-linejoin:miter;stroke-opacity:1" />
      <rect
         y="313.93332"
         x="394.22916"
         height="10.583333"
         width="10.583333"
         id="rect5370-0-9"
         style="opacity:1;vector-effect:none;fill:none;fill-opacity:0.81742739;stroke:#000000;stroke-width:0.75;stroke-linecap:round;stroke-linejoin:round;stroke-miterlimit:4;stroke-dasharray:none;stroke-dashoffset:0;stroke-opacity:1" />
      <path
         inkscape:connector-curvature="0"
         id="path5388-4-6"
         d="m 395.68437,321.88454 h 2.64583 v -2.64583 h 1.32292 l -2.64584,-2.64584 -2.64583,2.64584 h 1.32292 z"
         style="fill:#241c1c;fill-rule:evenodd;stroke:#000000;stroke-width:0.1322917px;stroke-linecap:butt;stroke-linejoin:miter;stroke-opacity:1" />
      <path
         inkscape:transform-center-y="36.334956"
         inkscape:transform-center-x="12.828937"
         inkscape:connector-curvature="0"
         id="path5388-9-8-2"
         d="m 403.3573,316.56547 h -2.64584 v 2.64583 h -1.32291 l 2.64584,2.64584 2.64582,-2.64584 h -1.32291 z"
         style="fill:#241c1c;fill-rule:evenodd;stroke:#000000;stroke-width:0.1322917px;stroke-linecap:butt;stroke-linejoin:miter;stroke-opacity:1" />
      <path
         inkscape:connector-curvature="0"
         id="path5442-1"
         d="m 283.10417,206.77708 v 21.16666"
         style="fill:none;fill-rule:evenodd;stroke:#000000;stroke-width:0.75;stroke-linecap:butt;stroke-linejoin:miter;stroke-miterlimit:4;stroke-dasharray:none;stroke-opacity:1;marker-end:url(#marker5718-0)" />
      <path
         sodipodi:nodetypes="cc"
         inkscape:connector-curvature="0"
         id="path5444-2"
         d="m 334.69792,208.09999 v 19.84375"
         style="fill:none;fill-rule:evenodd;stroke:#000000;stroke-width:0.75;stroke-linecap:butt;stroke-linejoin:miter;stroke-miterlimit:4;stroke-dasharray:none;stroke-opacity:1;marker-start:url(#Arrow2Sstart-04);marker-end:url(#Arrow2Send-2)" />
      <text
         id="text5728-0"
         y="191.69583"
         x="281.49191"
         style="font-style:normal;font-variant:normal;font-weight:normal;font-stretch:normal;font-size:4.93888903px;line-height:125%;font-family:'TeX Gyre Schola';-inkscape-font-specification:'TeX Gyre Schola';text-align:center;letter-spacing:0px;word-spacing:0px;text-anchor:middle;fill:#000000;fill-opacity:1;stroke:none;stroke-width:0.26458332px;stroke-linecap:butt;stroke-linejoin:miter;stroke-opacity:1"
         xml:space="preserve"><tspan
           style="font-style:normal;font-variant:normal;font-weight:normal;font-stretch:normal;font-family:'TeX Gyre Schola';-inkscape-font-specification:'TeX Gyre Schola';text-align:center;text-anchor:middle;stroke-width:0.26458332px"
           y="191.69583"
           x="281.49191"
           id="tspan5726-7"
           sodipodi:role="line">Instruction</tspan><tspan
           id="tspan5730-3"
           style="font-style:normal;font-variant:normal;font-weight:normal;font-stretch:normal;font-family:'TeX Gyre Schola';-inkscape-font-specification:'TeX Gyre Schola';text-align:center;text-anchor:middle;stroke-width:0.26458332px"
           y="197.86945"
           x="281.49191"
           sodipodi:role="line">Memory</tspan></text>
    </g>
  </g>
</svg>
