<?xml version="1.0" encoding="UTF-8" standalone="no"?>
<svg
   xmlns:dc="http://purl.org/dc/elements/1.1/"
   xmlns:cc="http://creativecommons.org/ns#"
   xmlns:rdf="http://www.w3.org/1999/02/22-rdf-syntax-ns#"
   xmlns:svg="http://www.w3.org/2000/svg"
   xmlns="http://www.w3.org/2000/svg"
   xmlns:xlink="http://www.w3.org/1999/xlink"
   xmlns:sodipodi="http://sodipodi.sourceforge.net/DTD/sodipodi-0.dtd"
   xmlns:inkscape="http://www.inkscape.org/namespaces/inkscape"
   sodipodi:docname="softwareArch4.svg"
   inkscape:version="1.0.1 (3bc2e813f5, 2020-09-07)"
   id="svg8"
   version="1.1"
   viewBox="0 0 212.20851 189.6142"
   height="189.6142mm"
   width="212.20851mm">
  <defs
     id="defs2">
    <marker
       inkscape:stockid="Arrow2Send"
       orient="auto"
       refY="0"
       refX="0"
       id="marker1236"
       style="overflow:visible"
       inkscape:isstock="true">
      <path
         inkscape:connector-curvature="0"
         id="path1234"
         style="fill:#000000;fill-opacity:1;fill-rule:evenodd;stroke:#000000;stroke-width:0.625;stroke-linejoin:round;stroke-opacity:1"
         d="M 8.7185878,4.0337352 -2.2072895,0.01601326 8.7185884,-4.0017078 c -1.7454984,2.3720609 -1.7354408,5.6174519 -6e-7,8.035443 z"
         transform="matrix(-0.3,0,0,-0.3,0.69,0)" />
    </marker>
    <marker
       inkscape:stockid="Arrow2Send"
       orient="auto"
       refY="0"
       refX="0"
       id="marker3414"
       style="overflow:visible"
       inkscape:isstock="true">
      <path
         inkscape:connector-curvature="0"
         id="path3412"
         style="fill:#000000;fill-opacity:1;fill-rule:evenodd;stroke:#000000;stroke-width:0.625;stroke-linejoin:round;stroke-opacity:1"
         d="M 8.7185878,4.0337352 -2.2072895,0.01601326 8.7185884,-4.0017078 c -1.7454984,2.3720609 -1.7354408,5.6174519 -6e-7,8.035443 z"
         transform="matrix(-0.3,0,0,-0.3,0.69,0)" />
    </marker>
    <marker
       inkscape:stockid="Arrow2Send"
       orient="auto"
       refY="0"
       refX="0"
       id="marker2252"
       style="overflow:visible"
       inkscape:isstock="true">
      <path
         inkscape:connector-curvature="0"
         id="path2250"
         style="fill:#000000;fill-opacity:1;fill-rule:evenodd;stroke:#000000;stroke-width:0.625;stroke-linejoin:round;stroke-opacity:1"
         d="M 8.7185878,4.0337352 -2.2072895,0.01601326 8.7185884,-4.0017078 c -1.7454984,2.3720609 -1.7354408,5.6174519 -6e-7,8.035443 z"
         transform="matrix(-0.3,0,0,-0.3,0.69,0)" />
    </marker>
    <marker
       inkscape:stockid="Arrow2Send"
       orient="auto"
       refY="0"
       refX="0"
       id="marker2140"
       style="overflow:visible"
       inkscape:isstock="true">
      <path
         inkscape:connector-curvature="0"
         id="path2138"
         style="fill:#000000;fill-opacity:1;fill-rule:evenodd;stroke:#000000;stroke-width:0.625;stroke-linejoin:round;stroke-opacity:1"
         d="M 8.7185878,4.0337352 -2.2072895,0.01601326 8.7185884,-4.0017078 c -1.7454984,2.3720609 -1.7354408,5.6174519 -6e-7,8.035443 z"
         transform="matrix(-0.3,0,0,-0.3,0.69,0)" />
    </marker>
    <marker
       inkscape:stockid="Arrow2Send"
       orient="auto"
       refY="0"
       refX="0"
       id="marker2034"
       style="overflow:visible"
       inkscape:isstock="true">
      <path
         inkscape:connector-curvature="0"
         id="path2032"
         style="fill:#000000;fill-opacity:1;fill-rule:evenodd;stroke:#000000;stroke-width:0.625;stroke-linejoin:round;stroke-opacity:1"
         d="M 8.7185878,4.0337352 -2.2072895,0.01601326 8.7185884,-4.0017078 c -1.7454984,2.3720609 -1.7354408,5.6174519 -6e-7,8.035443 z"
         transform="matrix(-0.3,0,0,-0.3,0.69,0)" />
    </marker>
    <marker
       inkscape:stockid="Arrow2Send"
       orient="auto"
       refY="0"
       refX="0"
       id="marker1934"
       style="overflow:visible"
       inkscape:isstock="true">
      <path
         inkscape:connector-curvature="0"
         id="path1932"
         style="fill:#000000;fill-opacity:1;fill-rule:evenodd;stroke:#000000;stroke-width:0.625;stroke-linejoin:round;stroke-opacity:1"
         d="M 8.7185878,4.0337352 -2.2072895,0.01601326 8.7185884,-4.0017078 c -1.7454984,2.3720609 -1.7354408,5.6174519 -6e-7,8.035443 z"
         transform="matrix(-0.3,0,0,-0.3,0.69,0)" />
    </marker>
    <marker
       inkscape:stockid="Arrow2Send"
       orient="auto"
       refY="0"
       refX="0"
       id="marker1840"
       style="overflow:visible"
       inkscape:isstock="true">
      <path
         inkscape:connector-curvature="0"
         id="path1838"
         style="fill:#000000;fill-opacity:1;fill-rule:evenodd;stroke:#000000;stroke-width:0.625;stroke-linejoin:round;stroke-opacity:1"
         d="M 8.7185878,4.0337352 -2.2072895,0.01601326 8.7185884,-4.0017078 c -1.7454984,2.3720609 -1.7354408,5.6174519 -6e-7,8.035443 z"
         transform="matrix(-0.3,0,0,-0.3,0.69,0)" />
    </marker>
    <marker
       inkscape:stockid="Arrow2Send"
       orient="auto"
       refY="0"
       refX="0"
       id="marker1752"
       style="overflow:visible"
       inkscape:isstock="true">
      <path
         inkscape:connector-curvature="0"
         id="path1750"
         style="fill:#000000;fill-opacity:1;fill-rule:evenodd;stroke:#000000;stroke-width:0.625;stroke-linejoin:round;stroke-opacity:1"
         d="M 8.7185878,4.0337352 -2.2072895,0.01601326 8.7185884,-4.0017078 c -1.7454984,2.3720609 -1.7354408,5.6174519 -6e-7,8.035443 z"
         transform="matrix(-0.3,0,0,-0.3,0.69,0)" />
    </marker>
    <marker
       inkscape:stockid="Arrow2Send"
       orient="auto"
       refY="0"
       refX="0"
       id="marker1670"
       style="overflow:visible"
       inkscape:isstock="true">
      <path
         inkscape:connector-curvature="0"
         id="path1668"
         style="fill:#000000;fill-opacity:1;fill-rule:evenodd;stroke:#000000;stroke-width:0.625;stroke-linejoin:round;stroke-opacity:1"
         d="M 8.7185878,4.0337352 -2.2072895,0.01601326 8.7185884,-4.0017078 c -1.7454984,2.3720609 -1.7354408,5.6174519 -6e-7,8.035443 z"
         transform="matrix(-0.3,0,0,-0.3,0.69,0)" />
    </marker>
    <marker
       inkscape:stockid="Arrow2Send"
       orient="auto"
       refY="0"
       refX="0"
       id="marker1594"
       style="overflow:visible"
       inkscape:isstock="true">
      <path
         inkscape:connector-curvature="0"
         id="path1592"
         style="fill:#000000;fill-opacity:1;fill-rule:evenodd;stroke:#000000;stroke-width:0.625;stroke-linejoin:round;stroke-opacity:1"
         d="M 8.7185878,4.0337352 -2.2072895,0.01601326 8.7185884,-4.0017078 c -1.7454984,2.3720609 -1.7354408,5.6174519 -6e-7,8.035443 z"
         transform="matrix(-0.3,0,0,-0.3,0.69,0)" />
    </marker>
    <linearGradient
       id="linearGradient1402"
       inkscape:collect="always">
      <stop
         id="stop1398"
         offset="0"
         style="stop-color:#ffffff;stop-opacity:1" />
      <stop
         id="stop1400"
         offset="1"
         style="stop-color:#ffffff;stop-opacity:0" />
    </linearGradient>
    <linearGradient
       id="linearGradient1126"
       inkscape:collect="always">
      <stop
         id="stop1122"
         offset="0"
         style="stop-color:#888888;stop-opacity:1" />
      <stop
         id="stop1124"
         offset="1"
         style="stop-color:#457dcc;stop-opacity:0;" />
    </linearGradient>
    <marker
       inkscape:stockid="Arrow2Send"
       orient="auto"
       refY="0"
       refX="0"
       id="marker5141"
       style="overflow:visible"
       inkscape:isstock="true">
      <path
         inkscape:connector-curvature="0"
         id="path5139"
         style="fill:#242424;fill-opacity:1;fill-rule:evenodd;stroke:#242424;stroke-width:0.625;stroke-linejoin:round;stroke-opacity:1"
         d="M 8.7185878,4.0337352 -2.2072895,0.01601326 8.7185884,-4.0017078 c -1.7454984,2.3720609 -1.7354408,5.6174519 -6e-7,8.035443 z"
         transform="matrix(-0.3,0,0,-0.3,0.69,0)" />
    </marker>
    <marker
       inkscape:collect="always"
       inkscape:isstock="true"
       style="overflow:visible"
       id="Arrow2Send"
       refX="0"
       refY="0"
       orient="auto"
       inkscape:stockid="Arrow2Send">
      <path
         inkscape:connector-curvature="0"
         transform="matrix(-0.3,0,0,-0.3,0.69,0)"
         d="M 8.7185878,4.0337352 -2.2072895,0.01601326 8.7185884,-4.0017078 c -1.7454984,2.3720609 -1.7354408,5.6174519 -6e-7,8.035443 z"
         style="fill:#242424;fill-opacity:1;fill-rule:evenodd;stroke:#242424;stroke-width:0.625;stroke-linejoin:round;stroke-opacity:1"
         id="path4624" />
    </marker>
    <marker
       inkscape:stockid="Arrow1Send"
       orient="auto"
       refY="0"
       refX="0"
       id="marker5065"
       style="overflow:visible"
       inkscape:isstock="true">
      <path
         inkscape:connector-curvature="0"
         id="path5063"
         d="M 0,0 5,-5 -12.5,0 5,5 Z"
         style="fill:#000000;fill-opacity:1;fill-rule:evenodd;stroke:#000000;stroke-width:1pt;stroke-opacity:1"
         transform="matrix(-0.2,0,0,-0.2,-1.2,0)" />
    </marker>
    <marker
       inkscape:stockid="Arrow1Send"
       orient="auto"
       refY="0"
       refX="0"
       id="marker4997"
       style="overflow:visible"
       inkscape:isstock="true">
      <path
         inkscape:connector-curvature="0"
         id="path4995"
         d="M 0,0 5,-5 -12.5,0 5,5 Z"
         style="fill:#000000;fill-opacity:1;fill-rule:evenodd;stroke:#000000;stroke-width:1pt;stroke-opacity:1"
         transform="matrix(-0.2,0,0,-0.2,-1.2,0)" />
    </marker>
    <marker
       inkscape:stockid="Arrow1Send"
       orient="auto"
       refY="0"
       refX="0"
       id="marker4935"
       style="overflow:visible"
       inkscape:isstock="true">
      <path
         inkscape:connector-curvature="0"
         id="path4933"
         d="M 0,0 5,-5 -12.5,0 5,5 Z"
         style="fill:#000000;fill-opacity:1;fill-rule:evenodd;stroke:#000000;stroke-width:1pt;stroke-opacity:1"
         transform="matrix(-0.2,0,0,-0.2,-1.2,0)" />
    </marker>
    <marker
       inkscape:stockid="Arrow1Lend"
       orient="auto"
       refY="0"
       refX="0"
       id="marker4875"
       style="overflow:visible"
       inkscape:isstock="true">
      <path
         inkscape:connector-curvature="0"
         id="path4873"
         d="M 0,0 5,-5 -12.5,0 5,5 Z"
         style="fill:#000000;fill-opacity:1;fill-rule:evenodd;stroke:#000000;stroke-width:1pt;stroke-opacity:1"
         transform="matrix(-0.8,0,0,-0.8,-10,0)" />
    </marker>
    <marker
       inkscape:stockid="Arrow2Send"
       orient="auto"
       refY="0"
       refX="0"
       id="marker5141-9"
       style="overflow:visible"
       inkscape:isstock="true">
      <path
         id="path5139-1"
         style="fill:#242424;fill-opacity:1;fill-rule:evenodd;stroke:#242424;stroke-width:0.625;stroke-linejoin:round;stroke-opacity:1"
         d="M 8.7185878,4.0337352 -2.2072895,0.01601326 8.7185884,-4.0017078 c -1.7454984,2.3720609 -1.7354408,5.6174519 -6e-7,8.035443 z"
         transform="matrix(-0.3,0,0,-0.3,0.69,0)"
         inkscape:connector-curvature="0" />
    </marker>
    <marker
       inkscape:collect="always"
       inkscape:isstock="true"
       style="overflow:visible"
       id="Arrow2Send-2"
       refX="0"
       refY="0"
       orient="auto"
       inkscape:stockid="Arrow2Send">
      <path
         transform="matrix(-0.3,0,0,-0.3,0.69,0)"
         d="M 8.7185878,4.0337352 -2.2072895,0.01601326 8.7185884,-4.0017078 c -1.7454984,2.3720609 -1.7354408,5.6174519 -6e-7,8.035443 z"
         style="fill:#242424;fill-opacity:1;fill-rule:evenodd;stroke:#242424;stroke-width:0.625;stroke-linejoin:round;stroke-opacity:1"
         id="path4624-7"
         inkscape:connector-curvature="0" />
    </marker>
    <marker
       inkscape:stockid="Arrow2Send"
       orient="auto"
       refY="0"
       refX="0"
       id="marker5141-7"
       style="overflow:visible"
       inkscape:isstock="true">
      <path
         id="path5139-4"
         style="fill:#242424;fill-opacity:1;fill-rule:evenodd;stroke:#242424;stroke-width:0.625;stroke-linejoin:round;stroke-opacity:1"
         d="M 8.7185878,4.0337352 -2.2072895,0.01601326 8.7185884,-4.0017078 c -1.7454984,2.3720609 -1.7354408,5.6174519 -6e-7,8.035443 z"
         transform="matrix(-0.3,0,0,-0.3,0.69,0)"
         inkscape:connector-curvature="0" />
    </marker>
    <marker
       inkscape:collect="always"
       inkscape:isstock="true"
       style="overflow:visible"
       id="Arrow2Send-5"
       refX="0"
       refY="0"
       orient="auto"
       inkscape:stockid="Arrow2Send">
      <path
         transform="matrix(-0.3,0,0,-0.3,0.69,0)"
         d="M 8.7185878,4.0337352 -2.2072895,0.01601326 8.7185884,-4.0017078 c -1.7454984,2.3720609 -1.7354408,5.6174519 -6e-7,8.035443 z"
         style="fill:#242424;fill-opacity:1;fill-rule:evenodd;stroke:#242424;stroke-width:0.625;stroke-linejoin:round;stroke-opacity:1"
         id="path4624-2"
         inkscape:connector-curvature="0" />
    </marker>
    <linearGradient
       gradientTransform="translate(74.493108,-9.027704)"
       gradientUnits="userSpaceOnUse"
       y2="85.333336"
       x2="-33.072918"
       y1="84.384392"
       x1="-58.993092"
       id="linearGradient1128"
       xlink:href="#linearGradient1126"
       inkscape:collect="always" />
    <linearGradient
       gradientUnits="userSpaceOnUse"
       y2="85.894371"
       x2="-22.899342"
       y1="85.894371"
       x1="-12.316009"
       id="linearGradient1128-7"
       xlink:href="#linearGradient1126"
       inkscape:collect="always"
       gradientTransform="translate(74.493109,-9.027708)" />
    <linearGradient
       y2="85.333336"
       x2="-33.072918"
       y1="84.384392"
       x1="-58.993092"
       gradientTransform="translate(140.73598,-9.027704)"
       gradientUnits="userSpaceOnUse"
       id="linearGradient1271"
       xlink:href="#linearGradient1126"
       inkscape:collect="always" />
    <linearGradient
       y2="85.894371"
       x2="-22.899342"
       y1="85.894371"
       x1="-12.316009"
       gradientTransform="translate(140.54192,-9.027708)"
       gradientUnits="userSpaceOnUse"
       id="linearGradient1273"
       xlink:href="#linearGradient1126"
       inkscape:collect="always" />
    <linearGradient
       y2="85.333336"
       x2="-33.072918"
       y1="84.384392"
       x1="-58.993092"
       gradientTransform="translate(-8.8506592,37.990607)"
       gradientUnits="userSpaceOnUse"
       id="linearGradient1332"
       xlink:href="#linearGradient1126"
       inkscape:collect="always" />
    <linearGradient
       y2="85.894371"
       x2="-22.899342"
       y1="85.894371"
       x1="-12.316009"
       gradientTransform="translate(-9.0447185,37.990603)"
       gradientUnits="userSpaceOnUse"
       id="linearGradient1334"
       xlink:href="#linearGradient1126"
       inkscape:collect="always" />
    <linearGradient
       gradientTransform="translate(34.882065,0.26425807)"
       gradientUnits="userSpaceOnUse"
       y2="63.902409"
       x2="2.1596017"
       y1="74.485741"
       x1="4.8054352"
       id="linearGradient1404"
       xlink:href="#linearGradient1402"
       inkscape:collect="always" />
    <linearGradient
       gradientTransform="translate(100.93739,0.3457594)"
       gradientUnits="userSpaceOnUse"
       y2="63.902409"
       x2="2.1596017"
       y1="74.485741"
       x1="4.8054352"
       id="linearGradient1404-3"
       xlink:href="#linearGradient1402"
       inkscape:collect="always" />
    <linearGradient
       gradientTransform="translate(167.18022,0.27076259)"
       gradientUnits="userSpaceOnUse"
       y2="63.902409"
       x2="2.1596017"
       y1="74.485741"
       x1="4.8054352"
       id="linearGradient1404-8"
       xlink:href="#linearGradient1402"
       inkscape:collect="always" />
    <marker
       inkscape:stockid="Arrow2Send"
       orient="auto"
       refY="0"
       refX="0"
       id="marker5141-9-8"
       style="overflow:visible"
       inkscape:isstock="true">
      <path
         id="path5139-1-2"
         style="fill:#242424;fill-opacity:1;fill-rule:evenodd;stroke:#242424;stroke-width:0.625;stroke-linejoin:round;stroke-opacity:1"
         d="M 8.7185878,4.0337352 -2.2072895,0.01601326 8.7185884,-4.0017078 c -1.7454984,2.3720609 -1.7354408,5.6174519 -6e-7,8.035443 z"
         transform="matrix(-0.3,0,0,-0.3,0.69,0)"
         inkscape:connector-curvature="0" />
    </marker>
    <marker
       inkscape:collect="always"
       inkscape:isstock="true"
       style="overflow:visible"
       id="Arrow2Send-2-6"
       refX="0"
       refY="0"
       orient="auto"
       inkscape:stockid="Arrow2Send">
      <path
         transform="matrix(-0.3,0,0,-0.3,0.69,0)"
         d="M 8.7185878,4.0337352 -2.2072895,0.01601326 8.7185884,-4.0017078 c -1.7454984,2.3720609 -1.7354408,5.6174519 -6e-7,8.035443 z"
         style="fill:#242424;fill-opacity:1;fill-rule:evenodd;stroke:#242424;stroke-width:0.625;stroke-linejoin:round;stroke-opacity:1"
         id="path4624-7-0"
         inkscape:connector-curvature="0" />
    </marker>
    <marker
       inkscape:stockid="Arrow2Send"
       orient="auto"
       refY="0"
       refX="0"
       id="marker5141-8"
       style="overflow:visible"
       inkscape:isstock="true">
      <path
         inkscape:connector-curvature="0"
         id="path5139-5"
         style="fill:#242424;fill-opacity:1;fill-rule:evenodd;stroke:#242424;stroke-width:0.625;stroke-linejoin:round;stroke-opacity:1"
         d="M 8.7185878,4.0337352 -2.2072895,0.01601326 8.7185884,-4.0017078 c -1.7454984,2.3720609 -1.7354408,5.6174519 -6e-7,8.035443 z"
         transform="matrix(-0.3,0,0,-0.3,0.69,0)" />
    </marker>
    <marker
       inkscape:collect="always"
       inkscape:isstock="true"
       style="overflow:visible"
       id="Arrow2Send-6"
       refX="0"
       refY="0"
       orient="auto"
       inkscape:stockid="Arrow2Send">
      <path
         inkscape:connector-curvature="0"
         transform="matrix(-0.3,0,0,-0.3,0.69,0)"
         d="M 8.7185878,4.0337352 -2.2072895,0.01601326 8.7185884,-4.0017078 c -1.7454984,2.3720609 -1.7354408,5.6174519 -6e-7,8.035443 z"
         style="fill:#242424;fill-opacity:1;fill-rule:evenodd;stroke:#242424;stroke-width:0.625;stroke-linejoin:round;stroke-opacity:1"
         id="path4624-6" />
    </marker>
    <marker
       inkscape:stockid="Arrow2Send"
       orient="auto"
       refY="0"
       refX="0"
       id="marker5141-4"
       style="overflow:visible"
       inkscape:isstock="true">
      <path
         inkscape:connector-curvature="0"
         id="path5139-6"
         style="fill:#242424;fill-opacity:1;fill-rule:evenodd;stroke:#242424;stroke-width:0.625;stroke-linejoin:round;stroke-opacity:1"
         d="M 8.7185878,4.0337352 -2.2072895,0.01601326 8.7185884,-4.0017078 c -1.7454984,2.3720609 -1.7354408,5.6174519 -6e-7,8.035443 z"
         transform="matrix(-0.3,0,0,-0.3,0.69,0)" />
    </marker>
  </defs>
  <sodipodi:namedview
     inkscape:document-rotation="0"
     inkscape:window-maximized="1"
     inkscape:window-y="27"
     inkscape:window-x="0"
     inkscape:window-height="1016"
     inkscape:window-width="1920"
     showguides="false"
     showgrid="true"
     inkscape:current-layer="layer1"
     inkscape:document-units="mm"
     inkscape:cy="471.55353"
     inkscape:cx="250.09998"
     inkscape:zoom="0.92308997"
     inkscape:pageshadow="2"
     inkscape:pageopacity="0.0"
     borderopacity="1.0"
     bordercolor="#666666"
     pagecolor="#ffffff"
     id="base"
     lock-margins="false"
     fit-margin-top="1"
     fit-margin-bottom="1"
     fit-margin-left="5"
     fit-margin-right="5">
    <inkscape:grid
       id="grid4489"
       type="xygrid"
       originx="0.9168743"
       originy="0.10411" />
  </sodipodi:namedview>
  <metadata
     id="metadata5">
    <rdf:RDF>
      <cc:Work
         rdf:about="">
        <dc:format>image/svg+xml</dc:format>
        <dc:type
           rdf:resource="http://purl.org/dc/dcmitype/StillImage" />
        <dc:title />
      </cc:Work>
    </rdf:RDF>
  </metadata>
  <g
     transform="translate(0.9168743,-109.39589)"
     style="opacity:0.98"
     id="layer1"
     inkscape:groupmode="layer"
     inkscape:label="Layer 1">
    <text
       transform="rotate(-90)"
       id="text4522-5"
       y="100.26732"
       x="-123.87969"
       style="font-style:normal;font-variant:normal;font-weight:normal;font-stretch:normal;font-size:4.93889px;line-height:125%;font-family:'TeX Gyre Adventor';-inkscape-font-specification:'TeX Gyre Adventor';letter-spacing:0px;word-spacing:0px;fill:#000000;fill-opacity:1;stroke:none;stroke-width:0.264583px;stroke-linecap:butt;stroke-linejoin:miter;stroke-opacity:1"
       xml:space="preserve" />
    <text
       id="text4522-5-5-4"
       y="121.24152"
       x="169.24953"
       style="font-style:normal;font-variant:normal;font-weight:normal;font-stretch:normal;font-size:5.64444px;line-height:100%;font-family:'TeX Gyre Adventor';-inkscape-font-specification:'TeX Gyre Adventor';text-align:center;letter-spacing:0px;word-spacing:0px;text-anchor:middle;opacity:0.98;fill:#000000;fill-opacity:1;stroke:none;stroke-width:0.75;stroke-linecap:butt;stroke-linejoin:miter;stroke-miterlimit:4;stroke-dasharray:none;stroke-opacity:0.829876"
       xml:space="preserve" />
    <path
       sodipodi:nodetypes="ccccccc"
       inkscape:connector-curvature="0"
       id="rect4510-6-3"
       d="m 4.4581257,110.77089 v 111.125 H 73.624963 l 0.170767,37.14995 h 131.95013 l 0.17077,-148.27495 z"
       style="vector-effect:none;fill:#73e4b1;fill-opacity:0.980392;stroke:#000000;stroke-width:0.75;stroke-linecap:round;stroke-linejoin:round;stroke-miterlimit:4;stroke-dasharray:none;stroke-dashoffset:0;stroke-opacity:0.984252" />
    <rect
       transform="rotate(-90)"
       style="vector-effect:none;fill:#f2ecfa;fill-opacity:0.596078;stroke:#000000;stroke-width:0.75;stroke-linecap:round;stroke-linejoin:round;stroke-miterlimit:4;stroke-dasharray:none;stroke-dashoffset:0;stroke-opacity:0.829876"
       id="rect4510"
       width="100.54166"
       height="52.916668"
       x="-290.68768"
       y="81.187523" />
    <rect
       transform="rotate(-90)"
       style="vector-effect:none;fill:#ab93ea;fill-opacity:0.980392;stroke:#000000;stroke-width:0.75;stroke-linecap:round;stroke-linejoin:round;stroke-miterlimit:4;stroke-dasharray:none;stroke-dashoffset:0;stroke-opacity:0.829876"
       id="rect4491"
       width="18.520834"
       height="42.333332"
       x="-285.39603"
       y="86.479179" />
    <rect
       transform="rotate(-90)"
       style="vector-effect:none;fill:#ab93ea;fill-opacity:0.980392;stroke:#000000;stroke-width:0.75;stroke-linecap:round;stroke-linejoin:round;stroke-miterlimit:4;stroke-dasharray:none;stroke-dashoffset:0;stroke-opacity:0.829876"
       id="rect4493"
       width="5.2916665"
       height="42.333332"
       x="-261.58353"
       y="86.479179" />
    <rect
       transform="rotate(-90)"
       style="vector-effect:none;fill:#ab93ea;fill-opacity:0.980392;stroke:#000000;stroke-width:0.75;stroke-linecap:round;stroke-linejoin:round;stroke-miterlimit:4;stroke-dasharray:none;stroke-dashoffset:0;stroke-opacity:0.829876"
       id="rect4491-3"
       width="18.520834"
       height="42.333332"
       x="-251.00017"
       y="86.479179" />
    <text
       xml:space="preserve"
       style="font-style:normal;font-variant:normal;font-weight:normal;font-stretch:normal;font-size:5.64444px;line-height:100%;font-family:'TeX Gyre Adventor';-inkscape-font-specification:'TeX Gyre Adventor';letter-spacing:0px;word-spacing:0px;fill:#000000;fill-opacity:1;stroke:none;stroke-width:0.75;stroke-linecap:butt;stroke-linejoin:miter;stroke-miterlimit:4;stroke-dasharray:none;stroke-opacity:0.829876"
       x="96.492439"
       y="278.22122"
       id="text4514"><tspan
         sodipodi:role="line"
         id="tspan4512"
         x="96.492439"
         y="278.22122"
         style="stroke:none;stroke-width:0.75;stroke-miterlimit:4;stroke-dasharray:none;stroke-opacity:0.829876">PaGMO</tspan></text>
    <text
       xml:space="preserve"
       style="font-style:normal;font-variant:normal;font-weight:normal;font-stretch:normal;font-size:5.64444px;line-height:100%;font-family:'TeX Gyre Adventor';-inkscape-font-specification:'TeX Gyre Adventor';letter-spacing:0px;word-spacing:0px;fill:#000000;fill-opacity:1;stroke:none;stroke-width:0.75;stroke-linecap:butt;stroke-linejoin:miter;stroke-miterlimit:4;stroke-dasharray:none;stroke-opacity:0.829876"
       x="95.39431"
       y="261.24274"
       id="text4518"><tspan
         sodipodi:role="line"
         id="tspan4516"
         x="95.39431"
         y="261.24274"
         style="stroke:none;stroke-width:0.75;stroke-miterlimit:4;stroke-dasharray:none;stroke-opacity:0.829876">libboost</tspan></text>
    <text
       xml:space="preserve"
       style="font-style:normal;font-variant:normal;font-weight:normal;font-stretch:normal;font-size:5.64444px;line-height:100%;font-family:'TeX Gyre Adventor';-inkscape-font-specification:'TeX Gyre Adventor';letter-spacing:0px;word-spacing:0px;fill:#000000;fill-opacity:1;stroke:none;stroke-width:0.75;stroke-linecap:butt;stroke-linejoin:miter;stroke-miterlimit:4;stroke-dasharray:none;stroke-opacity:0.829876"
       x="96.864967"
       y="243.32019"
       id="text4522"><tspan
         sodipodi:role="line"
         id="tspan4520"
         x="96.864967"
         y="243.32019"
         style="stroke:none;stroke-width:0.75;stroke-miterlimit:4;stroke-dasharray:none;stroke-opacity:0.829876">PyGMO</tspan></text>
    <text
       xml:space="preserve"
       style="font-style:normal;font-variant:normal;font-weight:normal;font-stretch:normal;font-size:5.64444px;line-height:100%;font-family:'TeX Gyre Adventor';-inkscape-font-specification:'TeX Gyre Adventor';letter-spacing:0px;word-spacing:0px;fill:#000000;fill-opacity:1;stroke:none;stroke-width:0.75;stroke-linecap:butt;stroke-linejoin:miter;stroke-miterlimit:4;stroke-dasharray:none;stroke-opacity:0.829876"
       x="90.368263"
       y="296.79654"
       id="text4526"><tspan
         sodipodi:role="line"
         id="tspan4524"
         x="90.368263"
         y="296.79654"
         style="stroke:none;stroke-width:0.75;stroke-miterlimit:4;stroke-dasharray:none;stroke-opacity:0.829876">Optimisation </tspan></text>
    <rect
       transform="rotate(-90)"
       style="vector-effect:none;fill:#457dcc;fill-opacity:0.817427;stroke:#000000;stroke-width:0.75;stroke-linecap:round;stroke-linejoin:round;stroke-miterlimit:4;stroke-dasharray:none;stroke-dashoffset:0;stroke-opacity:0.829876"
       id="rect4491-3-7"
       width="18.520834"
       height="42.333332"
       x="-213.95851"
       y="86.502167" />
    <text
       xml:space="preserve"
       style="font-style:normal;font-variant:normal;font-weight:normal;font-stretch:normal;font-size:5.64444px;line-height:100%;font-family:'TeX Gyre Adventor';-inkscape-font-specification:'TeX Gyre Adventor';text-align:center;letter-spacing:0px;word-spacing:0px;text-anchor:middle;fill:#000000;fill-opacity:1;stroke:none;stroke-width:0.75;stroke-linecap:butt;stroke-linejoin:miter;stroke-miterlimit:4;stroke-dasharray:none;stroke-opacity:0.829876"
       x="107.45541"
       y="203.87718"
       id="text4522-5-5"><tspan
         sodipodi:role="line"
         x="107.45541"
         y="203.87718"
         style="font-size:4.93889px;text-align:center;text-anchor:middle;stroke:none;stroke-width:0.75;stroke-miterlimit:4;stroke-dasharray:none;stroke-opacity:0.829876"
         id="tspan5762">Surrogate Model</tspan><tspan
         sodipodi:role="line"
         x="107.45541"
         y="209.7289"
         style="font-size:4.93889px;text-align:center;text-anchor:middle;stroke:none;stroke-width:0.75;stroke-miterlimit:4;stroke-dasharray:none;stroke-opacity:0.829876"
         id="tspan1733">Optimiser</tspan></text>
    <g
       id="g1777"
       transform="translate(0,0.3168381)">
      <path
         sodipodi:nodetypes="cc"
         inkscape:connector-curvature="0"
         id="path4587"
         d="m 97.062506,227.4 v 3.17501"
         style="opacity:1;fill:none;fill-rule:evenodd;stroke:#242424;stroke-width:0.75;stroke-linecap:butt;stroke-linejoin:miter;stroke-miterlimit:4;stroke-dasharray:none;stroke-opacity:1;marker-end:url(#Arrow2Send)" />
      <path
         sodipodi:nodetypes="cc"
         inkscape:connector-curvature="0"
         id="path4589"
         d="m 118.22918,231.63334 v -3.175"
         style="opacity:1;fill:none;fill-rule:evenodd;stroke:#242424;stroke-width:0.75;stroke-linecap:butt;stroke-linejoin:miter;stroke-miterlimit:4;stroke-dasharray:none;stroke-opacity:1;marker-end:url(#marker5141)" />
    </g>
    <rect
       transform="rotate(-90)"
       style="vector-effect:none;fill:#f2ecfa;fill-opacity:0.596078;stroke:#000000;stroke-width:0.75;stroke-linecap:round;stroke-linejoin:round;stroke-miterlimit:4;stroke-dasharray:none;stroke-dashoffset:0;stroke-opacity:0.829876"
       id="rect4510-4"
       width="100.54166"
       height="52.916668"
       x="-290.68768"
       y="147.33336" />
    <rect
       transform="rotate(-90)"
       style="vector-effect:none;fill:#f2ecfa;fill-opacity:0.594488;stroke:#000000;stroke-width:0.75;stroke-linecap:round;stroke-linejoin:round;stroke-miterlimit:4;stroke-dasharray:none;stroke-dashoffset:0;stroke-opacity:0.829876"
       id="rect4510-6"
       width="100.54166"
       height="52.916668"
       x="-290.68768"
       y="15.041687" />
    <path
       style="vector-effect:none;fill:#ab93ea;fill-opacity:0.980392;stroke:#242424;stroke-width:0.65;stroke-linecap:round;stroke-linejoin:round;stroke-miterlimit:4;stroke-dasharray:none;stroke-dashoffset:0;stroke-opacity:1"
       d="M 25.625002,279.5752 V 249.41268 H 62.66667 v 30.16252 z"
       id="rect4491-3-3"
       inkscape:connector-curvature="0"
       sodipodi:nodetypes="ccccc" />
    <text
       xml:space="preserve"
       style="font-style:normal;font-variant:normal;font-weight:normal;font-stretch:normal;font-size:3.88056px;line-height:100%;font-family:'TeX Gyre Adventor';-inkscape-font-specification:'TeX Gyre Adventor';text-align:end;letter-spacing:0px;word-spacing:0px;text-anchor:end;fill:#000000;fill-opacity:1;stroke:none;stroke-width:0.75;stroke-linecap:butt;stroke-linejoin:miter;stroke-miterlimit:4;stroke-dasharray:none;stroke-opacity:0.829876"
       x="61.272831"
       y="253.08195"
       id="text4522-1"><tspan
         sodipodi:role="line"
         x="61.272831"
         y="253.08195"
         style="font-size:3.88056px;text-align:end;text-anchor:end;stroke:none;stroke-width:0.75;stroke-miterlimit:4;stroke-dasharray:none;stroke-opacity:0.829876"
         id="tspan5764">WIMS</tspan></text>
    <text
       xml:space="preserve"
       style="font-style:normal;font-variant:normal;font-weight:normal;font-stretch:normal;font-size:5.64444px;line-height:100%;font-family:'TeX Gyre Adventor';-inkscape-font-specification:'TeX Gyre Adventor';letter-spacing:0px;word-spacing:0px;fill:#000000;fill-opacity:1;stroke:none;stroke-width:0.75;stroke-linecap:butt;stroke-linejoin:miter;stroke-miterlimit:4;stroke-dasharray:none;stroke-opacity:0.829876"
       x="26.945856"
       y="296.72318"
       id="text4526-7"><tspan
         sodipodi:role="line"
         x="26.945856"
         y="296.72318"
         style="stroke:none;stroke-width:0.75;stroke-miterlimit:4;stroke-dasharray:none;stroke-opacity:0.829876"
         id="tspan5754">Neutronics</tspan></text>
    <rect
       transform="rotate(-90)"
       style="vector-effect:none;fill:#457dcc;fill-opacity:0.817427;stroke:#000000;stroke-width:0.75;stroke-linecap:round;stroke-linejoin:round;stroke-miterlimit:4;stroke-dasharray:none;stroke-dashoffset:0;stroke-opacity:0.829876"
       id="rect4491-3-7-2"
       width="18.520834"
       height="42.333332"
       x="-213.95851"
       y="20.356331" />
    <text
       xml:space="preserve"
       style="font-style:normal;font-variant:normal;font-weight:normal;font-stretch:normal;font-size:5.64444px;line-height:100%;font-family:'TeX Gyre Adventor';-inkscape-font-specification:'TeX Gyre Adventor';text-align:center;letter-spacing:0px;word-spacing:0px;text-anchor:middle;fill:#000000;fill-opacity:1;stroke:none;stroke-width:0.75;stroke-linecap:butt;stroke-linejoin:miter;stroke-miterlimit:4;stroke-dasharray:none;stroke-opacity:0.829876"
       x="30.730566"
       y="203.9248"
       id="text4522-5-0"><tspan
         sodipodi:role="line"
         id="tspan4520-3-2"
         x="30.730566"
         y="203.9248"
         style="text-align:center;text-anchor:middle;stroke:none;stroke-width:0.75;stroke-miterlimit:4;stroke-dasharray:none;stroke-opacity:0.829876">File</tspan><tspan
         sodipodi:role="line"
         x="30.730566"
         y="209.56924"
         style="text-align:center;text-anchor:middle;stroke:none;stroke-width:0.75;stroke-miterlimit:4;stroke-dasharray:none;stroke-opacity:0.829876"
         id="tspan4564-3">Parser</tspan></text>
    <text
       xml:space="preserve"
       style="font-style:normal;font-variant:normal;font-weight:normal;font-stretch:normal;font-size:5.64444px;line-height:100%;font-family:'TeX Gyre Adventor';-inkscape-font-specification:'TeX Gyre Adventor';text-align:center;letter-spacing:0px;word-spacing:0px;text-anchor:middle;fill:#000000;fill-opacity:1;stroke:none;stroke-width:0.75;stroke-linecap:butt;stroke-linejoin:miter;stroke-miterlimit:4;stroke-dasharray:none;stroke-opacity:0.829876"
       x="52.131592"
       y="203.9248"
       id="text4522-5-5-7"><tspan
         sodipodi:role="line"
         id="tspan4520-3-6-5"
         x="52.131592"
         y="203.9248"
         style="text-align:center;text-anchor:middle;stroke:none;stroke-width:0.75;stroke-miterlimit:4;stroke-dasharray:none;stroke-opacity:0.829876">File</tspan><tspan
         sodipodi:role="line"
         x="52.131592"
         y="209.56924"
         style="text-align:center;text-anchor:middle;stroke:none;stroke-width:0.75;stroke-miterlimit:4;stroke-dasharray:none;stroke-opacity:0.829876"
         id="tspan4564-2-9">Gen</tspan></text>
    <g
       style="opacity:0.98"
       id="g2341-6"
       transform="translate(24.563077,84.175173)">
      <path
         sodipodi:nodetypes="ccccc"
         inkscape:connector-curvature="0"
         id="rect4493-9-0-0-4"
         d="m 21.166667,149.89166 v -16.93333 h 14.816665 v 16.93333 z"
         style="opacity:1;vector-effect:none;fill:#ffffff;fill-opacity:1;stroke:none;stroke-width:0.75;stroke-linecap:round;stroke-linejoin:round;stroke-miterlimit:4;stroke-dasharray:none;stroke-dashoffset:0;stroke-opacity:0.829876" />
      <path
         sodipodi:nodetypes="ccccc"
         inkscape:connector-curvature="0"
         id="rect4493-9-0-7"
         d="m 21.166667,149.89166 v -16.93333 h 14.816665 v 16.93333 z"
         style="opacity:1;vector-effect:none;fill:#ffcc00;fill-opacity:0.53527;stroke:#242424;stroke-width:0.75;stroke-linecap:round;stroke-linejoin:round;stroke-miterlimit:4;stroke-dasharray:none;stroke-dashoffset:0;stroke-opacity:1" />
      <path
         sodipodi:nodetypes="cccccc"
         inkscape:connector-curvature="0"
         id="path1645-4-4"
         d="m 33.866664,139.57291 v 12.96458 l -14.816665,1e-5 v 0 -16.93334 h 10.847916"
         style="opacity:1;vector-effect:none;fill:#ffffff;fill-opacity:1;stroke:none;stroke-width:0.75;stroke-linecap:round;stroke-linejoin:round;stroke-miterlimit:4;stroke-dasharray:none;stroke-dashoffset:0;stroke-opacity:0.829876" />
      <path
         sodipodi:nodetypes="cccccc"
         inkscape:connector-curvature="0"
         id="path1645-8"
         d="m 33.866645,139.57293 v 12.96458 H 19.04998 v 0 -16.93333 h 10.847916"
         style="opacity:1;vector-effect:none;fill:#ffcc00;fill-opacity:0.52549;stroke:#242424;stroke-width:0.75;stroke-linecap:round;stroke-linejoin:round;stroke-miterlimit:4;stroke-dasharray:none;stroke-dashoffset:0;stroke-opacity:1" />
      <path
         inkscape:connector-curvature="0"
         id="rect4493-9-0-6-5"
         d="m 29.903115,135.59917 3.96875,3.96875 z m -0.0052,0.005 v 3.96875 h 3.96875 z"
         style="opacity:1;vector-effect:none;fill:#ffcc00;fill-opacity:0.52549;stroke:#242424;stroke-width:0.75;stroke-linecap:round;stroke-linejoin:round;stroke-miterlimit:4;stroke-dasharray:none;stroke-dashoffset:0;stroke-opacity:1" />
    </g>
    <path
       style="fill:none;fill-rule:evenodd;stroke:#242424;stroke-width:0.75;stroke-linecap:butt;stroke-linejoin:miter;stroke-miterlimit:4;stroke-dasharray:none;stroke-opacity:1;marker-end:url(#marker5141-9)"
       d="m 52.083336,218.19184 v -3.43958"
       id="path4589-2"
       inkscape:connector-curvature="0"
       sodipodi:nodetypes="cc" />
    <g
       id="g2341"
       transform="translate(3.4036161,84.175173)">
      <path
         sodipodi:nodetypes="ccccc"
         inkscape:connector-curvature="0"
         id="rect4493-9-0-0"
         d="m 21.166667,149.89166 v -16.93333 h 14.816665 v 16.93333 z"
         style="opacity:1;vector-effect:none;fill:#ffffff;fill-opacity:1;stroke:none;stroke-width:0.75;stroke-linecap:round;stroke-linejoin:round;stroke-miterlimit:4;stroke-dasharray:none;stroke-dashoffset:0;stroke-opacity:0.829876" />
      <path
         sodipodi:nodetypes="ccccc"
         inkscape:connector-curvature="0"
         id="rect4493-9-0"
         d="m 21.166667,149.89166 v -16.93333 h 14.816665 v 16.93333 z"
         style="opacity:1;vector-effect:none;fill:#ffcc00;fill-opacity:0.53527;stroke:#242424;stroke-width:0.75;stroke-linecap:round;stroke-linejoin:round;stroke-miterlimit:4;stroke-dasharray:none;stroke-dashoffset:0;stroke-opacity:1" />
      <path
         sodipodi:nodetypes="cccccc"
         inkscape:connector-curvature="0"
         id="path1645-4"
         d="m 33.866664,139.57291 v 12.96458 l -14.816665,1e-5 v 0 -16.93334 h 10.847916"
         style="opacity:1;vector-effect:none;fill:#ffffff;fill-opacity:1;stroke:none;stroke-width:0.75;stroke-linecap:round;stroke-linejoin:round;stroke-miterlimit:4;stroke-dasharray:none;stroke-dashoffset:0;stroke-opacity:0.829876" />
      <path
         sodipodi:nodetypes="cccccc"
         inkscape:connector-curvature="0"
         id="path1645"
         d="m 33.866645,139.57293 v 12.96458 H 19.04998 v 0 -16.93333 h 10.847916"
         style="opacity:1;vector-effect:none;fill:#ffcc00;fill-opacity:0.52549;stroke:#242424;stroke-width:0.75;stroke-linecap:round;stroke-linejoin:round;stroke-miterlimit:4;stroke-dasharray:none;stroke-dashoffset:0;stroke-opacity:1" />
      <path
         inkscape:connector-curvature="0"
         id="rect4493-9-0-6"
         d="m 29.903115,135.59917 3.96875,3.96875 z m -0.0052,0.005 v 3.96875 h 3.96875 z"
         style="opacity:1;vector-effect:none;fill:#ffcc00;fill-opacity:0.52549;stroke:#242424;stroke-width:0.75;stroke-linecap:round;stroke-linejoin:round;stroke-miterlimit:4;stroke-dasharray:none;stroke-dashoffset:0;stroke-opacity:1" />
    </g>
    <rect
       transform="rotate(-90)"
       style="vector-effect:none;fill:#ab93ea;fill-opacity:0.980392;stroke:#000000;stroke-width:0.75;stroke-linecap:round;stroke-linejoin:round;stroke-miterlimit:4;stroke-dasharray:none;stroke-dashoffset:0;stroke-opacity:0.829876"
       id="rect4491-5"
       width="18.520834"
       height="42.333332"
       x="-285.39603"
       y="152.62502" />
    <rect
       transform="rotate(-90)"
       style="vector-effect:none;fill:#ab93ea;fill-opacity:0.980392;stroke:#000000;stroke-width:0.75;stroke-linecap:round;stroke-linejoin:round;stroke-miterlimit:4;stroke-dasharray:none;stroke-dashoffset:0;stroke-opacity:0.829876"
       id="rect4493-4"
       width="5.2916665"
       height="42.333332"
       x="-261.5835"
       y="152.62502" />
    <rect
       transform="rotate(-90)"
       style="vector-effect:none;fill:#ab93ea;fill-opacity:0.980392;stroke:#000000;stroke-width:0.75;stroke-linecap:round;stroke-linejoin:round;stroke-miterlimit:4;stroke-dasharray:none;stroke-dashoffset:0;stroke-opacity:0.829876"
       id="rect4491-3-74"
       width="18.520834"
       height="42.333332"
       x="-251.00015"
       y="152.62502" />
    <text
       xml:space="preserve"
       style="font-style:normal;font-variant:normal;font-weight:normal;font-stretch:normal;font-size:5.64444px;line-height:100%;font-family:'TeX Gyre Adventor';-inkscape-font-specification:'TeX Gyre Adventor';letter-spacing:0px;word-spacing:0px;opacity:0.98;fill:#000000;fill-opacity:1;stroke:none;stroke-width:0.75;stroke-linecap:butt;stroke-linejoin:miter;stroke-miterlimit:4;stroke-dasharray:none;stroke-opacity:0.829876"
       x="158.14319"
       y="278.44064"
       id="text4514-3"><tspan
         sodipodi:role="line"
         id="tspan4512-0"
         x="158.14319"
         y="278.44064"
         style="stroke:none;stroke-width:0.75;stroke-miterlimit:4;stroke-dasharray:none;stroke-opacity:0.829876">Tensorflow</tspan></text>
    <text
       xml:space="preserve"
       style="font-style:normal;font-variant:normal;font-weight:normal;font-stretch:normal;font-size:5.64444px;line-height:100%;font-family:'TeX Gyre Adventor';-inkscape-font-specification:'TeX Gyre Adventor';letter-spacing:0px;word-spacing:0px;opacity:0.98;fill:#000000;fill-opacity:1;stroke:none;stroke-width:0.75;stroke-linecap:butt;stroke-linejoin:miter;stroke-miterlimit:4;stroke-dasharray:none;stroke-opacity:0.829876"
       x="165.57053"
       y="261.24274"
       id="text4518-7"><tspan
         sodipodi:role="line"
         id="tspan4516-8"
         x="165.57053"
         y="261.24274"
         style="stroke:none;stroke-width:0.75;stroke-miterlimit:4;stroke-dasharray:none;stroke-opacity:0.829876">Keras</tspan></text>
    <text
       xml:space="preserve"
       style="font-style:normal;font-variant:normal;font-weight:normal;font-stretch:normal;font-size:5.64444px;line-height:100%;font-family:'TeX Gyre Adventor';-inkscape-font-specification:'TeX Gyre Adventor';letter-spacing:0px;word-spacing:0px;opacity:0.98;fill:#000000;fill-opacity:1;stroke:none;stroke-width:0.75;stroke-linecap:butt;stroke-linejoin:miter;stroke-miterlimit:4;stroke-dasharray:none;stroke-opacity:0.829876"
       x="155.08913"
       y="240.96645"
       id="text4522-6"><tspan
         sodipodi:role="line"
         x="155.08913"
         y="240.96645"
         style="stroke:none;stroke-width:0.75;stroke-miterlimit:4;stroke-dasharray:none;stroke-opacity:0.829876"
         id="tspan6143">Neural Model</tspan><tspan
         id="tspan1274"
         sodipodi:role="line"
         x="155.08913"
         y="246.61089"
         style="stroke:none;stroke-width:0.75;stroke-miterlimit:4;stroke-dasharray:none;stroke-opacity:0.829876">or other stack</tspan></text>
    <text
       xml:space="preserve"
       style="font-style:normal;font-variant:normal;font-weight:normal;font-stretch:normal;font-size:5.64444px;line-height:100%;font-family:'TeX Gyre Adventor';-inkscape-font-specification:'TeX Gyre Adventor';letter-spacing:0px;word-spacing:0px;opacity:0.98;fill:#000000;fill-opacity:1;stroke:none;stroke-width:0.75;stroke-linecap:butt;stroke-linejoin:miter;stroke-miterlimit:4;stroke-dasharray:none;stroke-opacity:0.829876"
       x="151.21962"
       y="296.79654"
       id="text4526-4"><tspan
         sodipodi:role="line"
         id="tspan4524-3"
         x="151.21962"
         y="296.79654"
         style="stroke:none;stroke-width:0.75;stroke-miterlimit:4;stroke-dasharray:none;stroke-opacity:0.829876">Surrogate Model</tspan></text>
    <rect
       transform="rotate(-90)"
       style="vector-effect:none;fill:#457dcc;fill-opacity:0.817427;stroke:#000000;stroke-width:0.75;stroke-linecap:round;stroke-linejoin:round;stroke-miterlimit:4;stroke-dasharray:none;stroke-dashoffset:0;stroke-opacity:0.829876"
       id="rect4491-3-7-1"
       width="18.520834"
       height="42.333332"
       x="-213.95851"
       y="152.64801" />
    <path
       style="fill:none;fill-rule:evenodd;stroke:#242424;stroke-width:0.75;stroke-linecap:butt;stroke-linejoin:miter;stroke-miterlimit:4;stroke-dasharray:none;stroke-opacity:1;marker-end:url(#Arrow2Send-5)"
       d="M 163.20835,216.60433 V 229.8335"
       id="path4587-6"
       inkscape:connector-curvature="0" />
    <path
       style="fill:none;fill-rule:evenodd;stroke:#242424;stroke-width:0.75;stroke-linecap:butt;stroke-linejoin:miter;stroke-miterlimit:4;stroke-dasharray:none;stroke-opacity:1;marker-end:url(#marker5141-7)"
       d="M 184.37502,229.8335 V 216.60433"
       id="path4589-8"
       inkscape:connector-curvature="0" />
    <g
       transform="translate(10.279171,52.425172)"
       id="g5100">
      <rect
         y="148.07521"
         x="-85.156944"
         height="42.333332"
         width="18.520834"
         id="rect4491-3-3-3-5"
         style="opacity:1;vector-effect:none;fill:#457dcc;fill-opacity:0.817427;stroke:#000000;stroke-width:0.75;stroke-linecap:round;stroke-linejoin:round;stroke-miterlimit:4;stroke-dasharray:none;stroke-dashoffset:0;stroke-opacity:0.829876"
         transform="rotate(-90)" />
      <text
         id="text4522-1-6-3"
         y="77.982147"
         x="169.42691"
         style="font-style:normal;font-variant:normal;font-weight:normal;font-stretch:normal;font-size:5.64444px;line-height:100%;font-family:'TeX Gyre Adventor';-inkscape-font-specification:'TeX Gyre Adventor';text-align:center;letter-spacing:0px;word-spacing:0px;text-anchor:middle;opacity:0.98;fill:#000000;fill-opacity:1;stroke:none;stroke-width:0.75;stroke-linecap:butt;stroke-linejoin:miter;stroke-miterlimit:4;stroke-dasharray:none;stroke-opacity:0.829876"
         xml:space="preserve"><tspan
           id="tspan1356"
           style="text-align:center;text-anchor:middle;stroke:none;stroke-width:0.75;stroke-miterlimit:4;stroke-dasharray:none;stroke-opacity:0.829876"
           y="77.982147"
           x="169.42691"
           sodipodi:role="line">ANALYSIS</tspan></text>
    </g>
    <text
       id="text5120"
       y="120.81282"
       x="6.880589"
       style="font-style:normal;font-variant:normal;font-weight:normal;font-stretch:normal;font-size:12.2533px;line-height:100%;font-family:'TeX Gyre Adventor';-inkscape-font-specification:'TeX Gyre Adventor';letter-spacing:0px;word-spacing:0px;fill:#000000;fill-opacity:1;stroke:none;stroke-width:0.510553px;stroke-linecap:butt;stroke-linejoin:miter;stroke-opacity:1"
       xml:space="preserve"><tspan
         style="font-size:9.17222px;line-height:100%;stroke-width:0.510553px"
         y="120.81282"
         x="6.880589"
         sodipodi:role="line"
         id="tspan5993">Surrogate Framework</tspan><tspan
         id="tspan1297"
         style="font-size:9.17222px;line-height:100%;stroke-width:0.510553px"
         y="133.06612"
         x="6.880589"
         sodipodi:role="line">in Python3</tspan></text>
    <g
       id="g1562"
       transform="translate(4.4583359,86.291843)">
      <path
         style="opacity:0.98;vector-effect:none;fill:#ececec;fill-opacity:1;stroke:#000000;stroke-width:0.65;stroke-linecap:round;stroke-linejoin:round;stroke-miterlimit:4;stroke-dasharray:none;stroke-dashoffset:0;stroke-opacity:0.829876"
         d="m 37.041688,59.481679 a 21.166666,6.6145836 0 0 0 -21.166666,6.61459 21.166666,6.6145836 0 0 0 0.02119,0.18707 h -0.02119 v 18.33376 0.18707 h 0.02119 a 21.166666,6.6145836 0 0 0 21.145478,6.42752 21.166666,6.6145836 0 0 0 21.136694,-6.42752 h 0.02997 v -0.18707 -18.33376 h -0.02997 a 21.166666,6.6145836 0 0 0 0.02997,-0.18707 21.166666,6.6145836 0 0 0 -21.16667,-6.61459 z"
         id="rect4491-3-3-3-8-1-7"
         inkscape:connector-curvature="0" />
      <path
         style="opacity:0.98;vector-effect:none;fill:url(#linearGradient1128);fill-opacity:1;stroke:#000000;stroke-width:0.65;stroke-linecap:round;stroke-linejoin:round;stroke-miterlimit:4;stroke-dasharray:none;stroke-dashoffset:0;stroke-opacity:0.829876"
         d="m 37.041682,59.481689 a 21.166666,6.6145835 0 0 0 -21.166666,6.61458 21.166666,6.6145835 0 0 0 0.02119,0.18707 h -0.02119 v 18.33376 0.18707 h 0.02119 a 21.166666,6.6145835 0 0 0 21.145478,6.42752 21.166666,6.6145835 0 0 0 21.136696,-6.42752 h 0.02997 v -0.18707 -18.33376 h -0.02997 a 21.166666,6.6145835 0 0 0 0.02997,-0.18707 21.166666,6.6145835 0 0 0 -21.166668,-6.61458 z"
         id="rect4491-3-3-3-8"
         inkscape:connector-curvature="0" />
      <path
         style="opacity:0.98;vector-effect:none;fill:url(#linearGradient1128-7);fill-opacity:1;stroke:#000000;stroke-width:0.65;stroke-linecap:round;stroke-linejoin:round;stroke-miterlimit:4;stroke-dasharray:none;stroke-dashoffset:0;stroke-opacity:0.829876"
         d="m 37.041683,59.481679 a 21.166666,6.6145836 0 0 0 -21.166666,6.61459 21.166666,6.6145836 0 0 0 0.02119,0.18707 h -0.02119 v 18.33376 0.18707 h 0.02119 a 21.166666,6.6145836 0 0 0 21.145478,6.42752 21.166666,6.6145836 0 0 0 21.136695,-6.42752 h 0.02997 v -0.18707 -18.33376 h -0.02997 a 21.166666,6.6145836 0 0 0 0.02997,-0.18707 21.166666,6.6145836 0 0 0 -21.166669,-6.61459 z"
         id="rect4491-3-3-3-8-1"
         inkscape:connector-curvature="0" />
      <ellipse
         style="opacity:1;fill:#cacaca;fill-opacity:1;stroke:#000000;stroke-width:0.65;stroke-linecap:round;stroke-linejoin:round;stroke-miterlimit:4;stroke-dasharray:none;stroke-dashoffset:0;stroke-opacity:1"
         id="path1039-0"
         cx="37.041683"
         cy="66.021271"
         rx="21.166666"
         ry="6.6145835" />
      <text
         id="text4522-1-6-6"
         y="79.943626"
         x="37.135082"
         style="font-style:normal;font-variant:normal;font-weight:normal;font-stretch:normal;font-size:5.64444px;line-height:100%;font-family:'TeX Gyre Adventor';-inkscape-font-specification:'TeX Gyre Adventor';text-align:center;letter-spacing:0px;word-spacing:0px;text-anchor:middle;opacity:0.9604;fill:#000000;fill-opacity:1;stroke:none;stroke-width:0.75;stroke-linecap:butt;stroke-linejoin:miter;stroke-miterlimit:4;stroke-dasharray:none;stroke-opacity:0.829876"
         xml:space="preserve"><tspan
           style="text-align:center;text-anchor:middle;stroke:none;stroke-width:0.75;stroke-miterlimit:4;stroke-dasharray:none;stroke-opacity:0.829876"
           y="79.943626"
           x="37.135082"
           sodipodi:role="line"
           id="tspan5035-8">TRAINING</tspan><tspan
           style="text-align:center;text-anchor:middle;stroke:none;stroke-width:0.75;stroke-miterlimit:4;stroke-dasharray:none;stroke-opacity:0.829876"
           y="85.588066"
           x="37.135082"
           sodipodi:role="line"
           id="tspan5104-8">SET</tspan></text>
      <ellipse
         style="opacity:1;fill:url(#linearGradient1404);fill-opacity:1;stroke:#000000;stroke-width:0.65;stroke-linecap:round;stroke-linejoin:round;stroke-miterlimit:4;stroke-dasharray:none;stroke-dashoffset:0;stroke-opacity:1"
         id="path1039-0-4"
         cx="37.035179"
         cy="66.014763"
         rx="21.166666"
         ry="6.6145835" />
    </g>
    <g
       id="g1552"
       transform="translate(4.4583359,86.291843)">
      <path
         style="opacity:0.98;vector-effect:none;fill:#ececec;fill-opacity:1;stroke:#000000;stroke-width:0.65;stroke-linecap:round;stroke-linejoin:round;stroke-miterlimit:4;stroke-dasharray:none;stroke-dashoffset:0;stroke-opacity:0.829876"
         d="m 103.28456,59.481679 a 21.166666,6.6145836 0 0 0 -21.166665,6.61459 21.166666,6.6145836 0 0 0 0.02119,0.18707 h -0.02119 v 18.33376 0.18707 h 0.02119 a 21.166666,6.6145836 0 0 0 21.145475,6.42752 21.166666,6.6145836 0 0 0 21.1367,-6.42752 h 0.03 v -0.18707 -18.33376 h -0.03 a 21.166666,6.6145836 0 0 0 0.03,-0.18707 21.166666,6.6145836 0 0 0 -21.16667,-6.61459 z"
         id="rect4491-3-3-3-8-1-7-3"
         inkscape:connector-curvature="0" />
      <path
         style="opacity:0.98;vector-effect:none;fill:url(#linearGradient1271);fill-opacity:1;stroke:#000000;stroke-width:0.65;stroke-linecap:round;stroke-linejoin:round;stroke-miterlimit:4;stroke-dasharray:none;stroke-dashoffset:0;stroke-opacity:0.829876"
         d="m 103.28455,59.481689 a 21.166666,6.6145835 0 0 0 -21.166661,6.61458 21.166666,6.6145835 0 0 0 0.02119,0.18707 h -0.02119 v 18.33376 0.18707 h 0.02119 a 21.166666,6.6145835 0 0 0 21.145481,6.42752 21.166666,6.6145835 0 0 0 21.13669,-6.42752 h 0.03 v -0.18707 -18.33376 h -0.03 a 21.166666,6.6145835 0 0 0 0.03,-0.18707 21.166666,6.6145835 0 0 0 -21.16667,-6.61458 z"
         id="rect4491-3-3-3-8-8"
         inkscape:connector-curvature="0" />
      <path
         style="opacity:0.98;vector-effect:none;fill:url(#linearGradient1273);fill-opacity:1;stroke:#000000;stroke-width:0.65;stroke-linecap:round;stroke-linejoin:round;stroke-miterlimit:4;stroke-dasharray:none;stroke-dashoffset:0;stroke-opacity:0.829876"
         d="m 103.09049,59.481679 a 21.166666,6.6145836 0 0 0 -21.166661,6.61459 21.166666,6.6145836 0 0 0 0.02119,0.18707 h -0.02119 v 18.33376 0.18707 h 0.02119 a 21.166666,6.6145836 0 0 0 21.145481,6.42752 21.166666,6.6145836 0 0 0 21.13669,-6.42752 h 0.03 v -0.18707 -18.33376 h -0.03 a 21.166666,6.6145836 0 0 0 0.03,-0.18707 21.166666,6.6145836 0 0 0 -21.16667,-6.61459 z"
         id="rect4491-3-3-3-8-1-79"
         inkscape:connector-curvature="0" />
      <ellipse
         style="opacity:1;fill:#cacaca;fill-opacity:1;stroke:#000000;stroke-width:0.65;stroke-linecap:round;stroke-linejoin:round;stroke-miterlimit:4;stroke-dasharray:none;stroke-dashoffset:0;stroke-opacity:1"
         id="path1039-0-3"
         cx="103.28456"
         cy="66.021271"
         rx="21.166666"
         ry="6.6145835" />
      <text
         id="text4522-1-6-6-3"
         y="83.118629"
         x="102.93822"
         style="font-style:normal;font-variant:normal;font-weight:normal;font-stretch:normal;font-size:5.64444px;line-height:100%;font-family:'TeX Gyre Adventor';-inkscape-font-specification:'TeX Gyre Adventor';text-align:center;letter-spacing:0px;word-spacing:0px;text-anchor:middle;opacity:0.941192;fill:#000000;fill-opacity:1;stroke:none;stroke-width:0.75;stroke-linecap:butt;stroke-linejoin:miter;stroke-miterlimit:4;stroke-dasharray:none;stroke-opacity:0.829876"
         xml:space="preserve"><tspan
           style="text-align:center;text-anchor:middle;stroke:none;stroke-width:0.75;stroke-miterlimit:4;stroke-dasharray:none;stroke-opacity:0.829876"
           y="83.118629"
           x="102.93822"
           sodipodi:role="line"
           id="tspan5104-8-8">RESULTS</tspan></text>
      <ellipse
         style="opacity:1;fill:url(#linearGradient1404-3);fill-opacity:1;stroke:#000000;stroke-width:0.65;stroke-linecap:round;stroke-linejoin:round;stroke-miterlimit:4;stroke-dasharray:none;stroke-dashoffset:0;stroke-opacity:1"
         id="path1039-0-4-3"
         cx="103.09051"
         cy="66.09626"
         rx="21.166666"
         ry="6.6145835" />
    </g>
    <g
       id="g1543"
       transform="translate(4.4583359,86.291843)">
      <g
         style="opacity:0.98"
         id="g1200-5-1"
         transform="translate(206.44207,-8.4666643)">
        <g
           transform="translate(9.290387,-38.551647)"
           id="g1190-3-9">
          <path
             style="opacity:0.98;vector-effect:none;fill:#ececec;fill-opacity:1;stroke:#000000;stroke-width:0.65;stroke-linecap:round;stroke-linejoin:round;stroke-miterlimit:4;stroke-dasharray:none;stroke-dashoffset:0;stroke-opacity:0.829876"
             d="m -46.302079,106.49999 a 21.166666,6.6145836 0 0 0 -21.166666,6.61459 21.166666,6.6145836 0 0 0 0.02119,0.18707 h -0.02119 v 18.33376 0.18707 h 0.02119 a 21.166666,6.6145836 0 0 0 21.145478,6.42752 21.166666,6.6145836 0 0 0 21.136694,-6.42752 h 0.02997 v -0.18707 -18.33376 h -0.02997 a 21.166666,6.6145836 0 0 0 0.02997,-0.18707 21.166666,6.6145836 0 0 0 -21.16667,-6.61459 z"
             id="rect4491-3-3-3-8-1-7-3-0"
             inkscape:connector-curvature="0" />
          <path
             style="opacity:0.98;vector-effect:none;fill:url(#linearGradient1332);fill-opacity:1;stroke:#000000;stroke-width:0.65;stroke-linecap:round;stroke-linejoin:round;stroke-miterlimit:4;stroke-dasharray:none;stroke-dashoffset:0;stroke-opacity:0.829876"
             d="m -46.302085,106.5 a 21.166666,6.6145835 0 0 0 -21.166666,6.61458 21.166666,6.6145835 0 0 0 0.02119,0.18707 h -0.02119 v 18.33376 0.18707 h 0.02119 a 21.166666,6.6145835 0 0 0 21.145478,6.42752 21.166666,6.6145835 0 0 0 21.136696,-6.42752 h 0.02997 v -0.18707 -18.33376 h -0.02997 a 21.166666,6.6145835 0 0 0 0.02997,-0.18707 A 21.166666,6.6145835 0 0 0 -46.302085,106.5 Z"
             id="rect4491-3-3-3-8-8-9"
             inkscape:connector-curvature="0" />
          <ellipse
             style="opacity:1;fill:#cacaca;fill-opacity:1;stroke:#000000;stroke-width:0.65;stroke-linecap:round;stroke-linejoin:round;stroke-miterlimit:4;stroke-dasharray:none;stroke-dashoffset:0;stroke-opacity:1"
             id="path1039-0-3-8"
             cx="-46.302082"
             cy="113.03958"
             rx="21.166666"
             ry="6.6145835" />
          <path
             style="opacity:0.98;vector-effect:none;fill:url(#linearGradient1334);fill-opacity:1;stroke:#000000;stroke-width:0.65;stroke-linecap:round;stroke-linejoin:round;stroke-miterlimit:4;stroke-dasharray:none;stroke-dashoffset:0;stroke-opacity:0.829876"
             d="m -46.496145,106.49999 a 21.166666,6.6145836 0 0 0 -21.166666,6.61459 21.166666,6.6145836 0 0 0 0.02119,0.18707 h -0.02119 v 18.33376 0.18707 h 0.02119 a 21.166666,6.6145836 0 0 0 21.145478,6.42752 21.166666,6.6145836 0 0 0 21.136695,-6.42752 h 0.02997 v -0.18707 -18.33376 h -0.02997 a 21.166666,6.6145836 0 0 0 0.02997,-0.18707 21.166666,6.6145836 0 0 0 -21.166669,-6.61459 z"
             id="rect4491-3-3-3-8-1-79-8"
             inkscape:connector-curvature="0" />
        </g>
        <text
           xml:space="preserve"
           style="font-style:normal;font-variant:normal;font-weight:normal;font-stretch:normal;font-size:5.64444px;line-height:100%;font-family:'TeX Gyre Adventor';-inkscape-font-specification:'TeX Gyre Adventor';text-align:center;letter-spacing:0px;word-spacing:0px;text-anchor:middle;opacity:0.9604;fill:#000000;fill-opacity:1;stroke:none;stroke-width:0.75;stroke-linecap:butt;stroke-linejoin:miter;stroke-miterlimit:4;stroke-dasharray:none;stroke-opacity:0.829876"
           x="-37.358025"
           y="88.939468"
           id="text4522-1-6-6-3-5"><tspan
             sodipodi:role="line"
             x="-37.358025"
             y="88.939468"
             style="text-align:center;text-anchor:middle;stroke:none;stroke-width:0.75;stroke-miterlimit:4;stroke-dasharray:none;stroke-opacity:0.829876"
             id="tspan1336">ESTIMATED</tspan><tspan
             sodipodi:role="line"
             x="-37.358025"
             y="94.583908"
             style="text-align:center;text-anchor:middle;stroke:none;stroke-width:0.75;stroke-miterlimit:4;stroke-dasharray:none;stroke-opacity:0.829876"
             id="tspan1340">RESULT</tspan></text>
      </g>
      <ellipse
         style="opacity:1;fill:url(#linearGradient1404-8);fill-opacity:1;stroke:#000000;stroke-width:0.65;stroke-linecap:round;stroke-linejoin:round;stroke-miterlimit:4;stroke-dasharray:none;stroke-dashoffset:0;stroke-opacity:1"
         id="path1039-0-4-7"
         cx="169.33334"
         cy="66.021271"
         rx="21.166666"
         ry="6.6145835" />
    </g>
    <path
       style="fill:none;stroke:#000000;stroke-width:0.75;stroke-linecap:butt;stroke-linejoin:miter;stroke-miterlimit:4;stroke-dasharray:none;stroke-opacity:1;marker-end:url(#marker2252)"
       d="m 41.500002,195.43768 v -15.875"
       id="path1570"
       inkscape:connector-curvature="0"
       sodipodi:nodetypes="cc" />
    <path
       style="fill:none;stroke:#000000;stroke-width:0.75;stroke-linecap:butt;stroke-linejoin:miter;stroke-miterlimit:4;stroke-dasharray:none;stroke-opacity:1;marker-end:url(#marker1594)"
       d="m 41.500002,184.85434 h 63.500008 v -5.29166"
       id="path1572"
       inkscape:connector-curvature="0"
       sodipodi:nodetypes="ccc" />
    <path
       style="fill:none;stroke:#000000;stroke-width:0.75;stroke-linecap:butt;stroke-linejoin:miter;stroke-miterlimit:4;stroke-dasharray:none;stroke-opacity:1;marker-end:url(#marker2140)"
       d="m 107.64584,145.16685 v -2.64584 h 34.39583 v -13.22916 h 14.55209"
       id="path1574"
       inkscape:connector-curvature="0"
       sodipodi:nodetypes="ccccc" />
    <path
       style="fill:none;stroke:#000000;stroke-width:0.75;stroke-linecap:butt;stroke-linejoin:miter;stroke-miterlimit:4;stroke-dasharray:none;stroke-opacity:1"
       d="m 173.79167,145.16685 v -2.64584 h -31.75"
       id="path1576"
       inkscape:connector-curvature="0"
       sodipodi:nodetypes="ccc" />
    <path
       style="fill:none;stroke:#000000;stroke-width:0.75;stroke-linecap:butt;stroke-linejoin:miter;stroke-miterlimit:4;stroke-dasharray:none;stroke-opacity:1;marker-end:url(#marker1934)"
       d="m 176.43752,195.43768 v -15.875"
       id="path1578"
       inkscape:connector-curvature="0" />
    <path
       style="fill:none;stroke:#000000;stroke-width:0.75;stroke-linecap:butt;stroke-linejoin:miter;stroke-miterlimit:4;stroke-dasharray:none;stroke-opacity:1;marker-end:url(#marker1752)"
       d="m 130.13542,203.37518 h 21.16667"
       id="path1580"
       inkscape:connector-curvature="0"
       sodipodi:nodetypes="cc" />
    <path
       style="fill:none;stroke:#000000;stroke-width:0.75;stroke-linecap:butt;stroke-linejoin:miter;stroke-miterlimit:4;stroke-dasharray:none;stroke-opacity:1;marker-end:url(#marker1840)"
       d="M 151.30209,208.66684 H 130.13542"
       id="path1582"
       inkscape:connector-curvature="0"
       sodipodi:nodetypes="cc" />
    <path
       style="fill:none;stroke:#000000;stroke-width:0.75;stroke-linecap:butt;stroke-linejoin:miter;stroke-miterlimit:4;stroke-dasharray:none;stroke-opacity:1;marker-end:url(#marker3414)"
       d="m 110.29167,195.43768 v -15.875"
       id="path1584"
       inkscape:connector-curvature="0"
       sodipodi:nodetypes="cc" />
    <path
       style="color:#000000;font-style:normal;font-variant:normal;font-weight:normal;font-stretch:normal;font-size:medium;line-height:normal;font-family:sans-serif;font-variant-ligatures:normal;font-variant-position:normal;font-variant-caps:normal;font-variant-numeric:normal;font-variant-alternates:normal;font-feature-settings:normal;text-indent:0;text-align:start;text-decoration:none;text-decoration-line:none;text-decoration-style:solid;text-decoration-color:#000000;letter-spacing:normal;word-spacing:normal;text-transform:none;writing-mode:lr-tb;direction:ltr;text-orientation:mixed;dominant-baseline:auto;baseline-shift:baseline;text-anchor:start;white-space:normal;shape-padding:0;clip-rule:nonzero;display:inline;overflow:visible;visibility:visible;isolation:auto;mix-blend-mode:normal;color-interpolation:sRGB;color-interpolation-filters:linearRGB;solid-color:#000000;solid-opacity:1;vector-effect:none;fill:#000000;fill-opacity:1;fill-rule:nonzero;stroke:none;stroke-width:0.753;stroke-linecap:round;stroke-linejoin:round;stroke-miterlimit:4;stroke-dasharray:none;stroke-dashoffset:0;stroke-opacity:1;color-rendering:auto;image-rendering:auto;shape-rendering:auto;text-rendering:auto;enable-background:accumulate"
       d="m 110.29219,183.23123 c -0.93329,0 -1.69913,0.76583 -1.69912,1.69912 0,0.0899 0.009,0.17782 0.0227,0.26407 0.41359,-0.034 0.78724,0.18027 0.72708,-0.26407 0,-0.52796 0.42134,-0.94931 0.9493,-0.9493 0.52796,0 0.94723,0.42134 0.94723,0.9493 -0.12514,0.44057 0.38299,0.26407 0.7276,0.26407 0.0136,-0.0863 0.0227,-0.17415 0.0227,-0.26407 0,-0.93328 -0.76428,-1.69912 -1.69757,-1.69912 z"
       id="path3542"
       inkscape:connector-curvature="0"
       sodipodi:nodetypes="cccccccssc" />
    <path
       style="fill:none;stroke:#000000;stroke-width:0.75;stroke-linecap:butt;stroke-linejoin:miter;stroke-miterlimit:4;stroke-dasharray:none;stroke-opacity:1"
       d="m 105.00001,184.85434 h 4.23333"
       id="path1224"
       inkscape:connector-curvature="0"
       sodipodi:nodetypes="cc" />
    <path
       style="fill:none;stroke:#000000;stroke-width:0.75;stroke-linecap:butt;stroke-linejoin:miter;stroke-miterlimit:4;stroke-dasharray:none;stroke-opacity:1;marker-end:url(#marker1236)"
       d="m 111.61459,184.85434 h 59.53125 v 9.26042"
       id="path1226"
       inkscape:connector-curvature="0" />
    <text
       xml:space="preserve"
       style="font-style:normal;font-variant:normal;font-weight:normal;font-stretch:normal;font-size:5.64444px;line-height:100%;font-family:'TeX Gyre Adventor';-inkscape-font-specification:'TeX Gyre Adventor';text-align:center;letter-spacing:0px;word-spacing:0px;text-anchor:middle;opacity:0.98;fill:#000000;fill-opacity:1;stroke:none;stroke-width:0.75;stroke-linecap:butt;stroke-linejoin:miter;stroke-miterlimit:4;stroke-dasharray:none;stroke-opacity:0.829876"
       x="173.71135"
       y="203.9248"
       id="text4522-5-5-9"><tspan
         sodipodi:role="line"
         x="173.71135"
         y="203.9248"
         style="text-align:center;text-anchor:middle;stroke:none;stroke-width:0.75;stroke-miterlimit:4;stroke-dasharray:none;stroke-opacity:0.829876"
         id="tspan1502">Deep Learning</tspan><tspan
         sodipodi:role="line"
         x="173.71135"
         y="209.56924"
         style="text-align:center;text-anchor:middle;stroke:none;stroke-width:0.75;stroke-miterlimit:4;stroke-dasharray:none;stroke-opacity:0.829876"
         id="tspan2714">Model</tspan></text>
    <path
       style="vector-effect:none;fill:#ffffff;fill-opacity:1;stroke:none;stroke-width:0.65;stroke-linecap:round;stroke-linejoin:round;stroke-miterlimit:4;stroke-dasharray:none;stroke-dashoffset:0;stroke-opacity:0.829876"
       d="m 21.656253,282.48561 v -29.10418 h 37.041669 v 29.10418 z"
       id="rect4491-3-3-9-9-1-9"
       inkscape:connector-curvature="0"
       sodipodi:nodetypes="ccccc" />
    <path
       style="vector-effect:none;fill:#ab93ea;fill-opacity:0.980392;stroke:#242424;stroke-width:0.65;stroke-linecap:round;stroke-linejoin:round;stroke-miterlimit:4;stroke-dasharray:none;stroke-dashoffset:0;stroke-opacity:1"
       d="m 21.656254,283.54397 v -30.16253 h 37.041668 v 30.16253 z"
       id="rect4491-3-3-9"
       inkscape:connector-curvature="0"
       sodipodi:nodetypes="ccccc" />
    <path
       style="vector-effect:none;fill:#ffffff;fill-opacity:1;stroke:none;stroke-width:0.65;stroke-linecap:round;stroke-linejoin:round;stroke-miterlimit:4;stroke-dasharray:none;stroke-dashoffset:0;stroke-opacity:0.829876"
       d="M 17.687502,286.45434 V 257.35016 H 54.72917 v 29.10418 z"
       id="rect4491-3-3-9-9-1"
       inkscape:connector-curvature="0"
       sodipodi:nodetypes="ccccc" />
    <path
       style="vector-effect:none;fill:#ab93ea;fill-opacity:0.980392;stroke:#242424;stroke-width:0.65;stroke-linecap:round;stroke-linejoin:round;stroke-miterlimit:4;stroke-dasharray:none;stroke-dashoffset:0;stroke-opacity:1"
       d="M 17.687502,287.5127 V 257.35018 H 54.72917 v 30.16252 z"
       id="rect4491-3-3-9-9"
       inkscape:connector-curvature="0"
       sodipodi:nodetypes="ccccc" />
    <text
       xml:space="preserve"
       style="font-style:normal;font-variant:normal;font-weight:normal;font-stretch:normal;font-size:3.88056px;line-height:100%;font-family:'TeX Gyre Adventor';-inkscape-font-specification:'TeX Gyre Adventor';text-align:end;letter-spacing:0px;word-spacing:0px;text-anchor:end;opacity:0.98;fill:#000000;fill-opacity:1;stroke:none;stroke-width:0.75;stroke-linecap:butt;stroke-linejoin:miter;stroke-miterlimit:4;stroke-dasharray:none;stroke-opacity:0.829876"
       x="57.833256"
       y="256.78619"
       id="text4522-1-0"><tspan
         sodipodi:role="line"
         x="57.833256"
         y="256.78619"
         style="font-size:3.88056px;text-align:end;text-anchor:end;stroke:none;stroke-width:0.75;stroke-miterlimit:4;stroke-dasharray:none;stroke-opacity:0.829876"
         id="tspan5764-7">PANTHER</tspan></text>
    <text
       xml:space="preserve"
       style="font-style:normal;font-variant:normal;font-weight:normal;font-stretch:normal;font-size:3.88056px;line-height:100%;font-family:'TeX Gyre Adventor';-inkscape-font-specification:'TeX Gyre Adventor';text-align:end;letter-spacing:0px;word-spacing:0px;text-anchor:end;opacity:0.98;fill:#000000;fill-opacity:1;stroke:none;stroke-width:0.75;stroke-linecap:butt;stroke-linejoin:miter;stroke-miterlimit:4;stroke-dasharray:none;stroke-opacity:0.829876"
       x="53.368404"
       y="262.01163"
       id="text4522-1-3"><tspan
         sodipodi:role="line"
         x="53.368404"
         y="262.01163"
         style="font-size:4.9389px;text-align:end;text-anchor:end;stroke:none;stroke-width:0.75;stroke-miterlimit:4;stroke-dasharray:none;stroke-opacity:0.829876"
         id="tspan5764-1">SERPENT</tspan></text>
    <path
       style="fill:none;fill-rule:evenodd;stroke:#242424;stroke-width:0.75;stroke-linecap:butt;stroke-linejoin:miter;stroke-miterlimit:4;stroke-dasharray:none;stroke-opacity:1;marker-end:url(#Arrow2Send-2)"
       d="m 30.916669,213.95851 v 3.175"
       id="path4587-2"
       inkscape:connector-curvature="0"
       sodipodi:nodetypes="cc" />
    <path
       style="fill:none;fill-rule:evenodd;stroke:#242424;stroke-width:0.75;stroke-linecap:butt;stroke-linejoin:miter;stroke-miterlimit:4;stroke-dasharray:none;stroke-opacity:1;marker-end:url(#marker5141-9-8)"
       d="m 52.083336,247.82517 1.5875,-5.02708 -1.5875,0.13229 1.058333,-4.89479"
       id="path4589-2-6"
       inkscape:connector-curvature="0"
       sodipodi:nodetypes="cccc" />
    <path
       style="fill:none;fill-rule:evenodd;stroke:#242424;stroke-width:0.75;stroke-linecap:butt;stroke-linejoin:miter;stroke-miterlimit:4;stroke-dasharray:none;stroke-opacity:1;marker-end:url(#Arrow2Send-2-6)"
       d="m 30.916669,236.71267 -1.322916,5.82084 1.322916,-0.52917 -1.058333,5.29167"
       id="path4587-2-6"
       inkscape:connector-curvature="0"
       sodipodi:nodetypes="cccc" />
    <text
       xml:space="preserve"
       style="font-style:normal;font-variant:normal;font-weight:normal;font-stretch:normal;font-size:3.88056px;line-height:100%;font-family:'TeX Gyre Adventor';-inkscape-font-specification:'TeX Gyre Adventor';text-align:center;letter-spacing:0px;word-spacing:0px;text-anchor:middle;opacity:0.98;fill:#000000;fill-opacity:1;stroke:none;stroke-width:0.75;stroke-linecap:butt;stroke-linejoin:miter;stroke-miterlimit:4;stroke-dasharray:none;stroke-opacity:0.829876"
       x="41.432755"
       y="240.51425"
       id="text4522-1-3-4"><tspan
         sodipodi:role="line"
         x="41.432755"
         y="240.51425"
         style="font-size:3.88056px;text-align:center;text-anchor:middle;stroke:none;stroke-width:0.75;stroke-miterlimit:4;stroke-dasharray:none;stroke-opacity:0.829876"
         id="tspan3785">Remote</tspan><tspan
         sodipodi:role="line"
         x="41.432755"
         y="244.39481"
         style="font-size:3.88056px;text-align:center;text-anchor:middle;stroke:none;stroke-width:0.75;stroke-miterlimit:4;stroke-dasharray:none;stroke-opacity:0.829876"
         id="tspan3809">or local file</tspan><tspan
         sodipodi:role="line"
         x="41.432755"
         y="248.27538"
         style="font-size:3.88056px;text-align:center;text-anchor:middle;stroke:none;stroke-width:0.75;stroke-miterlimit:4;stroke-dasharray:none;stroke-opacity:0.829876"
         id="tspan3811">interface</tspan></text>
    <text
       xml:space="preserve"
       style="font-style:normal;font-variant:normal;font-weight:normal;font-stretch:normal;font-size:3.88056px;line-height:100%;font-family:'TeX Gyre Adventor';-inkscape-font-specification:'TeX Gyre Adventor';text-align:center;letter-spacing:0px;word-spacing:0px;text-anchor:middle;opacity:0.98;fill:#000000;fill-opacity:1;stroke:none;stroke-width:0.75;stroke-linecap:butt;stroke-linejoin:miter;stroke-miterlimit:4;stroke-dasharray:none;stroke-opacity:0.829876"
       x="29.727644"
       y="227.73959"
       id="text4522-1-3-2"><tspan
         sodipodi:role="line"
         x="29.727644"
         y="227.73959"
         style="font-size:3.88056px;text-align:center;text-anchor:middle;stroke:none;stroke-width:0.75;stroke-miterlimit:4;stroke-dasharray:none;stroke-opacity:0.829876"
         id="tspan5764-1-8">INPUT</tspan><tspan
         sodipodi:role="line"
         x="29.727644"
         y="231.62015"
         style="font-size:3.88056px;text-align:center;text-anchor:middle;stroke:none;stroke-width:0.75;stroke-miterlimit:4;stroke-dasharray:none;stroke-opacity:0.829876"
         id="tspan3803">FILE</tspan></text>
    <text
       xml:space="preserve"
       style="font-style:normal;font-variant:normal;font-weight:normal;font-stretch:normal;font-size:3.88056px;line-height:100%;font-family:'TeX Gyre Adventor';-inkscape-font-specification:'TeX Gyre Adventor';text-align:center;letter-spacing:0px;word-spacing:0px;text-anchor:middle;opacity:0.98;fill:#000000;fill-opacity:1;stroke:none;stroke-width:0.75;stroke-linecap:butt;stroke-linejoin:miter;stroke-miterlimit:4;stroke-dasharray:none;stroke-opacity:0.829876"
       x="50.949192"
       y="227.76482"
       id="text4522-1-3-9"><tspan
         sodipodi:role="line"
         x="50.949192"
         y="227.76482"
         style="font-size:3.88056px;text-align:center;text-anchor:middle;stroke:none;stroke-width:0.75;stroke-miterlimit:4;stroke-dasharray:none;stroke-opacity:0.829876"
         id="tspan5764-1-60">OUTPUT</tspan><tspan
         sodipodi:role="line"
         x="50.949192"
         y="231.64537"
         style="font-size:3.88056px;text-align:center;text-anchor:middle;stroke:none;stroke-width:0.75;stroke-miterlimit:4;stroke-dasharray:none;stroke-opacity:0.829876"
         id="tspan3805">FILE</tspan></text>
    <g
       id="g1726"
       transform="translate(-18.520836,14.075168)">
      <path
         style="opacity:1;vector-effect:none;fill:#457dcc;fill-opacity:0.817427;stroke:#000000;stroke-width:0.75;stroke-linecap:round;stroke-linejoin:round;stroke-miterlimit:4;stroke-dasharray:none;stroke-dashoffset:0;stroke-opacity:0.829876"
         d="m 105.023,213.11251 v -7.9375 h 42.33333 v 7.9375 z"
         id="rect4491-3-7-7"
         inkscape:connector-curvature="0"
         sodipodi:nodetypes="ccccc" />
      <text
         id="text4522-5-5-40"
         y="210.30157"
         x="126.04739"
         style="font-style:normal;font-variant:normal;font-weight:normal;font-stretch:normal;font-size:5.64444px;line-height:100%;font-family:'TeX Gyre Adventor';-inkscape-font-specification:'TeX Gyre Adventor';text-align:center;letter-spacing:0px;word-spacing:0px;text-anchor:middle;opacity:0.98;fill:#000000;fill-opacity:1;stroke:none;stroke-width:0.75;stroke-linecap:butt;stroke-linejoin:miter;stroke-miterlimit:4;stroke-dasharray:none;stroke-opacity:0.829876"
         xml:space="preserve"><tspan
           id="tspan5762-4"
           style="font-size:4.23333px;text-align:center;text-anchor:middle;stroke:none;stroke-width:0.75;stroke-miterlimit:4;stroke-dasharray:none;stroke-opacity:0.829876"
           y="210.30157"
           x="126.04739"
           sodipodi:role="line">Fitness Interpreter</tspan></text>
    </g>
    <g
       style="opacity:0.98"
       id="g1777-2"
       transform="translate(0.022986,-13.441497)">
      <path
         sodipodi:nodetypes="cc"
         inkscape:connector-curvature="0"
         id="path4587-8"
         d="m 97.062506,227.92917 v 3.17501"
         style="opacity:1;fill:none;fill-rule:evenodd;stroke:#242424;stroke-width:0.75;stroke-linecap:butt;stroke-linejoin:miter;stroke-miterlimit:4;stroke-dasharray:none;stroke-opacity:1;marker-end:url(#Arrow2Send-6)" />
      <path
         sodipodi:nodetypes="cc"
         inkscape:connector-curvature="0"
         id="path4589-9"
         d="m 118.22918,232.16251 v -3.175"
         style="opacity:1;fill:none;fill-rule:evenodd;stroke:#242424;stroke-width:0.75;stroke-linecap:butt;stroke-linejoin:miter;stroke-miterlimit:4;stroke-dasharray:none;stroke-opacity:1;marker-end:url(#marker5141-4)" />
    </g>
    <flowRoot
       style="font-style:normal;font-variant:normal;font-weight:normal;font-stretch:normal;font-size:14.6667px;line-height:125%;font-family:Montserrat;-inkscape-font-specification:Montserrat;letter-spacing:0px;word-spacing:0px;fill:#000000;fill-opacity:1;stroke:none"
       id="flowRoot2716"
       xml:space="preserve"><flowRegion
         id="flowRegion2718"><rect
           y="-131.33856"
           x="-260"
           height="20"
           width="20"
           id="rect2720" /></flowRegion><flowPara
         id="flowPara2722" /></flowRoot>
  </g>
</svg>
