<?xml version="1.0" encoding="UTF-8" standalone="no"?>
<!-- Created with Inkscape (http://www.inkscape.org/) -->

<svg
   xmlns:dc="http://purl.org/dc/elements/1.1/"
   xmlns:cc="http://creativecommons.org/ns#"
   xmlns:rdf="http://www.w3.org/1999/02/22-rdf-syntax-ns#"
   xmlns:svg="http://www.w3.org/2000/svg"
   xmlns="http://www.w3.org/2000/svg"
   xmlns:xlink="http://www.w3.org/1999/xlink"
   xmlns:sodipodi="http://sodipodi.sourceforge.net/DTD/sodipodi-0.dtd"
   xmlns:inkscape="http://www.inkscape.org/namespaces/inkscape"
   width="210mm"
   height="190mm"
   viewBox="0 0 210 190"
   version="1.1"
   id="svg8"
   inkscape:version="0.92.4 (5da689c313, 2019-01-14)"
   sodipodi:docname="softwareArch2.svg">
  <defs
     id="defs2">
    <marker
       inkscape:isstock="true"
       style="overflow:visible"
       id="marker1236"
       refX="0"
       refY="0"
       orient="auto"
       inkscape:stockid="Arrow2Send">
      <path
         transform="matrix(-0.3,0,0,-0.3,0.69,0)"
         d="M 8.7185878,4.0337352 -2.2072895,0.01601326 8.7185884,-4.0017078 c -1.7454984,2.3720609 -1.7354408,5.6174519 -6e-7,8.035443 z"
         style="fill:#000000;fill-opacity:1;fill-rule:evenodd;stroke:#000000;stroke-width:0.625;stroke-linejoin:round;stroke-opacity:1"
         id="path1234"
         inkscape:connector-curvature="0" />
    </marker>
    <marker
       inkscape:isstock="true"
       style="overflow:visible"
       id="marker3414"
       refX="0"
       refY="0"
       orient="auto"
       inkscape:stockid="Arrow2Send">
      <path
         transform="matrix(-0.3,0,0,-0.3,0.69,0)"
         d="M 8.7185878,4.0337352 -2.2072895,0.01601326 8.7185884,-4.0017078 c -1.7454984,2.3720609 -1.7354408,5.6174519 -6e-7,8.035443 z"
         style="fill:#000000;fill-opacity:1;fill-rule:evenodd;stroke:#000000;stroke-width:0.625;stroke-linejoin:round;stroke-opacity:1"
         id="path3412"
         inkscape:connector-curvature="0" />
    </marker>
    <marker
       inkscape:isstock="true"
       style="overflow:visible"
       id="marker2252"
       refX="0"
       refY="0"
       orient="auto"
       inkscape:stockid="Arrow2Send">
      <path
         transform="matrix(-0.3,0,0,-0.3,0.69,0)"
         d="M 8.7185878,4.0337352 -2.2072895,0.01601326 8.7185884,-4.0017078 c -1.7454984,2.3720609 -1.7354408,5.6174519 -6e-7,8.035443 z"
         style="fill:#000000;fill-opacity:1;fill-rule:evenodd;stroke:#000000;stroke-width:0.625;stroke-linejoin:round;stroke-opacity:1"
         id="path2250"
         inkscape:connector-curvature="0" />
    </marker>
    <marker
       inkscape:isstock="true"
       style="overflow:visible"
       id="marker2140"
       refX="0"
       refY="0"
       orient="auto"
       inkscape:stockid="Arrow2Send">
      <path
         transform="matrix(-0.3,0,0,-0.3,0.69,0)"
         d="M 8.7185878,4.0337352 -2.2072895,0.01601326 8.7185884,-4.0017078 c -1.7454984,2.3720609 -1.7354408,5.6174519 -6e-7,8.035443 z"
         style="fill:#000000;fill-opacity:1;fill-rule:evenodd;stroke:#000000;stroke-width:0.625;stroke-linejoin:round;stroke-opacity:1"
         id="path2138"
         inkscape:connector-curvature="0" />
    </marker>
    <marker
       inkscape:isstock="true"
       style="overflow:visible"
       id="marker2034"
       refX="0"
       refY="0"
       orient="auto"
       inkscape:stockid="Arrow2Send">
      <path
         transform="matrix(-0.3,0,0,-0.3,0.69,0)"
         d="M 8.7185878,4.0337352 -2.2072895,0.01601326 8.7185884,-4.0017078 c -1.7454984,2.3720609 -1.7354408,5.6174519 -6e-7,8.035443 z"
         style="fill:#000000;fill-opacity:1;fill-rule:evenodd;stroke:#000000;stroke-width:0.625;stroke-linejoin:round;stroke-opacity:1"
         id="path2032"
         inkscape:connector-curvature="0" />
    </marker>
    <marker
       inkscape:isstock="true"
       style="overflow:visible"
       id="marker1934"
       refX="0"
       refY="0"
       orient="auto"
       inkscape:stockid="Arrow2Send">
      <path
         transform="matrix(-0.3,0,0,-0.3,0.69,0)"
         d="M 8.7185878,4.0337352 -2.2072895,0.01601326 8.7185884,-4.0017078 c -1.7454984,2.3720609 -1.7354408,5.6174519 -6e-7,8.035443 z"
         style="fill:#000000;fill-opacity:1;fill-rule:evenodd;stroke:#000000;stroke-width:0.625;stroke-linejoin:round;stroke-opacity:1"
         id="path1932"
         inkscape:connector-curvature="0" />
    </marker>
    <marker
       inkscape:isstock="true"
       style="overflow:visible"
       id="marker1840"
       refX="0"
       refY="0"
       orient="auto"
       inkscape:stockid="Arrow2Send">
      <path
         transform="matrix(-0.3,0,0,-0.3,0.69,0)"
         d="M 8.7185878,4.0337352 -2.2072895,0.01601326 8.7185884,-4.0017078 c -1.7454984,2.3720609 -1.7354408,5.6174519 -6e-7,8.035443 z"
         style="fill:#000000;fill-opacity:1;fill-rule:evenodd;stroke:#000000;stroke-width:0.625;stroke-linejoin:round;stroke-opacity:1"
         id="path1838"
         inkscape:connector-curvature="0" />
    </marker>
    <marker
       inkscape:isstock="true"
       style="overflow:visible"
       id="marker1752"
       refX="0"
       refY="0"
       orient="auto"
       inkscape:stockid="Arrow2Send">
      <path
         transform="matrix(-0.3,0,0,-0.3,0.69,0)"
         d="M 8.7185878,4.0337352 -2.2072895,0.01601326 8.7185884,-4.0017078 c -1.7454984,2.3720609 -1.7354408,5.6174519 -6e-7,8.035443 z"
         style="fill:#000000;fill-opacity:1;fill-rule:evenodd;stroke:#000000;stroke-width:0.625;stroke-linejoin:round;stroke-opacity:1"
         id="path1750"
         inkscape:connector-curvature="0" />
    </marker>
    <marker
       inkscape:isstock="true"
       style="overflow:visible"
       id="marker1670"
       refX="0"
       refY="0"
       orient="auto"
       inkscape:stockid="Arrow2Send">
      <path
         transform="matrix(-0.3,0,0,-0.3,0.69,0)"
         d="M 8.7185878,4.0337352 -2.2072895,0.01601326 8.7185884,-4.0017078 c -1.7454984,2.3720609 -1.7354408,5.6174519 -6e-7,8.035443 z"
         style="fill:#000000;fill-opacity:1;fill-rule:evenodd;stroke:#000000;stroke-width:0.625;stroke-linejoin:round;stroke-opacity:1"
         id="path1668"
         inkscape:connector-curvature="0" />
    </marker>
    <marker
       inkscape:isstock="true"
       style="overflow:visible"
       id="marker1594"
       refX="0"
       refY="0"
       orient="auto"
       inkscape:stockid="Arrow2Send">
      <path
         transform="matrix(-0.3,0,0,-0.3,0.69,0)"
         d="M 8.7185878,4.0337352 -2.2072895,0.01601326 8.7185884,-4.0017078 c -1.7454984,2.3720609 -1.7354408,5.6174519 -6e-7,8.035443 z"
         style="fill:#000000;fill-opacity:1;fill-rule:evenodd;stroke:#000000;stroke-width:0.625;stroke-linejoin:round;stroke-opacity:1"
         id="path1592"
         inkscape:connector-curvature="0" />
    </marker>
    <linearGradient
       inkscape:collect="always"
       id="linearGradient1402">
      <stop
         style="stop-color:#ffffff;stop-opacity:1"
         offset="0"
         id="stop1398" />
      <stop
         style="stop-color:#ffffff;stop-opacity:0"
         offset="1"
         id="stop1400" />
    </linearGradient>
    <linearGradient
       inkscape:collect="always"
       id="linearGradient1126">
      <stop
         style="stop-color:#888888;stop-opacity:1"
         offset="0"
         id="stop1122" />
      <stop
         style="stop-color:#457dcc;stop-opacity:0;"
         offset="1"
         id="stop1124" />
    </linearGradient>
    <marker
       inkscape:isstock="true"
       style="overflow:visible"
       id="marker5141"
       refX="0"
       refY="0"
       orient="auto"
       inkscape:stockid="Arrow2Send">
      <path
         transform="matrix(-0.3,0,0,-0.3,0.69,0)"
         d="M 8.7185878,4.0337352 -2.2072895,0.01601326 8.7185884,-4.0017078 c -1.7454984,2.3720609 -1.7354408,5.6174519 -6e-7,8.035443 z"
         style="fill:#000000;fill-opacity:1;fill-rule:evenodd;stroke:#000000;stroke-width:0.625;stroke-linejoin:round;stroke-opacity:1"
         id="path5139"
         inkscape:connector-curvature="0" />
    </marker>
    <marker
       inkscape:stockid="Arrow2Send"
       orient="auto"
       refY="0"
       refX="0"
       id="Arrow2Send"
       style="overflow:visible"
       inkscape:isstock="true"
       inkscape:collect="always">
      <path
         id="path4624"
         style="fill:#000000;fill-opacity:0.82987551;fill-rule:evenodd;stroke:#000000;stroke-width:0.625;stroke-linejoin:round;stroke-opacity:0.82987551"
         d="M 8.7185878,4.0337352 -2.2072895,0.01601326 8.7185884,-4.0017078 c -1.7454984,2.3720609 -1.7354408,5.6174519 -6e-7,8.035443 z"
         transform="matrix(-0.3,0,0,-0.3,0.69,0)"
         inkscape:connector-curvature="0" />
    </marker>
    <marker
       inkscape:isstock="true"
       style="overflow:visible"
       id="marker5065"
       refX="0"
       refY="0"
       orient="auto"
       inkscape:stockid="Arrow1Send">
      <path
         transform="matrix(-0.2,0,0,-0.2,-1.2,0)"
         style="fill:#000000;fill-opacity:1;fill-rule:evenodd;stroke:#000000;stroke-width:1.00000003pt;stroke-opacity:1"
         d="M 0,0 5,-5 -12.5,0 5,5 Z"
         id="path5063"
         inkscape:connector-curvature="0" />
    </marker>
    <marker
       inkscape:isstock="true"
       style="overflow:visible"
       id="marker4997"
       refX="0"
       refY="0"
       orient="auto"
       inkscape:stockid="Arrow1Send">
      <path
         transform="matrix(-0.2,0,0,-0.2,-1.2,0)"
         style="fill:#000000;fill-opacity:1;fill-rule:evenodd;stroke:#000000;stroke-width:1.00000003pt;stroke-opacity:1"
         d="M 0,0 5,-5 -12.5,0 5,5 Z"
         id="path4995"
         inkscape:connector-curvature="0" />
    </marker>
    <marker
       inkscape:isstock="true"
       style="overflow:visible"
       id="marker4935"
       refX="0"
       refY="0"
       orient="auto"
       inkscape:stockid="Arrow1Send">
      <path
         transform="matrix(-0.2,0,0,-0.2,-1.2,0)"
         style="fill:#000000;fill-opacity:1;fill-rule:evenodd;stroke:#000000;stroke-width:1.00000003pt;stroke-opacity:1"
         d="M 0,0 5,-5 -12.5,0 5,5 Z"
         id="path4933"
         inkscape:connector-curvature="0" />
    </marker>
    <marker
       inkscape:isstock="true"
       style="overflow:visible"
       id="marker4875"
       refX="0"
       refY="0"
       orient="auto"
       inkscape:stockid="Arrow1Lend">
      <path
         transform="matrix(-0.8,0,0,-0.8,-10,0)"
         style="fill:#000000;fill-opacity:1;fill-rule:evenodd;stroke:#000000;stroke-width:1.00000003pt;stroke-opacity:1"
         d="M 0,0 5,-5 -12.5,0 5,5 Z"
         id="path4873"
         inkscape:connector-curvature="0" />
    </marker>
    <marker
       inkscape:isstock="true"
       style="overflow:visible"
       id="marker5141-9"
       refX="0"
       refY="0"
       orient="auto"
       inkscape:stockid="Arrow2Send">
      <path
         inkscape:connector-curvature="0"
         transform="matrix(-0.3,0,0,-0.3,0.69,0)"
         d="M 8.7185878,4.0337352 -2.2072895,0.01601326 8.7185884,-4.0017078 c -1.7454984,2.3720609 -1.7354408,5.6174519 -6e-7,8.035443 z"
         style="fill:#000000;fill-opacity:0.82987551;fill-rule:evenodd;stroke:#000000;stroke-width:0.625;stroke-linejoin:round;stroke-opacity:0.82987551"
         id="path5139-1" />
    </marker>
    <marker
       inkscape:stockid="Arrow2Send"
       orient="auto"
       refY="0"
       refX="0"
       id="Arrow2Send-2"
       style="overflow:visible"
       inkscape:isstock="true"
       inkscape:collect="always">
      <path
         inkscape:connector-curvature="0"
         id="path4624-7"
         style="fill:#000000;fill-opacity:0.82987551;fill-rule:evenodd;stroke:#000000;stroke-width:0.625;stroke-linejoin:round;stroke-opacity:0.82987551"
         d="M 8.7185878,4.0337352 -2.2072895,0.01601326 8.7185884,-4.0017078 c -1.7454984,2.3720609 -1.7354408,5.6174519 -6e-7,8.035443 z"
         transform="matrix(-0.3,0,0,-0.3,0.69,0)" />
    </marker>
    <marker
       inkscape:isstock="true"
       style="overflow:visible"
       id="marker5141-7"
       refX="0"
       refY="0"
       orient="auto"
       inkscape:stockid="Arrow2Send">
      <path
         inkscape:connector-curvature="0"
         transform="matrix(-0.3,0,0,-0.3,0.69,0)"
         d="M 8.7185878,4.0337352 -2.2072895,0.01601326 8.7185884,-4.0017078 c -1.7454984,2.3720609 -1.7354408,5.6174519 -6e-7,8.035443 z"
         style="fill:#000000;fill-opacity:0.82987551;fill-rule:evenodd;stroke:#000000;stroke-width:0.625;stroke-linejoin:round;stroke-opacity:0.82987551"
         id="path5139-4" />
    </marker>
    <marker
       inkscape:stockid="Arrow2Send"
       orient="auto"
       refY="0"
       refX="0"
       id="Arrow2Send-5"
       style="overflow:visible"
       inkscape:isstock="true"
       inkscape:collect="always">
      <path
         inkscape:connector-curvature="0"
         id="path4624-2"
         style="fill:#000000;fill-opacity:1;fill-rule:evenodd;stroke:#000000;stroke-width:0.625;stroke-linejoin:round;stroke-opacity:1"
         d="M 8.7185878,4.0337352 -2.2072895,0.01601326 8.7185884,-4.0017078 c -1.7454984,2.3720609 -1.7354408,5.6174519 -6e-7,8.035443 z"
         transform="matrix(-0.3,0,0,-0.3,0.69,0)" />
    </marker>
    <linearGradient
       inkscape:collect="always"
       xlink:href="#linearGradient1126"
       id="linearGradient1128"
       x1="-58.993092"
       y1="84.384392"
       x2="-33.072918"
       y2="85.333336"
       gradientUnits="userSpaceOnUse"
       gradientTransform="translate(74.493108,-9.027704)" />
    <linearGradient
       gradientTransform="translate(74.493109,-9.027708)"
       inkscape:collect="always"
       xlink:href="#linearGradient1126"
       id="linearGradient1128-7"
       x1="-12.316009"
       y1="85.894371"
       x2="-22.899342"
       y2="85.894371"
       gradientUnits="userSpaceOnUse" />
    <linearGradient
       inkscape:collect="always"
       xlink:href="#linearGradient1126"
       id="linearGradient1271"
       gradientUnits="userSpaceOnUse"
       gradientTransform="translate(140.73598,-9.027704)"
       x1="-58.993092"
       y1="84.384392"
       x2="-33.072918"
       y2="85.333336" />
    <linearGradient
       inkscape:collect="always"
       xlink:href="#linearGradient1126"
       id="linearGradient1273"
       gradientUnits="userSpaceOnUse"
       gradientTransform="translate(140.54192,-9.027708)"
       x1="-12.316009"
       y1="85.894371"
       x2="-22.899342"
       y2="85.894371" />
    <linearGradient
       inkscape:collect="always"
       xlink:href="#linearGradient1126"
       id="linearGradient1332"
       gradientUnits="userSpaceOnUse"
       gradientTransform="translate(-8.8506592,37.990607)"
       x1="-58.993092"
       y1="84.384392"
       x2="-33.072918"
       y2="85.333336" />
    <linearGradient
       inkscape:collect="always"
       xlink:href="#linearGradient1126"
       id="linearGradient1334"
       gradientUnits="userSpaceOnUse"
       gradientTransform="translate(-9.0447185,37.990603)"
       x1="-12.316009"
       y1="85.894371"
       x2="-22.899342"
       y2="85.894371" />
    <linearGradient
       inkscape:collect="always"
       xlink:href="#linearGradient1402"
       id="linearGradient1404"
       x1="4.8054352"
       y1="74.485741"
       x2="2.1596017"
       y2="63.902409"
       gradientUnits="userSpaceOnUse"
       gradientTransform="translate(34.882065,0.26425807)" />
    <linearGradient
       inkscape:collect="always"
       xlink:href="#linearGradient1402"
       id="linearGradient1404-3"
       x1="4.8054352"
       y1="74.485741"
       x2="2.1596017"
       y2="63.902409"
       gradientUnits="userSpaceOnUse"
       gradientTransform="translate(100.93739,0.3457594)" />
    <linearGradient
       inkscape:collect="always"
       xlink:href="#linearGradient1402"
       id="linearGradient1404-8"
       x1="4.8054352"
       y1="74.485741"
       x2="2.1596017"
       y2="63.902409"
       gradientUnits="userSpaceOnUse"
       gradientTransform="translate(167.18022,0.27076259)" />
    <marker
       inkscape:isstock="true"
       style="overflow:visible"
       id="marker5141-9-8"
       refX="0"
       refY="0"
       orient="auto"
       inkscape:stockid="Arrow2Send">
      <path
         inkscape:connector-curvature="0"
         transform="matrix(-0.3,0,0,-0.3,0.69,0)"
         d="M 8.7185878,4.0337352 -2.2072895,0.01601326 8.7185884,-4.0017078 c -1.7454984,2.3720609 -1.7354408,5.6174519 -6e-7,8.035443 z"
         style="fill:#000000;fill-opacity:0.82987551;fill-rule:evenodd;stroke:#000000;stroke-width:0.625;stroke-linejoin:round;stroke-opacity:0.82987551"
         id="path5139-1-2" />
    </marker>
    <marker
       inkscape:stockid="Arrow2Send"
       orient="auto"
       refY="0"
       refX="0"
       id="Arrow2Send-2-6"
       style="overflow:visible"
       inkscape:isstock="true"
       inkscape:collect="always">
      <path
         inkscape:connector-curvature="0"
         id="path4624-7-0"
         style="fill:#000000;fill-opacity:0.82987551;fill-rule:evenodd;stroke:#000000;stroke-width:0.625;stroke-linejoin:round;stroke-opacity:0.82987551"
         d="M 8.7185878,4.0337352 -2.2072895,0.01601326 8.7185884,-4.0017078 c -1.7454984,2.3720609 -1.7354408,5.6174519 -6e-7,8.035443 z"
         transform="matrix(-0.3,0,0,-0.3,0.69,0)" />
    </marker>
  </defs>
  <sodipodi:namedview
     id="base"
     pagecolor="#ffffff"
     bordercolor="#666666"
     borderopacity="1.0"
     inkscape:pageopacity="0.0"
     inkscape:pageshadow="2"
     inkscape:zoom="0.70710678"
     inkscape:cx="66.262935"
     inkscape:cy="345.56458"
     inkscape:document-units="mm"
     inkscape:current-layer="layer1"
     showgrid="true"
     showguides="false"
     inkscape:window-width="1920"
     inkscape:window-height="1016"
     inkscape:window-x="0"
     inkscape:window-y="27"
     inkscape:window-maximized="1">
    <inkscape:grid
       type="xygrid"
       id="grid4489" />
  </sodipodi:namedview>
  <metadata
     id="metadata5">
    <rdf:RDF>
      <cc:Work
         rdf:about="">
        <dc:format>image/svg+xml</dc:format>
        <dc:type
           rdf:resource="http://purl.org/dc/dcmitype/StillImage" />
        <dc:title />
      </cc:Work>
    </rdf:RDF>
  </metadata>
  <g
     inkscape:label="Layer 1"
     inkscape:groupmode="layer"
     id="layer1"
     style="opacity:0.98000004"
     transform="translate(0,-107)">
    <text
       xml:space="preserve"
       style="font-style:normal;font-variant:normal;font-weight:normal;font-stretch:normal;font-size:4.93888903px;line-height:125%;font-family:'TeX Gyre Adventor';-inkscape-font-specification:'TeX Gyre Adventor';letter-spacing:0px;word-spacing:0px;fill:#000000;fill-opacity:1;stroke:none;stroke-width:0.26458332px;stroke-linecap:butt;stroke-linejoin:miter;stroke-opacity:1"
       x="-123.87969"
       y="100.26732"
       id="text4522-5"
       transform="rotate(-90)"><tspan
         sodipodi:role="line"
         x="-123.87969"
         y="104.80502"
         style="stroke-width:0.26458332px"
         id="tspan4564" /></text>
    <text
       xml:space="preserve"
       style="font-style:normal;font-variant:normal;font-weight:normal;font-stretch:normal;font-size:5.64444447px;line-height:100%;font-family:'TeX Gyre Adventor';-inkscape-font-specification:'TeX Gyre Adventor';text-align:center;letter-spacing:0px;word-spacing:0px;text-anchor:middle;opacity:0.98000004;fill:#000000;fill-opacity:1;stroke:none;stroke-width:0.75;stroke-linecap:butt;stroke-linejoin:miter;stroke-miterlimit:4;stroke-dasharray:none;stroke-opacity:0.82987551"
       x="169.24953"
       y="121.24152"
       id="text4522-5-5-4"><tspan
         sodipodi:role="line"
         x="169.24953"
         y="125.72192"
         style="text-align:center;text-anchor:middle;stroke:none;stroke-width:0.75;stroke-miterlimit:4;stroke-dasharray:none;stroke-opacity:0.82987551"
         id="tspan6147" /></text>
    <path
       style="opacity:1;vector-effect:none;fill:#c6afe9;fill-opacity:1;stroke:#000000;stroke-width:2.83464575;stroke-linecap:round;stroke-linejoin:round;stroke-miterlimit:4;stroke-dasharray:none;stroke-dashoffset:0;stroke-opacity:0.82987551"
       d="M 16.849609 19.054688 L 16.849609 439.05469 L 278.26758 439.05469 L 278.26758 715.90039 C 278.26758 717.12457 279.25238 718.10938 280.47656 718.10938 L 776.05859 718.10938 C 777.28277 718.10938 778.26758 717.12457 778.26758 715.90039 L 778.26758 260.32031 C 778.26758 259.37635 777.67916 258.57944 776.84961 258.26172 L 776.84961 19.054688 L 16.849609 19.054688 z "
       transform="matrix(0.26458333,0,0,0.26458333,0,107)"
       id="rect4510-6-3" />
    <rect
       transform="rotate(-90)"
       style="opacity:1;vector-effect:none;fill:#e3d7f4;fill-opacity:1;stroke:#000000;stroke-width:0.75;stroke-linecap:round;stroke-linejoin:round;stroke-miterlimit:4;stroke-dasharray:none;stroke-dashoffset:0;stroke-opacity:0.82987551"
       id="rect4510"
       width="100.54166"
       height="52.916668"
       x="-291.95834"
       y="81.187523" />
    <rect
       transform="rotate(-90)"
       style="opacity:1;vector-effect:none;fill:#54d300;fill-opacity:0.61568627;stroke:#000000;stroke-width:0.75;stroke-linecap:round;stroke-linejoin:round;stroke-miterlimit:4;stroke-dasharray:none;stroke-dashoffset:0;stroke-opacity:0.82987551"
       id="rect4491"
       width="18.520834"
       height="42.333332"
       x="-286.66669"
       y="86.479179" />
    <rect
       transform="rotate(-90)"
       style="opacity:1;vector-effect:none;fill:#54d300;fill-opacity:0.61568627;stroke:#000000;stroke-width:0.75;stroke-linecap:round;stroke-linejoin:round;stroke-miterlimit:4;stroke-dasharray:none;stroke-dashoffset:0;stroke-opacity:0.82987551"
       id="rect4493"
       width="5.2916665"
       height="42.333332"
       x="-262.85419"
       y="86.479179" />
    <rect
       transform="rotate(-90)"
       style="opacity:1;vector-effect:none;fill:#55d400;fill-opacity:0.62655604;stroke:#000000;stroke-width:0.75;stroke-linecap:round;stroke-linejoin:round;stroke-miterlimit:4;stroke-dasharray:none;stroke-dashoffset:0;stroke-opacity:0.82987551"
       id="rect4491-3"
       width="18.520834"
       height="42.333332"
       x="-252.27083"
       y="86.479179" />
    <text
       xml:space="preserve"
       style="font-style:normal;font-variant:normal;font-weight:normal;font-stretch:normal;font-size:5.64444447px;line-height:100%;font-family:'TeX Gyre Adventor';-inkscape-font-specification:'TeX Gyre Adventor';letter-spacing:0px;word-spacing:0px;fill:#000000;fill-opacity:1;stroke:none;stroke-width:0.75;stroke-linecap:butt;stroke-linejoin:miter;stroke-miterlimit:4;stroke-dasharray:none;stroke-opacity:0.82987551"
       x="94.604889"
       y="279.11124"
       id="text4514"><tspan
         sodipodi:role="line"
         id="tspan4512"
         x="94.604889"
         y="279.11124"
         style="stroke:none;stroke-width:0.75;stroke-miterlimit:4;stroke-dasharray:none;stroke-opacity:0.82987551">Pagmo2</tspan></text>
    <text
       xml:space="preserve"
       style="font-style:normal;font-variant:normal;font-weight:normal;font-stretch:normal;font-size:5.64444447px;line-height:100%;font-family:'TeX Gyre Adventor';-inkscape-font-specification:'TeX Gyre Adventor';letter-spacing:0px;word-spacing:0px;fill:#000000;fill-opacity:1;stroke:none;stroke-width:0.75;stroke-linecap:butt;stroke-linejoin:miter;stroke-miterlimit:4;stroke-dasharray:none;stroke-opacity:0.82987551"
       x="95.39431"
       y="262.5134"
       id="text4518"><tspan
         sodipodi:role="line"
         id="tspan4516"
         x="95.39431"
         y="262.5134"
         style="stroke:none;stroke-width:0.75;stroke-miterlimit:4;stroke-dasharray:none;stroke-opacity:0.82987551">libboost</tspan></text>
    <text
       xml:space="preserve"
       style="font-style:normal;font-variant:normal;font-weight:normal;font-stretch:normal;font-size:5.64444447px;line-height:100%;font-family:'TeX Gyre Adventor';-inkscape-font-specification:'TeX Gyre Adventor';letter-spacing:0px;word-spacing:0px;fill:#000000;fill-opacity:1;stroke:none;stroke-width:0.75;stroke-linecap:butt;stroke-linejoin:miter;stroke-miterlimit:4;stroke-dasharray:none;stroke-opacity:0.82987551"
       x="95.08857"
       y="244.71539"
       id="text4522"><tspan
         sodipodi:role="line"
         id="tspan4520"
         x="95.08857"
         y="244.71539"
         style="stroke:none;stroke-width:0.75;stroke-miterlimit:4;stroke-dasharray:none;stroke-opacity:0.82987551">Pygmo2</tspan></text>
    <text
       transform="rotate(-90)"
       xml:space="preserve"
       style="font-style:normal;font-variant:normal;font-weight:normal;font-stretch:normal;font-size:5.64444447px;line-height:100%;font-family:'TeX Gyre Adventor';-inkscape-font-specification:'TeX Gyre Adventor';letter-spacing:0px;word-spacing:0px;fill:#000000;fill-opacity:1;stroke:none;stroke-width:0.75;stroke-linecap:butt;stroke-linejoin:miter;stroke-miterlimit:4;stroke-dasharray:none;stroke-opacity:0.82987551"
       x="-291.52271"
       y="78.729599"
       id="text4526"><tspan
         sodipodi:role="line"
         id="tspan4524"
         x="-291.52271"
         y="78.729599"
         style="stroke:none;stroke-width:0.75;stroke-miterlimit:4;stroke-dasharray:none;stroke-opacity:0.82987551">Optimistaion </tspan></text>
    <rect
       transform="rotate(-90)"
       style="opacity:1;vector-effect:none;fill:#457dcc;fill-opacity:0.81742739;stroke:#000000;stroke-width:0.75;stroke-linecap:round;stroke-linejoin:round;stroke-miterlimit:4;stroke-dasharray:none;stroke-dashoffset:0;stroke-opacity:0.82987551"
       id="rect4491-3-7"
       width="18.520834"
       height="42.333332"
       x="-215.22917"
       y="86.502167" />
    <text
       xml:space="preserve"
       style="font-style:normal;font-variant:normal;font-weight:normal;font-stretch:normal;font-size:5.64444447px;line-height:100%;font-family:'TeX Gyre Adventor';-inkscape-font-specification:'TeX Gyre Adventor';text-align:center;letter-spacing:0px;word-spacing:0px;text-anchor:middle;fill:#000000;fill-opacity:1;stroke:none;stroke-width:0.75;stroke-linecap:butt;stroke-linejoin:miter;stroke-miterlimit:4;stroke-dasharray:none;stroke-opacity:0.82987551"
       x="107.45541"
       y="205.14784"
       id="text4522-5-5"><tspan
         sodipodi:role="line"
         x="107.45541"
         y="205.14784"
         style="text-align:center;text-anchor:middle;stroke:none;stroke-width:0.75;stroke-miterlimit:4;stroke-dasharray:none;stroke-opacity:0.82987551"
         id="tspan4564-2">Fitness</tspan><tspan
         sodipodi:role="line"
         x="107.45541"
         y="210.79228"
         style="text-align:center;text-anchor:middle;stroke:none;stroke-width:0.75;stroke-miterlimit:4;stroke-dasharray:none;stroke-opacity:0.82987551"
         id="tspan5762">Interpreter</tspan></text>
    <path
       style="fill:none;fill-rule:evenodd;stroke:#000000;stroke-width:0.75;stroke-linecap:butt;stroke-linejoin:miter;stroke-miterlimit:4;stroke-dasharray:none;stroke-opacity:0.82987551;marker-end:url(#Arrow2Send)"
       d="m 97.062506,217.875 v 13.22917"
       id="path4587"
       inkscape:connector-curvature="0" />
    <path
       style="fill:none;fill-rule:evenodd;stroke:#000000;stroke-width:0.75;stroke-linecap:butt;stroke-linejoin:miter;stroke-miterlimit:4;stroke-dasharray:none;stroke-opacity:0.82987551;marker-end:url(#marker5141)"
       d="M 118.22918,231.10417 V 217.875"
       id="path4589"
       inkscape:connector-curvature="0" />
    <rect
       transform="rotate(-90)"
       style="opacity:1;vector-effect:none;fill:#e3d7f4;fill-opacity:1;stroke:#000000;stroke-width:0.75;stroke-linecap:round;stroke-linejoin:round;stroke-miterlimit:4;stroke-dasharray:none;stroke-dashoffset:0;stroke-opacity:0.82987551"
       id="rect4510-4"
       width="100.54166"
       height="52.916668"
       x="-291.95834"
       y="147.33336" />
    <path
       style="opacity:1;vector-effect:none;fill:#55d400;fill-opacity:0.62655604;stroke:#000000;stroke-width:0.64999998;stroke-linecap:round;stroke-linejoin:round;stroke-miterlimit:4;stroke-dasharray:none;stroke-dashoffset:0;stroke-opacity:0.82987551"
       d="M 25.625002,280.84586 V 250.68334 H 62.66667 v 30.16252 z"
       id="rect4491-3-3"
       inkscape:connector-curvature="0"
       sodipodi:nodetypes="ccccc" />
    <rect
       transform="rotate(-90)"
       style="opacity:1;vector-effect:none;fill:none;fill-opacity:1;stroke:#000000;stroke-width:0.75;stroke-linecap:round;stroke-linejoin:round;stroke-miterlimit:4;stroke-dasharray:none;stroke-dashoffset:0;stroke-opacity:0.82987551"
       id="rect4510-6"
       width="100.54166"
       height="52.916668"
       x="-291.95834"
       y="15.041687" />
    <text
       xml:space="preserve"
       style="font-style:normal;font-variant:normal;font-weight:normal;font-stretch:normal;font-size:3.88055563px;line-height:100%;font-family:'TeX Gyre Adventor';-inkscape-font-specification:'TeX Gyre Adventor';text-align:end;letter-spacing:0px;word-spacing:0px;text-anchor:end;fill:#000000;fill-opacity:1;stroke:none;stroke-width:0.75;stroke-linecap:butt;stroke-linejoin:miter;stroke-miterlimit:4;stroke-dasharray:none;stroke-opacity:0.82987551"
       x="61.272831"
       y="254.35262"
       id="text4522-1"><tspan
         sodipodi:role="line"
         x="61.272831"
         y="254.35262"
         style="font-size:3.88055563px;text-align:end;text-anchor:end;stroke:none;stroke-width:0.75;stroke-miterlimit:4;stroke-dasharray:none;stroke-opacity:0.82987551"
         id="tspan5764">WIMS</tspan></text>
    <text
       transform="rotate(-90)"
       xml:space="preserve"
       style="font-style:normal;font-variant:normal;font-weight:normal;font-stretch:normal;font-size:5.64444447px;line-height:100%;font-family:'TeX Gyre Adventor';-inkscape-font-specification:'TeX Gyre Adventor';letter-spacing:0px;word-spacing:0px;fill:#000000;fill-opacity:1;stroke:none;stroke-width:0.75;stroke-linecap:butt;stroke-linejoin:miter;stroke-miterlimit:4;stroke-dasharray:none;stroke-opacity:0.82987551"
       x="-291.52271"
       y="12.583763"
       id="text4526-7"><tspan
         sodipodi:role="line"
         x="-291.52271"
         y="12.583763"
         style="stroke:none;stroke-width:0.75;stroke-miterlimit:4;stroke-dasharray:none;stroke-opacity:0.82987551"
         id="tspan5754">Neutronics</tspan></text>
    <rect
       transform="rotate(-90)"
       style="opacity:1;vector-effect:none;fill:#457dcc;fill-opacity:0.81742739;stroke:#000000;stroke-width:0.75;stroke-linecap:round;stroke-linejoin:round;stroke-miterlimit:4;stroke-dasharray:none;stroke-dashoffset:0;stroke-opacity:0.82987551"
       id="rect4491-3-7-2"
       width="18.520834"
       height="42.333332"
       x="-215.22917"
       y="20.356331" />
    <text
       xml:space="preserve"
       style="font-style:normal;font-variant:normal;font-weight:normal;font-stretch:normal;font-size:5.64444447px;line-height:100%;font-family:'TeX Gyre Adventor';-inkscape-font-specification:'TeX Gyre Adventor';text-align:center;letter-spacing:0px;word-spacing:0px;text-anchor:middle;fill:#000000;fill-opacity:1;stroke:none;stroke-width:0.75;stroke-linecap:butt;stroke-linejoin:miter;stroke-miterlimit:4;stroke-dasharray:none;stroke-opacity:0.82987551"
       x="30.730566"
       y="205.19547"
       id="text4522-5-0"><tspan
         sodipodi:role="line"
         id="tspan4520-3-2"
         x="30.730566"
         y="205.19547"
         style="text-align:center;text-anchor:middle;stroke:none;stroke-width:0.75;stroke-miterlimit:4;stroke-dasharray:none;stroke-opacity:0.82987551">File</tspan><tspan
         sodipodi:role="line"
         x="30.730566"
         y="210.83992"
         style="text-align:center;text-anchor:middle;stroke:none;stroke-width:0.75;stroke-miterlimit:4;stroke-dasharray:none;stroke-opacity:0.82987551"
         id="tspan4564-3">Parser</tspan></text>
    <text
       xml:space="preserve"
       style="font-style:normal;font-variant:normal;font-weight:normal;font-stretch:normal;font-size:5.64444447px;line-height:100%;font-family:'TeX Gyre Adventor';-inkscape-font-specification:'TeX Gyre Adventor';text-align:center;letter-spacing:0px;word-spacing:0px;text-anchor:middle;fill:#000000;fill-opacity:1;stroke:none;stroke-width:0.75;stroke-linecap:butt;stroke-linejoin:miter;stroke-miterlimit:4;stroke-dasharray:none;stroke-opacity:0.82987551"
       x="52.131592"
       y="205.19547"
       id="text4522-5-5-7"><tspan
         sodipodi:role="line"
         id="tspan4520-3-6-5"
         x="52.131592"
         y="205.19547"
         style="text-align:center;text-anchor:middle;stroke:none;stroke-width:0.75;stroke-miterlimit:4;stroke-dasharray:none;stroke-opacity:0.82987551">File</tspan><tspan
         sodipodi:role="line"
         x="52.131592"
         y="210.83992"
         style="text-align:center;text-anchor:middle;stroke:none;stroke-width:0.75;stroke-miterlimit:4;stroke-dasharray:none;stroke-opacity:0.82987551"
         id="tspan4564-2-9">Gen</tspan></text>
    <g
       style="opacity:0.98000004"
       id="g2341-6"
       transform="translate(24.563077,85.445835)">
      <path
         sodipodi:nodetypes="ccccc"
         inkscape:connector-curvature="0"
         id="rect4493-9-0-0-4"
         d="m 21.166667,149.89166 v -16.93333 h 14.816665 v 16.93333 z"
         style="opacity:1;vector-effect:none;fill:#ffffff;fill-opacity:1;stroke:none;stroke-width:0.75;stroke-linecap:round;stroke-linejoin:round;stroke-miterlimit:4;stroke-dasharray:none;stroke-dashoffset:0;stroke-opacity:0.82987551" />
      <path
         sodipodi:nodetypes="ccccc"
         inkscape:connector-curvature="0"
         id="rect4493-9-0-7"
         d="m 21.166667,149.89166 v -16.93333 h 14.816665 v 16.93333 z"
         style="opacity:1;vector-effect:none;fill:#ffcc00;fill-opacity:0.53526976;stroke:#000000;stroke-width:0.75;stroke-linecap:round;stroke-linejoin:round;stroke-miterlimit:4;stroke-dasharray:none;stroke-dashoffset:0;stroke-opacity:0.82987551" />
      <path
         sodipodi:nodetypes="cccccc"
         inkscape:connector-curvature="0"
         id="path1645-4-4"
         d="m 33.866664,139.57291 v 12.96458 l -14.816665,1e-5 v 0 -16.93334 h 10.847916"
         style="opacity:1;vector-effect:none;fill:#ffffff;fill-opacity:1;stroke:none;stroke-width:0.75;stroke-linecap:round;stroke-linejoin:round;stroke-miterlimit:4;stroke-dasharray:none;stroke-dashoffset:0;stroke-opacity:0.82987551" />
      <path
         sodipodi:nodetypes="cccccc"
         inkscape:connector-curvature="0"
         id="path1645-8"
         d="m 33.866645,139.57293 v 12.96458 H 19.04998 v 0 -16.93333 h 10.847916"
         style="opacity:1;vector-effect:none;fill:#ffcc00;fill-opacity:0.5254902;stroke:#000000;stroke-width:0.75;stroke-linecap:round;stroke-linejoin:round;stroke-miterlimit:4;stroke-dasharray:none;stroke-dashoffset:0;stroke-opacity:0.82987551" />
      <path
         inkscape:connector-curvature="0"
         id="rect4493-9-0-6-5"
         d="m 29.903115,135.59917 3.96875,3.96875 z m -0.0052,0.005 v 3.96875 h 3.96875 z"
         style="opacity:1;vector-effect:none;fill:#ffcc00;fill-opacity:0.5254902;stroke:#000000;stroke-width:0.75;stroke-linecap:round;stroke-linejoin:round;stroke-miterlimit:4;stroke-dasharray:none;stroke-dashoffset:0;stroke-opacity:0.82987551" />
    </g>
    <path
       style="fill:none;fill-rule:evenodd;stroke:#000000;stroke-width:0.75;stroke-linecap:butt;stroke-linejoin:miter;stroke-miterlimit:4;stroke-dasharray:none;stroke-opacity:0.82987551;marker-end:url(#marker5141-9)"
       d="m 52.083336,221.05 v -4.49791"
       id="path4589-2"
       inkscape:connector-curvature="0"
       sodipodi:nodetypes="cc" />
    <g
       id="g2341"
       transform="translate(3.4036161,85.445835)">
      <path
         sodipodi:nodetypes="ccccc"
         inkscape:connector-curvature="0"
         id="rect4493-9-0-0"
         d="m 21.166667,149.89166 v -16.93333 h 14.816665 v 16.93333 z"
         style="opacity:1;vector-effect:none;fill:#ffffff;fill-opacity:1;stroke:none;stroke-width:0.75;stroke-linecap:round;stroke-linejoin:round;stroke-miterlimit:4;stroke-dasharray:none;stroke-dashoffset:0;stroke-opacity:0.82987551" />
      <path
         sodipodi:nodetypes="ccccc"
         inkscape:connector-curvature="0"
         id="rect4493-9-0"
         d="m 21.166667,149.89166 v -16.93333 h 14.816665 v 16.93333 z"
         style="opacity:1;vector-effect:none;fill:#ffcc00;fill-opacity:0.53526976;stroke:#000000;stroke-width:0.75;stroke-linecap:round;stroke-linejoin:round;stroke-miterlimit:4;stroke-dasharray:none;stroke-dashoffset:0;stroke-opacity:0.82987551" />
      <path
         sodipodi:nodetypes="cccccc"
         inkscape:connector-curvature="0"
         id="path1645-4"
         d="m 33.866664,139.57291 v 12.96458 l -14.816665,1e-5 v 0 -16.93334 h 10.847916"
         style="opacity:1;vector-effect:none;fill:#ffffff;fill-opacity:1;stroke:none;stroke-width:0.75;stroke-linecap:round;stroke-linejoin:round;stroke-miterlimit:4;stroke-dasharray:none;stroke-dashoffset:0;stroke-opacity:0.82987551" />
      <path
         sodipodi:nodetypes="cccccc"
         inkscape:connector-curvature="0"
         id="path1645"
         d="m 33.866645,139.57293 v 12.96458 H 19.04998 v 0 -16.93333 h 10.847916"
         style="opacity:1;vector-effect:none;fill:#ffcc00;fill-opacity:0.5254902;stroke:#000000;stroke-width:0.75;stroke-linecap:round;stroke-linejoin:round;stroke-miterlimit:4;stroke-dasharray:none;stroke-dashoffset:0;stroke-opacity:0.82987551" />
      <path
         inkscape:connector-curvature="0"
         id="rect4493-9-0-6"
         d="m 29.903115,135.59917 3.96875,3.96875 z m -0.0052,0.005 v 3.96875 h 3.96875 z"
         style="opacity:1;vector-effect:none;fill:#ffcc00;fill-opacity:0.5254902;stroke:#000000;stroke-width:0.75;stroke-linecap:round;stroke-linejoin:round;stroke-miterlimit:4;stroke-dasharray:none;stroke-dashoffset:0;stroke-opacity:0.82987551" />
    </g>
    <rect
       transform="rotate(-90)"
       style="opacity:1;vector-effect:none;fill:#54d300;fill-opacity:0.61568627;stroke:#000000;stroke-width:0.75;stroke-linecap:round;stroke-linejoin:round;stroke-miterlimit:4;stroke-dasharray:none;stroke-dashoffset:0;stroke-opacity:0.82987551"
       id="rect4491-5"
       width="18.520834"
       height="42.333332"
       x="-286.66669"
       y="152.62502" />
    <rect
       transform="rotate(-90)"
       style="opacity:1;vector-effect:none;fill:#54d300;fill-opacity:0.61568627;stroke:#000000;stroke-width:0.75;stroke-linecap:round;stroke-linejoin:round;stroke-miterlimit:4;stroke-dasharray:none;stroke-dashoffset:0;stroke-opacity:0.82987551"
       id="rect4493-4"
       width="5.2916665"
       height="42.333332"
       x="-262.85416"
       y="152.62502" />
    <rect
       transform="rotate(-90)"
       style="opacity:1;vector-effect:none;fill:#55d400;fill-opacity:0.62655604;stroke:#000000;stroke-width:0.75;stroke-linecap:round;stroke-linejoin:round;stroke-miterlimit:4;stroke-dasharray:none;stroke-dashoffset:0;stroke-opacity:0.82987551"
       id="rect4491-3-74"
       width="18.520834"
       height="42.333332"
       x="-252.27081"
       y="152.62502" />
    <text
       xml:space="preserve"
       style="font-style:normal;font-variant:normal;font-weight:normal;font-stretch:normal;font-size:5.64444447px;line-height:100%;font-family:'TeX Gyre Adventor';-inkscape-font-specification:'TeX Gyre Adventor';letter-spacing:0px;word-spacing:0px;opacity:0.98000004;fill:#000000;fill-opacity:1;stroke:none;stroke-width:0.75;stroke-linecap:butt;stroke-linejoin:miter;stroke-miterlimit:4;stroke-dasharray:none;stroke-opacity:0.82987551"
       x="158.14319"
       y="279.7113"
       id="text4514-3"><tspan
         sodipodi:role="line"
         id="tspan4512-0"
         x="158.14319"
         y="279.7113"
         style="stroke:none;stroke-width:0.75;stroke-miterlimit:4;stroke-dasharray:none;stroke-opacity:0.82987551">Tensorflow</tspan></text>
    <text
       xml:space="preserve"
       style="font-style:normal;font-variant:normal;font-weight:normal;font-stretch:normal;font-size:5.64444447px;line-height:100%;font-family:'TeX Gyre Adventor';-inkscape-font-specification:'TeX Gyre Adventor';letter-spacing:0px;word-spacing:0px;opacity:0.98000004;fill:#000000;fill-opacity:1;stroke:none;stroke-width:0.75;stroke-linecap:butt;stroke-linejoin:miter;stroke-miterlimit:4;stroke-dasharray:none;stroke-opacity:0.82987551"
       x="165.57053"
       y="262.5134"
       id="text4518-7"><tspan
         sodipodi:role="line"
         id="tspan4516-8"
         x="165.57053"
         y="262.5134"
         style="stroke:none;stroke-width:0.75;stroke-miterlimit:4;stroke-dasharray:none;stroke-opacity:0.82987551">Keras</tspan></text>
    <text
       xml:space="preserve"
       style="font-style:normal;font-variant:normal;font-weight:normal;font-stretch:normal;font-size:5.64444447px;line-height:100%;font-family:'TeX Gyre Adventor';-inkscape-font-specification:'TeX Gyre Adventor';letter-spacing:0px;word-spacing:0px;opacity:0.98000004;fill:#000000;fill-opacity:1;stroke:none;stroke-width:0.75;stroke-linecap:butt;stroke-linejoin:miter;stroke-miterlimit:4;stroke-dasharray:none;stroke-opacity:0.82987551"
       x="155.08913"
       y="242.23711"
       id="text4522-6"><tspan
         sodipodi:role="line"
         x="155.08913"
         y="242.23711"
         style="stroke:none;stroke-width:0.75;stroke-miterlimit:4;stroke-dasharray:none;stroke-opacity:0.82987551"
         id="tspan6143">Neural Model</tspan><tspan
         id="tspan1274"
         sodipodi:role="line"
         x="155.08913"
         y="247.88155"
         style="stroke:none;stroke-width:0.75;stroke-miterlimit:4;stroke-dasharray:none;stroke-opacity:0.82987551">or other stack</tspan></text>
    <text
       transform="rotate(-90)"
       xml:space="preserve"
       style="font-style:normal;font-variant:normal;font-weight:normal;font-stretch:normal;font-size:5.64444447px;line-height:100%;font-family:'TeX Gyre Adventor';-inkscape-font-specification:'TeX Gyre Adventor';letter-spacing:0px;word-spacing:0px;opacity:0.98000004;fill:#000000;fill-opacity:1;stroke:none;stroke-width:0.75;stroke-linecap:butt;stroke-linejoin:miter;stroke-miterlimit:4;stroke-dasharray:none;stroke-opacity:0.82987551"
       x="-291.52271"
       y="144.87544"
       id="text4526-4"><tspan
         sodipodi:role="line"
         id="tspan4524-3"
         x="-291.52271"
         y="144.87544"
         style="stroke:none;stroke-width:0.75;stroke-miterlimit:4;stroke-dasharray:none;stroke-opacity:0.82987551">Surrogate Model</tspan></text>
    <rect
       transform="rotate(-90)"
       style="opacity:1;vector-effect:none;fill:#457dcc;fill-opacity:0.81742739;stroke:#000000;stroke-width:0.75;stroke-linecap:round;stroke-linejoin:round;stroke-miterlimit:4;stroke-dasharray:none;stroke-dashoffset:0;stroke-opacity:0.82987551"
       id="rect4491-3-7-1"
       width="18.520834"
       height="42.333332"
       x="-215.22917"
       y="152.64801" />
    <path
       style="opacity:0.98000004;fill:none;fill-rule:evenodd;stroke:#000000;stroke-width:0.75;stroke-linecap:butt;stroke-linejoin:miter;stroke-miterlimit:4;stroke-dasharray:none;stroke-opacity:0.82987551;marker-end:url(#Arrow2Send-5)"
       d="m 163.20835,217.87499 v 13.22917"
       id="path4587-6"
       inkscape:connector-curvature="0" />
    <path
       style="opacity:0.98000004;fill:none;fill-rule:evenodd;stroke:#000000;stroke-width:0.75;stroke-linecap:butt;stroke-linejoin:miter;stroke-miterlimit:4;stroke-dasharray:none;stroke-opacity:0.82987551;marker-end:url(#marker5141-7)"
       d="M 184.37502,231.10416 V 217.87499"
       id="path4589-8"
       inkscape:connector-curvature="0" />
    <g
       transform="translate(10.279171,53.695834)"
       id="g5100">
      <rect
         y="148.07521"
         x="-85.156944"
         height="42.333332"
         width="18.520834"
         id="rect4491-3-3-3-5"
         style="opacity:1;vector-effect:none;fill:#457dcc;fill-opacity:0.81742739;stroke:#000000;stroke-width:0.75;stroke-linecap:round;stroke-linejoin:round;stroke-miterlimit:4;stroke-dasharray:none;stroke-dashoffset:0;stroke-opacity:0.82987551"
         transform="rotate(-90)" />
      <text
         id="text4522-1-6-3"
         y="77.982147"
         x="169.42691"
         style="font-style:normal;font-variant:normal;font-weight:normal;font-stretch:normal;font-size:5.64444447px;line-height:100%;font-family:'TeX Gyre Adventor';-inkscape-font-specification:'TeX Gyre Adventor';text-align:center;letter-spacing:0px;word-spacing:0px;text-anchor:middle;opacity:0.98000004;fill:#000000;fill-opacity:1;stroke:none;stroke-width:0.75;stroke-linecap:butt;stroke-linejoin:miter;stroke-miterlimit:4;stroke-dasharray:none;stroke-opacity:0.82987551"
         xml:space="preserve"><tspan
           id="tspan1356"
           style="text-align:center;text-anchor:middle;stroke:none;stroke-width:0.75;stroke-miterlimit:4;stroke-dasharray:none;stroke-opacity:0.82987551"
           y="77.982147"
           x="169.42691"
           sodipodi:role="line">ANALYSIS</tspan></text>
    </g>
    <text
       id="text5120"
       y="122.08348"
       x="6.880589"
       style="font-style:normal;font-variant:normal;font-weight:normal;font-stretch:normal;font-size:12.25326538px;line-height:100%;font-family:'TeX Gyre Adventor';-inkscape-font-specification:'TeX Gyre Adventor';letter-spacing:0px;word-spacing:0px;fill:#000000;fill-opacity:1;stroke:none;stroke-width:0.5105527px;stroke-linecap:butt;stroke-linejoin:miter;stroke-opacity:1"
       xml:space="preserve"><tspan
         style="font-size:9.17222214px;line-height:100%;stroke-width:0.5105527px"
         y="122.08348"
         x="6.880589"
         sodipodi:role="line"
         id="tspan5993">Surrogate Framework</tspan><tspan
         id="tspan1297"
         style="font-size:9.17222214px;line-height:100%;stroke-width:0.5105527px"
         y="134.33675"
         x="6.880589"
         sodipodi:role="line">in Python3</tspan></text>
    <g
       id="g1562"
       transform="translate(4.4583359,87.562505)">
      <path
         style="opacity:0.98000004;vector-effect:none;fill:#ececec;fill-opacity:1;stroke:#000000;stroke-width:0.64999998;stroke-linecap:round;stroke-linejoin:round;stroke-miterlimit:4;stroke-dasharray:none;stroke-dashoffset:0;stroke-opacity:0.82987551"
         d="m 37.041688,59.481679 a 21.166666,6.6145836 0 0 0 -21.166666,6.61459 21.166666,6.6145836 0 0 0 0.02119,0.18707 h -0.02119 v 18.33376 0.18707 h 0.02119 a 21.166666,6.6145836 0 0 0 21.145478,6.42752 21.166666,6.6145836 0 0 0 21.136694,-6.42752 h 0.02997 v -0.18707 -18.33376 h -0.02997 a 21.166666,6.6145836 0 0 0 0.02997,-0.18707 21.166666,6.6145836 0 0 0 -21.16667,-6.61459 z"
         id="rect4491-3-3-3-8-1-7"
         inkscape:connector-curvature="0" />
      <path
         style="opacity:0.98000004;vector-effect:none;fill:url(#linearGradient1128);fill-opacity:1;stroke:#000000;stroke-width:0.64999998;stroke-linecap:round;stroke-linejoin:round;stroke-miterlimit:4;stroke-dasharray:none;stroke-dashoffset:0;stroke-opacity:0.82987551"
         d="m 37.041682,59.481689 a 21.166666,6.6145835 0 0 0 -21.166666,6.61458 21.166666,6.6145835 0 0 0 0.02119,0.18707 h -0.02119 v 18.33376 0.18707 h 0.02119 a 21.166666,6.6145835 0 0 0 21.145478,6.42752 21.166666,6.6145835 0 0 0 21.136696,-6.42752 h 0.02997 v -0.18707 -18.33376 h -0.02997 a 21.166666,6.6145835 0 0 0 0.02997,-0.18707 21.166666,6.6145835 0 0 0 -21.166668,-6.61458 z"
         id="rect4491-3-3-3-8"
         inkscape:connector-curvature="0" />
      <path
         style="opacity:0.98000004;vector-effect:none;fill:url(#linearGradient1128-7);fill-opacity:1;stroke:#000000;stroke-width:0.64999998;stroke-linecap:round;stroke-linejoin:round;stroke-miterlimit:4;stroke-dasharray:none;stroke-dashoffset:0;stroke-opacity:0.82987551"
         d="m 37.041683,59.481679 a 21.166666,6.6145836 0 0 0 -21.166666,6.61459 21.166666,6.6145836 0 0 0 0.02119,0.18707 h -0.02119 v 18.33376 0.18707 h 0.02119 a 21.166666,6.6145836 0 0 0 21.145478,6.42752 21.166666,6.6145836 0 0 0 21.136695,-6.42752 h 0.02997 v -0.18707 -18.33376 h -0.02997 a 21.166666,6.6145836 0 0 0 0.02997,-0.18707 21.166666,6.6145836 0 0 0 -21.166669,-6.61459 z"
         id="rect4491-3-3-3-8-1"
         inkscape:connector-curvature="0" />
      <ellipse
         style="opacity:1;fill:#cacaca;fill-opacity:1;stroke:#000000;stroke-width:0.64999998;stroke-linecap:round;stroke-linejoin:round;stroke-miterlimit:4;stroke-dasharray:none;stroke-dashoffset:0;stroke-opacity:1"
         id="path1039-0"
         cx="37.041683"
         cy="66.021271"
         rx="21.166666"
         ry="6.6145835" />
      <text
         id="text4522-1-6-6"
         y="79.943626"
         x="37.135082"
         style="font-style:normal;font-variant:normal;font-weight:normal;font-stretch:normal;font-size:5.64444447px;line-height:100%;font-family:'TeX Gyre Adventor';-inkscape-font-specification:'TeX Gyre Adventor';text-align:center;letter-spacing:0px;word-spacing:0px;text-anchor:middle;opacity:0.96040009;fill:#000000;fill-opacity:1;stroke:none;stroke-width:0.75;stroke-linecap:butt;stroke-linejoin:miter;stroke-miterlimit:4;stroke-dasharray:none;stroke-opacity:0.82987551"
         xml:space="preserve"><tspan
           style="text-align:center;text-anchor:middle;stroke:none;stroke-width:0.75;stroke-miterlimit:4;stroke-dasharray:none;stroke-opacity:0.82987551"
           y="79.943626"
           x="37.135082"
           sodipodi:role="line"
           id="tspan5035-8">TRAINING</tspan><tspan
           style="text-align:center;text-anchor:middle;stroke:none;stroke-width:0.75;stroke-miterlimit:4;stroke-dasharray:none;stroke-opacity:0.82987551"
           y="85.588074"
           x="37.135082"
           sodipodi:role="line"
           id="tspan5104-8">SET</tspan></text>
      <ellipse
         style="opacity:1;fill:url(#linearGradient1404);fill-opacity:1;stroke:#000000;stroke-width:0.64999998;stroke-linecap:round;stroke-linejoin:round;stroke-miterlimit:4;stroke-dasharray:none;stroke-dashoffset:0;stroke-opacity:1"
         id="path1039-0-4"
         cx="37.035179"
         cy="66.014763"
         rx="21.166666"
         ry="6.6145835" />
    </g>
    <g
       id="g1552"
       transform="translate(4.4583359,87.562505)">
      <path
         style="opacity:0.98000004;vector-effect:none;fill:#ececec;fill-opacity:1;stroke:#000000;stroke-width:0.64999998;stroke-linecap:round;stroke-linejoin:round;stroke-miterlimit:4;stroke-dasharray:none;stroke-dashoffset:0;stroke-opacity:0.82987551"
         d="m 103.28456,59.481679 a 21.166666,6.6145836 0 0 0 -21.166665,6.61459 21.166666,6.6145836 0 0 0 0.02119,0.18707 h -0.02119 v 18.33376 0.18707 h 0.02119 a 21.166666,6.6145836 0 0 0 21.145475,6.42752 21.166666,6.6145836 0 0 0 21.1367,-6.42752 h 0.03 v -0.18707 -18.33376 h -0.03 a 21.166666,6.6145836 0 0 0 0.03,-0.18707 21.166666,6.6145836 0 0 0 -21.16667,-6.61459 z"
         id="rect4491-3-3-3-8-1-7-3"
         inkscape:connector-curvature="0" />
      <path
         style="opacity:0.98000004;vector-effect:none;fill:url(#linearGradient1271);fill-opacity:1;stroke:#000000;stroke-width:0.64999998;stroke-linecap:round;stroke-linejoin:round;stroke-miterlimit:4;stroke-dasharray:none;stroke-dashoffset:0;stroke-opacity:0.82987551"
         d="m 103.28455,59.481689 a 21.166666,6.6145835 0 0 0 -21.166661,6.61458 21.166666,6.6145835 0 0 0 0.02119,0.18707 h -0.02119 v 18.33376 0.18707 h 0.02119 a 21.166666,6.6145835 0 0 0 21.145481,6.42752 21.166666,6.6145835 0 0 0 21.13669,-6.42752 h 0.03 v -0.18707 -18.33376 h -0.03 a 21.166666,6.6145835 0 0 0 0.03,-0.18707 21.166666,6.6145835 0 0 0 -21.16667,-6.61458 z"
         id="rect4491-3-3-3-8-8"
         inkscape:connector-curvature="0" />
      <path
         style="opacity:0.98000004;vector-effect:none;fill:url(#linearGradient1273);fill-opacity:1;stroke:#000000;stroke-width:0.64999998;stroke-linecap:round;stroke-linejoin:round;stroke-miterlimit:4;stroke-dasharray:none;stroke-dashoffset:0;stroke-opacity:0.82987551"
         d="m 103.09049,59.481679 a 21.166666,6.6145836 0 0 0 -21.166661,6.61459 21.166666,6.6145836 0 0 0 0.02119,0.18707 h -0.02119 v 18.33376 0.18707 h 0.02119 a 21.166666,6.6145836 0 0 0 21.145481,6.42752 21.166666,6.6145836 0 0 0 21.13669,-6.42752 h 0.03 v -0.18707 -18.33376 h -0.03 a 21.166666,6.6145836 0 0 0 0.03,-0.18707 21.166666,6.6145836 0 0 0 -21.16667,-6.61459 z"
         id="rect4491-3-3-3-8-1-79"
         inkscape:connector-curvature="0" />
      <ellipse
         style="opacity:1;fill:#cacaca;fill-opacity:1;stroke:#000000;stroke-width:0.64999998;stroke-linecap:round;stroke-linejoin:round;stroke-miterlimit:4;stroke-dasharray:none;stroke-dashoffset:0;stroke-opacity:1"
         id="path1039-0-3"
         cx="103.28456"
         cy="66.021271"
         rx="21.166666"
         ry="6.6145835" />
      <text
         id="text4522-1-6-6-3"
         y="83.118629"
         x="102.93822"
         style="font-style:normal;font-variant:normal;font-weight:normal;font-stretch:normal;font-size:5.64444447px;line-height:100%;font-family:'TeX Gyre Adventor';-inkscape-font-specification:'TeX Gyre Adventor';text-align:center;letter-spacing:0px;word-spacing:0px;text-anchor:middle;opacity:0.94119215;fill:#000000;fill-opacity:1;stroke:none;stroke-width:0.75;stroke-linecap:butt;stroke-linejoin:miter;stroke-miterlimit:4;stroke-dasharray:none;stroke-opacity:0.82987551"
         xml:space="preserve"><tspan
           style="text-align:center;text-anchor:middle;stroke:none;stroke-width:0.75;stroke-miterlimit:4;stroke-dasharray:none;stroke-opacity:0.82987551"
           y="83.118629"
           x="102.93822"
           sodipodi:role="line"
           id="tspan5104-8-8">RESULTS</tspan></text>
      <ellipse
         style="opacity:1;fill:url(#linearGradient1404-3);fill-opacity:1;stroke:#000000;stroke-width:0.64999998;stroke-linecap:round;stroke-linejoin:round;stroke-miterlimit:4;stroke-dasharray:none;stroke-dashoffset:0;stroke-opacity:1"
         id="path1039-0-4-3"
         cx="103.09051"
         cy="66.09626"
         rx="21.166666"
         ry="6.6145835" />
    </g>
    <g
       id="g1543"
       transform="translate(4.4583359,87.562505)">
      <g
         style="opacity:0.98000004"
         id="g1200-5-1"
         transform="translate(206.44207,-8.4666643)">
        <g
           transform="translate(9.290387,-38.551647)"
           id="g1190-3-9">
          <path
             style="opacity:0.98000004;vector-effect:none;fill:#ececec;fill-opacity:1;stroke:#000000;stroke-width:0.64999998;stroke-linecap:round;stroke-linejoin:round;stroke-miterlimit:4;stroke-dasharray:none;stroke-dashoffset:0;stroke-opacity:0.82987551"
             d="m -46.302079,106.49999 a 21.166666,6.6145836 0 0 0 -21.166666,6.61459 21.166666,6.6145836 0 0 0 0.02119,0.18707 h -0.02119 v 18.33376 0.18707 h 0.02119 a 21.166666,6.6145836 0 0 0 21.145478,6.42752 21.166666,6.6145836 0 0 0 21.136694,-6.42752 h 0.02997 v -0.18707 -18.33376 h -0.02997 a 21.166666,6.6145836 0 0 0 0.02997,-0.18707 21.166666,6.6145836 0 0 0 -21.16667,-6.61459 z"
             id="rect4491-3-3-3-8-1-7-3-0"
             inkscape:connector-curvature="0" />
          <path
             style="opacity:0.98000004;vector-effect:none;fill:url(#linearGradient1332);fill-opacity:1;stroke:#000000;stroke-width:0.64999998;stroke-linecap:round;stroke-linejoin:round;stroke-miterlimit:4;stroke-dasharray:none;stroke-dashoffset:0;stroke-opacity:0.82987551"
             d="m -46.302085,106.5 a 21.166666,6.6145835 0 0 0 -21.166666,6.61458 21.166666,6.6145835 0 0 0 0.02119,0.18707 h -0.02119 v 18.33376 0.18707 h 0.02119 a 21.166666,6.6145835 0 0 0 21.145478,6.42752 21.166666,6.6145835 0 0 0 21.136696,-6.42752 h 0.02997 v -0.18707 -18.33376 h -0.02997 a 21.166666,6.6145835 0 0 0 0.02997,-0.18707 A 21.166666,6.6145835 0 0 0 -46.302085,106.5 Z"
             id="rect4491-3-3-3-8-8-9"
             inkscape:connector-curvature="0" />
          <ellipse
             style="opacity:1;fill:#cacaca;fill-opacity:1;stroke:#000000;stroke-width:0.64999998;stroke-linecap:round;stroke-linejoin:round;stroke-miterlimit:4;stroke-dasharray:none;stroke-dashoffset:0;stroke-opacity:1"
             id="path1039-0-3-8"
             cx="-46.302082"
             cy="113.03958"
             rx="21.166666"
             ry="6.6145835" />
          <path
             style="opacity:0.98000004;vector-effect:none;fill:url(#linearGradient1334);fill-opacity:1;stroke:#000000;stroke-width:0.64999998;stroke-linecap:round;stroke-linejoin:round;stroke-miterlimit:4;stroke-dasharray:none;stroke-dashoffset:0;stroke-opacity:0.82987551"
             d="m -46.496145,106.49999 a 21.166666,6.6145836 0 0 0 -21.166666,6.61459 21.166666,6.6145836 0 0 0 0.02119,0.18707 h -0.02119 v 18.33376 0.18707 h 0.02119 a 21.166666,6.6145836 0 0 0 21.145478,6.42752 21.166666,6.6145836 0 0 0 21.136695,-6.42752 h 0.02997 v -0.18707 -18.33376 h -0.02997 a 21.166666,6.6145836 0 0 0 0.02997,-0.18707 21.166666,6.6145836 0 0 0 -21.166669,-6.61459 z"
             id="rect4491-3-3-3-8-1-79-8"
             inkscape:connector-curvature="0" />
        </g>
        <text
           xml:space="preserve"
           style="font-style:normal;font-variant:normal;font-weight:normal;font-stretch:normal;font-size:5.64444447px;line-height:100%;font-family:'TeX Gyre Adventor';-inkscape-font-specification:'TeX Gyre Adventor';text-align:center;letter-spacing:0px;word-spacing:0px;text-anchor:middle;opacity:0.96040009;fill:#000000;fill-opacity:1;stroke:none;stroke-width:0.75;stroke-linecap:butt;stroke-linejoin:miter;stroke-miterlimit:4;stroke-dasharray:none;stroke-opacity:0.82987551"
           x="-37.358025"
           y="88.939468"
           id="text4522-1-6-6-3-5"><tspan
             sodipodi:role="line"
             x="-37.358025"
             y="88.939468"
             style="text-align:center;text-anchor:middle;stroke:none;stroke-width:0.75;stroke-miterlimit:4;stroke-dasharray:none;stroke-opacity:0.82987551"
             id="tspan1336">ESTIMATED</tspan><tspan
             sodipodi:role="line"
             x="-37.358025"
             y="94.583916"
             style="text-align:center;text-anchor:middle;stroke:none;stroke-width:0.75;stroke-miterlimit:4;stroke-dasharray:none;stroke-opacity:0.82987551"
             id="tspan1340">RESULT</tspan></text>
      </g>
      <ellipse
         style="opacity:1;fill:url(#linearGradient1404-8);fill-opacity:1;stroke:#000000;stroke-width:0.64999998;stroke-linecap:round;stroke-linejoin:round;stroke-miterlimit:4;stroke-dasharray:none;stroke-dashoffset:0;stroke-opacity:1"
         id="path1039-0-4-7"
         cx="169.33334"
         cy="66.021271"
         rx="21.166666"
         ry="6.6145835" />
    </g>
    <path
       style="fill:none;stroke:#000000;stroke-width:0.75;stroke-linecap:butt;stroke-linejoin:miter;stroke-miterlimit:4;stroke-dasharray:none;stroke-opacity:1;marker-end:url(#marker2252)"
       d="m 41.500002,196.70834 v -15.875"
       id="path1570"
       inkscape:connector-curvature="0"
       sodipodi:nodetypes="cc" />
    <path
       style="fill:none;stroke:#000000;stroke-width:0.75;stroke-linecap:butt;stroke-linejoin:miter;stroke-miterlimit:4;stroke-dasharray:none;stroke-opacity:1;marker-end:url(#marker1594)"
       d="m 41.500002,186.125 h 63.500008 v -5.29166"
       id="path1572"
       inkscape:connector-curvature="0"
       sodipodi:nodetypes="ccc" />
    <path
       style="fill:none;stroke:#000000;stroke-width:0.75;stroke-linecap:butt;stroke-linejoin:miter;stroke-miterlimit:4;stroke-dasharray:none;stroke-opacity:1;marker-end:url(#marker2140)"
       d="m 107.64584,146.43751 v -2.64584 h 34.39583 v -13.22916 h 14.55209"
       id="path1574"
       inkscape:connector-curvature="0"
       sodipodi:nodetypes="ccccc" />
    <path
       style="fill:none;stroke:#000000;stroke-width:0.75;stroke-linecap:butt;stroke-linejoin:miter;stroke-miterlimit:4;stroke-dasharray:none;stroke-opacity:1"
       d="m 173.79167,146.43751 v -2.64584 h -31.75 v -13.22916"
       id="path1576"
       inkscape:connector-curvature="0"
       sodipodi:nodetypes="cccc" />
    <path
       style="fill:none;stroke:#000000;stroke-width:0.75;stroke-linecap:butt;stroke-linejoin:miter;stroke-miterlimit:4;stroke-dasharray:none;stroke-opacity:1;marker-end:url(#marker1934)"
       d="m 176.43752,196.70834 v -15.875"
       id="path1578"
       inkscape:connector-curvature="0" />
    <path
       style="fill:none;stroke:#000000;stroke-width:0.75;stroke-linecap:butt;stroke-linejoin:miter;stroke-miterlimit:4;stroke-dasharray:none;stroke-opacity:1;marker-end:url(#marker1752)"
       d="m 130.13542,204.64584 h 21.16667"
       id="path1580"
       inkscape:connector-curvature="0"
       sodipodi:nodetypes="cc" />
    <path
       style="fill:none;stroke:#000000;stroke-width:0.75;stroke-linecap:butt;stroke-linejoin:miter;stroke-miterlimit:4;stroke-dasharray:none;stroke-opacity:1;marker-end:url(#marker1840)"
       d="M 151.30209,209.9375 H 130.13542"
       id="path1582"
       inkscape:connector-curvature="0"
       sodipodi:nodetypes="cc" />
    <path
       style="fill:none;stroke:#000000;stroke-width:0.75;stroke-linecap:butt;stroke-linejoin:miter;stroke-miterlimit:4;stroke-dasharray:none;stroke-opacity:1;marker-end:url(#marker3414)"
       d="m 110.29167,196.70834 v -15.875"
       id="path1584"
       inkscape:connector-curvature="0"
       sodipodi:nodetypes="cc" />
    <path
       style="color:#000000;font-style:normal;font-variant:normal;font-weight:normal;font-stretch:normal;font-size:medium;line-height:normal;font-family:sans-serif;font-variant-ligatures:normal;font-variant-position:normal;font-variant-caps:normal;font-variant-numeric:normal;font-variant-alternates:normal;font-feature-settings:normal;text-indent:0;text-align:start;text-decoration:none;text-decoration-line:none;text-decoration-style:solid;text-decoration-color:#000000;letter-spacing:normal;word-spacing:normal;text-transform:none;writing-mode:lr-tb;direction:ltr;text-orientation:mixed;dominant-baseline:auto;baseline-shift:baseline;text-anchor:start;white-space:normal;shape-padding:0;clip-rule:nonzero;display:inline;overflow:visible;visibility:visible;opacity:1;isolation:auto;mix-blend-mode:normal;color-interpolation:sRGB;color-interpolation-filters:linearRGB;solid-color:#000000;solid-opacity:1;vector-effect:none;fill:#000000;fill-opacity:1;fill-rule:nonzero;stroke:none;stroke-width:0.75299996;stroke-linecap:round;stroke-linejoin:round;stroke-miterlimit:4;stroke-dasharray:none;stroke-dashoffset:0;stroke-opacity:1;color-rendering:auto;image-rendering:auto;shape-rendering:auto;text-rendering:auto;enable-background:accumulate"
       d="m 110.29219,184.50189 c -0.93329,0 -1.69913,0.76583 -1.69912,1.69912 0,0.0899 0.009,0.17782 0.0227,0.26407 0.41359,-0.034 0.78724,0.18027 0.72708,-0.26407 0,-0.52796 0.42134,-0.94931 0.9493,-0.9493 0.52796,0 0.94723,0.42134 0.94723,0.9493 -0.12514,0.44057 0.38299,0.26407 0.7276,0.26407 0.0136,-0.0863 0.0227,-0.17415 0.0227,-0.26407 0,-0.93328 -0.76428,-1.69912 -1.69757,-1.69912 z"
       id="path3542"
       inkscape:connector-curvature="0"
       sodipodi:nodetypes="cccccccssc" />
    <path
       style="fill:none;stroke:#000000;stroke-width:0.75;stroke-linecap:butt;stroke-linejoin:miter;stroke-miterlimit:4;stroke-dasharray:none;stroke-opacity:1"
       d="m 105.00001,186.125 h 4.23333"
       id="path1224"
       inkscape:connector-curvature="0"
       sodipodi:nodetypes="cc" />
    <path
       style="fill:none;stroke:#000000;stroke-width:0.75;stroke-linecap:butt;stroke-linejoin:miter;stroke-miterlimit:4;stroke-dasharray:none;stroke-opacity:1;marker-end:url(#marker1236)"
       d="m 111.61459,186.125 h 59.53125 v 9.26042"
       id="path1226"
       inkscape:connector-curvature="0" />
    <text
       xml:space="preserve"
       style="font-style:normal;font-variant:normal;font-weight:normal;font-stretch:normal;font-size:5.64444447px;line-height:100%;font-family:'TeX Gyre Adventor';-inkscape-font-specification:'TeX Gyre Adventor';text-align:center;letter-spacing:0px;word-spacing:0px;text-anchor:middle;opacity:0.98000004;fill:#000000;fill-opacity:1;stroke:none;stroke-width:0.75;stroke-linecap:butt;stroke-linejoin:miter;stroke-miterlimit:4;stroke-dasharray:none;stroke-opacity:0.82987551"
       x="173.71135"
       y="205.19547"
       id="text4522-5-5-9"><tspan
         sodipodi:role="line"
         x="174.49408"
         y="205.19547"
         style="text-align:center;text-anchor:middle;stroke:none;stroke-width:0.75;stroke-miterlimit:4;stroke-dasharray:none;stroke-opacity:0.82987551"
         id="tspan5762-3">Model </tspan><tspan
         sodipodi:role="line"
         x="173.71135"
         y="210.83992"
         style="text-align:center;text-anchor:middle;stroke:none;stroke-width:0.75;stroke-miterlimit:4;stroke-dasharray:none;stroke-opacity:0.82987551"
         id="tspan1502">Interface</tspan></text>
    <path
       style="opacity:1;vector-effect:none;fill:#ffffff;fill-opacity:1;stroke:none;stroke-width:0.64999998;stroke-linecap:round;stroke-linejoin:round;stroke-miterlimit:4;stroke-dasharray:none;stroke-dashoffset:0;stroke-opacity:0.82987551"
       d="m 21.656253,283.75627 v -29.10418 h 37.041669 v 29.10418 z"
       id="rect4491-3-3-9-9-1-9"
       inkscape:connector-curvature="0"
       sodipodi:nodetypes="ccccc" />
    <path
       style="opacity:1;vector-effect:none;fill:#55d400;fill-opacity:0.62655604;stroke:#000000;stroke-width:0.64999998;stroke-linecap:round;stroke-linejoin:round;stroke-miterlimit:4;stroke-dasharray:none;stroke-dashoffset:0;stroke-opacity:0.82987551"
       d="M 21.656254,284.81463 V 254.6521 h 37.041668 v 30.16253 z"
       id="rect4491-3-3-9"
       inkscape:connector-curvature="0"
       sodipodi:nodetypes="ccccc" />
    <path
       style="opacity:1;vector-effect:none;fill:#ffffff;fill-opacity:1;stroke:none;stroke-width:0.64999998;stroke-linecap:round;stroke-linejoin:round;stroke-miterlimit:4;stroke-dasharray:none;stroke-dashoffset:0;stroke-opacity:0.82987551"
       d="M 17.687502,287.725 V 258.62082 H 54.72917 V 287.725 Z"
       id="rect4491-3-3-9-9-1"
       inkscape:connector-curvature="0"
       sodipodi:nodetypes="ccccc" />
    <path
       style="opacity:1;vector-effect:none;fill:#55d400;fill-opacity:0.62655604;stroke:#000000;stroke-width:0.64999998;stroke-linecap:round;stroke-linejoin:round;stroke-miterlimit:4;stroke-dasharray:none;stroke-dashoffset:0;stroke-opacity:0.82987551"
       d="M 17.687502,288.78336 V 258.62084 H 54.72917 v 30.16252 z"
       id="rect4491-3-3-9-9"
       inkscape:connector-curvature="0"
       sodipodi:nodetypes="ccccc" />
    <text
       xml:space="preserve"
       style="font-style:normal;font-variant:normal;font-weight:normal;font-stretch:normal;font-size:3.88055563px;line-height:100%;font-family:'TeX Gyre Adventor';-inkscape-font-specification:'TeX Gyre Adventor';text-align:end;letter-spacing:0px;word-spacing:0px;text-anchor:end;opacity:0.98000004;fill:#000000;fill-opacity:1;stroke:none;stroke-width:0.75;stroke-linecap:butt;stroke-linejoin:miter;stroke-miterlimit:4;stroke-dasharray:none;stroke-opacity:0.82987551"
       x="57.833256"
       y="258.05685"
       id="text4522-1-0"><tspan
         sodipodi:role="line"
         x="57.833256"
         y="258.05685"
         style="font-size:3.88055563px;text-align:end;text-anchor:end;stroke:none;stroke-width:0.75;stroke-miterlimit:4;stroke-dasharray:none;stroke-opacity:0.82987551"
         id="tspan5764-7">PANTHER</tspan></text>
    <text
       xml:space="preserve"
       style="font-style:normal;font-variant:normal;font-weight:normal;font-stretch:normal;font-size:3.88055563px;line-height:100%;font-family:'TeX Gyre Adventor';-inkscape-font-specification:'TeX Gyre Adventor';text-align:end;letter-spacing:0px;word-spacing:0px;text-anchor:end;opacity:0.98000004;fill:#000000;fill-opacity:1;stroke:none;stroke-width:0.75;stroke-linecap:butt;stroke-linejoin:miter;stroke-miterlimit:4;stroke-dasharray:none;stroke-opacity:0.82987551"
       x="53.368404"
       y="263.28229"
       id="text4522-1-3"><tspan
         sodipodi:role="line"
         x="53.368404"
         y="263.28229"
         style="font-size:4.93889713px;text-align:end;text-anchor:end;stroke:none;stroke-width:0.75;stroke-miterlimit:4;stroke-dasharray:none;stroke-opacity:0.82987551"
         id="tspan5764-1">SERPENT</tspan></text>
    <path
       style="fill:none;fill-rule:evenodd;stroke:#000000;stroke-width:0.75;stroke-linecap:butt;stroke-linejoin:miter;stroke-miterlimit:4;stroke-dasharray:none;stroke-opacity:0.82987551;marker-end:url(#Arrow2Send-2)"
       d="m 30.916669,215.22917 v 5.29167"
       id="path4587-2"
       inkscape:connector-curvature="0"
       sodipodi:nodetypes="cc" />
    <path
       style="opacity:0.98000004;fill:none;fill-rule:evenodd;stroke:#000000;stroke-width:0.75;stroke-linecap:butt;stroke-linejoin:miter;stroke-miterlimit:4;stroke-dasharray:none;stroke-opacity:0.82987551;marker-end:url(#marker5141-9-8)"
       d="m 52.083336,249.09583 1.5875,-5.02708 -1.5875,0.13229 1.058333,-4.89479"
       id="path4589-2-6"
       inkscape:connector-curvature="0"
       sodipodi:nodetypes="cccc" />
    <path
       style="opacity:0.98000004;fill:none;fill-rule:evenodd;stroke:#000000;stroke-width:0.75;stroke-linecap:butt;stroke-linejoin:miter;stroke-miterlimit:4;stroke-dasharray:none;stroke-opacity:0.82987551;marker-end:url(#Arrow2Send-2-6)"
       d="m 30.916669,237.98333 -1.322916,5.82084 1.322916,-0.52917 -1.058333,5.29167"
       id="path4587-2-6"
       inkscape:connector-curvature="0"
       sodipodi:nodetypes="cccc" />
    <text
       xml:space="preserve"
       style="font-style:normal;font-variant:normal;font-weight:normal;font-stretch:normal;font-size:3.88055563px;line-height:100%;font-family:'TeX Gyre Adventor';-inkscape-font-specification:'TeX Gyre Adventor';text-align:center;letter-spacing:0px;word-spacing:0px;text-anchor:middle;opacity:0.98000004;fill:#000000;fill-opacity:1;stroke:none;stroke-width:0.75;stroke-linecap:butt;stroke-linejoin:miter;stroke-miterlimit:4;stroke-dasharray:none;stroke-opacity:0.82987551"
       x="41.432755"
       y="241.78491"
       id="text4522-1-3-4"><tspan
         sodipodi:role="line"
         x="41.432755"
         y="241.78491"
         style="font-size:3.88055563px;text-align:center;text-anchor:middle;stroke:none;stroke-width:0.75;stroke-miterlimit:4;stroke-dasharray:none;stroke-opacity:0.82987551"
         id="tspan3785">Remote</tspan><tspan
         sodipodi:role="line"
         x="41.432755"
         y="245.66547"
         style="font-size:3.88055563px;text-align:center;text-anchor:middle;stroke:none;stroke-width:0.75;stroke-miterlimit:4;stroke-dasharray:none;stroke-opacity:0.82987551"
         id="tspan3809">or local file</tspan><tspan
         sodipodi:role="line"
         x="41.432755"
         y="249.54602"
         style="font-size:3.88055563px;text-align:center;text-anchor:middle;stroke:none;stroke-width:0.75;stroke-miterlimit:4;stroke-dasharray:none;stroke-opacity:0.82987551"
         id="tspan3811">interface</tspan></text>
    <text
       xml:space="preserve"
       style="font-style:normal;font-variant:normal;font-weight:normal;font-stretch:normal;font-size:3.88055563px;line-height:100%;font-family:'TeX Gyre Adventor';-inkscape-font-specification:'TeX Gyre Adventor';text-align:center;letter-spacing:0px;word-spacing:0px;text-anchor:middle;opacity:0.98000004;fill:#000000;fill-opacity:1;stroke:none;stroke-width:0.75;stroke-linecap:butt;stroke-linejoin:miter;stroke-miterlimit:4;stroke-dasharray:none;stroke-opacity:0.82987551"
       x="29.727644"
       y="229.01025"
       id="text4522-1-3-2"><tspan
         sodipodi:role="line"
         x="29.727644"
         y="229.01025"
         style="font-size:3.88055563px;text-align:center;text-anchor:middle;stroke:none;stroke-width:0.75;stroke-miterlimit:4;stroke-dasharray:none;stroke-opacity:0.82987551"
         id="tspan5764-1-8">INPUT</tspan><tspan
         sodipodi:role="line"
         x="29.727644"
         y="232.89081"
         style="font-size:3.88055563px;text-align:center;text-anchor:middle;stroke:none;stroke-width:0.75;stroke-miterlimit:4;stroke-dasharray:none;stroke-opacity:0.82987551"
         id="tspan3803">FILE</tspan></text>
    <text
       xml:space="preserve"
       style="font-style:normal;font-variant:normal;font-weight:normal;font-stretch:normal;font-size:3.88055563px;line-height:100%;font-family:'TeX Gyre Adventor';-inkscape-font-specification:'TeX Gyre Adventor';text-align:center;letter-spacing:0px;word-spacing:0px;text-anchor:middle;opacity:0.98000004;fill:#000000;fill-opacity:1;stroke:none;stroke-width:0.75;stroke-linecap:butt;stroke-linejoin:miter;stroke-miterlimit:4;stroke-dasharray:none;stroke-opacity:0.82987551"
       x="50.949192"
       y="229.03548"
       id="text4522-1-3-9"><tspan
         sodipodi:role="line"
         x="50.949192"
         y="229.03548"
         style="font-size:3.88055563px;text-align:center;text-anchor:middle;stroke:none;stroke-width:0.75;stroke-miterlimit:4;stroke-dasharray:none;stroke-opacity:0.82987551"
         id="tspan5764-1-60">OUTPUT</tspan><tspan
         sodipodi:role="line"
         x="50.949192"
         y="232.91603"
         style="font-size:3.88055563px;text-align:center;text-anchor:middle;stroke:none;stroke-width:0.75;stroke-miterlimit:4;stroke-dasharray:none;stroke-opacity:0.82987551"
         id="tspan3805">FILE</tspan></text>
  </g>
</svg>
