<?xml version="1.0" encoding="utf-8" standalone="no"?>
<!DOCTYPE svg PUBLIC "-//W3C//DTD SVG 1.1//EN"
  "http://www.w3.org/Graphics/SVG/1.1/DTD/svg11.dtd">
<!-- Created with matplotlib (https://matplotlib.org/) -->
<svg height="345.6pt" version="1.1" viewBox="0 0 460.8 345.6" width="460.8pt" xmlns="http://www.w3.org/2000/svg" xmlns:xlink="http://www.w3.org/1999/xlink">
 <defs>
  <style type="text/css">
*{stroke-linecap:butt;stroke-linejoin:round;}
  </style>
 </defs>
 <g id="figure_1">
  <g id="patch_1">
   <path d="M 0 345.6 
L 460.8 345.6 
L 460.8 0 
L 0 0 
z
" style="fill:#ffffff;"/>
  </g>
  <g id="axes_1">
   <g id="patch_2">
    <path d="M 57.6 307.584 
L 414.72 307.584 
L 414.72 41.472 
L 57.6 41.472 
z
" style="fill:#ffffff;"/>
   </g>
   <g id="PolyCollection_1">
    <defs>
     <path d="M 73.832727 -61.083374 
L 73.832727 -176.405628 
L 122.530909 -228.29016 
L 154.996364 -226.336796 
L 236.16 -238.353543 
L 317.323636 -280.521227 
L 398.487273 -245.993529 
L 398.487273 -220.784399 
L 398.487273 -220.784399 
L 317.323636 -192.504709 
L 236.16 -126.808341 
L 154.996364 -149.270177 
L 122.530909 -105.404368 
L 73.832727 -61.083374 
z
" id="mcc8db6bd67" style="stroke:#666666;stroke-opacity:0.5;"/>
    </defs>
    <g clip-path="url(#p86f48909fb)">
     <use style="fill:#666666;fill-opacity:0.5;stroke:#666666;stroke-opacity:0.5;" x="0" xlink:href="#mcc8db6bd67" y="345.6"/>
    </g>
   </g>
   <g id="PolyCollection_2">
    <defs>
     <path d="M 73.832727 -78.103349 
L 73.832727 -174.123609 
L 122.530909 -225.807097 
L 154.996364 -213.277672 
L 236.16 -227.058477 
L 317.323636 -250.425748 
L 398.487273 -244.21864 
L 398.487273 -220.784399 
L 398.487273 -220.784399 
L 317.323636 -200.215806 
L 236.16 -126.808341 
L 154.996364 -177.085489 
L 122.530909 -108.217289 
L 73.832727 -78.103349 
z
" id="m486ddcf314" style="stroke:#66a61e;stroke-opacity:0.75;"/>
    </defs>
    <g clip-path="url(#p86f48909fb)">
     <use style="fill:#66a61e;fill-opacity:0.75;stroke:#66a61e;stroke-opacity:0.75;" x="0" xlink:href="#m486ddcf314" y="345.6"/>
    </g>
   </g>
   <g id="matplotlib.axis_1">
    <g id="xtick_1">
     <g id="line2d_1">
      <defs>
       <path d="M 0 0 
L 0 3.5 
" id="m8b85771faa" style="stroke:#000000;stroke-width:0.8;"/>
      </defs>
      <g>
       <use style="stroke:#000000;stroke-width:0.8;" x="73.832727" xlink:href="#m8b85771faa" y="307.584"/>
      </g>
     </g>
     <g id="text_1">
      <!-- 20 -->
      <defs>
       <path d="M 44.484375 0 
L 4.390625 0 
L 4.390625 7.171875 
Q 9.328125 11.765625 13.453125 15.40625 
Q 17.578125 19.046875 20.875 22.1875 
Q 24.171875 25.34375 26.640625 28.21875 
Q 29.109375 31.109375 30.734375 34.234375 
Q 32.375 37.359375 33.171875 40.96875 
Q 33.984375 44.578125 33.984375 49.125 
Q 33.984375 55.46875 31.09375 58.78125 
Q 28.21875 62.109375 21.6875 62.109375 
Q 20.21875 62.109375 18.765625 61.890625 
Q 17.328125 61.671875 16.015625 61.296875 
Q 14.703125 60.9375 13.546875 60.46875 
Q 12.40625 60.015625 11.53125 59.515625 
L 9.8125 51.515625 
L 6.59375 51.515625 
L 6.59375 64.109375 
Q 10.296875 64.984375 13.890625 65.59375 
Q 17.484375 66.21875 21.6875 66.21875 
Q 32.421875 66.21875 37.8125 61.75 
Q 43.21875 57.28125 43.21875 49.125 
Q 43.21875 45.125 42.15625 41.703125 
Q 41.109375 38.28125 39.15625 35.125 
Q 37.203125 31.984375 34.375 28.921875 
Q 31.546875 25.875 27.921875 22.609375 
Q 24.3125 19.34375 19.984375 15.65625 
Q 15.671875 11.96875 10.796875 7.515625 
L 44.484375 7.515625 
z
" id="LiberationSerif-50"/>
       <path d="M 46.1875 33.015625 
Q 46.1875 24.8125 44.890625 18.453125 
Q 43.609375 12.109375 40.96875 7.78125 
Q 38.328125 3.46875 34.265625 1.234375 
Q 30.21875 -0.984375 24.703125 -0.984375 
Q 14.359375 -0.984375 9.078125 7.703125 
Q 3.8125 16.40625 3.8125 33.015625 
Q 3.8125 49.265625 9.078125 57.875 
Q 14.359375 66.5 25.09375 66.5 
Q 35.453125 66.5 40.8125 57.984375 
Q 46.1875 49.46875 46.1875 33.015625 
z
M 37.203125 33.015625 
Q 37.203125 40.046875 36.59375 45.5625 
Q 35.984375 51.078125 34.546875 54.859375 
Q 33.109375 58.640625 30.6875 60.609375 
Q 28.265625 62.59375 24.703125 62.59375 
Q 21.09375 62.59375 18.765625 60.609375 
Q 16.453125 58.640625 15.125 54.859375 
Q 13.8125 51.078125 13.296875 45.5625 
Q 12.796875 40.046875 12.796875 33.015625 
Q 12.796875 25.984375 13.296875 20.390625 
Q 13.8125 14.796875 15.125 10.90625 
Q 16.453125 7.03125 18.765625 4.953125 
Q 21.09375 2.875 24.703125 2.875 
Q 28.265625 2.875 30.6875 4.953125 
Q 33.109375 7.03125 34.546875 10.90625 
Q 35.984375 14.796875 36.59375 20.390625 
Q 37.203125 25.984375 37.203125 33.015625 
z
" id="LiberationSerif-48"/>
      </defs>
      <g transform="translate(68.832727 321.523062)scale(0.1 -0.1)">
       <use xlink:href="#LiberationSerif-50"/>
       <use x="50" xlink:href="#LiberationSerif-48"/>
      </g>
     </g>
    </g>
    <g id="xtick_2">
     <g id="line2d_2">
      <g>
       <use style="stroke:#000000;stroke-width:0.8;" x="122.530909" xlink:href="#m8b85771faa" y="307.584"/>
      </g>
     </g>
     <g id="text_2">
      <!-- 32 -->
      <defs>
       <path d="M 46.09375 17.828125 
Q 46.09375 13.375 44.53125 9.875 
Q 42.96875 6.390625 40.015625 3.96875 
Q 37.0625 1.5625 32.734375 0.28125 
Q 28.421875 -0.984375 22.90625 -0.984375 
Q 18.0625 -0.984375 13.515625 -0.390625 
Q 8.984375 0.203125 5.328125 1.125 
L 4.78125 14.890625 
L 8.015625 14.890625 
L 10.203125 5.71875 
Q 11.078125 5.21875 12.5 4.734375 
Q 13.921875 4.25 15.546875 3.875 
Q 17.1875 3.515625 18.921875 3.296875 
Q 20.65625 3.078125 22.125 3.078125 
Q 26.65625 3.078125 29.5625 4.203125 
Q 32.46875 5.328125 34.15625 7.34375 
Q 35.84375 9.375 36.46875 12.171875 
Q 37.109375 14.984375 37.109375 18.3125 
Q 37.109375 22.125 36.03125 24.640625 
Q 34.96875 27.15625 33.078125 28.6875 
Q 31.203125 30.21875 28.6875 30.921875 
Q 26.171875 31.640625 23.296875 31.78125 
L 16.3125 32.171875 
L 16.3125 36.1875 
L 23.296875 36.625 
Q 28.8125 36.921875 31.4375 40.046875 
Q 34.078125 43.171875 34.078125 49.515625 
Q 34.078125 52.6875 33.421875 55.046875 
Q 32.765625 57.421875 31.34375 58.984375 
Q 29.9375 60.546875 27.65625 61.328125 
Q 25.390625 62.109375 22.125 62.109375 
Q 20.65625 62.109375 19.15625 61.890625 
Q 17.671875 61.671875 16.296875 61.296875 
Q 14.9375 60.9375 13.765625 60.46875 
Q 12.59375 60.015625 11.71875 59.515625 
L 10.015625 51.515625 
L 6.78125 51.515625 
L 6.78125 64.109375 
Q 8.5 64.546875 10.203125 64.9375 
Q 11.921875 65.328125 13.765625 65.59375 
Q 15.625 65.875 17.671875 66.046875 
Q 19.734375 66.21875 22.125 66.21875 
Q 32.421875 66.21875 37.765625 62.25 
Q 43.109375 58.296875 43.109375 50.09375 
Q 43.109375 47.015625 42.28125 44.359375 
Q 41.453125 41.703125 39.6875 39.640625 
Q 37.9375 37.59375 35.21875 36.203125 
Q 32.515625 34.8125 28.8125 34.28125 
Q 37.703125 33.25 41.890625 29.171875 
Q 46.09375 25.09375 46.09375 17.828125 
z
" id="LiberationSerif-51"/>
      </defs>
      <g transform="translate(117.530909 321.523062)scale(0.1 -0.1)">
       <use xlink:href="#LiberationSerif-51"/>
       <use x="50" xlink:href="#LiberationSerif-50"/>
      </g>
     </g>
    </g>
    <g id="xtick_3">
     <g id="line2d_3">
      <g>
       <use style="stroke:#000000;stroke-width:0.8;" x="154.996364" xlink:href="#m8b85771faa" y="307.584"/>
      </g>
     </g>
     <g id="text_3">
      <!-- 40 -->
      <defs>
       <path d="M 39.546875 14.40625 
L 39.546875 0 
L 31.15625 0 
L 31.15625 14.40625 
L 1.953125 14.40625 
L 1.953125 20.90625 
L 33.9375 65.828125 
L 39.546875 65.828125 
L 39.546875 21.390625 
L 48.4375 21.390625 
L 48.4375 14.40625 
z
M 31.15625 54.34375 
L 30.90625 54.34375 
L 7.46875 21.390625 
L 31.15625 21.390625 
z
" id="LiberationSerif-52"/>
      </defs>
      <g transform="translate(149.996364 321.523062)scale(0.1 -0.1)">
       <use xlink:href="#LiberationSerif-52"/>
       <use x="50" xlink:href="#LiberationSerif-48"/>
      </g>
     </g>
    </g>
    <g id="xtick_4">
     <g id="line2d_4">
      <g>
       <use style="stroke:#000000;stroke-width:0.8;" x="236.16" xlink:href="#m8b85771faa" y="307.584"/>
      </g>
     </g>
     <g id="text_4">
      <!-- 60 -->
      <defs>
       <path d="M 47.015625 20.3125 
Q 47.015625 15.234375 45.71875 11.28125 
Q 44.4375 7.328125 41.890625 4.59375 
Q 39.359375 1.859375 35.625 0.4375 
Q 31.890625 -0.984375 27 -0.984375 
Q 21.625 -0.984375 17.40625 1.109375 
Q 13.1875 3.21875 10.28125 7.390625 
Q 7.375 11.578125 5.828125 17.796875 
Q 4.296875 24.03125 4.296875 32.328125 
Q 4.296875 41.21875 6.3125 47.609375 
Q 8.34375 54 11.734375 58.15625 
Q 15.140625 62.3125 19.578125 64.265625 
Q 24.03125 66.21875 28.8125 66.21875 
Q 32.46875 66.21875 36.21875 65.71875 
Q 39.984375 65.234375 43.015625 64.5 
L 43.015625 53.21875 
L 39.796875 53.21875 
L 38.09375 59.90625 
Q 37.203125 60.40625 36.046875 60.796875 
Q 34.90625 61.1875 33.65625 61.46875 
Q 32.421875 61.765625 31.171875 61.9375 
Q 29.9375 62.109375 28.8125 62.109375 
Q 25.34375 62.109375 22.578125 60.453125 
Q 19.828125 58.796875 17.828125 55.421875 
Q 15.828125 52.046875 14.671875 46.96875 
Q 13.53125 41.890625 13.328125 35.015625 
Q 16.84375 36.859375 21.015625 38.03125 
Q 25.203125 39.203125 29.296875 39.203125 
Q 33.40625 39.203125 36.6875 38.0625 
Q 39.984375 36.921875 42.28125 34.578125 
Q 44.578125 32.234375 45.796875 28.65625 
Q 47.015625 25.09375 47.015625 20.3125 
z
M 26.8125 2.875 
Q 29.9375 2.875 32.078125 3.90625 
Q 34.234375 4.9375 35.546875 7 
Q 36.859375 9.078125 37.421875 12.171875 
Q 37.984375 15.28125 37.984375 19.390625 
Q 37.984375 27.390625 35.46875 30.953125 
Q 32.953125 34.515625 27.484375 34.515625 
Q 24.171875 34.515625 20.53125 33.875 
Q 16.890625 33.25 13.28125 32.078125 
Q 13.28125 25.046875 14.03125 19.625 
Q 14.796875 14.203125 16.453125 10.46875 
Q 18.109375 6.734375 20.640625 4.796875 
Q 23.1875 2.875 26.8125 2.875 
z
" id="LiberationSerif-54"/>
      </defs>
      <g transform="translate(231.16 321.523062)scale(0.1 -0.1)">
       <use xlink:href="#LiberationSerif-54"/>
       <use x="50" xlink:href="#LiberationSerif-48"/>
      </g>
     </g>
    </g>
    <g id="xtick_5">
     <g id="line2d_5">
      <g>
       <use style="stroke:#000000;stroke-width:0.8;" x="317.323636" xlink:href="#m8b85771faa" y="307.584"/>
      </g>
     </g>
     <g id="text_5">
      <!-- 80 -->
      <defs>
       <path d="M 44.1875 49.515625 
Q 44.1875 44.140625 41.578125 40.40625 
Q 38.96875 36.671875 34.515625 34.71875 
Q 37.15625 33.734375 39.296875 32.171875 
Q 41.453125 30.609375 42.984375 28.484375 
Q 44.53125 26.375 45.359375 23.65625 
Q 46.1875 20.953125 46.1875 17.671875 
Q 46.1875 8.40625 40.96875 3.703125 
Q 35.75 -0.984375 24.703125 -0.984375 
Q 14.265625 -0.984375 9.03125 3.625 
Q 3.8125 8.25 3.8125 17.671875 
Q 3.8125 24.171875 6.9375 28.4375 
Q 10.0625 32.71875 15.375 34.71875 
Q 11.140625 36.671875 8.46875 40.375 
Q 5.8125 44.09375 5.8125 49.515625 
Q 5.8125 53.375 7 56.515625 
Q 8.203125 59.671875 10.59375 61.890625 
Q 12.984375 64.109375 16.59375 65.296875 
Q 20.21875 66.5 25.09375 66.5 
Q 29.78125 66.5 33.34375 65.328125 
Q 36.921875 64.15625 39.328125 61.953125 
Q 41.75 59.765625 42.96875 56.609375 
Q 44.1875 53.46875 44.1875 49.515625 
z
M 37.40625 17.671875 
Q 37.40625 21.234375 36.765625 24 
Q 36.140625 26.765625 34.640625 28.65625 
Q 33.15625 30.5625 30.703125 31.53125 
Q 28.265625 32.515625 24.703125 32.515625 
Q 21.09375 32.515625 18.75 31.53125 
Q 16.40625 30.5625 15.03125 28.65625 
Q 13.671875 26.765625 13.125 24 
Q 12.59375 21.234375 12.59375 17.671875 
Q 12.59375 14.0625 13.125 11.296875 
Q 13.671875 8.546875 15.03125 6.6875 
Q 16.40625 4.828125 18.75 3.84375 
Q 21.09375 2.875 24.703125 2.875 
Q 28.265625 2.875 30.703125 3.84375 
Q 33.15625 4.828125 34.640625 6.6875 
Q 36.140625 8.546875 36.765625 11.296875 
Q 37.40625 14.0625 37.40625 17.671875 
z
M 35.40625 49.515625 
Q 35.40625 52.390625 34.890625 54.78125 
Q 34.375 57.171875 33.15625 58.90625 
Q 31.9375 60.640625 29.875 61.609375 
Q 27.828125 62.59375 24.8125 62.59375 
Q 21.78125 62.59375 19.796875 61.609375 
Q 17.828125 60.640625 16.671875 58.90625 
Q 15.53125 57.171875 15.0625 54.78125 
Q 14.59375 52.390625 14.59375 49.515625 
Q 14.59375 46.578125 15.0625 44.234375 
Q 15.53125 41.890625 16.671875 40.234375 
Q 17.828125 38.578125 19.796875 37.6875 
Q 21.78125 36.8125 24.8125 36.8125 
Q 27.828125 36.8125 29.875 37.6875 
Q 31.9375 38.578125 33.15625 40.234375 
Q 34.375 41.890625 34.890625 44.234375 
Q 35.40625 46.578125 35.40625 49.515625 
z
" id="LiberationSerif-56"/>
      </defs>
      <g transform="translate(312.323636 321.523062)scale(0.1 -0.1)">
       <use xlink:href="#LiberationSerif-56"/>
       <use x="50" xlink:href="#LiberationSerif-48"/>
      </g>
     </g>
    </g>
    <g id="xtick_6">
     <g id="line2d_6">
      <g>
       <use style="stroke:#000000;stroke-width:0.8;" x="398.487273" xlink:href="#m8b85771faa" y="307.584"/>
      </g>
     </g>
     <g id="text_6">
      <!-- 100 -->
      <defs>
       <path d="M 30.609375 3.90625 
L 44 2.59375 
L 44 0 
L 8.796875 0 
L 8.796875 2.59375 
L 22.21875 3.90625 
L 22.21875 57.328125 
L 8.984375 52.59375 
L 8.984375 55.171875 
L 28.078125 66.015625 
L 30.609375 66.015625 
z
" id="LiberationSerif-49"/>
      </defs>
      <g transform="translate(390.987273 321.523062)scale(0.1 -0.1)">
       <use xlink:href="#LiberationSerif-49"/>
       <use x="50" xlink:href="#LiberationSerif-48"/>
       <use x="100" xlink:href="#LiberationSerif-48"/>
      </g>
     </g>
    </g>
    <g id="text_7">
     <!-- population size -->
     <defs>
      <path d="M 7.421875 42.484375 
L 2.203125 43.703125 
L 2.203125 45.90625 
L 15.09375 45.90625 
L 15.1875 43.21875 
Q 16.21875 44.09375 17.609375 44.796875 
Q 19 45.515625 20.609375 46.015625 
Q 22.21875 46.53125 24.015625 46.828125 
Q 25.828125 47.125 27.6875 47.125 
Q 31.984375 47.125 35.390625 45.609375 
Q 38.8125 44.09375 41.203125 41.09375 
Q 43.609375 38.09375 44.84375 33.671875 
Q 46.09375 29.25 46.09375 23.484375 
Q 46.09375 17.875 44.828125 13.359375 
Q 43.5625 8.84375 41.015625 5.640625 
Q 38.484375 2.4375 34.640625 0.71875 
Q 30.8125 -0.984375 25.6875 -0.984375 
Q 23.1875 -0.984375 20.421875 -0.703125 
Q 17.671875 -0.4375 15.1875 0.09375 
Q 15.234375 -0.484375 15.296875 -1.234375 
Q 15.375 -2 15.40625 -2.796875 
Q 15.4375 -3.609375 15.453125 -4.296875 
Q 15.484375 -4.984375 15.484375 -5.421875 
L 15.484375 -17.828125 
L 23.484375 -19 
L 23.484375 -21.296875 
L 1.609375 -21.296875 
L 1.609375 -19 
L 7.421875 -17.828125 
z
M 37.3125 23.484375 
Q 37.3125 28.46875 36.46875 31.984375 
Q 35.640625 35.5 34.046875 37.71875 
Q 32.46875 39.9375 30.171875 40.96875 
Q 27.875 42 25 42 
Q 22.65625 42 19.984375 41.578125 
Q 17.328125 41.15625 15.484375 40.375 
L 15.484375 3.71875 
Q 17.53125 3.328125 20.015625 3.09375 
Q 22.515625 2.875 25 2.875 
Q 31.453125 2.875 34.375 8.21875 
Q 37.3125 13.578125 37.3125 23.484375 
z
" id="LiberationSerif-112"/>
      <path d="M 46.1875 23.1875 
Q 46.1875 11.53125 40.96875 5.265625 
Q 35.75 -0.984375 24.703125 -0.984375 
Q 14.359375 -0.984375 9.078125 5.21875 
Q 3.8125 11.421875 3.8125 23.1875 
Q 3.8125 34.8125 9.078125 40.96875 
Q 14.359375 47.125 25.09375 47.125 
Q 35.546875 47.125 40.859375 41.09375 
Q 46.1875 35.0625 46.1875 23.1875 
z
M 37.40625 23.1875 
Q 37.40625 27.9375 36.765625 31.671875 
Q 36.140625 35.40625 34.640625 37.96875 
Q 33.15625 40.53125 30.703125 41.875 
Q 28.265625 43.21875 24.703125 43.21875 
Q 21.09375 43.21875 18.75 41.875 
Q 16.40625 40.53125 15.03125 37.96875 
Q 13.671875 35.40625 13.125 31.671875 
Q 12.59375 27.9375 12.59375 23.1875 
Q 12.59375 18.40625 13.125 14.640625 
Q 13.671875 10.890625 15.03125 8.28125 
Q 16.40625 5.671875 18.75 4.265625 
Q 21.09375 2.875 24.703125 2.875 
Q 28.265625 2.875 30.703125 4.265625 
Q 33.15625 5.671875 34.640625 8.28125 
Q 36.140625 10.890625 36.765625 14.640625 
Q 37.40625 18.40625 37.40625 23.1875 
z
" id="LiberationSerif-111"/>
      <path d="M 15.28125 13.09375 
Q 15.28125 9.03125 17.109375 6.859375 
Q 18.953125 4.6875 23.09375 4.6875 
Q 25.828125 4.6875 28.75 5.046875 
Q 31.6875 5.421875 34.421875 6.203125 
L 34.421875 42.484375 
L 27.484375 43.703125 
L 27.484375 45.90625 
L 42.484375 45.90625 
L 42.484375 3.421875 
L 48.296875 2.203125 
L 48.296875 0 
L 34.90625 0 
L 34.515625 3.71875 
Q 33.109375 2.9375 31.15625 2.09375 
Q 29.203125 1.265625 27.078125 0.578125 
Q 24.953125 -0.09375 22.796875 -0.53125 
Q 20.65625 -0.984375 18.890625 -0.984375 
Q 16.265625 -0.984375 14.109375 -0.25 
Q 11.96875 0.484375 10.421875 2.09375 
Q 8.890625 3.71875 8.03125 6.28125 
Q 7.171875 8.84375 7.171875 12.5 
L 7.171875 42.484375 
L 1.3125 43.703125 
L 1.3125 45.90625 
L 15.28125 45.90625 
z
" id="LiberationSerif-117"/>
      <path d="M 17.921875 3.421875 
L 25.78125 2.203125 
L 25.78125 0 
L 2 0 
L 2 2.203125 
L 9.8125 3.421875 
L 9.8125 66.015625 
L 2 67.1875 
L 2 69.390625 
L 17.921875 69.390625 
z
" id="LiberationSerif-108"/>
      <path d="M 22.703125 46.921875 
Q 25.828125 46.921875 28.515625 46.328125 
Q 31.203125 45.75 33.15625 44.328125 
Q 35.109375 42.921875 36.203125 40.5 
Q 37.3125 38.09375 37.3125 34.421875 
L 37.3125 3.421875 
L 43.015625 2.203125 
L 43.015625 0 
L 30.421875 0 
L 29.5 4.59375 
Q 28.765625 3.859375 27.515625 2.875 
Q 26.265625 1.90625 24.5 1.046875 
Q 22.75 0.203125 20.421875 -0.390625 
Q 18.109375 -0.984375 15.28125 -0.984375 
Q 11.96875 -0.984375 9.6875 0.046875 
Q 7.421875 1.078125 6.046875 2.90625 
Q 4.6875 4.734375 4.09375 7.25 
Q 3.515625 9.765625 3.515625 12.703125 
Q 3.515625 15.71875 4.25 17.9375 
Q 4.984375 20.171875 6.296875 21.671875 
Q 7.625 23.1875 9.40625 24.140625 
Q 11.1875 25.09375 13.25 25.625 
Q 15.328125 26.171875 17.640625 26.359375 
Q 19.96875 26.5625 22.3125 26.609375 
L 29.203125 26.8125 
L 29.203125 33.984375 
Q 29.203125 36.03125 28.859375 37.71875 
Q 28.515625 39.40625 27.703125 40.625 
Q 26.90625 41.84375 25.53125 42.53125 
Q 24.171875 43.21875 22.125 43.21875 
Q 19.78125 43.21875 17.375 42.578125 
Q 14.984375 41.9375 13.1875 40.921875 
L 11.53125 35.203125 
L 8.796875 35.203125 
L 8.796875 45.21875 
Q 11.96875 45.90625 15.359375 46.40625 
Q 18.75 46.921875 22.703125 46.921875 
z
M 29.203125 23.390625 
L 22.796875 23.1875 
Q 19.921875 23.09375 17.8125 22.625 
Q 15.71875 22.171875 14.34375 21.046875 
Q 12.984375 19.921875 12.296875 17.96875 
Q 11.625 16.015625 11.625 12.984375 
Q 11.625 4.390625 18.609375 4.390625 
Q 21.921875 4.390625 24.34375 5.140625 
Q 26.765625 5.90625 29.203125 7.078125 
z
" id="LiberationSerif-97"/>
      <path d="M 16.3125 -0.984375 
Q 11.625 -0.984375 9.296875 1.796875 
Q 6.984375 4.59375 6.984375 9.625 
L 6.984375 41.796875 
L 0.984375 41.796875 
L 0.984375 44 
L 7.078125 45.90625 
L 12.015625 56.296875 
L 15.09375 56.296875 
L 15.09375 45.90625 
L 25.59375 45.90625 
L 25.59375 41.796875 
L 15.09375 41.796875 
L 15.09375 10.5 
Q 15.09375 7.328125 16.53125 5.71875 
Q 17.96875 4.109375 20.3125 4.109375 
Q 22.125 4.109375 23.90625 4.34375 
Q 25.6875 4.59375 27.203125 4.890625 
L 27.203125 1.703125 
Q 26.46875 1.21875 25.265625 0.734375 
Q 24.078125 0.25 22.625 -0.109375 
Q 21.1875 -0.484375 19.578125 -0.734375 
Q 17.96875 -0.984375 16.3125 -0.984375 
z
" id="LiberationSerif-116"/>
      <path d="M 18.5 60.890625 
Q 18.5 59.8125 18.078125 58.859375 
Q 17.671875 57.90625 16.9375 57.171875 
Q 16.21875 56.453125 15.234375 56.03125 
Q 14.265625 55.609375 13.1875 55.609375 
Q 12.109375 55.609375 11.15625 56.03125 
Q 10.203125 56.453125 9.46875 57.171875 
Q 8.734375 57.90625 8.3125 58.859375 
Q 7.90625 59.8125 7.90625 60.890625 
Q 7.90625 61.96875 8.3125 62.9375 
Q 8.734375 63.921875 9.46875 64.640625 
Q 10.203125 65.375 11.15625 65.796875 
Q 12.109375 66.21875 13.1875 66.21875 
Q 14.265625 66.21875 15.234375 65.796875 
Q 16.21875 65.375 16.9375 64.640625 
Q 17.671875 63.921875 18.078125 62.9375 
Q 18.5 61.96875 18.5 60.890625 
z
M 18.015625 3.421875 
L 25.875 2.203125 
L 25.875 0 
L 2.09375 0 
L 2.09375 2.203125 
L 9.90625 3.421875 
L 9.90625 42.484375 
L 3.421875 43.703125 
L 3.421875 45.90625 
L 18.015625 45.90625 
z
" id="LiberationSerif-105"/>
      <path d="M 15.828125 42.1875 
Q 17.1875 42.96875 19.0625 43.84375 
Q 20.953125 44.734375 23 45.453125 
Q 25.046875 46.1875 27.09375 46.65625 
Q 29.15625 47.125 30.90625 47.125 
Q 33.546875 47.125 35.734375 46.390625 
Q 37.9375 45.65625 39.515625 44.046875 
Q 41.109375 42.4375 42.015625 39.84375 
Q 42.921875 37.25 42.921875 33.59375 
L 42.921875 3.421875 
L 48.484375 2.203125 
L 48.484375 0 
L 28.71875 0 
L 28.71875 2.203125 
L 34.8125 3.421875 
L 34.8125 32.71875 
Q 34.8125 36.765625 32.828125 39.078125 
Q 30.859375 41.40625 26.703125 41.40625 
Q 25.34375 41.40625 23.828125 41.25 
Q 22.3125 41.109375 20.84375 40.90625 
Q 19.390625 40.71875 18.09375 40.453125 
Q 16.796875 40.1875 15.921875 39.984375 
L 15.921875 3.421875 
L 22.125 2.203125 
L 22.125 0 
L 2.296875 0 
L 2.296875 2.203125 
L 7.8125 3.421875 
L 7.8125 42.484375 
L 2.296875 43.703125 
L 2.296875 45.90625 
L 15.375 45.90625 
z
" id="LiberationSerif-110"/>
      <path id="LiberationSerif-32"/>
      <path d="M 35.296875 12.890625 
Q 35.296875 9.8125 34.34375 7.25 
Q 33.40625 4.6875 31.34375 2.859375 
Q 29.296875 1.03125 26.046875 0.015625 
Q 22.796875 -0.984375 18.21875 -0.984375 
Q 15.921875 -0.984375 13.6875 -0.703125 
Q 11.46875 -0.4375 9.5625 -0.0625 
Q 7.671875 0.296875 6.25 0.6875 
Q 4.828125 1.078125 4.203125 1.3125 
L 4.203125 12.59375 
L 6.390625 12.59375 
L 8.796875 6.203125 
Q 10.296875 4.828125 12.6875 3.84375 
Q 15.09375 2.875 18.3125 2.875 
Q 22.859375 2.875 25.3125 4.859375 
Q 27.78125 6.84375 27.78125 10.984375 
Q 27.78125 13.421875 26.75 15.015625 
Q 25.734375 16.609375 24.0625 17.671875 
Q 22.40625 18.75 20.28125 19.453125 
Q 18.171875 20.171875 15.9375 20.890625 
Q 13.71875 21.625 11.59375 22.546875 
Q 9.46875 23.484375 7.8125 24.953125 
Q 6.15625 26.421875 5.125 28.609375 
Q 4.109375 30.8125 4.109375 34.078125 
Q 4.109375 37.203125 5.21875 39.640625 
Q 6.34375 42.09375 8.375 43.75 
Q 10.40625 45.40625 13.203125 46.265625 
Q 16.015625 47.125 19.390625 47.125 
Q 22.703125 47.125 25.875 46.65625 
Q 29.046875 46.1875 31.984375 45.609375 
L 31.984375 35.59375 
L 29.6875 35.59375 
L 27.640625 40.921875 
Q 26.375 42.046875 24.171875 42.625 
Q 21.96875 43.21875 19.484375 43.21875 
Q 15.53125 43.21875 13.453125 41.265625 
Q 11.375 39.3125 11.375 35.984375 
Q 11.375 33.734375 12.390625 32.296875 
Q 13.421875 30.859375 15.109375 29.859375 
Q 16.796875 28.859375 18.9375 28.125 
Q 21.09375 27.390625 23.34375 26.609375 
Q 25.59375 25.828125 27.734375 24.828125 
Q 29.890625 23.828125 31.5625 22.265625 
Q 33.25 20.703125 34.265625 18.453125 
Q 35.296875 16.21875 35.296875 12.890625 
z
" id="LiberationSerif-115"/>
      <path d="M 2.6875 0 
L 2.6875 2.203125 
L 27.875 42 
L 17.09375 42 
Q 15.71875 42 14.375 41.875 
Q 13.03125 41.75 11.828125 41.53125 
Q 10.640625 41.3125 9.71875 40.984375 
Q 8.796875 40.671875 8.296875 40.28125 
L 6.78125 33.6875 
L 4.5 33.6875 
L 4.5 45.90625 
L 38.375 45.90625 
L 38.375 43.5 
L 13.1875 3.90625 
L 26.609375 3.90625 
Q 27.9375 3.90625 29.421875 4.078125 
Q 30.90625 4.25 32.296875 4.53125 
Q 33.6875 4.828125 34.875 5.25 
Q 36.078125 5.671875 36.8125 6.203125 
L 39.3125 15.828125 
L 41.609375 15.828125 
L 40.375 0 
z
" id="LiberationSerif-122"/>
      <path d="M 12.703125 23.09375 
L 12.703125 22.21875 
Q 12.703125 18.65625 13.203125 15.375 
Q 13.71875 12.109375 15.25 9.59375 
Q 16.796875 7.078125 19.578125 5.59375 
Q 22.359375 4.109375 26.90625 4.109375 
Q 28.375 4.109375 29.984375 4.21875 
Q 31.59375 4.34375 33.203125 4.53125 
Q 34.8125 4.734375 36.328125 4.96875 
Q 37.84375 5.21875 39.109375 5.515625 
L 39.109375 2.78125 
Q 37.984375 2.046875 36.390625 1.390625 
Q 34.8125 0.734375 32.90625 0.1875 
Q 31 -0.34375 28.84375 -0.65625 
Q 26.703125 -0.984375 24.515625 -0.984375 
Q 18.796875 -0.984375 14.859375 0.578125 
Q 10.9375 2.15625 8.5 5.21875 
Q 6.0625 8.296875 4.984375 12.84375 
Q 3.90625 17.390625 3.90625 23.296875 
Q 3.90625 35.296875 8.9375 41.203125 
Q 13.96875 47.125 23.296875 47.125 
Q 26.953125 47.125 30.140625 46.140625 
Q 33.34375 45.171875 35.734375 42.875 
Q 38.140625 40.578125 39.53125 36.71875 
Q 40.921875 32.859375 40.921875 27.09375 
L 40.921875 23.09375 
z
M 23.296875 43.21875 
Q 20.5625 43.21875 18.578125 42.0625 
Q 16.609375 40.921875 15.3125 38.8125 
Q 14.015625 36.71875 13.40625 33.71875 
Q 12.796875 30.71875 12.796875 27 
L 32.421875 27 
Q 32.421875 30.71875 32 33.71875 
Q 31.59375 36.71875 30.546875 38.8125 
Q 29.5 40.921875 27.734375 42.0625 
Q 25.984375 43.21875 23.296875 43.21875 
z
" id="LiberationSerif-101"/>
     </defs>
     <g transform="translate(205.749062 334.591812)scale(0.1 -0.1)">
      <use xlink:href="#LiberationSerif-112"/>
      <use x="50" xlink:href="#LiberationSerif-111"/>
      <use x="100" xlink:href="#LiberationSerif-112"/>
      <use x="150" xlink:href="#LiberationSerif-117"/>
      <use x="200" xlink:href="#LiberationSerif-108"/>
      <use x="227.783203" xlink:href="#LiberationSerif-97"/>
      <use x="272.167969" xlink:href="#LiberationSerif-116"/>
      <use x="299.951172" xlink:href="#LiberationSerif-105"/>
      <use x="327.734375" xlink:href="#LiberationSerif-111"/>
      <use x="377.734375" xlink:href="#LiberationSerif-110"/>
      <use x="427.734375" xlink:href="#LiberationSerif-32"/>
      <use x="452.734375" xlink:href="#LiberationSerif-115"/>
      <use x="491.650391" xlink:href="#LiberationSerif-105"/>
      <use x="519.433594" xlink:href="#LiberationSerif-122"/>
      <use x="563.818359" xlink:href="#LiberationSerif-101"/>
     </g>
    </g>
   </g>
   <g id="matplotlib.axis_2">
    <g id="ytick_1">
     <g id="line2d_7">
      <defs>
       <path d="M 0 0 
L -3.5 0 
" id="me8e89ccec8" style="stroke:#000000;stroke-width:0.8;"/>
      </defs>
      <g>
       <use style="stroke:#000000;stroke-width:0.8;" x="57.6" xlink:href="#me8e89ccec8" y="307.584"/>
      </g>
     </g>
     <g id="text_8">
      <!-- 2427 -->
      <defs>
       <path d="M 9.8125 50 
L 6.59375 50 
L 6.59375 65.484375 
L 47.125 65.484375 
L 47.125 61.71875 
L 17.921875 0 
L 11.625 0 
L 40.28125 58.015625 
L 11.53125 58.015625 
z
" id="LiberationSerif-55"/>
      </defs>
      <g transform="translate(30.6 311.053531)scale(0.1 -0.1)">
       <use xlink:href="#LiberationSerif-50"/>
       <use x="50" xlink:href="#LiberationSerif-52"/>
       <use x="100" xlink:href="#LiberationSerif-50"/>
       <use x="150" xlink:href="#LiberationSerif-55"/>
      </g>
     </g>
    </g>
    <g id="ytick_2">
     <g id="line2d_8">
      <g>
       <use style="stroke:#000000;stroke-width:0.8;" x="57.6" xlink:href="#me8e89ccec8" y="269.568"/>
      </g>
     </g>
     <g id="text_9">
      <!-- 2428 -->
      <g transform="translate(30.6 273.037531)scale(0.1 -0.1)">
       <use xlink:href="#LiberationSerif-50"/>
       <use x="50" xlink:href="#LiberationSerif-52"/>
       <use x="100" xlink:href="#LiberationSerif-50"/>
       <use x="150" xlink:href="#LiberationSerif-56"/>
      </g>
     </g>
    </g>
    <g id="ytick_3">
     <g id="line2d_9">
      <g>
       <use style="stroke:#000000;stroke-width:0.8;" x="57.6" xlink:href="#me8e89ccec8" y="231.552"/>
      </g>
     </g>
     <g id="text_10">
      <!-- 2429 -->
      <defs>
       <path d="M 3.21875 45.515625 
Q 3.21875 50.53125 4.6875 54.40625 
Q 6.15625 58.296875 8.890625 60.90625 
Q 11.625 63.53125 15.53125 64.875 
Q 19.4375 66.21875 24.3125 66.21875 
Q 29.890625 66.21875 33.9375 64.265625 
Q 37.984375 62.3125 40.640625 58.234375 
Q 43.3125 54.15625 44.609375 47.84375 
Q 45.90625 41.546875 45.90625 32.90625 
Q 45.90625 26.609375 44.953125 21.65625 
Q 44 16.703125 42.28125 12.9375 
Q 40.578125 9.1875 38.203125 6.515625 
Q 35.84375 3.859375 33 2.1875 
Q 30.171875 0.53125 26.96875 -0.21875 
Q 23.78125 -0.984375 20.40625 -0.984375 
Q 16.109375 -0.984375 12.609375 -0.5625 
Q 9.125 -0.140625 5.8125 0.6875 
L 5.8125 12.015625 
L 8.984375 12.015625 
L 10.6875 4.984375 
Q 11.625 4.546875 12.765625 4.203125 
Q 13.921875 3.859375 15.15625 3.59375 
Q 16.40625 3.328125 17.703125 3.203125 
Q 19 3.078125 20.21875 3.078125 
Q 23.640625 3.078125 26.59375 4.515625 
Q 29.546875 5.953125 31.734375 9.171875 
Q 33.9375 12.40625 35.28125 17.546875 
Q 36.625 22.703125 36.859375 30.125 
Q 33.640625 28.328125 29.875 27.15625 
Q 26.125 25.984375 21.78125 25.984375 
Q 17.671875 25.984375 14.25 27.21875 
Q 10.84375 28.46875 8.375 30.9375 
Q 5.90625 33.40625 4.5625 37.0625 
Q 3.21875 40.71875 3.21875 45.515625 
z
M 24.421875 62.3125 
Q 18.109375 62.3125 15.15625 57.9375 
Q 12.203125 53.5625 12.203125 45.3125 
Q 12.203125 41.3125 13 38.53125 
Q 13.8125 35.75 15.34375 34.015625 
Q 16.890625 32.28125 19.109375 31.5 
Q 21.34375 30.71875 24.21875 30.71875 
Q 27.4375 30.71875 30.65625 31.390625 
Q 33.890625 32.078125 36.921875 33.296875 
Q 36.921875 40.484375 36.234375 45.921875 
Q 35.546875 51.375 34.078125 55 
Q 32.625 58.640625 30.21875 60.46875 
Q 27.828125 62.3125 24.421875 62.3125 
z
" id="LiberationSerif-57"/>
      </defs>
      <g transform="translate(30.6 235.021531)scale(0.1 -0.1)">
       <use xlink:href="#LiberationSerif-50"/>
       <use x="50" xlink:href="#LiberationSerif-52"/>
       <use x="100" xlink:href="#LiberationSerif-50"/>
       <use x="150" xlink:href="#LiberationSerif-57"/>
      </g>
     </g>
    </g>
    <g id="ytick_4">
     <g id="line2d_10">
      <g>
       <use style="stroke:#000000;stroke-width:0.8;" x="57.6" xlink:href="#me8e89ccec8" y="193.536"/>
      </g>
     </g>
     <g id="text_11">
      <!-- 2430 -->
      <g transform="translate(30.6 197.005531)scale(0.1 -0.1)">
       <use xlink:href="#LiberationSerif-50"/>
       <use x="50" xlink:href="#LiberationSerif-52"/>
       <use x="100" xlink:href="#LiberationSerif-51"/>
       <use x="150" xlink:href="#LiberationSerif-48"/>
      </g>
     </g>
    </g>
    <g id="ytick_5">
     <g id="line2d_11">
      <g>
       <use style="stroke:#000000;stroke-width:0.8;" x="57.6" xlink:href="#me8e89ccec8" y="155.52"/>
      </g>
     </g>
     <g id="text_12">
      <!-- 2431 -->
      <g transform="translate(30.6 158.989531)scale(0.1 -0.1)">
       <use xlink:href="#LiberationSerif-50"/>
       <use x="50" xlink:href="#LiberationSerif-52"/>
       <use x="100" xlink:href="#LiberationSerif-51"/>
       <use x="150" xlink:href="#LiberationSerif-49"/>
      </g>
     </g>
    </g>
    <g id="ytick_6">
     <g id="line2d_12">
      <g>
       <use style="stroke:#000000;stroke-width:0.8;" x="57.6" xlink:href="#me8e89ccec8" y="117.504"/>
      </g>
     </g>
     <g id="text_13">
      <!-- 2432 -->
      <g transform="translate(30.6 120.973531)scale(0.1 -0.1)">
       <use xlink:href="#LiberationSerif-50"/>
       <use x="50" xlink:href="#LiberationSerif-52"/>
       <use x="100" xlink:href="#LiberationSerif-51"/>
       <use x="150" xlink:href="#LiberationSerif-50"/>
      </g>
     </g>
    </g>
    <g id="ytick_7">
     <g id="line2d_13">
      <g>
       <use style="stroke:#000000;stroke-width:0.8;" x="57.6" xlink:href="#me8e89ccec8" y="79.488"/>
      </g>
     </g>
     <g id="text_14">
      <!-- 2433 -->
      <g transform="translate(30.6 82.957531)scale(0.1 -0.1)">
       <use xlink:href="#LiberationSerif-50"/>
       <use x="50" xlink:href="#LiberationSerif-52"/>
       <use x="100" xlink:href="#LiberationSerif-51"/>
       <use x="150" xlink:href="#LiberationSerif-51"/>
      </g>
     </g>
    </g>
    <g id="ytick_8">
     <g id="line2d_14">
      <g>
       <use style="stroke:#000000;stroke-width:0.8;" x="57.6" xlink:href="#me8e89ccec8" y="41.472"/>
      </g>
     </g>
     <g id="text_15">
      <!-- 2434 -->
      <g transform="translate(30.6 44.941531)scale(0.1 -0.1)">
       <use xlink:href="#LiberationSerif-50"/>
       <use x="50" xlink:href="#LiberationSerif-52"/>
       <use x="100" xlink:href="#LiberationSerif-51"/>
       <use x="150" xlink:href="#LiberationSerif-52"/>
      </g>
     </g>
    </g>
    <g id="text_16">
     <!-- Absolute hypervolume relative to [50, 50] -->
     <defs>
      <path d="M 22.515625 2.59375 
L 22.515625 0 
L 0.984375 0 
L 0.984375 2.59375 
L 8.40625 3.90625 
L 30.71875 66.015625 
L 39.984375 66.015625 
L 63.1875 3.90625 
L 71.484375 2.59375 
L 71.484375 0 
L 43.796875 0 
L 43.796875 2.59375 
L 52.59375 3.90625 
L 46.09375 22.796875 
L 20.3125 22.796875 
L 13.71875 3.90625 
z
M 33.015625 58.984375 
L 21.78125 27.203125 
L 44.578125 27.203125 
z
" id="LiberationSerif-65"/>
      <path d="M 37.40625 24.21875 
Q 37.40625 29.203125 36.5 32.59375 
Q 35.59375 35.984375 33.90625 38.078125 
Q 32.234375 40.1875 29.859375 41.09375 
Q 27.484375 42 24.609375 42 
Q 23.4375 42 22.09375 41.890625 
Q 20.75 41.796875 19.421875 41.578125 
Q 18.109375 41.359375 16.890625 41.0625 
Q 15.671875 40.765625 14.796875 40.375 
L 14.796875 4 
Q 16.84375 3.609375 19.484375 3.40625 
Q 22.125 3.21875 24.609375 3.21875 
Q 31.34375 3.21875 34.375 8.484375 
Q 37.40625 13.765625 37.40625 24.21875 
z
M 6.6875 66.015625 
L 0 67.1875 
L 0 69.390625 
L 14.796875 69.390625 
L 14.796875 52.984375 
Q 14.796875 52.046875 14.765625 50.84375 
Q 14.75 49.65625 14.71875 48.359375 
Q 14.703125 47.078125 14.625 45.78125 
Q 14.546875 44.484375 14.5 43.3125 
Q 16.703125 45.015625 19.84375 46.0625 
Q 23 47.125 26.8125 47.125 
Q 36.1875 47.125 41.1875 41.4375 
Q 46.1875 35.75 46.1875 24.21875 
Q 46.1875 18.40625 44.921875 13.734375 
Q 43.65625 9.078125 41.015625 5.8125 
Q 38.375 2.546875 34.34375 0.78125 
Q 30.328125 -0.984375 24.8125 -0.984375 
Q 22.46875 -0.984375 20.046875 -0.703125 
Q 17.625 -0.4375 15.28125 0 
Q 12.9375 0.4375 10.734375 1.046875 
Q 8.546875 1.65625 6.6875 2.390625 
z
" id="LiberationSerif-98"/>
      <path d="M 15.921875 49.515625 
Q 15.921875 48.828125 15.890625 47.84375 
Q 15.875 46.875 15.84375 45.828125 
Q 15.828125 44.78125 15.75 43.796875 
Q 15.671875 42.828125 15.578125 42.1875 
Q 16.9375 42.96875 18.890625 43.84375 
Q 20.84375 44.734375 22.96875 45.453125 
Q 25.09375 46.1875 27.21875 46.65625 
Q 29.34375 47.125 31.109375 47.125 
Q 33.734375 47.125 35.9375 46.390625 
Q 38.140625 45.65625 39.71875 44.046875 
Q 41.3125 42.4375 42.203125 39.84375 
Q 43.109375 37.25 43.109375 33.59375 
L 43.109375 3.421875 
L 48.6875 2.203125 
L 48.6875 0 
L 28.90625 0 
L 28.90625 2.203125 
L 35.015625 3.421875 
L 35.015625 33.015625 
Q 35.015625 37.0625 33.03125 39.234375 
Q 31.0625 41.40625 26.90625 41.40625 
Q 25.53125 41.40625 24 41.25 
Q 22.46875 41.109375 20.953125 40.90625 
Q 19.4375 40.71875 18.109375 40.453125 
Q 16.796875 40.1875 15.921875 39.984375 
L 15.921875 3.421875 
L 22.125 2.203125 
L 22.125 0 
L 2 0 
L 2 2.203125 
L 7.8125 3.421875 
L 7.8125 66.015625 
L 0.984375 67.1875 
L 0.984375 69.390625 
L 15.921875 69.390625 
z
" id="LiberationSerif-104"/>
      <path d="M 44.828125 42.671875 
L 26.90625 -2.875 
Q 25.34375 -6.84375 23.734375 -10.25 
Q 22.125 -13.671875 20.140625 -16.1875 
Q 18.171875 -18.703125 15.625 -20.140625 
Q 13.09375 -21.578125 9.71875 -21.578125 
Q 8.453125 -21.578125 7.5 -21.53125 
Q 6.546875 -21.484375 5.71875 -21.359375 
Q 4.890625 -21.234375 4.046875 -21.09375 
Q 3.21875 -20.953125 2.203125 -20.703125 
L 2.203125 -10.796875 
L 4.5 -10.796875 
L 6.109375 -15.484375 
Q 7.625 -16.609375 10.296875 -16.609375 
Q 12.40625 -16.609375 14.109375 -15.671875 
Q 15.828125 -14.75 17.265625 -13.0625 
Q 18.703125 -11.375 19.875 -9.078125 
Q 21.046875 -6.78125 22.125 -4 
L 23.390625 -0.484375 
L 5.90625 42.484375 
L 1.21875 43.703125 
L 1.21875 45.90625 
L 22.515625 45.90625 
L 22.515625 43.703125 
L 15.28125 42.390625 
L 27.6875 10.296875 
L 39.703125 42.484375 
L 32.515625 43.703125 
L 32.515625 45.90625 
L 49.609375 45.90625 
L 49.609375 43.703125 
z
" id="LiberationSerif-121"/>
      <path d="M 32.421875 47.125 
L 32.421875 34.71875 
L 30.328125 34.71875 
L 27.484375 40.09375 
Q 26.125 40.09375 24.5625 39.890625 
Q 23 39.703125 21.4375 39.375 
Q 19.875 39.0625 18.4375 38.625 
Q 17 38.1875 15.921875 37.703125 
L 15.921875 3.421875 
L 23.78125 2.203125 
L 23.78125 0 
L 2 0 
L 2 2.203125 
L 7.8125 3.421875 
L 7.8125 42.484375 
L 2 43.703125 
L 2 45.90625 
L 15.375 45.90625 
L 15.828125 40.1875 
Q 16.9375 41.109375 18.890625 42.296875 
Q 20.84375 43.5 23.109375 44.578125 
Q 25.390625 45.65625 27.65625 46.390625 
Q 29.9375 47.125 31.6875 47.125 
z
" id="LiberationSerif-114"/>
      <path d="M 45.609375 42.671875 
L 27.203125 -0.984375 
L 23.578125 -0.984375 
L 4.6875 42.484375 
L 0 43.703125 
L 0 45.90625 
L 21.390625 45.90625 
L 21.390625 43.703125 
L 14.109375 42.390625 
L 27.484375 10.6875 
L 40.28125 42.484375 
L 33.015625 43.703125 
L 33.015625 45.90625 
L 50 45.90625 
L 50 43.703125 
z
" id="LiberationSerif-118"/>
      <path d="M 15.921875 42.1875 
Q 17.28125 42.96875 19.15625 43.84375 
Q 21.046875 44.734375 23.046875 45.453125 
Q 25.046875 46.1875 27.09375 46.65625 
Q 29.15625 47.125 30.90625 47.125 
Q 34.28125 47.125 37.125 45.84375 
Q 39.984375 44.578125 41.40625 41.796875 
Q 42.96875 42.671875 45.15625 43.625 
Q 47.359375 44.578125 49.71875 45.359375 
Q 52.09375 46.140625 54.40625 46.625 
Q 56.734375 47.125 58.59375 47.125 
Q 61.234375 47.125 63.375 46.390625 
Q 65.53125 45.65625 67.0625 44.046875 
Q 68.609375 42.4375 69.453125 39.84375 
Q 70.3125 37.25 70.3125 33.59375 
L 70.3125 3.421875 
L 76.21875 2.203125 
L 76.21875 0 
L 55.375 0 
L 55.375 2.203125 
L 62.203125 3.421875 
L 62.203125 32.71875 
Q 62.203125 36.765625 60.375 38.9375 
Q 58.546875 41.109375 54.390625 41.109375 
Q 53.125 41.109375 51.4375 40.90625 
Q 49.75 40.71875 48.0625 40.46875 
Q 46.390625 40.234375 44.84375 39.90625 
Q 43.3125 39.59375 42.28125 39.40625 
Q 43.109375 36.765625 43.109375 33.59375 
L 43.109375 3.421875 
L 50 2.203125 
L 50 0 
L 28.21875 0 
L 28.21875 2.203125 
L 35.015625 3.421875 
L 35.015625 32.71875 
Q 35.015625 36.765625 32.9375 38.9375 
Q 30.859375 41.109375 26.703125 41.109375 
Q 25.34375 41.109375 23.84375 40.96875 
Q 22.359375 40.828125 20.921875 40.625 
Q 19.484375 40.4375 18.1875 40.15625 
Q 16.890625 39.890625 16.015625 39.703125 
L 16.015625 3.421875 
L 22.90625 2.203125 
L 22.90625 0 
L 2.09375 0 
L 2.09375 2.203125 
L 7.90625 3.421875 
L 7.90625 42.484375 
L 2.09375 43.703125 
L 2.09375 45.90625 
L 15.53125 45.90625 
z
" id="LiberationSerif-109"/>
      <path d="M 7.421875 -13.375 
L 7.421875 69.390625 
L 29.6875 69.390625 
L 29.6875 67.09375 
L 15.1875 65.09375 
L 15.1875 -9.078125 
L 29.6875 -11.078125 
L 29.6875 -13.375 
z
" id="LiberationSerif-91"/>
      <path d="M 23.6875 38.28125 
Q 29.15625 38.28125 33.34375 37.171875 
Q 37.546875 36.078125 40.375 33.78125 
Q 43.21875 31.5 44.65625 27.953125 
Q 46.09375 24.421875 46.09375 19.484375 
Q 46.09375 14.84375 44.703125 11.078125 
Q 43.3125 7.328125 40.421875 4.640625 
Q 37.546875 1.953125 33.171875 0.484375 
Q 28.8125 -0.984375 22.90625 -0.984375 
Q 18.3125 -0.984375 14.1875 -0.46875 
Q 10.0625 0.046875 6.34375 1.125 
L 5.8125 14.890625 
L 9.03125 14.890625 
L 11.234375 5.71875 
Q 12.109375 5.21875 13.34375 4.734375 
Q 14.59375 4.25 16.0625 3.875 
Q 17.53125 3.515625 19.09375 3.296875 
Q 20.65625 3.078125 22.125 3.078125 
Q 26.65625 3.078125 29.5625 4.21875 
Q 32.46875 5.375 34.15625 7.46875 
Q 35.84375 9.578125 36.46875 12.5 
Q 37.109375 15.4375 37.109375 19 
Q 37.109375 22.796875 36.453125 25.625 
Q 35.796875 28.46875 34.03125 30.375 
Q 32.28125 32.28125 29.21875 33.234375 
Q 26.171875 34.1875 21.390625 34.1875 
Q 18.5 34.1875 16.296875 33.796875 
Q 14.109375 33.40625 12.703125 33.015625 
L 8.015625 33.015625 
L 8.015625 65.484375 
L 41.21875 65.484375 
L 41.21875 58.015625 
L 12.40625 58.015625 
L 12.40625 37.109375 
Q 13.28125 37.3125 14.375 37.5 
Q 15.484375 37.703125 16.828125 37.859375 
Q 18.171875 38.03125 19.84375 38.15625 
Q 21.53125 38.28125 23.6875 38.28125 
z
" id="LiberationSerif-53"/>
      <path d="M 18.703125 2.390625 
Q 18.703125 -0.484375 17.890625 -3.1875 
Q 17.09375 -5.90625 15.3125 -8.203125 
Q 13.53125 -10.5 10.6875 -12.34375 
Q 7.859375 -14.203125 3.8125 -15.375 
L 3.8125 -11.625 
Q 8.25 -10.203125 10.328125 -8.15625 
Q 12.40625 -6.109375 12.40625 -3.421875 
Q 12.40625 -2.546875 11.90625 -1.921875 
Q 11.421875 -1.3125 10.6875 -0.84375 
Q 9.96875 -0.390625 9.109375 0.046875 
Q 8.25 0.484375 7.515625 1.09375 
Q 6.78125 1.703125 6.296875 2.609375 
Q 5.8125 3.515625 5.8125 4.890625 
Q 5.8125 7.515625 7.46875 8.90625 
Q 9.125 10.296875 11.71875 10.296875 
Q 13.09375 10.296875 14.359375 9.78125 
Q 15.625 9.28125 16.578125 8.28125 
Q 17.53125 7.28125 18.109375 5.78125 
Q 18.703125 4.296875 18.703125 2.390625 
z
" id="LiberationSerif-44"/>
      <path d="M 3.609375 -13.375 
L 3.609375 -11.078125 
L 18.109375 -9.078125 
L 18.109375 65.09375 
L 3.609375 67.09375 
L 3.609375 69.390625 
L 25.875 69.390625 
L 25.875 -13.375 
z
" id="LiberationSerif-93"/>
     </defs>
     <g transform="translate(24.442187 258.674094)rotate(-90)scale(0.1 -0.1)">
      <use xlink:href="#LiberationSerif-65"/>
      <use x="72.216797" xlink:href="#LiberationSerif-98"/>
      <use x="122.216797" xlink:href="#LiberationSerif-115"/>
      <use x="161.132812" xlink:href="#LiberationSerif-111"/>
      <use x="211.132812" xlink:href="#LiberationSerif-108"/>
      <use x="238.916016" xlink:href="#LiberationSerif-117"/>
      <use x="288.916016" xlink:href="#LiberationSerif-116"/>
      <use x="316.699219" xlink:href="#LiberationSerif-101"/>
      <use x="361.083984" xlink:href="#LiberationSerif-32"/>
      <use x="386.083984" xlink:href="#LiberationSerif-104"/>
      <use x="436.083984" xlink:href="#LiberationSerif-121"/>
      <use x="486.083984" xlink:href="#LiberationSerif-112"/>
      <use x="536.083984" xlink:href="#LiberationSerif-101"/>
      <use x="580.46875" xlink:href="#LiberationSerif-114"/>
      <use x="613.769531" xlink:href="#LiberationSerif-118"/>
      <use x="663.769531" xlink:href="#LiberationSerif-111"/>
      <use x="713.769531" xlink:href="#LiberationSerif-108"/>
      <use x="741.552734" xlink:href="#LiberationSerif-117"/>
      <use x="791.552734" xlink:href="#LiberationSerif-109"/>
      <use x="869.335938" xlink:href="#LiberationSerif-101"/>
      <use x="913.720703" xlink:href="#LiberationSerif-32"/>
      <use x="938.720703" xlink:href="#LiberationSerif-114"/>
      <use x="972.021484" xlink:href="#LiberationSerif-101"/>
      <use x="1016.40625" xlink:href="#LiberationSerif-108"/>
      <use x="1044.189453" xlink:href="#LiberationSerif-97"/>
      <use x="1088.574219" xlink:href="#LiberationSerif-116"/>
      <use x="1116.357422" xlink:href="#LiberationSerif-105"/>
      <use x="1144.140625" xlink:href="#LiberationSerif-118"/>
      <use x="1194.140625" xlink:href="#LiberationSerif-101"/>
      <use x="1238.525391" xlink:href="#LiberationSerif-32"/>
      <use x="1263.525391" xlink:href="#LiberationSerif-116"/>
      <use x="1291.308594" xlink:href="#LiberationSerif-111"/>
      <use x="1341.308594" xlink:href="#LiberationSerif-32"/>
      <use x="1366.308594" xlink:href="#LiberationSerif-91"/>
      <use x="1399.609375" xlink:href="#LiberationSerif-53"/>
      <use x="1449.609375" xlink:href="#LiberationSerif-48"/>
      <use x="1499.609375" xlink:href="#LiberationSerif-44"/>
      <use x="1524.609375" xlink:href="#LiberationSerif-32"/>
      <use x="1549.609375" xlink:href="#LiberationSerif-53"/>
      <use x="1599.609375" xlink:href="#LiberationSerif-48"/>
      <use x="1649.609375" xlink:href="#LiberationSerif-93"/>
     </g>
    </g>
   </g>
   <g id="line2d_15">
    <path clip-path="url(#p86f48909fb)" d="M 73.832727 209.884495 
L 122.530909 166.828826 
L 154.996364 154.037638 
L 236.16 138.59155 
L 317.323636 115.258228 
L 398.487273 109.192774 
" style="fill:none;stroke:#e7298a;stroke-dasharray:7.5,7.5;stroke-dashoffset:0;stroke-linecap:round;stroke-width:1.5;"/>
   </g>
   <g id="patch_3">
    <path d="M 57.6 307.584 
L 57.6 41.472 
" style="fill:none;stroke:#000000;stroke-linecap:square;stroke-linejoin:miter;stroke-width:0.8;"/>
   </g>
   <g id="patch_4">
    <path d="M 414.72 307.584 
L 414.72 41.472 
" style="fill:none;stroke:#000000;stroke-linecap:square;stroke-linejoin:miter;stroke-width:0.8;"/>
   </g>
   <g id="patch_5">
    <path d="M 57.6 307.584 
L 414.72 307.584 
" style="fill:none;stroke:#000000;stroke-linecap:square;stroke-linejoin:miter;stroke-width:0.8;"/>
   </g>
   <g id="patch_6">
    <path d="M 57.6 41.472 
L 414.72 41.472 
" style="fill:none;stroke:#000000;stroke-linecap:square;stroke-linejoin:miter;stroke-width:0.8;"/>
   </g>
   <g id="text_17">
    <!-- Hypervolume for diffferent population sizes (5 runs per population) -->
    <defs>
     <path d="M 2.875 0 
L 2.875 2.59375 
L 11.28125 3.90625 
L 11.28125 61.625 
L 2.875 62.890625 
L 2.875 65.484375 
L 29.109375 65.484375 
L 29.109375 62.890625 
L 20.703125 61.625 
L 20.703125 35.890625 
L 51.515625 35.890625 
L 51.515625 61.625 
L 43.109375 62.890625 
L 43.109375 65.484375 
L 69.28125 65.484375 
L 69.28125 62.890625 
L 60.890625 61.625 
L 60.890625 3.90625 
L 69.28125 2.59375 
L 69.28125 0 
L 43.109375 0 
L 43.109375 2.59375 
L 51.515625 3.90625 
L 51.515625 31.5 
L 20.703125 31.5 
L 20.703125 3.90625 
L 29.109375 2.59375 
L 29.109375 0 
z
" id="LiberationSerif-72"/>
     <path d="M 10.984375 41.796875 
L 3.078125 41.796875 
L 3.078125 44.1875 
L 10.984375 46.09375 
L 10.984375 49.3125 
Q 10.984375 54.5 12.03125 58.421875 
Q 13.09375 62.359375 15.0625 65.015625 
Q 17.046875 67.671875 19.890625 69.03125 
Q 22.75 70.40625 26.3125 70.40625 
Q 28.515625 70.40625 30.21875 70.140625 
Q 31.9375 69.875 33.296875 69.484375 
L 33.296875 59.46875 
L 30.90625 59.46875 
L 28.71875 65.484375 
Q 27.9375 65.96875 27 66.234375 
Q 26.078125 66.5 24.703125 66.5 
Q 23 66.5 21.921875 65.734375 
Q 20.84375 64.984375 20.203125 63.390625 
Q 19.578125 61.8125 19.328125 59.375 
Q 19.09375 56.9375 19.09375 53.515625 
L 19.09375 45.90625 
L 31.296875 45.90625 
L 31.296875 41.796875 
L 19.09375 41.796875 
L 19.09375 3.8125 
L 29 2.203125 
L 29 0 
L 4.203125 0 
L 4.203125 2.203125 
L 10.984375 3.8125 
z
" id="LiberationSerif-102"/>
     <path d="M 35.296875 3.421875 
Q 33.15625 1.703125 29.953125 0.359375 
Q 26.765625 -0.984375 22.40625 -0.984375 
Q 3.609375 -0.984375 3.609375 22.515625 
Q 3.609375 28.21875 4.859375 32.78125 
Q 6.109375 37.359375 8.6875 40.546875 
Q 11.28125 43.75 15.234375 45.4375 
Q 19.1875 47.125 24.609375 47.125 
Q 27.09375 47.125 29.90625 46.828125 
Q 32.71875 46.53125 35.296875 46 
Q 35.203125 46.53125 35.15625 47.578125 
Q 35.109375 48.640625 35.078125 49.828125 
Q 35.0625 51.03125 35.03125 52.203125 
Q 35.015625 53.375 35.015625 54.109375 
L 35.015625 66.015625 
L 27.296875 67.1875 
L 27.296875 69.390625 
L 43.109375 69.390625 
L 43.109375 3.421875 
L 48.78125 2.203125 
L 48.78125 0 
L 35.890625 0 
z
M 12.40625 22.515625 
Q 12.40625 17.390625 13.296875 13.875 
Q 14.203125 10.359375 15.859375 8.171875 
Q 17.53125 6 19.875 5.046875 
Q 22.21875 4.109375 25.09375 4.109375 
Q 28.03125 4.109375 30.609375 4.65625 
Q 33.203125 5.21875 35.015625 6 
L 35.015625 42.28125 
Q 32.953125 42.671875 30.265625 42.890625 
Q 27.59375 43.109375 25.09375 43.109375 
Q 18.609375 43.109375 15.5 37.890625 
Q 12.40625 32.671875 12.40625 22.515625 
z
" id="LiberationSerif-100"/>
     <path d="M 13.8125 24.125 
Q 13.8125 20.015625 14 15.9375 
Q 14.203125 11.859375 14.765625 7.984375 
Q 15.328125 4.109375 16.421875 0.46875 
Q 17.53125 -3.171875 19.328125 -6.375 
Q 21.140625 -9.578125 23.78125 -12.328125 
Q 26.421875 -15.09375 30.078125 -17.1875 
L 30.078125 -21.296875 
Q 23.53125 -17.828125 18.71875 -13.75 
Q 13.921875 -9.671875 10.71875 -4.3125 
Q 7.515625 1.03125 5.953125 7.953125 
Q 4.390625 14.890625 4.390625 24.125 
Q 4.390625 33.34375 5.953125 40.25 
Q 7.515625 47.171875 10.71875 52.484375 
Q 13.921875 57.8125 18.71875 61.859375 
Q 23.53125 65.921875 30.078125 69.390625 
L 30.078125 65.28125 
Q 24.5625 62.109375 21.328125 57.59375 
Q 18.109375 53.078125 16.421875 47.671875 
Q 14.75 42.28125 14.28125 36.28125 
Q 13.8125 30.28125 13.8125 24.125 
z
" id="LiberationSerif-40"/>
     <path d="M 3.21875 -21.296875 
L 3.21875 -17.1875 
Q 6.890625 -15.09375 9.515625 -12.328125 
Q 12.15625 -9.578125 13.953125 -6.375 
Q 15.765625 -3.171875 16.859375 0.46875 
Q 17.96875 4.109375 18.53125 7.984375 
Q 19.09375 11.859375 19.28125 15.9375 
Q 19.484375 20.015625 19.484375 24.125 
Q 19.484375 30.28125 19.015625 36.28125 
Q 18.5625 42.28125 16.875 47.671875 
Q 15.1875 53.078125 11.953125 57.59375 
Q 8.734375 62.109375 3.21875 65.28125 
L 3.21875 69.390625 
Q 9.71875 65.921875 14.546875 61.859375 
Q 19.390625 57.8125 22.578125 52.484375 
Q 25.78125 47.171875 27.34375 40.25 
Q 28.90625 33.34375 28.90625 24.125 
Q 28.90625 14.890625 27.34375 7.953125 
Q 25.78125 1.03125 22.578125 -4.3125 
Q 19.390625 -9.671875 14.546875 -13.75 
Q 9.71875 -17.828125 3.21875 -21.296875 
z
" id="LiberationSerif-41"/>
    </defs>
    <g transform="translate(73.540312 35.472)scale(0.12 -0.12)">
     <use xlink:href="#LiberationSerif-72"/>
     <use x="72.216797" xlink:href="#LiberationSerif-121"/>
     <use x="122.216797" xlink:href="#LiberationSerif-112"/>
     <use x="172.216797" xlink:href="#LiberationSerif-101"/>
     <use x="216.601562" xlink:href="#LiberationSerif-114"/>
     <use x="249.902344" xlink:href="#LiberationSerif-118"/>
     <use x="299.902344" xlink:href="#LiberationSerif-111"/>
     <use x="349.902344" xlink:href="#LiberationSerif-108"/>
     <use x="377.685547" xlink:href="#LiberationSerif-117"/>
     <use x="427.685547" xlink:href="#LiberationSerif-109"/>
     <use x="505.46875" xlink:href="#LiberationSerif-101"/>
     <use x="549.853516" xlink:href="#LiberationSerif-32"/>
     <use x="574.853516" xlink:href="#LiberationSerif-102"/>
     <use x="608.154297" xlink:href="#LiberationSerif-111"/>
     <use x="658.154297" xlink:href="#LiberationSerif-114"/>
     <use x="691.455078" xlink:href="#LiberationSerif-32"/>
     <use x="716.455078" xlink:href="#LiberationSerif-100"/>
     <use x="766.455078" xlink:href="#LiberationSerif-105"/>
     <use x="794.238281" xlink:href="#LiberationSerif-102"/>
     <use x="827.523438" xlink:href="#LiberationSerif-102"/>
     <use x="860.808594" xlink:href="#LiberationSerif-102"/>
     <use x="894.109375" xlink:href="#LiberationSerif-101"/>
     <use x="938.494141" xlink:href="#LiberationSerif-114"/>
     <use x="971.794922" xlink:href="#LiberationSerif-101"/>
     <use x="1016.179688" xlink:href="#LiberationSerif-110"/>
     <use x="1066.179688" xlink:href="#LiberationSerif-116"/>
     <use x="1093.962891" xlink:href="#LiberationSerif-32"/>
     <use x="1118.962891" xlink:href="#LiberationSerif-112"/>
     <use x="1168.962891" xlink:href="#LiberationSerif-111"/>
     <use x="1218.962891" xlink:href="#LiberationSerif-112"/>
     <use x="1268.962891" xlink:href="#LiberationSerif-117"/>
     <use x="1318.962891" xlink:href="#LiberationSerif-108"/>
     <use x="1346.746094" xlink:href="#LiberationSerif-97"/>
     <use x="1391.130859" xlink:href="#LiberationSerif-116"/>
     <use x="1418.914062" xlink:href="#LiberationSerif-105"/>
     <use x="1446.697266" xlink:href="#LiberationSerif-111"/>
     <use x="1496.697266" xlink:href="#LiberationSerif-110"/>
     <use x="1546.697266" xlink:href="#LiberationSerif-32"/>
     <use x="1571.697266" xlink:href="#LiberationSerif-115"/>
     <use x="1610.613281" xlink:href="#LiberationSerif-105"/>
     <use x="1638.396484" xlink:href="#LiberationSerif-122"/>
     <use x="1682.78125" xlink:href="#LiberationSerif-101"/>
     <use x="1727.166016" xlink:href="#LiberationSerif-115"/>
     <use x="1766.082031" xlink:href="#LiberationSerif-32"/>
     <use x="1791.082031" xlink:href="#LiberationSerif-40"/>
     <use x="1824.382812" xlink:href="#LiberationSerif-53"/>
     <use x="1874.382812" xlink:href="#LiberationSerif-32"/>
     <use x="1899.382812" xlink:href="#LiberationSerif-114"/>
     <use x="1932.683594" xlink:href="#LiberationSerif-117"/>
     <use x="1982.683594" xlink:href="#LiberationSerif-110"/>
     <use x="2032.683594" xlink:href="#LiberationSerif-115"/>
     <use x="2071.599609" xlink:href="#LiberationSerif-32"/>
     <use x="2096.599609" xlink:href="#LiberationSerif-112"/>
     <use x="2146.599609" xlink:href="#LiberationSerif-101"/>
     <use x="2190.984375" xlink:href="#LiberationSerif-114"/>
     <use x="2224.285156" xlink:href="#LiberationSerif-32"/>
     <use x="2249.285156" xlink:href="#LiberationSerif-112"/>
     <use x="2299.285156" xlink:href="#LiberationSerif-111"/>
     <use x="2349.285156" xlink:href="#LiberationSerif-112"/>
     <use x="2399.285156" xlink:href="#LiberationSerif-117"/>
     <use x="2449.285156" xlink:href="#LiberationSerif-108"/>
     <use x="2477.068359" xlink:href="#LiberationSerif-97"/>
     <use x="2521.453125" xlink:href="#LiberationSerif-116"/>
     <use x="2549.236328" xlink:href="#LiberationSerif-105"/>
     <use x="2577.019531" xlink:href="#LiberationSerif-111"/>
     <use x="2627.019531" xlink:href="#LiberationSerif-110"/>
     <use x="2677.019531" xlink:href="#LiberationSerif-41"/>
    </g>
   </g>
   <g id="legend_1">
    <g id="patch_7">
     <path d="M 212.723125 91.957938 
L 407.72 91.957938 
Q 409.72 91.957938 409.72 89.957938 
L 409.72 48.472 
Q 409.72 46.472 407.72 46.472 
L 212.723125 46.472 
Q 210.723125 46.472 210.723125 48.472 
L 210.723125 89.957938 
Q 210.723125 91.957938 212.723125 91.957938 
z
" style="fill:#ffffff;opacity:0.8;stroke:#cccccc;stroke-linejoin:miter;"/>
    </g>
    <g id="line2d_16">
     <path d="M 214.723125 53.972 
L 234.723125 53.972 
" style="fill:none;stroke:#e7298a;stroke-dasharray:7.5,7.5;stroke-dashoffset:0;stroke-linecap:round;stroke-width:1.5;"/>
    </g>
    <g id="line2d_17"/>
    <g id="text_18">
     <!-- mean hypervolume value -->
     <g transform="translate(242.723125 57.472)scale(0.1 -0.1)">
      <use xlink:href="#LiberationSerif-109"/>
      <use x="77.783203" xlink:href="#LiberationSerif-101"/>
      <use x="122.167969" xlink:href="#LiberationSerif-97"/>
      <use x="166.552734" xlink:href="#LiberationSerif-110"/>
      <use x="216.552734" xlink:href="#LiberationSerif-32"/>
      <use x="241.552734" xlink:href="#LiberationSerif-104"/>
      <use x="291.552734" xlink:href="#LiberationSerif-121"/>
      <use x="341.552734" xlink:href="#LiberationSerif-112"/>
      <use x="391.552734" xlink:href="#LiberationSerif-101"/>
      <use x="435.9375" xlink:href="#LiberationSerif-114"/>
      <use x="469.238281" xlink:href="#LiberationSerif-118"/>
      <use x="519.238281" xlink:href="#LiberationSerif-111"/>
      <use x="569.238281" xlink:href="#LiberationSerif-108"/>
      <use x="597.021484" xlink:href="#LiberationSerif-117"/>
      <use x="647.021484" xlink:href="#LiberationSerif-109"/>
      <use x="724.804688" xlink:href="#LiberationSerif-101"/>
      <use x="769.189453" xlink:href="#LiberationSerif-32"/>
      <use x="794.189453" xlink:href="#LiberationSerif-118"/>
      <use x="844.189453" xlink:href="#LiberationSerif-97"/>
      <use x="888.574219" xlink:href="#LiberationSerif-108"/>
      <use x="916.357422" xlink:href="#LiberationSerif-117"/>
      <use x="966.357422" xlink:href="#LiberationSerif-101"/>
     </g>
    </g>
    <g id="patch_8">
     <path d="M 214.723125 71.629813 
L 234.723125 71.629813 
L 234.723125 64.629813 
L 214.723125 64.629813 
z
" style="fill:#666666;opacity:0.5;stroke:#666666;stroke-linejoin:miter;"/>
    </g>
    <g id="text_19">
     <!-- mean deviations above and below -->
     <defs>
      <path d="M 66.703125 42.671875 
L 51.3125 -0.984375 
L 47.515625 -0.984375 
L 36.1875 29.296875 
L 25 -0.984375 
L 21.390625 -0.984375 
L 5.515625 42.484375 
L 0.09375 43.703125 
L 0.09375 45.90625 
L 21.921875 45.90625 
L 21.921875 43.703125 
L 14.3125 42.390625 
L 25.203125 11.375 
L 36.28125 41.3125 
L 40.375 41.3125 
L 51.421875 11.1875 
L 61.8125 42.484375 
L 54.296875 43.703125 
L 54.296875 45.90625 
L 71.78125 45.90625 
L 71.78125 43.703125 
z
" id="LiberationSerif-119"/>
     </defs>
     <g transform="translate(242.723125 71.629813)scale(0.1 -0.1)">
      <use xlink:href="#LiberationSerif-109"/>
      <use x="77.783203" xlink:href="#LiberationSerif-101"/>
      <use x="122.167969" xlink:href="#LiberationSerif-97"/>
      <use x="166.552734" xlink:href="#LiberationSerif-110"/>
      <use x="216.552734" xlink:href="#LiberationSerif-32"/>
      <use x="241.552734" xlink:href="#LiberationSerif-100"/>
      <use x="291.552734" xlink:href="#LiberationSerif-101"/>
      <use x="335.9375" xlink:href="#LiberationSerif-118"/>
      <use x="385.9375" xlink:href="#LiberationSerif-105"/>
      <use x="413.720703" xlink:href="#LiberationSerif-97"/>
      <use x="458.105469" xlink:href="#LiberationSerif-116"/>
      <use x="485.888672" xlink:href="#LiberationSerif-105"/>
      <use x="513.671875" xlink:href="#LiberationSerif-111"/>
      <use x="563.671875" xlink:href="#LiberationSerif-110"/>
      <use x="613.671875" xlink:href="#LiberationSerif-115"/>
      <use x="652.587891" xlink:href="#LiberationSerif-32"/>
      <use x="677.587891" xlink:href="#LiberationSerif-97"/>
      <use x="721.972656" xlink:href="#LiberationSerif-98"/>
      <use x="771.972656" xlink:href="#LiberationSerif-111"/>
      <use x="821.972656" xlink:href="#LiberationSerif-118"/>
      <use x="871.972656" xlink:href="#LiberationSerif-101"/>
      <use x="916.357422" xlink:href="#LiberationSerif-32"/>
      <use x="941.357422" xlink:href="#LiberationSerif-97"/>
      <use x="985.742188" xlink:href="#LiberationSerif-110"/>
      <use x="1035.742188" xlink:href="#LiberationSerif-100"/>
      <use x="1085.742188" xlink:href="#LiberationSerif-32"/>
      <use x="1110.742188" xlink:href="#LiberationSerif-98"/>
      <use x="1160.742188" xlink:href="#LiberationSerif-101"/>
      <use x="1205.126953" xlink:href="#LiberationSerif-108"/>
      <use x="1232.910156" xlink:href="#LiberationSerif-111"/>
      <use x="1282.910156" xlink:href="#LiberationSerif-119"/>
     </g>
    </g>
    <g id="patch_9">
     <path d="M 214.723125 85.800125 
L 234.723125 85.800125 
L 234.723125 78.800125 
L 214.723125 78.800125 
z
" style="fill:#66a61e;opacity:0.75;stroke:#66a61e;stroke-linejoin:miter;"/>
    </g>
    <g id="text_20">
     <!-- range of highest and lowest performance -->
     <defs>
      <path d="M 42.484375 31.390625 
Q 42.484375 23.484375 37.75 19.421875 
Q 33.015625 15.375 24.125 15.375 
Q 22.125 15.375 20.09375 15.59375 
Q 18.0625 15.828125 16.703125 16.109375 
L 13.625 9.71875 
Q 13.765625 8.890625 15.515625 8.15625 
Q 17.28125 7.421875 19.921875 7.421875 
L 33.5 7.421875 
Q 40.921875 7.421875 44.5 4.203125 
Q 48.09375 0.984375 48.09375 -4.6875 
Q 48.09375 -7.859375 46.796875 -10.90625 
Q 45.515625 -13.96875 42.609375 -16.328125 
Q 39.703125 -18.703125 35.015625 -20.140625 
Q 30.328125 -21.578125 23.484375 -21.578125 
Q 18.265625 -21.578125 14.59375 -20.71875 
Q 10.9375 -19.875 8.640625 -18.359375 
Q 6.34375 -16.84375 5.3125 -14.84375 
Q 4.296875 -12.84375 4.296875 -10.5 
Q 4.296875 -8.890625 4.90625 -7.4375 
Q 5.515625 -6 6.609375 -4.65625 
Q 7.71875 -3.328125 9.234375 -2.046875 
Q 10.75 -0.78125 12.5 0.484375 
Q 11.625 0.78125 10.46875 1.4375 
Q 9.328125 2.09375 8.296875 3.125 
Q 7.28125 4.15625 6.59375 5.5 
Q 5.90625 6.84375 5.90625 8.5 
L 13.625 17.1875 
Q 5.90625 20.796875 5.90625 31.390625 
Q 5.90625 35.25 7.171875 38.203125 
Q 8.453125 41.15625 10.8125 43.140625 
Q 13.1875 45.125 16.65625 46.125 
Q 20.125 47.125 24.515625 47.125 
Q 25.875 47.125 27.296875 46.96875 
Q 28.71875 46.828125 29.953125 46.65625 
Q 31.203125 46.484375 32.125 46.265625 
Q 33.0625 46.046875 33.5 45.90625 
L 44.28125 51.3125 
L 46 49.21875 
L 39.203125 42.1875 
Q 40.875 40.328125 41.671875 37.515625 
Q 42.484375 34.71875 42.484375 31.390625 
z
M 40.484375 -6.203125 
Q 40.484375 -3.421875 38.765625 -1.859375 
Q 37.0625 -0.296875 33.59375 -0.296875 
L 15.828125 -0.296875 
Q 14.796875 -1.171875 13.9375 -2.3125 
Q 13.09375 -3.46875 12.46875 -4.734375 
Q 11.859375 -6 11.515625 -7.296875 
Q 11.1875 -8.59375 11.1875 -9.8125 
Q 11.1875 -11.578125 11.75 -13.015625 
Q 12.3125 -14.453125 13.703125 -15.46875 
Q 15.09375 -16.5 17.484375 -17.078125 
Q 19.875 -17.671875 23.484375 -17.671875 
Q 27.875 -17.671875 31.078125 -16.8125 
Q 34.28125 -15.96875 36.375 -14.421875 
Q 38.484375 -12.890625 39.484375 -10.78125 
Q 40.484375 -8.6875 40.484375 -6.203125 
z
M 24.21875 19.09375 
Q 29.546875 19.09375 31.765625 22.140625 
Q 33.984375 25.203125 33.984375 31.390625 
Q 33.984375 34.46875 33.46875 36.734375 
Q 32.953125 39.015625 31.8125 40.46875 
Q 30.671875 41.9375 28.8125 42.671875 
Q 26.953125 43.40625 24.3125 43.40625 
Q 21.625 43.40625 19.75 42.671875 
Q 17.875 41.9375 16.671875 40.46875 
Q 15.484375 39.015625 14.9375 36.734375 
Q 14.40625 34.46875 14.40625 31.390625 
Q 14.40625 28.328125 14.9375 26 
Q 15.484375 23.6875 16.65625 22.140625 
Q 17.828125 20.609375 19.671875 19.84375 
Q 21.53125 19.09375 24.21875 19.09375 
z
" id="LiberationSerif-103"/>
      <path d="M 41.3125 2.78125 
Q 40.046875 1.859375 38.28125 1.140625 
Q 36.53125 0.4375 34.515625 -0.015625 
Q 32.515625 -0.484375 30.34375 -0.734375 
Q 28.171875 -0.984375 26.125 -0.984375 
Q 20.171875 -0.984375 15.9375 0.65625 
Q 11.71875 2.296875 9.03125 5.421875 
Q 6.34375 8.546875 5.078125 13.0625 
Q 3.8125 17.578125 3.8125 23.296875 
Q 3.8125 29.546875 5.4375 34.0625 
Q 7.078125 38.578125 10 41.484375 
Q 12.9375 44.390625 16.96875 45.75 
Q 21 47.125 25.78125 47.125 
Q 29.734375 47.125 33.4375 46.65625 
Q 37.15625 46.1875 40.1875 45.609375 
L 40.1875 32.8125 
L 37.5 32.8125 
L 35.40625 40.921875 
Q 33.59375 41.9375 31.03125 42.578125 
Q 28.46875 43.21875 25.6875 43.21875 
Q 22.515625 43.21875 20.09375 42.0625 
Q 17.671875 40.921875 15.984375 38.46875 
Q 14.3125 36.03125 13.453125 32.265625 
Q 12.59375 28.515625 12.59375 23.296875 
Q 12.59375 18.890625 13.328125 15.34375 
Q 14.0625 11.8125 15.921875 9.328125 
Q 17.78125 6.84375 20.921875 5.46875 
Q 24.078125 4.109375 28.90625 4.109375 
Q 30.5625 4.109375 32.296875 4.21875 
Q 34.03125 4.34375 35.671875 4.5625 
Q 37.3125 4.78125 38.75 5.078125 
Q 40.1875 5.375 41.3125 5.71875 
z
" id="LiberationSerif-99"/>
     </defs>
     <g transform="translate(242.723125 85.800125)scale(0.1 -0.1)">
      <use xlink:href="#LiberationSerif-114"/>
      <use x="33.300781" xlink:href="#LiberationSerif-97"/>
      <use x="77.685547" xlink:href="#LiberationSerif-110"/>
      <use x="127.685547" xlink:href="#LiberationSerif-103"/>
      <use x="177.685547" xlink:href="#LiberationSerif-101"/>
      <use x="222.070312" xlink:href="#LiberationSerif-32"/>
      <use x="247.070312" xlink:href="#LiberationSerif-111"/>
      <use x="297.070312" xlink:href="#LiberationSerif-102"/>
      <use x="330.371094" xlink:href="#LiberationSerif-32"/>
      <use x="355.371094" xlink:href="#LiberationSerif-104"/>
      <use x="405.371094" xlink:href="#LiberationSerif-105"/>
      <use x="433.154297" xlink:href="#LiberationSerif-103"/>
      <use x="483.154297" xlink:href="#LiberationSerif-104"/>
      <use x="533.154297" xlink:href="#LiberationSerif-101"/>
      <use x="577.539062" xlink:href="#LiberationSerif-115"/>
      <use x="616.455078" xlink:href="#LiberationSerif-116"/>
      <use x="644.238281" xlink:href="#LiberationSerif-32"/>
      <use x="669.238281" xlink:href="#LiberationSerif-97"/>
      <use x="713.623047" xlink:href="#LiberationSerif-110"/>
      <use x="763.623047" xlink:href="#LiberationSerif-100"/>
      <use x="813.623047" xlink:href="#LiberationSerif-32"/>
      <use x="838.623047" xlink:href="#LiberationSerif-108"/>
      <use x="866.40625" xlink:href="#LiberationSerif-111"/>
      <use x="916.40625" xlink:href="#LiberationSerif-119"/>
      <use x="988.623047" xlink:href="#LiberationSerif-101"/>
      <use x="1033.007812" xlink:href="#LiberationSerif-115"/>
      <use x="1071.923828" xlink:href="#LiberationSerif-116"/>
      <use x="1099.707031" xlink:href="#LiberationSerif-32"/>
      <use x="1124.707031" xlink:href="#LiberationSerif-112"/>
      <use x="1174.707031" xlink:href="#LiberationSerif-101"/>
      <use x="1219.091797" xlink:href="#LiberationSerif-114"/>
      <use x="1252.392578" xlink:href="#LiberationSerif-102"/>
      <use x="1285.693359" xlink:href="#LiberationSerif-111"/>
      <use x="1335.693359" xlink:href="#LiberationSerif-114"/>
      <use x="1368.994141" xlink:href="#LiberationSerif-109"/>
      <use x="1446.777344" xlink:href="#LiberationSerif-97"/>
      <use x="1491.162109" xlink:href="#LiberationSerif-110"/>
      <use x="1541.162109" xlink:href="#LiberationSerif-99"/>
      <use x="1585.546875" xlink:href="#LiberationSerif-101"/>
     </g>
    </g>
   </g>
  </g>
 </g>
 <defs>
  <clipPath id="p86f48909fb">
   <rect height="266.112" width="357.12" x="57.6" y="41.472"/>
  </clipPath>
 </defs>
</svg>
