<?xml version="1.0" encoding="UTF-8" standalone="no"?>
<svg
   xmlns:dc="http://purl.org/dc/elements/1.1/"
   xmlns:cc="http://creativecommons.org/ns#"
   xmlns:rdf="http://www.w3.org/1999/02/22-rdf-syntax-ns#"
   xmlns:svg="http://www.w3.org/2000/svg"
   xmlns="http://www.w3.org/2000/svg"
   xmlns:xlink="http://www.w3.org/1999/xlink"
   xmlns:sodipodi="http://sodipodi.sourceforge.net/DTD/sodipodi-0.dtd"
   xmlns:inkscape="http://www.inkscape.org/namespaces/inkscape"
   height="345.6pt"
   version="1.1"
   viewBox="0 0 460.8 345.6"
   width="460.8pt"
   id="svg876"
   sodipodi:docname="3453422-graph4.svg"
   inkscape:version="1.0rc1 (09960d6f05, 2020-04-09)">
  <metadata
     id="metadata880">
    <rdf:RDF>
      <cc:Work
         rdf:about="">
        <dc:format>image/svg+xml</dc:format>
        <dc:type
           rdf:resource="http://purl.org/dc/dcmitype/StillImage" />
        <dc:title></dc:title>
      </cc:Work>
    </rdf:RDF>
  </metadata>
  <sodipodi:namedview
     inkscape:document-rotation="0"
     pagecolor="#ffffff"
     bordercolor="#666666"
     borderopacity="1"
     objecttolerance="10"
     gridtolerance="10"
     guidetolerance="10"
     inkscape:pageopacity="0"
     inkscape:pageshadow="2"
     inkscape:window-width="1920"
     inkscape:window-height="1016"
     id="namedview878"
     showgrid="false"
     inkscape:zoom="1.2844693"
     inkscape:cx="191.41559"
     inkscape:cy="296.1171"
     inkscape:window-x="0"
     inkscape:window-y="27"
     inkscape:window-maximized="1"
     inkscape:current-layer="svg876" />
  <defs
     id="defs4">
    <style
       type="text/css"
       id="style2">
*{stroke-linecap:butt;stroke-linejoin:round;}
  </style>
    <path
       d="M 21.390625,3.90625 29.78125,2.59375 V 0 H 3.609375 v 2.59375 l 8.40625,1.3125 V 61.625 l -8.40625,1.265625 v 2.59375 H 29.78125 v -2.59375 L 21.390625,61.625 Z"
       id="LiberationSerif-73-3"
       inkscape:connector-curvature="0" />
    <path
       inkscape:connector-curvature="0"
       id="path1771-9"
       d="M 21.390625,3.90625 29.78125,2.59375 V 0 H 3.609375 v 2.59375 l 8.40625,1.3125 V 61.625 l -8.40625,1.265625 v 2.59375 H 29.78125 v -2.59375 L 21.390625,61.625 Z" />
  </defs>
  <text
     transform="scale(0.9970553,1.0029534)"
     id="text1272"
     y="35.855846"
     x="60.155193"
     style="font-size:13.7906px;line-height:125%;font-family:'Liberation Serif';-inkscape-font-specification:'Liberation Serif';letter-spacing:0px;word-spacing:0px;stroke-width:0.75"
     xml:space="preserve"><tspan
       style="stroke-width:0.75"
       y="35.855846"
       x="60.155193"
       id="tspan1270"
       sodipodi:role="line">Evolution of NSGA2 on PPF and Mean Enrichment using SMO</tspan></text>
  <g
     id="patch_2">
    <path
       d="M 57.6,307.584 H 414.72 V 41.472 H 57.6 Z"
       style="fill:#ffffff"
       id="path9"
       inkscape:connector-curvature="0" />
  </g>
  <g
     id="PathCollection_1">
    <defs
       id="defs13">
      <path
         d="M 0,3 C 0.795609,3 1.55874,2.683901 2.12132,2.12132 2.683901,1.55874 3,0.795609 3,0 3,-0.795609 2.683901,-1.55874 2.12132,-2.12132 1.55874,-2.683901 0.795609,-3 0,-3 -0.795609,-3 -1.55874,-2.683901 -2.12132,-2.12132 -2.683901,-1.55874 -3,-0.795609 -3,0 -3,0.795609 -2.683901,1.55874 -2.12132,2.12132 -1.55874,2.683901 -0.795609,3 0,3 Z"
         id="me097144340"
         style="stroke:#800080;stroke-opacity:0.6"
         inkscape:connector-curvature="0" />
    </defs>
    <g
       clip-path="url(#pa6640f7f3b)"
       id="g135">
      <use
         style="fill:#800080;fill-opacity:0.6;stroke:#800080;stroke-opacity:0.6"
         x="212.97038"
         xlink:href="#me097144340"
         y="295.48801"
         id="use15"
         width="100%"
         height="100%" />
      <use
         style="fill:#800080;fill-opacity:0.6;stroke:#800080;stroke-opacity:0.6"
         x="73.832726"
         xlink:href="#me097144340"
         y="199.05418"
         id="use17"
         width="100%"
         height="100%" />
      <use
         style="fill:#800080;fill-opacity:0.6;stroke:#800080;stroke-opacity:0.6"
         x="120.21194"
         xlink:href="#me097144340"
         y="250.85382"
         id="use19"
         width="100%"
         height="100%" />
      <use
         style="fill:#800080;fill-opacity:0.6;stroke:#800080;stroke-opacity:0.6"
         x="97.022339"
         xlink:href="#me097144340"
         y="227.87445"
         id="use21"
         width="100%"
         height="100%" />
      <use
         style="fill:#800080;fill-opacity:0.6;stroke:#800080;stroke-opacity:0.6"
         x="73.832726"
         xlink:href="#me097144340"
         y="199.05418"
         id="use23"
         width="100%"
         height="100%" />
      <use
         style="fill:#800080;fill-opacity:0.6;stroke:#800080;stroke-opacity:0.6"
         x="97.022339"
         xlink:href="#me097144340"
         y="227.87445"
         id="use25"
         width="100%"
         height="100%" />
      <use
         style="fill:#800080;fill-opacity:0.6;stroke:#800080;stroke-opacity:0.6"
         x="120.21194"
         xlink:href="#me097144340"
         y="250.85382"
         id="use27"
         width="100%"
         height="100%" />
      <use
         style="fill:#800080;fill-opacity:0.6;stroke:#800080;stroke-opacity:0.6"
         x="97.022339"
         xlink:href="#me097144340"
         y="227.87445"
         id="use29"
         width="100%"
         height="100%" />
      <use
         style="fill:#800080;fill-opacity:0.6;stroke:#800080;stroke-opacity:0.6"
         x="189.78078"
         xlink:href="#me097144340"
         y="292.18857"
         id="use31"
         width="100%"
         height="100%" />
      <use
         style="fill:#800080;fill-opacity:0.6;stroke:#800080;stroke-opacity:0.6"
         x="166.59117"
         xlink:href="#me097144340"
         y="282.95795"
         id="use33"
         width="100%"
         height="100%" />
      <use
         style="fill:#800080;fill-opacity:0.6;stroke:#800080;stroke-opacity:0.6"
         x="73.832726"
         xlink:href="#me097144340"
         y="199.05418"
         id="use35"
         width="100%"
         height="100%" />
      <use
         style="fill:#800080;fill-opacity:0.6;stroke:#800080;stroke-opacity:0.6"
         x="97.022339"
         xlink:href="#me097144340"
         y="227.87445"
         id="use37"
         width="100%"
         height="100%" />
      <use
         style="fill:#800080;fill-opacity:0.6;stroke:#800080;stroke-opacity:0.6"
         x="166.59117"
         xlink:href="#me097144340"
         y="282.95795"
         id="use39"
         width="100%"
         height="100%" />
      <use
         style="fill:#800080;fill-opacity:0.6;stroke:#800080;stroke-opacity:0.6"
         x="143.40157"
         xlink:href="#me097144340"
         y="264.43988"
         id="use41"
         width="100%"
         height="100%" />
      <use
         style="fill:#800080;fill-opacity:0.6;stroke:#800080;stroke-opacity:0.6"
         x="189.78078"
         xlink:href="#me097144340"
         y="292.18857"
         id="use43"
         width="100%"
         height="100%" />
      <use
         style="fill:#800080;fill-opacity:0.6;stroke:#800080;stroke-opacity:0.6"
         x="120.21194"
         xlink:href="#me097144340"
         y="250.85382"
         id="use45"
         width="100%"
         height="100%" />
      <use
         style="fill:#800080;fill-opacity:0.6;stroke:#800080;stroke-opacity:0.6"
         x="212.97038"
         xlink:href="#me097144340"
         y="292.96909"
         id="use47"
         width="100%"
         height="100%" />
      <use
         style="fill:#800080;fill-opacity:0.6;stroke:#800080;stroke-opacity:0.6"
         x="143.40157"
         xlink:href="#me097144340"
         y="271.86548"
         id="use49"
         width="100%"
         height="100%" />
      <use
         style="fill:#800080;fill-opacity:0.6;stroke:#800080;stroke-opacity:0.6"
         x="143.40157"
         xlink:href="#me097144340"
         y="264.43988"
         id="use51"
         width="100%"
         height="100%" />
      <use
         style="fill:#800080;fill-opacity:0.6;stroke:#800080;stroke-opacity:0.6"
         x="166.59117"
         xlink:href="#me097144340"
         y="282.95795"
         id="use53"
         width="100%"
         height="100%" />
      <use
         style="fill:#800080;fill-opacity:0.6;stroke:#800080;stroke-opacity:0.6"
         x="143.40157"
         xlink:href="#me097144340"
         y="271.86548"
         id="use55"
         width="100%"
         height="100%" />
      <use
         style="fill:#800080;fill-opacity:0.6;stroke:#800080;stroke-opacity:0.6"
         x="166.59117"
         xlink:href="#me097144340"
         y="282.95795"
         id="use57"
         width="100%"
         height="100%" />
      <use
         style="fill:#800080;fill-opacity:0.6;stroke:#800080;stroke-opacity:0.6"
         x="189.78078"
         xlink:href="#me097144340"
         y="292.18857"
         id="use59"
         width="100%"
         height="100%" />
      <use
         style="fill:#800080;fill-opacity:0.6;stroke:#800080;stroke-opacity:0.6"
         x="143.40157"
         xlink:href="#me097144340"
         y="271.86548"
         id="use61"
         width="100%"
         height="100%" />
      <use
         style="fill:#800080;fill-opacity:0.6;stroke:#800080;stroke-opacity:0.6"
         x="143.40157"
         xlink:href="#me097144340"
         y="264.43988"
         id="use63"
         width="100%"
         height="100%" />
      <use
         style="fill:#800080;fill-opacity:0.6;stroke:#800080;stroke-opacity:0.6"
         x="212.97038"
         xlink:href="#me097144340"
         y="295.48801"
         id="use65"
         width="100%"
         height="100%" />
      <use
         style="fill:#800080;fill-opacity:0.6;stroke:#800080;stroke-opacity:0.6"
         x="212.97038"
         xlink:href="#me097144340"
         y="292.96909"
         id="use67"
         width="100%"
         height="100%" />
      <use
         style="fill:#800080;fill-opacity:0.6;stroke:#800080;stroke-opacity:0.6"
         x="212.97038"
         xlink:href="#me097144340"
         y="292.96909"
         id="use69"
         width="100%"
         height="100%" />
      <use
         style="fill:#800080;fill-opacity:0.6;stroke:#800080;stroke-opacity:0.6"
         x="189.78078"
         xlink:href="#me097144340"
         y="292.18857"
         id="use71"
         width="100%"
         height="100%" />
      <use
         style="fill:#800080;fill-opacity:0.6;stroke:#800080;stroke-opacity:0.6"
         x="189.78078"
         xlink:href="#me097144340"
         y="292.18857"
         id="use73"
         width="100%"
         height="100%" />
      <use
         style="fill:#800080;fill-opacity:0.6;stroke:#800080;stroke-opacity:0.6"
         x="120.21194"
         xlink:href="#me097144340"
         y="250.85382"
         id="use75"
         width="100%"
         height="100%" />
      <use
         style="fill:#800080;fill-opacity:0.6;stroke:#800080;stroke-opacity:0.6"
         x="166.59117"
         xlink:href="#me097144340"
         y="282.95795"
         id="use77"
         width="100%"
         height="100%" />
      <use
         style="fill:#800080;fill-opacity:0.6;stroke:#800080;stroke-opacity:0.6"
         x="73.832726"
         xlink:href="#me097144340"
         y="199.05418"
         id="use79"
         width="100%"
         height="100%" />
      <use
         style="fill:#800080;fill-opacity:0.6;stroke:#800080;stroke-opacity:0.6"
         x="143.40157"
         xlink:href="#me097144340"
         y="271.86548"
         id="use81"
         width="100%"
         height="100%" />
      <use
         style="fill:#800080;fill-opacity:0.6;stroke:#800080;stroke-opacity:0.6"
         x="143.40157"
         xlink:href="#me097144340"
         y="271.86548"
         id="use83"
         width="100%"
         height="100%" />
      <use
         style="fill:#800080;fill-opacity:0.6;stroke:#800080;stroke-opacity:0.6"
         x="212.97038"
         xlink:href="#me097144340"
         y="295.48801"
         id="use85"
         width="100%"
         height="100%" />
      <use
         style="fill:#800080;fill-opacity:0.6;stroke:#800080;stroke-opacity:0.6"
         x="120.21194"
         xlink:href="#me097144340"
         y="250.85382"
         id="use87"
         width="100%"
         height="100%" />
      <use
         style="fill:#800080;fill-opacity:0.6;stroke:#800080;stroke-opacity:0.6"
         x="189.78078"
         xlink:href="#me097144340"
         y="292.18857"
         id="use89"
         width="100%"
         height="100%" />
      <use
         style="fill:#800080;fill-opacity:0.6;stroke:#800080;stroke-opacity:0.6"
         x="143.40157"
         xlink:href="#me097144340"
         y="271.86548"
         id="use91"
         width="100%"
         height="100%" />
      <use
         style="fill:#800080;fill-opacity:0.6;stroke:#800080;stroke-opacity:0.6"
         x="189.78078"
         xlink:href="#me097144340"
         y="292.18857"
         id="use93"
         width="100%"
         height="100%" />
      <use
         style="fill:#800080;fill-opacity:0.6;stroke:#800080;stroke-opacity:0.6"
         x="120.21194"
         xlink:href="#me097144340"
         y="250.85382"
         id="use95"
         width="100%"
         height="100%" />
      <use
         style="fill:#800080;fill-opacity:0.6;stroke:#800080;stroke-opacity:0.6"
         x="143.40157"
         xlink:href="#me097144340"
         y="264.43988"
         id="use97"
         width="100%"
         height="100%" />
      <use
         style="fill:#800080;fill-opacity:0.6;stroke:#800080;stroke-opacity:0.6"
         x="143.40157"
         xlink:href="#me097144340"
         y="264.43988"
         id="use99"
         width="100%"
         height="100%" />
      <use
         style="fill:#800080;fill-opacity:0.6;stroke:#800080;stroke-opacity:0.6"
         x="212.97038"
         xlink:href="#me097144340"
         y="295.48801"
         id="use101"
         width="100%"
         height="100%" />
      <use
         style="fill:#800080;fill-opacity:0.6;stroke:#800080;stroke-opacity:0.6"
         x="143.40157"
         xlink:href="#me097144340"
         y="264.43988"
         id="use103"
         width="100%"
         height="100%" />
      <use
         style="fill:#800080;fill-opacity:0.6;stroke:#800080;stroke-opacity:0.6"
         x="212.97038"
         xlink:href="#me097144340"
         y="292.96909"
         id="use105"
         width="100%"
         height="100%" />
      <use
         style="fill:#800080;fill-opacity:0.6;stroke:#800080;stroke-opacity:0.6"
         x="212.97038"
         xlink:href="#me097144340"
         y="292.96909"
         id="use107"
         width="100%"
         height="100%" />
      <use
         style="fill:#800080;fill-opacity:0.6;stroke:#800080;stroke-opacity:0.6"
         x="166.59117"
         xlink:href="#me097144340"
         y="282.95795"
         id="use109"
         width="100%"
         height="100%" />
      <use
         style="fill:#800080;fill-opacity:0.6;stroke:#800080;stroke-opacity:0.6"
         x="120.21194"
         xlink:href="#me097144340"
         y="250.85382"
         id="use111"
         width="100%"
         height="100%" />
      <use
         style="fill:#800080;fill-opacity:0.6;stroke:#800080;stroke-opacity:0.6"
         x="189.78078"
         xlink:href="#me097144340"
         y="292.18857"
         id="use113"
         width="100%"
         height="100%" />
      <use
         style="fill:#800080;fill-opacity:0.6;stroke:#800080;stroke-opacity:0.6"
         x="73.832726"
         xlink:href="#me097144340"
         y="199.05418"
         id="use115"
         width="100%"
         height="100%" />
      <use
         style="fill:#800080;fill-opacity:0.6;stroke:#800080;stroke-opacity:0.6"
         x="120.21194"
         xlink:href="#me097144340"
         y="250.85382"
         id="use117"
         width="100%"
         height="100%" />
      <use
         style="fill:#800080;fill-opacity:0.6;stroke:#800080;stroke-opacity:0.6"
         x="73.832726"
         xlink:href="#me097144340"
         y="199.05418"
         id="use119"
         width="100%"
         height="100%" />
      <use
         style="fill:#800080;fill-opacity:0.6;stroke:#800080;stroke-opacity:0.6"
         x="120.21194"
         xlink:href="#me097144340"
         y="250.85382"
         id="use121"
         width="100%"
         height="100%" />
      <use
         style="fill:#800080;fill-opacity:0.6;stroke:#800080;stroke-opacity:0.6"
         x="97.022339"
         xlink:href="#me097144340"
         y="227.87445"
         id="use123"
         width="100%"
         height="100%" />
      <use
         style="fill:#800080;fill-opacity:0.6;stroke:#800080;stroke-opacity:0.6"
         x="97.022339"
         xlink:href="#me097144340"
         y="227.87445"
         id="use125"
         width="100%"
         height="100%" />
      <use
         style="fill:#800080;fill-opacity:0.6;stroke:#800080;stroke-opacity:0.6"
         x="120.21194"
         xlink:href="#me097144340"
         y="250.85382"
         id="use127"
         width="100%"
         height="100%" />
      <use
         style="fill:#800080;fill-opacity:0.6;stroke:#800080;stroke-opacity:0.6"
         x="166.59117"
         xlink:href="#me097144340"
         y="282.95795"
         id="use129"
         width="100%"
         height="100%" />
      <use
         style="fill:#800080;fill-opacity:0.6;stroke:#800080;stroke-opacity:0.6"
         x="143.40157"
         xlink:href="#me097144340"
         y="271.86548"
         id="use131"
         width="100%"
         height="100%" />
      <use
         style="fill:#800080;fill-opacity:0.6;stroke:#800080;stroke-opacity:0.6"
         x="212.97038"
         xlink:href="#me097144340"
         y="292.96909"
         id="use133"
         width="100%"
         height="100%" />
    </g>
  </g>
  <g
     id="PathCollection_2">
    <defs
       id="defs139">
      <path
         d="M 0,3 C 0.795609,3 1.55874,2.683901 2.12132,2.12132 2.683901,1.55874 3,0.795609 3,0 3,-0.795609 2.683901,-1.55874 2.12132,-2.12132 1.55874,-2.683901 0.795609,-3 0,-3 -0.795609,-3 -1.55874,-2.683901 -2.12132,-2.12132 -2.683901,-1.55874 -3,-0.795609 -3,0 -3,0.795609 -2.683901,1.55874 -2.12132,2.12132 -1.55874,2.683901 -0.795609,3 0,3 Z"
         id="md490c46b00"
         style="stroke:#008000;stroke-opacity:0.6"
         inkscape:connector-curvature="0" />
    </defs>
    <g
       clip-path="url(#pa6640f7f3b)"
       id="g261">
      <use
         style="fill:#008000;fill-opacity:0.6;stroke:#008000;stroke-opacity:0.6"
         x="282.53922"
         xlink:href="#md490c46b00"
         y="261.79327"
         id="use141"
         width="100%"
         height="100%" />
      <use
         style="fill:#008000;fill-opacity:0.6;stroke:#008000;stroke-opacity:0.6"
         x="259.34961"
         xlink:href="#md490c46b00"
         y="100.72694"
         id="use143"
         width="100%"
         height="100%" />
      <use
         style="fill:#008000;fill-opacity:0.6;stroke:#008000;stroke-opacity:0.6"
         x="212.97038"
         xlink:href="#md490c46b00"
         y="170.92555"
         id="use145"
         width="100%"
         height="100%" />
      <use
         style="fill:#008000;fill-opacity:0.6;stroke:#008000;stroke-opacity:0.6"
         x="259.34961"
         xlink:href="#md490c46b00"
         y="249.83304"
         id="use147"
         width="100%"
         height="100%" />
      <use
         style="fill:#008000;fill-opacity:0.6;stroke:#008000;stroke-opacity:0.6"
         x="305.72882"
         xlink:href="#md490c46b00"
         y="244.06438"
         id="use149"
         width="100%"
         height="100%" />
      <use
         style="fill:#008000;fill-opacity:0.6;stroke:#008000;stroke-opacity:0.6"
         x="236.16"
         xlink:href="#md490c46b00"
         y="203.53448"
         id="use151"
         width="100%"
         height="100%" />
      <use
         style="fill:#008000;fill-opacity:0.6;stroke:#008000;stroke-opacity:0.6"
         x="259.34961"
         xlink:href="#md490c46b00"
         y="253.69754"
         id="use153"
         width="100%"
         height="100%" />
      <use
         style="fill:#008000;fill-opacity:0.6;stroke:#008000;stroke-opacity:0.6"
         x="189.78078"
         xlink:href="#md490c46b00"
         y="226.92134"
         id="use155"
         width="100%"
         height="100%" />
      <use
         style="fill:#008000;fill-opacity:0.6;stroke:#008000;stroke-opacity:0.6"
         x="259.34961"
         xlink:href="#md490c46b00"
         y="204.26215"
         id="use157"
         width="100%"
         height="100%" />
      <use
         style="fill:#008000;fill-opacity:0.6;stroke:#008000;stroke-opacity:0.6"
         x="212.97038"
         xlink:href="#md490c46b00"
         y="53.568001"
         id="use159"
         width="100%"
         height="100%" />
      <use
         style="fill:#008000;fill-opacity:0.6;stroke:#008000;stroke-opacity:0.6"
         x="305.72882"
         xlink:href="#md490c46b00"
         y="242.28653"
         id="use161"
         width="100%"
         height="100%" />
      <use
         style="fill:#008000;fill-opacity:0.6;stroke:#008000;stroke-opacity:0.6"
         x="259.34961"
         xlink:href="#md490c46b00"
         y="225.26559"
         id="use163"
         width="100%"
         height="100%" />
      <use
         style="fill:#008000;fill-opacity:0.6;stroke:#008000;stroke-opacity:0.6"
         x="282.53922"
         xlink:href="#md490c46b00"
         y="110.99075"
         id="use165"
         width="100%"
         height="100%" />
      <use
         style="fill:#008000;fill-opacity:0.6;stroke:#008000;stroke-opacity:0.6"
         x="259.34961"
         xlink:href="#md490c46b00"
         y="87.3312"
         id="use167"
         width="100%"
         height="100%" />
      <use
         style="fill:#008000;fill-opacity:0.6;stroke:#008000;stroke-opacity:0.6"
         x="328.91846"
         xlink:href="#md490c46b00"
         y="269.79251"
         id="use169"
         width="100%"
         height="100%" />
      <use
         style="fill:#008000;fill-opacity:0.6;stroke:#008000;stroke-opacity:0.6"
         x="259.34961"
         xlink:href="#md490c46b00"
         y="272.51752"
         id="use171"
         width="100%"
         height="100%" />
      <use
         style="fill:#008000;fill-opacity:0.6;stroke:#008000;stroke-opacity:0.6"
         x="212.97038"
         xlink:href="#md490c46b00"
         y="221.82056"
         id="use173"
         width="100%"
         height="100%" />
      <use
         style="fill:#008000;fill-opacity:0.6;stroke:#008000;stroke-opacity:0.6"
         x="305.72882"
         xlink:href="#md490c46b00"
         y="236.10397"
         id="use175"
         width="100%"
         height="100%" />
      <use
         style="fill:#008000;fill-opacity:0.6;stroke:#008000;stroke-opacity:0.6"
         x="259.34961"
         xlink:href="#md490c46b00"
         y="203.17711"
         id="use177"
         width="100%"
         height="100%" />
      <use
         style="fill:#008000;fill-opacity:0.6;stroke:#008000;stroke-opacity:0.6"
         x="352.10806"
         xlink:href="#md490c46b00"
         y="239.85306"
         id="use179"
         width="100%"
         height="100%" />
      <use
         style="fill:#008000;fill-opacity:0.6;stroke:#008000;stroke-opacity:0.6"
         x="166.59117"
         xlink:href="#md490c46b00"
         y="247.79343"
         id="use181"
         width="100%"
         height="100%" />
      <use
         style="fill:#008000;fill-opacity:0.6;stroke:#008000;stroke-opacity:0.6"
         x="282.53922"
         xlink:href="#md490c46b00"
         y="259.33194"
         id="use183"
         width="100%"
         height="100%" />
      <use
         style="fill:#008000;fill-opacity:0.6;stroke:#008000;stroke-opacity:0.6"
         x="328.91846"
         xlink:href="#md490c46b00"
         y="242.91061"
         id="use185"
         width="100%"
         height="100%" />
      <use
         style="fill:#008000;fill-opacity:0.6;stroke:#008000;stroke-opacity:0.6"
         x="305.72882"
         xlink:href="#md490c46b00"
         y="279.35144"
         id="use187"
         width="100%"
         height="100%" />
      <use
         style="fill:#008000;fill-opacity:0.6;stroke:#008000;stroke-opacity:0.6"
         x="352.10806"
         xlink:href="#md490c46b00"
         y="249.88965"
         id="use189"
         width="100%"
         height="100%" />
      <use
         style="fill:#008000;fill-opacity:0.6;stroke:#008000;stroke-opacity:0.6"
         x="282.53922"
         xlink:href="#md490c46b00"
         y="284.48468"
         id="use191"
         width="100%"
         height="100%" />
      <use
         style="fill:#008000;fill-opacity:0.6;stroke:#008000;stroke-opacity:0.6"
         x="212.97038"
         xlink:href="#md490c46b00"
         y="255.15396"
         id="use193"
         width="100%"
         height="100%" />
      <use
         style="fill:#008000;fill-opacity:0.6;stroke:#008000;stroke-opacity:0.6"
         x="352.10806"
         xlink:href="#md490c46b00"
         y="148.96721"
         id="use195"
         width="100%"
         height="100%" />
      <use
         style="fill:#008000;fill-opacity:0.6;stroke:#008000;stroke-opacity:0.6"
         x="375.29767"
         xlink:href="#md490c46b00"
         y="172.31787"
         id="use197"
         width="100%"
         height="100%" />
      <use
         style="fill:#008000;fill-opacity:0.6;stroke:#008000;stroke-opacity:0.6"
         x="236.16"
         xlink:href="#md490c46b00"
         y="178.53947"
         id="use199"
         width="100%"
         height="100%" />
      <use
         style="fill:#008000;fill-opacity:0.6;stroke:#008000;stroke-opacity:0.6"
         x="189.78078"
         xlink:href="#md490c46b00"
         y="166.45224"
         id="use201"
         width="100%"
         height="100%" />
      <use
         style="fill:#008000;fill-opacity:0.6;stroke:#008000;stroke-opacity:0.6"
         x="375.29767"
         xlink:href="#md490c46b00"
         y="156.33971"
         id="use203"
         width="100%"
         height="100%" />
      <use
         style="fill:#008000;fill-opacity:0.6;stroke:#008000;stroke-opacity:0.6"
         x="236.16"
         xlink:href="#md490c46b00"
         y="58.673237"
         id="use205"
         width="100%"
         height="100%" />
      <use
         style="fill:#008000;fill-opacity:0.6;stroke:#008000;stroke-opacity:0.6"
         x="212.97038"
         xlink:href="#md490c46b00"
         y="199.43227"
         id="use207"
         width="100%"
         height="100%" />
      <use
         style="fill:#008000;fill-opacity:0.6;stroke:#008000;stroke-opacity:0.6"
         x="212.97038"
         xlink:href="#md490c46b00"
         y="255.36568"
         id="use209"
         width="100%"
         height="100%" />
      <use
         style="fill:#008000;fill-opacity:0.6;stroke:#008000;stroke-opacity:0.6"
         x="352.10806"
         xlink:href="#md490c46b00"
         y="245.94638"
         id="use211"
         width="100%"
         height="100%" />
      <use
         style="fill:#008000;fill-opacity:0.6;stroke:#008000;stroke-opacity:0.6"
         x="282.53922"
         xlink:href="#md490c46b00"
         y="244.5731"
         id="use213"
         width="100%"
         height="100%" />
      <use
         style="fill:#008000;fill-opacity:0.6;stroke:#008000;stroke-opacity:0.6"
         x="305.72882"
         xlink:href="#md490c46b00"
         y="138.90459"
         id="use215"
         width="100%"
         height="100%" />
      <use
         style="fill:#008000;fill-opacity:0.6;stroke:#008000;stroke-opacity:0.6"
         x="305.72882"
         xlink:href="#md490c46b00"
         y="238.75755"
         id="use217"
         width="100%"
         height="100%" />
      <use
         style="fill:#008000;fill-opacity:0.6;stroke:#008000;stroke-opacity:0.6"
         x="305.72882"
         xlink:href="#md490c46b00"
         y="232.78131"
         id="use219"
         width="100%"
         height="100%" />
      <use
         style="fill:#008000;fill-opacity:0.6;stroke:#008000;stroke-opacity:0.6"
         x="259.34961"
         xlink:href="#md490c46b00"
         y="229.44542"
         id="use221"
         width="100%"
         height="100%" />
      <use
         style="fill:#008000;fill-opacity:0.6;stroke:#008000;stroke-opacity:0.6"
         x="97.022339"
         xlink:href="#md490c46b00"
         y="206.0233"
         id="use223"
         width="100%"
         height="100%" />
      <use
         style="fill:#008000;fill-opacity:0.6;stroke:#008000;stroke-opacity:0.6"
         x="282.53922"
         xlink:href="#md490c46b00"
         y="118.95519"
         id="use225"
         width="100%"
         height="100%" />
      <use
         style="fill:#008000;fill-opacity:0.6;stroke:#008000;stroke-opacity:0.6"
         x="352.10806"
         xlink:href="#md490c46b00"
         y="161.1622"
         id="use227"
         width="100%"
         height="100%" />
      <use
         style="fill:#008000;fill-opacity:0.6;stroke:#008000;stroke-opacity:0.6"
         x="259.34961"
         xlink:href="#md490c46b00"
         y="208.41936"
         id="use229"
         width="100%"
         height="100%" />
      <use
         style="fill:#008000;fill-opacity:0.6;stroke:#008000;stroke-opacity:0.6"
         x="398.48727"
         xlink:href="#md490c46b00"
         y="274.96841"
         id="use231"
         width="100%"
         height="100%" />
      <use
         style="fill:#008000;fill-opacity:0.6;stroke:#008000;stroke-opacity:0.6"
         x="236.16"
         xlink:href="#md490c46b00"
         y="233.5206"
         id="use233"
         width="100%"
         height="100%" />
      <use
         style="fill:#008000;fill-opacity:0.6;stroke:#008000;stroke-opacity:0.6"
         x="236.16"
         xlink:href="#md490c46b00"
         y="208.19205"
         id="use235"
         width="100%"
         height="100%" />
      <use
         style="fill:#008000;fill-opacity:0.6;stroke:#008000;stroke-opacity:0.6"
         x="328.91846"
         xlink:href="#md490c46b00"
         y="266.7197"
         id="use237"
         width="100%"
         height="100%" />
      <use
         style="fill:#008000;fill-opacity:0.6;stroke:#008000;stroke-opacity:0.6"
         x="305.72882"
         xlink:href="#md490c46b00"
         y="145.96213"
         id="use239"
         width="100%"
         height="100%" />
      <use
         style="fill:#008000;fill-opacity:0.6;stroke:#008000;stroke-opacity:0.6"
         x="236.16"
         xlink:href="#md490c46b00"
         y="78.503967"
         id="use241"
         width="100%"
         height="100%" />
      <use
         style="fill:#008000;fill-opacity:0.6;stroke:#008000;stroke-opacity:0.6"
         x="236.16"
         xlink:href="#md490c46b00"
         y="226.38692"
         id="use243"
         width="100%"
         height="100%" />
      <use
         style="fill:#008000;fill-opacity:0.6;stroke:#008000;stroke-opacity:0.6"
         x="236.16"
         xlink:href="#md490c46b00"
         y="174.38754"
         id="use245"
         width="100%"
         height="100%" />
      <use
         style="fill:#008000;fill-opacity:0.6;stroke:#008000;stroke-opacity:0.6"
         x="352.10806"
         xlink:href="#md490c46b00"
         y="258.46622"
         id="use247"
         width="100%"
         height="100%" />
      <use
         style="fill:#008000;fill-opacity:0.6;stroke:#008000;stroke-opacity:0.6"
         x="236.16"
         xlink:href="#md490c46b00"
         y="89.49781"
         id="use249"
         width="100%"
         height="100%" />
      <use
         style="fill:#008000;fill-opacity:0.6;stroke:#008000;stroke-opacity:0.6"
         x="398.48727"
         xlink:href="#md490c46b00"
         y="238.96455"
         id="use251"
         width="100%"
         height="100%" />
      <use
         style="fill:#008000;fill-opacity:0.6;stroke:#008000;stroke-opacity:0.6"
         x="282.53922"
         xlink:href="#md490c46b00"
         y="115.05724"
         id="use253"
         width="100%"
         height="100%" />
      <use
         style="fill:#008000;fill-opacity:0.6;stroke:#008000;stroke-opacity:0.6"
         x="282.53922"
         xlink:href="#md490c46b00"
         y="129.47461"
         id="use255"
         width="100%"
         height="100%" />
      <use
         style="fill:#008000;fill-opacity:0.6;stroke:#008000;stroke-opacity:0.6"
         x="305.72882"
         xlink:href="#md490c46b00"
         y="135.53893"
         id="use257"
         width="100%"
         height="100%" />
      <use
         style="fill:#008000;fill-opacity:0.6;stroke:#008000;stroke-opacity:0.6"
         x="282.53922"
         xlink:href="#md490c46b00"
         y="107.98831"
         id="use259"
         width="100%"
         height="100%" />
    </g>
  </g>
  <g
     id="matplotlib.axis_1">
    <g
       id="xtick_1">
      <g
         id="line2d_1">
        <defs
           id="defs265">
          <path
             d="M 0,0 V 3.5"
             id="mf07cd68413"
             style="stroke:#000000;stroke-width:0.8"
             inkscape:connector-curvature="0" />
        </defs>
        <g
           id="g269">
          <use
             style="stroke:#000000;stroke-width:0.8"
             x="73.832726"
             xlink:href="#mf07cd68413"
             y="307.58401"
             id="use267"
             width="100%"
             height="100%" />
        </g>
      </g>
      <g
         id="text_1">
        <!-- 1.6 -->
        <defs
           id="defs275">
          <path
             d="m 12.40625,8.296875 h 16.109375 v 55.625 L 10.984375,60.40625 v 8.984375 l 17.4375,3.515625 H 38.28125 V 8.296875 H 54.390625 V 0 H 12.40625 Z"
             id="DejaVuSans-49"
             inkscape:connector-curvature="0" />
          <path
             d="M 10.6875,12.40625 H 21 V 0 H 10.6875 Z"
             id="DejaVuSans-46"
             inkscape:connector-curvature="0" />
          <path
             d="m 33.015625,40.375 q -6.640625,0 -10.53125,-4.546875 -3.875,-4.53125 -3.875,-12.4375 0,-7.859375 3.875,-12.4375 3.890625,-4.5625 10.53125,-4.5625 6.640625,0 10.515625,4.5625 3.875,4.578125 3.875,12.4375 0,7.90625 -3.875,12.4375 Q 39.65625,40.375 33.015625,40.375 Z M 52.59375,71.296875 V 62.3125 q -3.71875,1.75 -7.5,2.671875 -3.78125,0.9375 -7.5,0.9375 -9.765625,0 -14.921875,-6.59375 -5.140625,-6.59375 -5.875,-19.921875 2.875,4.25 7.21875,6.515625 4.359375,2.265625 9.578125,2.265625 10.984375,0 17.359375,-6.671875 6.375,-6.65625 6.375,-18.125 0,-11.234375 -6.640625,-18.03125 -6.640625,-6.78125 -17.671875,-6.78125 -12.65625,0 -19.34375,9.6875 -6.6875,9.703125 -6.6875,28.109375 0,17.28125 8.203125,27.5625 8.203125,10.28125 22.015625,10.28125 3.71875,0 7.5,-0.734375 3.78125,-0.734375 7.890625,-2.1875 z"
             id="DejaVuSans-54"
             inkscape:connector-curvature="0" />
        </defs>
        <g
           transform="matrix(0.1,0,0,-0.1,65.881165,322.18244)"
           id="g283">
          <use
             xlink:href="#DejaVuSans-49"
             id="use277"
             x="0"
             y="0"
             width="100%"
             height="100%" />
          <use
             x="63.623047"
             xlink:href="#DejaVuSans-46"
             id="use279"
             y="0"
             width="100%"
             height="100%" />
          <use
             x="95.410156"
             xlink:href="#DejaVuSans-54"
             id="use281"
             y="0"
             width="100%"
             height="100%" />
        </g>
      </g>
    </g>
    <g
       id="xtick_2">
      <g
         id="line2d_2">
        <g
           id="g289">
          <use
             style="stroke:#000000;stroke-width:0.8"
             x="126.00935"
             xlink:href="#mf07cd68413"
             y="307.58401"
             id="use287"
             width="100%"
             height="100%" />
        </g>
      </g>
      <g
         id="text_2">
        <!-- 1.8 -->
        <defs
           id="defs293">
          <path
             d="m 31.78125,34.625 q -7.03125,0 -11.0625,-3.765625 -4.015625,-3.765625 -4.015625,-10.34375 0,-6.59375 4.015625,-10.359375 4.03125,-3.765625 11.0625,-3.765625 7.03125,0 11.078125,3.78125 4.0625,3.796875 4.0625,10.34375 0,6.578125 -4.03125,10.34375 Q 38.875,34.625 31.78125,34.625 Z m -9.859375,4.1875 Q 15.578125,40.375 12.03125,44.71875 8.5,49.078125 8.5,55.328125 q 0,8.734375 6.21875,13.8125 6.234375,5.078125 17.0625,5.078125 10.890625,0 17.09375,-5.078125 6.203125,-5.078125 6.203125,-13.8125 0,-6.25 -3.546875,-10.609375 Q 48,40.375 41.703125,38.8125 q 7.125,-1.65625 11.09375,-6.5 3.984375,-4.828125 3.984375,-11.796875 0,-10.609375 -6.46875,-16.28125 -6.46875,-5.65625 -18.53125,-5.65625 -12.046875,0 -18.53125,5.65625 -6.46875,5.671875 -6.46875,16.28125 0,6.96875 4,11.796875 4.015625,4.84375 11.140625,6.5 z M 18.3125,54.390625 q 0,-5.65625 3.53125,-8.828125 3.546875,-3.171875 9.9375,-3.171875 6.359375,0 9.9375,3.171875 3.59375,3.171875 3.59375,8.828125 0,5.671875 -3.59375,8.84375 -3.578125,3.171875 -9.9375,3.171875 -6.390625,0 -9.9375,-3.171875 Q 18.3125,60.0625 18.3125,54.390625 Z"
             id="DejaVuSans-56"
             inkscape:connector-curvature="0" />
        </defs>
        <g
           transform="matrix(0.1,0,0,-0.1,118.05779,322.18244)"
           id="g301">
          <use
             xlink:href="#DejaVuSans-49"
             id="use295"
             x="0"
             y="0"
             width="100%"
             height="100%" />
          <use
             x="63.623047"
             xlink:href="#DejaVuSans-46"
             id="use297"
             y="0"
             width="100%"
             height="100%" />
          <use
             x="95.410156"
             xlink:href="#DejaVuSans-56"
             id="use299"
             y="0"
             width="100%"
             height="100%" />
        </g>
      </g>
    </g>
    <g
       id="xtick_3">
      <g
         id="line2d_3">
        <g
           id="g307">
          <use
             style="stroke:#000000;stroke-width:0.8"
             x="178.18597"
             xlink:href="#mf07cd68413"
             y="307.58401"
             id="use305"
             width="100%"
             height="100%" />
        </g>
      </g>
      <g
         id="text_3">
        <!-- 2.0 -->
        <defs
           id="defs312">
          <path
             d="M 19.1875,8.296875 H 53.609375 V 0 H 7.328125 v 8.296875 q 5.609375,5.8125 15.296875,15.59375 9.703125,9.796875 12.1875,12.640625 4.734375,5.3125 6.609375,9 1.890625,3.6875 1.890625,7.25 0,5.8125 -4.078125,9.46875 -4.078125,3.671875 -10.625,3.671875 -4.640625,0 -9.796875,-1.609375 -5.140625,-1.609375 -11,-4.890625 v 9.96875 Q 13.765625,71.78125 18.9375,73 q 5.1875,1.21875 9.484375,1.21875 11.328125,0 18.0625,-5.671875 6.734375,-5.65625 6.734375,-15.125 0,-4.5 -1.6875,-8.53125 Q 49.859375,40.875 45.40625,35.40625 44.1875,33.984375 37.640625,27.21875 31.109375,20.453125 19.1875,8.296875 Z"
             id="DejaVuSans-50"
             inkscape:connector-curvature="0" />
          <path
             d="m 31.78125,66.40625 q -7.609375,0 -11.453125,-7.5 Q 16.5,51.421875 16.5,36.375 q 0,-14.984375 3.828125,-22.484375 3.84375,-7.5 11.453125,-7.5 7.671875,0 11.5,7.5 3.84375,7.5 3.84375,22.484375 0,15.046875 -3.84375,22.53125 -3.828125,7.5 -11.5,7.5 z m 0,7.8125 q 12.265625,0 18.734375,-9.703125 6.46875,-9.6875 6.46875,-28.140625 0,-18.40625 -6.46875,-28.109375 -6.46875,-9.6875 -18.734375,-9.6875 -12.25,0 -18.71875,9.6875 Q 6.59375,17.96875 6.59375,36.375 q 0,18.453125 6.46875,28.140625 6.46875,9.703125 18.71875,9.703125 z"
             id="DejaVuSans-48"
             inkscape:connector-curvature="0" />
        </defs>
        <g
           transform="matrix(0.1,0,0,-0.1,170.23441,322.18244)"
           id="g320">
          <use
             xlink:href="#DejaVuSans-50"
             id="use314"
             x="0"
             y="0"
             width="100%"
             height="100%" />
          <use
             x="63.623047"
             xlink:href="#DejaVuSans-46"
             id="use316"
             y="0"
             width="100%"
             height="100%" />
          <use
             x="95.410156"
             xlink:href="#DejaVuSans-48"
             id="use318"
             y="0"
             width="100%"
             height="100%" />
        </g>
      </g>
    </g>
    <g
       id="xtick_4">
      <g
         id="line2d_4">
        <g
           id="g326">
          <use
             style="stroke:#000000;stroke-width:0.8"
             x="230.36259"
             xlink:href="#mf07cd68413"
             y="307.58401"
             id="use324"
             width="100%"
             height="100%" />
        </g>
      </g>
      <g
         id="text_4">
        <!-- 2.2 -->
        <g
           transform="matrix(0.1,0,0,-0.1,222.41103,322.18244)"
           id="g335">
          <use
             xlink:href="#DejaVuSans-50"
             id="use329"
             x="0"
             y="0"
             width="100%"
             height="100%" />
          <use
             x="63.623047"
             xlink:href="#DejaVuSans-46"
             id="use331"
             y="0"
             width="100%"
             height="100%" />
          <use
             x="95.410156"
             xlink:href="#DejaVuSans-50"
             id="use333"
             y="0"
             width="100%"
             height="100%" />
        </g>
      </g>
    </g>
    <g
       id="xtick_5">
      <g
         id="line2d_5">
        <g
           id="g341">
          <use
             style="stroke:#000000;stroke-width:0.8"
             x="282.53922"
             xlink:href="#mf07cd68413"
             y="307.58401"
             id="use339"
             width="100%"
             height="100%" />
        </g>
      </g>
      <g
         id="text_5">
        <!-- 2.4 -->
        <defs
           id="defs345">
          <path
             d="M 37.796875,64.3125 12.890625,25.390625 h 24.90625 z m -2.59375,8.59375 h 12.40625 V 25.390625 h 10.40625 V 17.1875 H 47.609375 V 0 h -9.8125 V 17.1875 H 4.890625 v 9.515625 z"
             id="DejaVuSans-52"
             inkscape:connector-curvature="0" />
        </defs>
        <g
           transform="matrix(0.1,0,0,-0.1,274.58766,322.18244)"
           id="g353">
          <use
             xlink:href="#DejaVuSans-50"
             id="use347"
             x="0"
             y="0"
             width="100%"
             height="100%" />
          <use
             x="63.623047"
             xlink:href="#DejaVuSans-46"
             id="use349"
             y="0"
             width="100%"
             height="100%" />
          <use
             x="95.410156"
             xlink:href="#DejaVuSans-52"
             id="use351"
             y="0"
             width="100%"
             height="100%" />
        </g>
      </g>
    </g>
    <g
       id="xtick_6">
      <g
         id="line2d_6">
        <g
           id="g359">
          <use
             style="stroke:#000000;stroke-width:0.8"
             x="334.71585"
             xlink:href="#mf07cd68413"
             y="307.58401"
             id="use357"
             width="100%"
             height="100%" />
        </g>
      </g>
      <g
         id="text_6">
        <!-- 2.6 -->
        <g
           transform="matrix(0.1,0,0,-0.1,326.76428,322.18244)"
           id="g368">
          <use
             xlink:href="#DejaVuSans-50"
             id="use362"
             x="0"
             y="0"
             width="100%"
             height="100%" />
          <use
             x="63.623047"
             xlink:href="#DejaVuSans-46"
             id="use364"
             y="0"
             width="100%"
             height="100%" />
          <use
             x="95.410156"
             xlink:href="#DejaVuSans-54"
             id="use366"
             y="0"
             width="100%"
             height="100%" />
        </g>
      </g>
    </g>
    <g
       id="xtick_7">
      <g
         id="line2d_7">
        <g
           id="g374">
          <use
             style="stroke:#000000;stroke-width:0.8"
             x="386.89246"
             xlink:href="#mf07cd68413"
             y="307.58401"
             id="use372"
             width="100%"
             height="100%" />
        </g>
      </g>
      <g
         id="text_7">
        <!-- 2.8 -->
        <g
           transform="matrix(0.1,0,0,-0.1,378.9409,322.18244)"
           id="g383">
          <use
             xlink:href="#DejaVuSans-50"
             id="use377"
             x="0"
             y="0"
             width="100%"
             height="100%" />
          <use
             x="63.623047"
             xlink:href="#DejaVuSans-46"
             id="use379"
             y="0"
             width="100%"
             height="100%" />
          <use
             x="95.410156"
             xlink:href="#DejaVuSans-56"
             id="use381"
             y="0"
             width="100%"
             height="100%" />
        </g>
      </g>
    </g>
    <g
       id="text_8">
      <!-- Enrichment (w/o U235) -->
      <defs
         id="defs406">
        <path
           d="m 2.875,2.59375 8.40625,1.3125 V 61.625 L 2.875,62.890625 v 2.59375 H 52 V 49.8125 h -3.21875 l -1.5625,10.59375 Q 41.75,61.078125 31.390625,61.078125 h -10.6875 V 35.5 H 38.375 l 1.515625,7.8125 h 3.125 v -20.125 h -3.125 L 38.375,31.109375 H 20.703125 V 4.390625 H 33.59375 q 12.59375,0 16.5,0.78125 L 52.875,17.28125 h 3.234375 L 55.171875,0 H 2.875 Z"
           id="LiberationSerif-69"
           inkscape:connector-curvature="0" />
        <path
           d="m 15.828125,42.1875 q 3.75,2.15625 8,3.546875 4.25,1.390625 7.078125,1.390625 5.953125,0 8.984375,-3.46875 3.03125,-3.46875 3.03125,-10.0625 V 3.421875 l 5.5625,-1.21875 V 0 H 28.71875 v 2.203125 l 6.09375,1.21875 V 32.71875 q 0,4.046875 -1.984375,6.359375 -1.96875,2.328125 -6.125,2.328125 -4.390625,0 -10.78125,-1.421875 V 3.421875 L 22.125,2.203125 V 0 H 2.296875 V 2.203125 L 7.8125,3.421875 v 39.0625 l -5.515625,1.21875 V 45.90625 H 15.375 Z"
           id="LiberationSerif-110"
           inkscape:connector-curvature="0" />
        <path
           d="M 32.421875,47.125 V 34.71875 h -2.09375 l -2.84375,5.375 q -2.4375,0 -5.78125,-0.671875 -3.34375,-0.65625 -5.78125,-1.71875 V 3.421875 L 23.78125,2.203125 V 0 H 2 v 2.203125 l 5.8125,1.21875 v 39.0625 L 2,43.703125 V 45.90625 H 15.375 L 15.828125,40.1875 Q 18.75,42.625 23.75,44.875 q 5.015625,2.25 7.9375,2.25 z"
           id="LiberationSerif-114"
           inkscape:connector-curvature="0" />
        <path
           d="m 18.5,60.890625 q 0,-2.15625 -1.5625,-3.71875 -1.5625,-1.5625 -3.75,-1.5625 -2.15625,0 -3.71875,1.5625 -1.5625,1.5625 -1.5625,3.71875 0,2.203125 1.5625,3.765625 1.5625,1.5625 3.71875,1.5625 2.1875,0 3.75,-1.5625 Q 18.5,63.09375 18.5,60.890625 Z M 18.015625,3.421875 25.875,2.203125 V 0 H 2.09375 v 2.203125 l 7.8125,1.21875 v 39.0625 l -6.484375,1.21875 v 2.203125 h 14.59375 z"
           id="LiberationSerif-105"
           inkscape:connector-curvature="0" />
        <path
           d="m 41.3125,2.78125 q -2.390625,-1.75 -6.59375,-2.765625 -4.203125,-1 -8.59375,-1 -22.3125,0 -22.3125,24.28125 0,11.46875 5.6875,17.640625 5.6875,6.1875 16.28125,6.1875 6.59375,0 14.40625,-1.515625 V 32.8125 H 37.5 l -2.09375,8.109375 q -4.0625,2.296875 -9.71875,2.296875 -13.09375,0 -13.09375,-19.921875 0,-10.359375 3.984375,-14.78125 3.984375,-4.40625 12.328125,-4.40625 7.125,0 12.40625,1.609375 z"
           id="LiberationSerif-99"
           inkscape:connector-curvature="0" />
        <path
           d="m 15.921875,49.515625 q 0,-5.078125 -0.34375,-7.328125 3.515625,2 7.984375,3.46875 4.46875,1.46875 7.546875,1.46875 5.953125,0 8.96875,-3.46875 3.03125,-3.46875 3.03125,-10.0625 V 3.421875 L 48.6875,2.203125 V 0 H 28.90625 v 2.203125 l 6.109375,1.21875 v 29.59375 q 0,8.390625 -8.109375,8.390625 -4.59375,0 -10.984375,-1.421875 V 3.421875 L 22.125,2.203125 V 0 H 2 v 2.203125 l 5.8125,1.21875 v 62.59375 L 0.984375,67.1875 v 2.203125 h 14.9375 z"
           id="LiberationSerif-104"
           inkscape:connector-curvature="0" />
        <path
           d="m 15.921875,42.1875 q 3.65625,2.09375 7.75,3.515625 4.109375,1.421875 7.234375,1.421875 3.375,0 6.21875,-1.28125 2.859375,-1.265625 4.28125,-4.046875 3.765625,2.09375 8.8125,3.703125 5.0625,1.625 8.375,1.625 11.71875,0 11.71875,-13.53125 V 3.421875 l 5.90625,-1.21875 V 0 H 55.375 v 2.203125 l 6.828125,1.21875 V 32.71875 q 0,8.390625 -7.8125,8.390625 -1.265625,0 -2.953125,-0.203125 -1.6875,-0.1875 -3.375,-0.4375 -1.671875,-0.234375 -3.21875,-0.5625 -1.53125,-0.3125 -2.5625,-0.5 0.828125,-2.640625 0.828125,-5.8125 V 3.421875 L 50,2.203125 V 0 H 28.21875 v 2.203125 l 6.796875,1.21875 V 32.71875 q 0,4.046875 -2.078125,6.21875 -2.078125,2.171875 -6.234375,2.171875 -4.296875,0 -10.6875,-1.40625 V 3.421875 L 22.90625,2.203125 V 0 H 2.09375 v 2.203125 l 5.8125,1.21875 v 39.0625 l -5.8125,1.21875 v 2.203125 h 13.4375 z"
           id="LiberationSerif-109"
           inkscape:connector-curvature="0" />
        <path
           d="m 12.703125,23.09375 v -0.875 q 0,-6.734375 1.484375,-10.46875 1.484375,-3.734375 4.578125,-5.6875 3.109375,-1.953125 8.140625,-1.953125 2.640625,0 6.25,0.4375 3.609375,0.4375 5.953125,0.96875 V 2.78125 q -2.34375,-1.515625 -6.375,-2.640625 -4.015625,-1.125 -8.21875,-1.125 -10.703125,0 -15.65625,5.765625 -4.953125,5.765625 -4.953125,18.515625 0,12 5.03125,17.90625 5.03125,5.921875 14.359375,5.921875 17.625,0 17.625,-20.03125 v -4 z m 10.59375,20.125 Q 18.21875,43.21875 15.5,39.109375 12.796875,35.015625 12.796875,27 h 19.625 q 0,8.75 -2.25,12.484375 -2.234375,3.734375 -6.875,3.734375 z"
           id="LiberationSerif-101"
           inkscape:connector-curvature="0" />
        <path
           d="m 16.3125,-0.984375 q -4.6875,0 -7.015625,2.78125 -2.3125,2.796875 -2.3125,7.828125 v 32.171875 h -6 V 44 l 6.09375,1.90625 4.9375,10.390625 H 15.09375 V 45.90625 h 10.5 v -4.109375 h -10.5 V 10.5 q 0,-3.171875 1.4375,-4.78125 1.4375,-1.609375 3.78125,-1.609375 2.828125,0 6.890625,0.78125 v -3.1875 Q 25.484375,0.53125 22.265625,-0.21875 19.046875,-0.984375 16.3125,-0.984375 Z"
           id="LiberationSerif-116"
           inkscape:connector-curvature="0" />
        <path
           d=""
           id="LiberationSerif-32"
           inkscape:connector-curvature="0" />
        <path
           d="m 13.8125,24.125 q 0,-12.703125 1.703125,-20.25 1.71875,-7.53125 5.375,-12.703125 3.671875,-5.1875 9.1875,-8.359375 v -4.109375 q -9.671875,5.140625 -15.125,11.21875 -5.4375,6.078125 -8,14.296875 -2.5625,8.234375 -2.5625,19.90625 0,11.625 2.53125,19.796875 2.546875,8.171875 7.96875,14.21875 5.421875,6.0625 15.1875,11.25 V 65.28125 Q 24.125,61.859375 20.609375,56.515625 17.09375,51.171875 15.453125,44.046875 13.8125,36.921875 13.8125,24.125 Z"
           id="LiberationSerif-40"
           inkscape:connector-curvature="0" />
        <path
           d="M 51.3125,-0.984375 H 47.515625 L 36.1875,29.296875 25,-0.984375 h -3.609375 l -15.875,43.46875 -5.421875,1.21875 V 45.90625 H 21.921875 V 43.703125 L 14.3125,42.390625 25.203125,11.375 36.28125,41.3125 H 40.375 L 51.421875,11.1875 61.8125,42.484375 54.296875,43.703125 V 45.90625 H 71.78125 v -2.203125 l -5.078125,-1.03125 z"
           id="LiberationSerif-119"
           inkscape:connector-curvature="0" />
        <path
           d="M 4.890625,-0.984375 H 0 l 23,66.90625 h 4.78125 z"
           id="LiberationSerif-47"
           inkscape:connector-curvature="0" />
        <path
           d="m 46.1875,23.1875 q 0,-24.171875 -21.484375,-24.171875 -10.34375,0 -15.625,6.203125 Q 3.8125,11.421875 3.8125,23.1875 q 0,11.625 5.265625,17.78125 5.28125,6.15625 16.015625,6.15625 10.453125,0 15.765625,-6.03125 Q 46.1875,35.0625 46.1875,23.1875 Z m -8.78125,0 q 0,10.546875 -3.078125,15.28125 -3.078125,4.75 -9.625,4.75 -6.390625,0 -9.25,-4.546875 Q 12.59375,34.125 12.59375,23.1875 12.59375,12.109375 15.5,7.484375 18.40625,2.875 24.703125,2.875 q 6.453125,0 9.578125,4.78125 3.125,4.796875 3.125,15.53125 z"
           id="LiberationSerif-111"
           inkscape:connector-curvature="0" />
        <path
           d="m 56.59375,61.625 -8.796875,1.265625 v 2.59375 H 70.125 v -2.59375 L 61.71875,61.625 V 22.515625 Q 61.71875,10.75 55.25,4.875 48.78125,-0.984375 36.46875,-0.984375 q -13.03125,0 -19.5,5.890625 Q 10.5,10.796875 10.5,21.578125 V 61.625 l -8.40625,1.265625 v 2.59375 h 26.171875 v -2.59375 L 19.875,61.625 V 22.3125 Q 19.875,4.5 37.203125,4.5 q 9.375,0 14.375,4.4375 5.015625,4.4375 5.015625,13.1875 z"
           id="LiberationSerif-85"
           inkscape:connector-curvature="0" />
        <path
           d="M 44.484375,0 H 4.390625 v 7.171875 l 9.09375,8.265625 q 8.734375,7.65625 12.828125,12.390625 4.109375,4.734375 5.890625,9.765625 1.78125,5.03125 1.78125,11.53125 0,6.34375 -2.890625,9.65625 -2.875,3.328125 -9.40625,3.328125 -2.59375,0 -5.328125,-0.71875 Q 13.625,60.6875 11.53125,59.515625 l -1.71875,-8 H 6.59375 v 12.59375 q 8.890625,2.109375 15.09375,2.109375 10.734375,0 16.125,-4.46875 5.40625,-4.46875 5.40625,-12.625 0,-5.46875 -2.125,-10.328125 Q 38.96875,33.9375 34.5625,29.125 30.171875,24.3125 20.015625,15.671875 15.671875,11.96875 10.796875,7.515625 h 33.6875 z"
           id="LiberationSerif-50"
           inkscape:connector-curvature="0" />
        <path
           d="m 46.09375,17.828125 q 0,-8.84375 -6.0625,-13.828125 -6.046875,-4.984375 -17.125,-4.984375 -9.28125,0 -17.578125,2.109375 L 4.78125,14.890625 h 3.234375 l 2.1875,-9.171875 q 1.90625,-1.078125 5.390625,-1.859375 3.5,-0.78125 6.53125,-0.78125 7.65625,0 11.3125,3.515625 3.671875,3.515625 3.671875,11.71875 0,6.4375 -3.375,9.78125 -3.359375,3.359375 -10.4375,3.6875 L 16.3125,32.171875 V 36.1875 l 6.984375,0.4375 q 5.515625,0.296875 8.140625,3.421875 2.640625,3.125 2.640625,9.46875 0,6.59375 -2.859375,9.59375 -2.84375,3 -9.09375,3 -2.59375,0 -5.421875,-0.71875 Q 13.875,60.6875 11.71875,59.515625 l -1.703125,-8 H 6.78125 v 12.59375 q 4.84375,1.265625 8.359375,1.6875 3.515625,0.421875 6.984375,0.421875 20.984375,0 20.984375,-16.125 0,-6.78125 -3.734375,-10.8125 -3.734375,-4.03125 -10.5625,-5 Q 37.703125,33.25 41.890625,29.171875 46.09375,25.09375 46.09375,17.828125 Z"
           id="LiberationSerif-51"
           inkscape:connector-curvature="0" />
        <path
           d="m 23.6875,38.28125 q 11.328125,0 16.859375,-4.640625 Q 46.09375,29 46.09375,19.484375 46.09375,9.625 40.078125,4.3125 q -6,-5.296875 -17.171875,-5.296875 -9.28125,0 -16.5625,2.109375 L 5.8125,14.890625 H 9.03125 L 11.234375,5.71875 Q 13.375,4.546875 16.375,3.8125 q 3.015625,-0.734375 5.75,-0.734375 7.703125,0 11.34375,3.640625 3.640625,3.640625 3.640625,12.28125 0,6.046875 -1.5625,9.140625 -1.5625,3.109375 -4.984375,4.578125 -3.40625,1.46875 -9.171875,1.46875 -4.453125,0 -8.6875,-1.171875 h -4.6875 v 32.46875 H 41.21875 v -7.46875 h -28.8125 v -20.90625 q 5.265625,1.171875 11.28125,1.171875 z"
           id="LiberationSerif-53"
           inkscape:connector-curvature="0" />
        <path
           d="m 3.21875,-21.296875 v 4.109375 q 5.515625,3.171875 9.171875,8.375 3.671875,5.203125 5.375,12.734375 1.71875,7.546875 1.71875,20.203125 0,12.796875 -1.640625,19.921875 -1.625,7.125 -5.140625,12.46875 Q 9.1875,61.859375 3.21875,65.28125 v 4.109375 Q 12.984375,64.15625 18.40625,58.125 23.828125,52.09375 26.359375,43.921875 28.90625,35.75 28.90625,24.125 28.90625,12.5 26.359375,4.265625 23.828125,-3.953125 18.40625,-10 12.984375,-16.0625 3.21875,-21.296875 Z"
           id="LiberationSerif-41"
           inkscape:connector-curvature="0" />
      </defs>
      <g
         transform="matrix(0.1,0,0,-0.1,188.39437,335.20119)"
         id="g450">
        <use
           xlink:href="#LiberationSerif-69"
           id="use408"
           x="0"
           y="0"
           width="100%"
           height="100%" />
        <use
           x="61.083984"
           xlink:href="#LiberationSerif-110"
           id="use410"
           y="0"
           width="100%"
           height="100%" />
        <use
           x="111.08398"
           xlink:href="#LiberationSerif-114"
           id="use412"
           y="0"
           width="100%"
           height="100%" />
        <use
           x="144.38477"
           xlink:href="#LiberationSerif-105"
           id="use414"
           y="0"
           width="100%"
           height="100%" />
        <use
           x="172.16797"
           xlink:href="#LiberationSerif-99"
           id="use416"
           y="0"
           width="100%"
           height="100%" />
        <use
           x="216.55273"
           xlink:href="#LiberationSerif-104"
           id="use418"
           y="0"
           width="100%"
           height="100%" />
        <use
           x="266.55273"
           xlink:href="#LiberationSerif-109"
           id="use420"
           y="0"
           width="100%"
           height="100%" />
        <use
           x="344.33594"
           xlink:href="#LiberationSerif-101"
           id="use422"
           y="0"
           width="100%"
           height="100%" />
        <use
           x="388.7207"
           xlink:href="#LiberationSerif-110"
           id="use424"
           y="0"
           width="100%"
           height="100%" />
        <use
           x="438.7207"
           xlink:href="#LiberationSerif-116"
           id="use426"
           y="0"
           width="100%"
           height="100%" />
        <use
           x="466.50391"
           xlink:href="#LiberationSerif-32"
           id="use428"
           y="0"
           width="100%"
           height="100%" />
        <use
           x="491.50391"
           xlink:href="#LiberationSerif-40"
           id="use430"
           y="0"
           width="100%"
           height="100%" />
        <use
           x="524.80469"
           xlink:href="#LiberationSerif-119"
           id="use432"
           y="0"
           width="100%"
           height="100%" />
        <use
           x="597.02148"
           xlink:href="#LiberationSerif-47"
           id="use434"
           y="0"
           width="100%"
           height="100%" />
        <use
           x="624.80469"
           xlink:href="#LiberationSerif-111"
           id="use436"
           y="0"
           width="100%"
           height="100%" />
        <use
           x="674.80469"
           xlink:href="#LiberationSerif-32"
           id="use438"
           y="0"
           width="100%"
           height="100%" />
        <use
           x="699.80469"
           xlink:href="#LiberationSerif-85"
           id="use440"
           y="0"
           width="100%"
           height="100%" />
        <use
           x="772.02148"
           xlink:href="#LiberationSerif-50"
           id="use442"
           y="0"
           width="100%"
           height="100%" />
        <use
           x="822.02148"
           xlink:href="#LiberationSerif-51"
           id="use444"
           y="0"
           width="100%"
           height="100%" />
        <use
           x="872.02148"
           xlink:href="#LiberationSerif-53"
           id="use446"
           y="0"
           width="100%"
           height="100%" />
        <use
           x="922.02148"
           xlink:href="#LiberationSerif-41"
           id="use448"
           y="0"
           width="100%"
           height="100%" />
      </g>
    </g>
  </g>
  <g
     id="matplotlib.axis_2">
    <g
       id="ytick_1">
      <g
         id="line2d_8">
        <defs
           id="defs455">
          <path
             d="M 0,0 H -3.5"
             id="mb0e9f66dd3"
             style="stroke:#000000;stroke-width:0.8"
             inkscape:connector-curvature="0" />
        </defs>
        <g
           id="g459">
          <use
             style="stroke:#000000;stroke-width:0.8"
             x="57.599998"
             xlink:href="#mb0e9f66dd3"
             y="290.31335"
             id="use457"
             width="100%"
             height="100%" />
        </g>
      </g>
      <g
         id="text_9">
        <!-- 1.25 -->
        <defs
           id="defs463">
          <path
             d="m 10.796875,72.90625 h 38.71875 v -8.3125 h -29.6875 V 46.734375 q 2.140625,0.734375 4.28125,1.09375 2.15625,0.359375 4.3125,0.359375 Q 40.625,48.1875 47.75,41.5 54.890625,34.8125 54.890625,23.390625 54.890625,11.625 47.5625,5.09375 40.234375,-1.421875 26.90625,-1.421875 q -4.59375,0 -9.359375,0.78125 -4.75,0.78125 -9.828125,2.34375 V 11.625 q 4.390625,-2.390625 9.078125,-3.5625 4.6875,-1.171875 9.90625,-1.171875 8.453125,0 13.375,4.4375 4.9375,4.4375 4.9375,12.0625 0,7.609375 -4.9375,12.046875 -4.921875,4.453125 -13.375,4.453125 -3.953125,0 -7.890625,-0.875 -3.921875,-0.875 -8.015625,-2.734375 z"
             id="DejaVuSans-53"
             inkscape:connector-curvature="0" />
        </defs>
        <g
           transform="matrix(0.1,0,0,-0.1,28.334375,294.11257)"
           id="g473">
          <use
             xlink:href="#DejaVuSans-49"
             id="use465"
             x="0"
             y="0"
             width="100%"
             height="100%" />
          <use
             x="63.623047"
             xlink:href="#DejaVuSans-46"
             id="use467"
             y="0"
             width="100%"
             height="100%" />
          <use
             x="95.410156"
             xlink:href="#DejaVuSans-50"
             id="use469"
             y="0"
             width="100%"
             height="100%" />
          <use
             x="159.0332"
             xlink:href="#DejaVuSans-53"
             id="use471"
             y="0"
             width="100%"
             height="100%" />
        </g>
      </g>
    </g>
    <g
       id="ytick_2">
      <g
         id="line2d_9">
        <g
           id="g479">
          <use
             style="stroke:#000000;stroke-width:0.8"
             x="57.599998"
             xlink:href="#mb0e9f66dd3"
             y="258.85858"
             id="use477"
             width="100%"
             height="100%" />
        </g>
      </g>
      <g
         id="text_10">
        <!-- 1.50 -->
        <g
           transform="matrix(0.1,0,0,-0.1,28.334375,262.65781)"
           id="g490">
          <use
             xlink:href="#DejaVuSans-49"
             id="use482"
             x="0"
             y="0"
             width="100%"
             height="100%" />
          <use
             x="63.623047"
             xlink:href="#DejaVuSans-46"
             id="use484"
             y="0"
             width="100%"
             height="100%" />
          <use
             x="95.410156"
             xlink:href="#DejaVuSans-53"
             id="use486"
             y="0"
             width="100%"
             height="100%" />
          <use
             x="159.0332"
             xlink:href="#DejaVuSans-48"
             id="use488"
             y="0"
             width="100%"
             height="100%" />
        </g>
      </g>
    </g>
    <g
       id="ytick_3">
      <g
         id="line2d_10">
        <g
           id="g496">
          <use
             style="stroke:#000000;stroke-width:0.8"
             x="57.599998"
             xlink:href="#mb0e9f66dd3"
             y="227.40384"
             id="use494"
             width="100%"
             height="100%" />
        </g>
      </g>
      <g
         id="text_11">
        <!-- 1.75 -->
        <defs
           id="defs500">
          <path
             d="m 8.203125,72.90625 h 46.875 V 68.703125 L 28.609375,0 H 18.3125 L 43.21875,64.59375 H 8.203125 Z"
             id="DejaVuSans-55"
             inkscape:connector-curvature="0" />
        </defs>
        <g
           transform="matrix(0.1,0,0,-0.1,28.334375,231.20306)"
           id="g510">
          <use
             xlink:href="#DejaVuSans-49"
             id="use502"
             x="0"
             y="0"
             width="100%"
             height="100%" />
          <use
             x="63.623047"
             xlink:href="#DejaVuSans-46"
             id="use504"
             y="0"
             width="100%"
             height="100%" />
          <use
             x="95.410156"
             xlink:href="#DejaVuSans-55"
             id="use506"
             y="0"
             width="100%"
             height="100%" />
          <use
             x="159.0332"
             xlink:href="#DejaVuSans-53"
             id="use508"
             y="0"
             width="100%"
             height="100%" />
        </g>
      </g>
    </g>
    <g
       id="ytick_4">
      <g
         id="line2d_11">
        <g
           id="g516">
          <use
             style="stroke:#000000;stroke-width:0.8"
             x="57.599998"
             xlink:href="#mb0e9f66dd3"
             y="195.94908"
             id="use514"
             width="100%"
             height="100%" />
        </g>
      </g>
      <g
         id="text_12">
        <!-- 2.00 -->
        <g
           transform="matrix(0.1,0,0,-0.1,28.334375,199.7483)"
           id="g527">
          <use
             xlink:href="#DejaVuSans-50"
             id="use519"
             x="0"
             y="0"
             width="100%"
             height="100%" />
          <use
             x="63.623047"
             xlink:href="#DejaVuSans-46"
             id="use521"
             y="0"
             width="100%"
             height="100%" />
          <use
             x="95.410156"
             xlink:href="#DejaVuSans-48"
             id="use523"
             y="0"
             width="100%"
             height="100%" />
          <use
             x="159.0332"
             xlink:href="#DejaVuSans-48"
             id="use525"
             y="0"
             width="100%"
             height="100%" />
        </g>
      </g>
    </g>
    <g
       id="ytick_5">
      <g
         id="line2d_12">
        <g
           id="g533">
          <use
             style="stroke:#000000;stroke-width:0.8"
             x="57.599998"
             xlink:href="#mb0e9f66dd3"
             y="164.49434"
             id="use531"
             width="100%"
             height="100%" />
        </g>
      </g>
      <g
         id="text_13">
        <!-- 2.25 -->
        <g
           transform="matrix(0.1,0,0,-0.1,28.334375,168.29355)"
           id="g544">
          <use
             xlink:href="#DejaVuSans-50"
             id="use536"
             x="0"
             y="0"
             width="100%"
             height="100%" />
          <use
             x="63.623047"
             xlink:href="#DejaVuSans-46"
             id="use538"
             y="0"
             width="100%"
             height="100%" />
          <use
             x="95.410156"
             xlink:href="#DejaVuSans-50"
             id="use540"
             y="0"
             width="100%"
             height="100%" />
          <use
             x="159.0332"
             xlink:href="#DejaVuSans-53"
             id="use542"
             y="0"
             width="100%"
             height="100%" />
        </g>
      </g>
    </g>
    <g
       id="ytick_6">
      <g
         id="line2d_13">
        <g
           id="g550">
          <use
             style="stroke:#000000;stroke-width:0.8"
             x="57.599998"
             xlink:href="#mb0e9f66dd3"
             y="133.03958"
             id="use548"
             width="100%"
             height="100%" />
        </g>
      </g>
      <g
         id="text_14">
        <!-- 2.50 -->
        <g
           transform="matrix(0.1,0,0,-0.1,28.334375,136.8388)"
           id="g561">
          <use
             xlink:href="#DejaVuSans-50"
             id="use553"
             x="0"
             y="0"
             width="100%"
             height="100%" />
          <use
             x="63.623047"
             xlink:href="#DejaVuSans-46"
             id="use555"
             y="0"
             width="100%"
             height="100%" />
          <use
             x="95.410156"
             xlink:href="#DejaVuSans-53"
             id="use557"
             y="0"
             width="100%"
             height="100%" />
          <use
             x="159.0332"
             xlink:href="#DejaVuSans-48"
             id="use559"
             y="0"
             width="100%"
             height="100%" />
        </g>
      </g>
    </g>
    <g
       id="ytick_7">
      <g
         id="line2d_14">
        <g
           id="g567">
          <use
             style="stroke:#000000;stroke-width:0.8"
             x="57.599998"
             xlink:href="#mb0e9f66dd3"
             y="101.58482"
             id="use565"
             width="100%"
             height="100%" />
        </g>
      </g>
      <g
         id="text_15">
        <!-- 2.75 -->
        <g
           transform="matrix(0.1,0,0,-0.1,28.334375,105.38404)"
           id="g578">
          <use
             xlink:href="#DejaVuSans-50"
             id="use570"
             x="0"
             y="0"
             width="100%"
             height="100%" />
          <use
             x="63.623047"
             xlink:href="#DejaVuSans-46"
             id="use572"
             y="0"
             width="100%"
             height="100%" />
          <use
             x="95.410156"
             xlink:href="#DejaVuSans-55"
             id="use574"
             y="0"
             width="100%"
             height="100%" />
          <use
             x="159.0332"
             xlink:href="#DejaVuSans-53"
             id="use576"
             y="0"
             width="100%"
             height="100%" />
        </g>
      </g>
    </g>
    <g
       id="ytick_8">
      <g
         id="line2d_15">
        <g
           id="g584">
          <use
             style="stroke:#000000;stroke-width:0.8"
             x="57.599998"
             xlink:href="#mb0e9f66dd3"
             y="70.130066"
             id="use582"
             width="100%"
             height="100%" />
        </g>
      </g>
      <g
         id="text_16">
        <!-- 3.00 -->
        <defs
           id="defs588">
          <path
             d="M 40.578125,39.3125 Q 47.65625,37.796875 51.625,33 q 3.984375,-4.78125 3.984375,-11.8125 0,-10.78125 -7.421875,-16.703125 -7.421875,-5.90625 -21.09375,-5.90625 -4.578125,0 -9.4375,0.90625 -4.859375,0.90625 -10.03125,2.71875 v 9.515625 q 4.09375,-2.390625 8.96875,-3.609375 4.890625,-1.21875 10.21875,-1.21875 9.265625,0 14.125,3.65625 4.859375,3.65625 4.859375,10.640625 0,6.453125 -4.515625,10.078125 -4.515625,3.640625 -12.5625,3.640625 h -8.5 v 8.109375 h 8.890625 q 7.265625,0 11.125,2.90625 3.859375,2.90625 3.859375,8.375 0,5.609375 -3.984375,8.609375 -3.96875,3.015625 -11.390625,3.015625 -4.0625,0 -8.703125,-0.890625 Q 15.375,64.15625 9.8125,62.3125 v 8.78125 q 5.625,1.5625 10.53125,2.34375 4.90625,0.78125 9.25,0.78125 11.234375,0 17.765625,-5.109375 6.546875,-5.09375 6.546875,-13.78125 0,-6.0625 -3.46875,-10.234375 -3.46875,-4.171875 -9.859375,-5.78125 z"
             id="DejaVuSans-51"
             inkscape:connector-curvature="0" />
        </defs>
        <g
           transform="matrix(0.1,0,0,-0.1,28.334375,73.929288)"
           id="g598">
          <use
             xlink:href="#DejaVuSans-51"
             id="use590"
             x="0"
             y="0"
             width="100%"
             height="100%" />
          <use
             x="63.623047"
             xlink:href="#DejaVuSans-46"
             id="use592"
             y="0"
             width="100%"
             height="100%" />
          <use
             x="95.410156"
             xlink:href="#DejaVuSans-48"
             id="use594"
             y="0"
             width="100%"
             height="100%" />
          <use
             x="159.0332"
             xlink:href="#DejaVuSans-48"
             id="use596"
             y="0"
             width="100%"
             height="100%" />
        </g>
      </g>
    </g>
    <g
       id="text_17">
      <!-- PPF -->
      <defs
         id="defs604">
        <path
           d="m 41.890625,46.09375 q 0,8.0625 -3.765625,11.515625 -3.75,3.46875 -12.640625,3.46875 h -4.78125 v -31 h 5.078125 q 8.25,0 12.171875,3.75 3.9375,3.765625 3.9375,12.265625 z M 20.703125,25.6875 V 3.90625 l 10.40625,-1.3125 V 0 H 3.515625 v 2.59375 l 7.765625,1.3125 V 61.625 L 2.875,62.890625 v 2.59375 h 24.71875 q 24.015625,0 24.015625,-19.296875 0,-10.046875 -6.078125,-15.28125 Q 39.453125,25.6875 28.078125,25.6875 Z"
           id="LiberationSerif-80"
           inkscape:connector-curvature="0" />
        <path
           d="M 20.703125,29.390625 V 3.90625 L 31.59375,2.59375 V 0 H 3.515625 v 2.59375 l 7.765625,1.3125 V 61.625 L 2.875,62.890625 v 2.59375 H 52 V 49.8125 h -3.21875 l -1.5625,10.59375 Q 41.75,61.078125 31.390625,61.078125 h -10.6875 v -27.28125 h 19.28125 L 41.5,41.609375 h 2.984375 v -20.125 H 41.5 l -1.515625,7.90625 z"
           id="LiberationSerif-70"
           inkscape:connector-curvature="0" />
      </defs>
      <g
         transform="matrix(0,-0.1,-0.1,0,22.204688,182.86941)"
         id="g612">
        <use
           xlink:href="#LiberationSerif-80"
           id="use606"
           x="0"
           y="0"
           width="100%"
           height="100%" />
        <use
           x="55.615234"
           xlink:href="#LiberationSerif-80"
           id="use608"
           y="0"
           width="100%"
           height="100%" />
        <use
           x="111.23047"
           xlink:href="#LiberationSerif-70"
           id="use610"
           y="0"
           width="100%"
           height="100%" />
      </g>
    </g>
  </g>
  <g
     id="patch_3">
    <path
       d="M 57.6,307.584 V 41.472"
       style="fill:none;stroke:#000000;stroke-width:0.8;stroke-linecap:square;stroke-linejoin:miter"
       id="path616"
       inkscape:connector-curvature="0" />
  </g>
  <g
     id="patch_4">
    <path
       d="M 414.72,307.584 V 41.472"
       style="fill:none;stroke:#000000;stroke-width:0.8;stroke-linecap:square;stroke-linejoin:miter"
       id="path619"
       inkscape:connector-curvature="0" />
  </g>
  <g
     id="patch_5">
    <path
       d="M 57.6,307.584 H 414.72"
       style="fill:none;stroke:#000000;stroke-width:0.8;stroke-linecap:square;stroke-linejoin:miter"
       id="path622"
       inkscape:connector-curvature="0" />
  </g>
  <g
     style="stroke-width:0.997055"
     transform="matrix(1,0,0,1.0059155,0,-0.17286824)"
     id="patch_6">
    <path
       d="M 57.6,41.472 H 414.72"
       style="fill:none;stroke:#000000;stroke-width:0.797644;stroke-linecap:square;stroke-linejoin:miter"
       id="path625"
       inkscape:connector-curvature="0" />
  </g>
  <defs
     id="defs874">
    <clipPath
       id="pa6640f7f3b">
      <rect
         height="266.112"
         width="357.12"
         x="57.6"
         y="41.472"
         id="rect871" />
    </clipPath>
  </defs>
  <g
     id="g2092"
     transform="translate(244.75536,-53.062027)">
    <g
       transform="translate(-465.87067,53.062027)"
       id="patch_7-6-8">
      <path
         inkscape:connector-curvature="0"
         id="path741-9"
         style="opacity:0.8;fill:#ffffff;stroke:#cccccc;stroke-linejoin:miter"
         d="M 285.71531,77.731375 H 407.72 q 2,0 2,-2 V 48.472 q 0,-2 -2,-2 H 285.71531 q -2,0 -2,2 v 27.259375 q 0,2 2,2 z" />
    </g>
    <g
       transform="translate(-465.87067,53.062027)"
       id="PathCollection_3-7-7">
      <g
         id="g746-3">
        <path
           d="m 297.7153,57.097 c 0.59671,0 1.16906,-0.237074 1.59099,-0.65901 0.42194,-0.421935 0.65901,-0.994283 0.65901,-1.59099 0,-0.596707 -0.23707,-1.169055 -0.65901,-1.59099 -0.42193,-0.421936 -0.99428,-0.65901 -1.59099,-0.65901 -0.59671,0 -1.16905,0.237074 -1.59099,0.65901 -0.42193,0.421935 -0.65901,0.994283 -0.65901,1.59099 0,0.596707 0.23708,1.169055 0.65901,1.59099 0.42194,0.421936 0.99428,0.65901 1.59099,0.65901 z"
           id="use744-6"
           style="fill:#008000;fill-opacity:0.6;stroke:#008000;stroke-width:0.75;stroke-linecap:butt;stroke-linejoin:round;stroke-opacity:0.6"
           inkscape:connector-curvature="0" />
      </g>
    </g>
    <g
       transform="translate(-465.87067,53.062027)"
       id="PathCollection_4-9-7">
      <g
         id="g799-6">
        <path
           d="m 297.7153,71.226685 c 0.59671,0 1.16906,-0.237075 1.59099,-0.65901 0.42194,-0.421935 0.65901,-0.994284 0.65901,-1.59099 0,-0.596707 -0.23707,-1.169055 -0.65901,-1.59099 -0.42193,-0.421936 -0.99428,-0.65901 -1.59099,-0.65901 -0.59671,0 -1.16905,0.237074 -1.59099,0.65901 -0.42193,0.421935 -0.65901,0.994283 -0.65901,1.59099 0,0.596706 0.23708,1.169055 0.65901,1.59099 0.42194,0.421935 0.99428,0.65901 1.59099,0.65901 z"
           id="use797-5"
           style="fill:#800080;fill-opacity:0.6;stroke:#800080;stroke-width:0.75;stroke-linecap:butt;stroke-linejoin:round;stroke-opacity:0.6"
           inkscape:connector-curvature="0" />
      </g>
    </g>
    <text
       id="text2022"
       y="111.22237"
       x="-154.67233"
       style="font-size:10.25px;line-height:125%;font-family:'Liberation Serif';-inkscape-font-specification:'Liberation Serif';letter-spacing:0px;word-spacing:0px;stroke-width:0.75"
       xml:space="preserve"><tspan
         style="stroke-width:0.75"
         y="111.22237"
         x="-154.67233"
         id="tspan2020"
         sodipodi:role="line">Initial SMO population</tspan><tspan
         id="tspan2024"
         style="stroke-width:0.75"
         y="124.03487"
         x="-154.67233"
         sodipodi:role="line">Final SMO population</tspan></text>
  </g>
</svg>
