<?xml version="1.0" encoding="UTF-8" standalone="no"?>
<!-- Created with Inkscape (http://www.inkscape.org/) -->

<svg
   xmlns:dc="http://purl.org/dc/elements/1.1/"
   xmlns:cc="http://creativecommons.org/ns#"
   xmlns:rdf="http://www.w3.org/1999/02/22-rdf-syntax-ns#"
   xmlns:svg="http://www.w3.org/2000/svg"
   xmlns="http://www.w3.org/2000/svg"
   xmlns:sodipodi="http://sodipodi.sourceforge.net/DTD/sodipodi-0.dtd"
   xmlns:inkscape="http://www.inkscape.org/namespaces/inkscape"
   version="1.1"
   id="svg2"
   xml:space="preserve"
   width="145.91507mm"
   height="107.01931mm"
   viewBox="0 0 551.49005 404.48243"
   sodipodi:docname="Core_Designs_v3.svg"
   inkscape:version="0.92.4 (5da689c313, 2019-01-14)"><metadata
     id="metadata8"><rdf:RDF><cc:Work
         rdf:about=""><dc:format>image/svg+xml</dc:format><dc:type
           rdf:resource="http://purl.org/dc/dcmitype/StillImage" /><dc:title></dc:title></cc:Work></rdf:RDF></metadata><defs
     id="defs6"><clipPath
       clipPathUnits="userSpaceOnUse"
       id="clipPath18"><path
         d="M 0,0.028 H 595.275 V 841.889 H 0 Z"
         id="path16"
         inkscape:connector-curvature="0"
         style="clip-rule:evenodd" /></clipPath><clipPath
       clipPathUnits="userSpaceOnUse"
       id="clipPath26"><path
         d="m 56.7,771.089 h 481.85 v 14.099 H 56.7 Z"
         id="path24"
         inkscape:connector-curvature="0"
         style="clip-rule:evenodd" /></clipPath><clipPath
       clipPathUnits="userSpaceOnUse"
       id="clipPath44"><path
         d="M 56.7,56.789 H 538.55 V 70.888 H 56.7 Z"
         id="path42"
         inkscape:connector-curvature="0"
         style="clip-rule:evenodd" /></clipPath></defs><sodipodi:namedview
     pagecolor="#ffffff"
     bordercolor="#666666"
     borderopacity="1"
     objecttolerance="10"
     gridtolerance="10"
     guidetolerance="10"
     inkscape:pageopacity="0"
     inkscape:pageshadow="2"
     inkscape:window-width="1920"
     inkscape:window-height="1016"
     id="namedview4"
     showgrid="false"
     units="mm"
     fit-margin-top="5"
     fit-margin-right="5"
     fit-margin-bottom="5"
     fit-margin-left="5"
     inkscape:zoom="1.5054837"
     inkscape:cx="181.68708"
     inkscape:cy="154.72855"
     inkscape:window-x="0"
     inkscape:window-y="27"
     inkscape:window-maximized="1"
     inkscape:current-layer="g10" /><g
     id="g10"
     inkscape:groupmode="layer"
     inkscape:label="Core_Designs_v3"
     transform="matrix(1.3333333,0,0,-1.3333333,-110.63608,1058.834)"><g
       id="g12"><g
         id="g14"
         clip-path="url(#clipPath18)" /></g><g
       id="g1434"><g
         transform="translate(46.126172)"
         id="g1685"><g
           id="g370"><text
   transform="matrix(1,0,0,-1,63.808,744.576)"
   style="font-variant:normal;font-weight:normal;font-size:10.00599957px;font-family:'Liberation Serif';-inkscape-font-specification:LiberationSerif;writing-mode:lr-tb;fill:#000000;fill-opacity:1;fill-rule:nonzero;stroke:none"
   id="text374"><tspan
     x="0 3.30198 6.0936542 8.8853283 13.287968 18.290968 22.693607 30.488281 34.890923"
     y="0"
     sodipodi:role="line"
     id="tspan372">filename:</tspan></text>

</g><g
           id="g376"><text
   transform="matrix(1,0,0,-1,108.595,744.576)"
   style="font-variant:normal;font-weight:bold;font-size:10.00599957px;font-family:'Liberation Serif';-inkscape-font-specification:LiberationSerif-Bold;writing-mode:lr-tb;fill:#000000;fill-opacity:1;fill-rule:nonzero;stroke:none"
   id="text380"><tspan
     x="0 5.5933542 11.186708 15.589348"
     y="0"
     sodipodi:role="line"
     id="tspan378">hpc_</tspan></text>

</g><g
           id="g382"><text
   transform="matrix(1,0,0,-1,134.391,744.576)"
   style="font-variant:normal;font-weight:bold;font-size:10.00599957px;font-family:'Liberation Serif';-inkscape-font-specification:LiberationSerif-Bold;writing-mode:lr-tb;fill:#000000;fill-opacity:1;fill-rule:nonzero;stroke:none"
   id="text386"><tspan
     x="0 5.0029998"
     y="0"
     sodipodi:role="line"
     id="tspan384">00</tspan></text>

</g><g
           id="g388"><text
   transform="matrix(1,0,0,-1,149.698,744.576)"
   style="font-variant:normal;font-weight:bold;font-size:10.00599957px;font-family:'Liberation Serif';-inkscape-font-specification:LiberationSerif-Bold;writing-mode:lr-tb;fill:#000000;fill-opacity:1;fill-rule:nonzero;stroke:none"
   id="text392"><tspan
     x="0 5.0029998"
     y="0"
     sodipodi:role="line"
     id="tspan390">16</tspan></text>

</g></g><g
         id="g1803"><path
           d="m 130.082,718.865 h 55.474 v 17.178 h -55.474 z"
           style="fill:#ff6d6d;fill-opacity:1;fill-rule:evenodd;stroke:none"
           id="path62"
           inkscape:connector-curvature="0" /><path
           d="m 130.082,701.716 h 55.474 v 17.178 h -55.474 z"
           style="fill:#ff6d6d;fill-opacity:1;fill-rule:evenodd;stroke:none"
           id="path70"
           inkscape:connector-curvature="0" /><path
           d="m 130.082,684.566 h 55.474 v 17.178 h -55.474 z"
           style="fill:#ff6d6d;fill-opacity:1;fill-rule:evenodd;stroke:none"
           id="path78"
           inkscape:connector-curvature="0" /><g
           id="g130"><path
             d="m 129.458,735.958 h 56.863"
             style="fill:none;stroke:#000000;stroke-width:1.39999998;stroke-linecap:butt;stroke-linejoin:round;stroke-miterlimit:10;stroke-dasharray:none;stroke-opacity:1"
             id="path132"
             inkscape:connector-curvature="0" /></g><g
           id="g134"><path
             d="M 130.167,736.667 V 683.801"
             style="fill:none;stroke:#000000;stroke-width:1.39999998;stroke-linecap:butt;stroke-linejoin:round;stroke-miterlimit:10;stroke-dasharray:none;stroke-opacity:1"
             id="path136"
             inkscape:connector-curvature="0" /></g><g
           id="g138"><path
             d="M 148.649,736.667 V 683.801"
             style="fill:none;stroke:#000000;stroke-width:1.39999998;stroke-linecap:butt;stroke-linejoin:round;stroke-miterlimit:10;stroke-dasharray:none;stroke-opacity:1"
             id="path140"
             inkscape:connector-curvature="0" /></g><g
           id="g142"><path
             d="M 167.131,736.667 V 683.801"
             style="fill:none;stroke:#000000;stroke-width:1.39999998;stroke-linecap:butt;stroke-linejoin:round;stroke-miterlimit:10;stroke-dasharray:none;stroke-opacity:1"
             id="path144"
             inkscape:connector-curvature="0" /></g><g
           id="g146"><path
             d="M 185.613,736.667 V 683.801"
             style="fill:none;stroke:#000000;stroke-width:1.39999998;stroke-linecap:butt;stroke-linejoin:round;stroke-miterlimit:10;stroke-dasharray:none;stroke-opacity:1"
             id="path148"
             inkscape:connector-curvature="0" /></g><g
           id="g170"><path
             d="m 129.458,718.809 h 56.863"
             style="fill:none;stroke:#000000;stroke-width:1.39999998;stroke-linecap:butt;stroke-linejoin:round;stroke-miterlimit:10;stroke-dasharray:none;stroke-opacity:1"
             id="path172"
             inkscape:connector-curvature="0" /></g><g
           id="g178"><path
             d="m 129.458,701.659 h 56.863"
             style="fill:none;stroke:#000000;stroke-width:1.39999998;stroke-linecap:butt;stroke-linejoin:round;stroke-miterlimit:10;stroke-dasharray:none;stroke-opacity:1"
             id="path180"
             inkscape:connector-curvature="0" /></g><g
           id="g186"><path
             d="m 129.458,684.509 h 56.863"
             style="fill:none;stroke:#000000;stroke-width:1.39999998;stroke-linecap:butt;stroke-linejoin:round;stroke-miterlimit:10;stroke-dasharray:none;stroke-opacity:1"
             id="path188"
             inkscape:connector-curvature="0" /></g><g
           id="g418"><text
   transform="matrix(1,0,0,-1,136.913,723.996)"
   style="font-variant:normal;font-weight:normal;font-size:10.00599957px;font-family:'Liberation Serif';-inkscape-font-specification:LiberationSerif;writing-mode:lr-tb;fill:#000000;fill-opacity:1;fill-rule:nonzero;stroke:none"
   id="text422"><tspan
     x="0"
     y="0"
     id="tspan420">1</tspan></text>

</g><g
           id="g424"><text
   transform="matrix(1,0,0,-1,155.395,723.996)"
   style="font-variant:normal;font-weight:normal;font-size:10.00599957px;font-family:'Liberation Serif';-inkscape-font-specification:LiberationSerif;writing-mode:lr-tb;fill:#000000;fill-opacity:1;fill-rule:nonzero;stroke:none"
   id="text428"><tspan
     x="0"
     y="0"
     id="tspan426">2</tspan></text>

</g><g
           id="g430"><text
   transform="matrix(1,0,0,-1,173.906,723.996)"
   style="font-variant:normal;font-weight:normal;font-size:10.00599957px;font-family:'Liberation Serif';-inkscape-font-specification:LiberationSerif;writing-mode:lr-tb;fill:#000000;fill-opacity:1;fill-rule:nonzero;stroke:none"
   id="text434"><tspan
     x="0"
     y="0"
     id="tspan432">3</tspan></text>

</g><g
           id="g454"><text
   transform="matrix(1,0,0,-1,136.913,706.875)"
   style="font-variant:normal;font-weight:normal;font-size:10.00599957px;font-family:'Liberation Serif';-inkscape-font-specification:LiberationSerif;writing-mode:lr-tb;fill:#000000;fill-opacity:1;fill-rule:nonzero;stroke:none"
   id="text458"><tspan
     x="0"
     y="0"
     id="tspan456">4</tspan></text>

</g><g
           id="g460"><text
   transform="matrix(1,0,0,-1,155.395,706.875)"
   style="font-variant:normal;font-weight:normal;font-size:10.00599957px;font-family:'Liberation Serif';-inkscape-font-specification:LiberationSerif;writing-mode:lr-tb;fill:#000000;fill-opacity:1;fill-rule:nonzero;stroke:none"
   id="text464"><tspan
     x="0"
     y="0"
     id="tspan462">5</tspan></text>

</g><g
           id="g466"><text
   transform="matrix(1,0,0,-1,173.906,706.875)"
   style="font-variant:normal;font-weight:normal;font-size:10.00599957px;font-family:'Liberation Serif';-inkscape-font-specification:LiberationSerif;writing-mode:lr-tb;fill:#000000;fill-opacity:1;fill-rule:nonzero;stroke:none"
   id="text470"><tspan
     x="0"
     y="0"
     id="tspan468">6</tspan></text>

</g><g
           id="g490"><text
   transform="matrix(1,0,0,-1,136.913,689.697)"
   style="font-variant:normal;font-weight:normal;font-size:10.00599957px;font-family:'Liberation Serif';-inkscape-font-specification:LiberationSerif;writing-mode:lr-tb;fill:#000000;fill-opacity:1;fill-rule:nonzero;stroke:none"
   id="text494"><tspan
     x="0"
     y="0"
     id="tspan492">7</tspan></text>

</g><g
           id="g496"><text
   transform="matrix(1,0,0,-1,155.395,689.697)"
   style="font-variant:normal;font-weight:normal;font-size:10.00599957px;font-family:'Liberation Serif';-inkscape-font-specification:LiberationSerif;writing-mode:lr-tb;fill:#000000;fill-opacity:1;fill-rule:nonzero;stroke:none"
   id="text500"><tspan
     x="0"
     y="0"
     id="tspan498">8</tspan></text>

</g><g
           id="g502"><text
   transform="matrix(1,0,0,-1,173.906,689.697)"
   style="font-variant:normal;font-weight:normal;font-size:10.00599957px;font-family:'Liberation Serif';-inkscape-font-specification:LiberationSerif;writing-mode:lr-tb;fill:#000000;fill-opacity:1;fill-rule:nonzero;stroke:none"
   id="text506"><tspan
     x="0"
     y="0"
     id="tspan504">9</tspan></text>

</g></g><g
         transform="translate(46.072428)"
         id="g1699"><g
           id="g526"><text
   transform="matrix(1,0,0,-1,63.808,664.383)"
   style="font-variant:normal;font-weight:normal;font-size:10.00599957px;font-family:'Liberation Serif';-inkscape-font-specification:LiberationSerif;writing-mode:lr-tb;fill:#000000;fill-opacity:1;fill-rule:nonzero;stroke:none"
   id="text530"><tspan
     x="0 3.30198 6.0936542 8.8853283 13.287968 18.290968 22.693607 30.488281 34.890923"
     y="0"
     sodipodi:role="line"
     id="tspan528">filename:</tspan></text>

</g><g
           id="g532"><text
   transform="matrix(1,0,0,-1,108.595,664.383)"
   style="font-variant:normal;font-weight:bold;font-size:10.00599957px;font-family:'Liberation Serif';-inkscape-font-specification:LiberationSerif-Bold;writing-mode:lr-tb;fill:#000000;fill-opacity:1;fill-rule:nonzero;stroke:none"
   id="text536"><tspan
     x="0 5.5933542 11.186708 15.589348"
     y="0"
     sodipodi:role="line"
     id="tspan534">hpc_</tspan></text>

</g><g
           id="g538"><text
   transform="matrix(1,0,0,-1,134.391,664.383)"
   style="font-variant:normal;font-weight:bold;font-size:10.00599957px;font-family:'Liberation Serif';-inkscape-font-specification:LiberationSerif-Bold;writing-mode:lr-tb;fill:#000000;fill-opacity:1;fill-rule:nonzero;stroke:none"
   id="text542"><tspan
     x="0 5.0029998"
     y="0"
     sodipodi:role="line"
     id="tspan540">00</tspan></text>

</g><g
           id="g544"><text
   transform="matrix(1,0,0,-1,149.698,664.383)"
   style="font-variant:normal;font-weight:bold;font-size:10.00599957px;font-family:'Liberation Serif';-inkscape-font-specification:LiberationSerif-Bold;writing-mode:lr-tb;fill:#000000;fill-opacity:1;fill-rule:nonzero;stroke:none"
   id="text548"><tspan
     x="0 5.0029998"
     y="0"
     sodipodi:role="line"
     id="tspan546">24</tspan></text>

</g></g><g
         id="g1851"><path
           d="m 130.082,639.212 h 55.474 v 17.178 h -55.474 z"
           style="fill:#ffff6d;fill-opacity:1;fill-rule:evenodd;stroke:none"
           id="path84"
           inkscape:connector-curvature="0" /><path
           d="m 130.082,622.062 h 55.474 v 17.178 h -55.474 z"
           style="fill:#ffff6d;fill-opacity:1;fill-rule:evenodd;stroke:none"
           id="path90"
           inkscape:connector-curvature="0" /><path
           d="m 130.082,604.913 h 55.474 v 17.178 h -55.474 z"
           style="fill:#ffff6d;fill-opacity:1;fill-rule:evenodd;stroke:none"
           id="path98"
           inkscape:connector-curvature="0" /><g
           id="g194"><path
             d="m 129.458,656.305 h 56.863"
             style="fill:none;stroke:#000000;stroke-width:1.39999998;stroke-linecap:butt;stroke-linejoin:round;stroke-miterlimit:10;stroke-dasharray:none;stroke-opacity:1"
             id="path196"
             inkscape:connector-curvature="0" /></g><g
           id="g198"><path
             d="M 130.167,657.013 V 604.147"
             style="fill:none;stroke:#000000;stroke-width:1.39999998;stroke-linecap:butt;stroke-linejoin:round;stroke-miterlimit:10;stroke-dasharray:none;stroke-opacity:1"
             id="path200"
             inkscape:connector-curvature="0" /></g><g
           id="g202"><path
             d="M 148.649,657.013 V 604.147"
             style="fill:none;stroke:#000000;stroke-width:1.39999998;stroke-linecap:butt;stroke-linejoin:round;stroke-miterlimit:10;stroke-dasharray:none;stroke-opacity:1"
             id="path204"
             inkscape:connector-curvature="0" /></g><g
           id="g206"><path
             d="M 167.131,657.013 V 604.147"
             style="fill:none;stroke:#000000;stroke-width:1.39999998;stroke-linecap:butt;stroke-linejoin:round;stroke-miterlimit:10;stroke-dasharray:none;stroke-opacity:1"
             id="path208"
             inkscape:connector-curvature="0" /></g><g
           id="g210"><path
             d="M 185.613,657.013 V 604.147"
             style="fill:none;stroke:#000000;stroke-width:1.39999998;stroke-linecap:butt;stroke-linejoin:round;stroke-miterlimit:10;stroke-dasharray:none;stroke-opacity:1"
             id="path212"
             inkscape:connector-curvature="0" /></g><g
           id="g234"><path
             d="m 129.458,639.155 h 56.863"
             style="fill:none;stroke:#000000;stroke-width:1.39999998;stroke-linecap:butt;stroke-linejoin:round;stroke-miterlimit:10;stroke-dasharray:none;stroke-opacity:1"
             id="path236"
             inkscape:connector-curvature="0" /></g><g
           id="g242"><path
             d="m 129.458,622.006 h 56.863"
             style="fill:none;stroke:#000000;stroke-width:1.39999998;stroke-linecap:butt;stroke-linejoin:round;stroke-miterlimit:10;stroke-dasharray:none;stroke-opacity:1"
             id="path244"
             inkscape:connector-curvature="0" /></g><g
           id="g250"><path
             d="m 129.458,604.856 h 56.863"
             style="fill:none;stroke:#000000;stroke-width:1.39999998;stroke-linecap:butt;stroke-linejoin:round;stroke-miterlimit:10;stroke-dasharray:none;stroke-opacity:1"
             id="path252"
             inkscape:connector-curvature="0" /></g><g
           id="g574"><text
   transform="matrix(1,0,0,-1,136.913,644.399)"
   style="font-variant:normal;font-weight:normal;font-size:10.00599957px;font-family:'Liberation Serif';-inkscape-font-specification:LiberationSerif;writing-mode:lr-tb;fill:#000000;fill-opacity:1;fill-rule:nonzero;stroke:none"
   id="text578"><tspan
     x="0"
     y="0"
     id="tspan576">1</tspan></text>

</g><g
           id="g580"><text
   transform="matrix(1,0,0,-1,155.395,644.399)"
   style="font-variant:normal;font-weight:normal;font-size:10.00599957px;font-family:'Liberation Serif';-inkscape-font-specification:LiberationSerif;writing-mode:lr-tb;fill:#000000;fill-opacity:1;fill-rule:nonzero;stroke:none"
   id="text584"><tspan
     x="0"
     y="0"
     id="tspan582">2</tspan></text>

</g><g
           id="g586"><text
   transform="matrix(1,0,0,-1,173.906,644.399)"
   style="font-variant:normal;font-weight:normal;font-size:10.00599957px;font-family:'Liberation Serif';-inkscape-font-specification:LiberationSerif;writing-mode:lr-tb;fill:#000000;fill-opacity:1;fill-rule:nonzero;stroke:none"
   id="text590"><tspan
     x="0"
     y="0"
     id="tspan588">3</tspan></text>

</g><g
           id="g610"><text
   transform="matrix(1,0,0,-1,136.913,627.193)"
   style="font-variant:normal;font-weight:normal;font-size:10.00599957px;font-family:'Liberation Serif';-inkscape-font-specification:LiberationSerif;writing-mode:lr-tb;fill:#000000;fill-opacity:1;fill-rule:nonzero;stroke:none"
   id="text614"><tspan
     x="0"
     y="0"
     id="tspan612">4</tspan></text>

</g><g
           id="g616"><text
   transform="matrix(1,0,0,-1,155.395,627.193)"
   style="font-variant:normal;font-weight:normal;font-size:10.00599957px;font-family:'Liberation Serif';-inkscape-font-specification:LiberationSerif;writing-mode:lr-tb;fill:#000000;fill-opacity:1;fill-rule:nonzero;stroke:none"
   id="text620"><tspan
     x="0"
     y="0"
     id="tspan618">5</tspan></text>

</g><g
           id="g622"><text
   transform="matrix(1,0,0,-1,173.906,627.193)"
   style="font-variant:normal;font-weight:normal;font-size:10.00599957px;font-family:'Liberation Serif';-inkscape-font-specification:LiberationSerif;writing-mode:lr-tb;fill:#000000;fill-opacity:1;fill-rule:nonzero;stroke:none"
   id="text626"><tspan
     x="0"
     y="0"
     id="tspan624">6</tspan></text>

</g><g
           id="g646"><text
   transform="matrix(1,0,0,-1,136.913,610.1)"
   style="font-variant:normal;font-weight:normal;font-size:10.00599957px;font-family:'Liberation Serif';-inkscape-font-specification:LiberationSerif;writing-mode:lr-tb;fill:#000000;fill-opacity:1;fill-rule:nonzero;stroke:none"
   id="text650"><tspan
     x="0"
     y="0"
     id="tspan648">7</tspan></text>

</g><g
           id="g652"><text
   transform="matrix(1,0,0,-1,155.395,610.1)"
   style="font-variant:normal;font-weight:normal;font-size:10.00599957px;font-family:'Liberation Serif';-inkscape-font-specification:LiberationSerif;writing-mode:lr-tb;fill:#000000;fill-opacity:1;fill-rule:nonzero;stroke:none"
   id="text656"><tspan
     x="0"
     y="0"
     id="tspan654">8</tspan></text>

</g><g
           id="g658"><text
   transform="matrix(1,0,0,-1,173.906,610.1)"
   style="font-variant:normal;font-weight:normal;font-size:10.00599957px;font-family:'Liberation Serif';-inkscape-font-specification:LiberationSerif;writing-mode:lr-tb;fill:#000000;fill-opacity:1;fill-rule:nonzero;stroke:none"
   id="text662"><tspan
     x="0"
     y="0"
     id="tspan660">9</tspan></text>

</g></g><g
         transform="translate(46.194572)"
         id="g1713"><g
           id="g682"><text
   transform="matrix(1,0,0,-1,63.808,579.996)"
   style="font-variant:normal;font-weight:normal;font-size:10.00599957px;font-family:'Liberation Serif';-inkscape-font-specification:LiberationSerif;writing-mode:lr-tb;fill:#000000;fill-opacity:1;fill-rule:nonzero;stroke:none"
   id="text686"><tspan
     x="0 3.30198 6.0936542 8.8853283 13.287968 18.290968 22.693607 30.488281 34.890923"
     y="0"
     sodipodi:role="line"
     id="tspan684">filename:</tspan></text>

</g><g
           id="g688"><text
   transform="matrix(1,0,0,-1,108.595,579.996)"
   style="font-variant:normal;font-weight:bold;font-size:10.00599957px;font-family:'Liberation Serif';-inkscape-font-specification:LiberationSerif-Bold;writing-mode:lr-tb;fill:#000000;fill-opacity:1;fill-rule:nonzero;stroke:none"
   id="text692"><tspan
     x="0 5.5933542 11.186708 15.589348"
     y="0"
     sodipodi:role="line"
     id="tspan690">hpc_</tspan></text>

</g><g
           id="g694"><text
   transform="matrix(1,0,0,-1,134.391,579.996)"
   style="font-variant:normal;font-weight:bold;font-size:10.00599957px;font-family:'Liberation Serif';-inkscape-font-specification:LiberationSerif-Bold;writing-mode:lr-tb;fill:#000000;fill-opacity:1;fill-rule:nonzero;stroke:none"
   id="text698"><tspan
     x="0 5.0029998"
     y="0"
     sodipodi:role="line"
     id="tspan696">00</tspan></text>

</g><g
           id="g700"><text
   transform="matrix(1,0,0,-1,149.698,579.996)"
   style="font-variant:normal;font-weight:bold;font-size:10.00599957px;font-family:'Liberation Serif';-inkscape-font-specification:LiberationSerif-Bold;writing-mode:lr-tb;fill:#000000;fill-opacity:1;fill-rule:nonzero;stroke:none"
   id="text704"><tspan
     x="0 5.0029998"
     y="0"
     sodipodi:role="line"
     id="tspan702">32</tspan></text>

</g></g><g
         id="g1899"><path
           d="m 130.082,554.286 h 55.474 v 17.178 h -55.474 z"
           style="fill:#729fcf;fill-opacity:1;fill-rule:evenodd;stroke:none"
           id="path104"
           inkscape:connector-curvature="0" /><path
           d="m 130.082,537.136 h 55.474 v 17.178 h -55.474 z"
           style="fill:#729fcf;fill-opacity:1;fill-rule:evenodd;stroke:none"
           id="path110"
           inkscape:connector-curvature="0" /><path
           d="m 130.082,519.987 h 55.474 v 17.178 h -55.474 z"
           style="fill:#729fcf;fill-opacity:1;fill-rule:evenodd;stroke:none"
           id="path116"
           inkscape:connector-curvature="0" /><g
           id="g258"><path
             d="m 129.458,571.379 h 56.863"
             style="fill:none;stroke:#000000;stroke-width:1.39999998;stroke-linecap:butt;stroke-linejoin:round;stroke-miterlimit:10;stroke-dasharray:none;stroke-opacity:1"
             id="path260"
             inkscape:connector-curvature="0" /></g><g
           id="g262"><path
             d="M 130.167,572.087 V 519.221"
             style="fill:none;stroke:#000000;stroke-width:1.39999998;stroke-linecap:butt;stroke-linejoin:round;stroke-miterlimit:10;stroke-dasharray:none;stroke-opacity:1"
             id="path264"
             inkscape:connector-curvature="0" /></g><g
           id="g266"><path
             d="M 148.649,572.087 V 519.221"
             style="fill:none;stroke:#000000;stroke-width:1.39999998;stroke-linecap:butt;stroke-linejoin:round;stroke-miterlimit:10;stroke-dasharray:none;stroke-opacity:1"
             id="path268"
             inkscape:connector-curvature="0" /></g><g
           id="g270"><path
             d="M 167.131,572.087 V 519.221"
             style="fill:none;stroke:#000000;stroke-width:1.39999998;stroke-linecap:butt;stroke-linejoin:round;stroke-miterlimit:10;stroke-dasharray:none;stroke-opacity:1"
             id="path272"
             inkscape:connector-curvature="0" /></g><g
           id="g274"><path
             d="M 185.613,572.087 V 519.221"
             style="fill:none;stroke:#000000;stroke-width:1.39999998;stroke-linecap:butt;stroke-linejoin:round;stroke-miterlimit:10;stroke-dasharray:none;stroke-opacity:1"
             id="path276"
             inkscape:connector-curvature="0" /></g><g
           id="g298"><path
             d="m 129.458,554.229 h 56.863"
             style="fill:none;stroke:#000000;stroke-width:1.39999998;stroke-linecap:butt;stroke-linejoin:round;stroke-miterlimit:10;stroke-dasharray:none;stroke-opacity:1"
             id="path300"
             inkscape:connector-curvature="0" /></g><g
           id="g306"><path
             d="m 129.458,537.08 h 56.863"
             style="fill:none;stroke:#000000;stroke-width:1.39999998;stroke-linecap:butt;stroke-linejoin:round;stroke-miterlimit:10;stroke-dasharray:none;stroke-opacity:1"
             id="path308"
             inkscape:connector-curvature="0" /></g><g
           id="g314"><path
             d="m 129.458,519.93 h 56.863"
             style="fill:none;stroke:#000000;stroke-width:1.39999998;stroke-linecap:butt;stroke-linejoin:round;stroke-miterlimit:10;stroke-dasharray:none;stroke-opacity:1"
             id="path316"
             inkscape:connector-curvature="0" /></g><g
           id="g730"><text
   transform="matrix(1,0,0,-1,136.913,559.502)"
   style="font-variant:normal;font-weight:normal;font-size:10.00599957px;font-family:'Liberation Serif';-inkscape-font-specification:LiberationSerif;writing-mode:lr-tb;fill:#000000;fill-opacity:1;fill-rule:nonzero;stroke:none"
   id="text734"><tspan
     x="0"
     y="0"
     id="tspan732">1</tspan></text>

</g><g
           id="g736"><text
   transform="matrix(1,0,0,-1,155.395,559.502)"
   style="font-variant:normal;font-weight:normal;font-size:10.00599957px;font-family:'Liberation Serif';-inkscape-font-specification:LiberationSerif;writing-mode:lr-tb;fill:#000000;fill-opacity:1;fill-rule:nonzero;stroke:none"
   id="text740"><tspan
     x="0"
     y="0"
     id="tspan738">2</tspan></text>

</g><g
           id="g742"><text
   transform="matrix(1,0,0,-1,173.906,559.502)"
   style="font-variant:normal;font-weight:normal;font-size:10.00599957px;font-family:'Liberation Serif';-inkscape-font-specification:LiberationSerif;writing-mode:lr-tb;fill:#000000;fill-opacity:1;fill-rule:nonzero;stroke:none"
   id="text746"><tspan
     x="0"
     y="0"
     id="tspan744">3</tspan></text>

</g><g
           id="g766"><text
   transform="matrix(1,0,0,-1,136.913,542.295)"
   style="font-variant:normal;font-weight:normal;font-size:10.00599957px;font-family:'Liberation Serif';-inkscape-font-specification:LiberationSerif;writing-mode:lr-tb;fill:#000000;fill-opacity:1;fill-rule:nonzero;stroke:none"
   id="text770"><tspan
     x="0"
     y="0"
     id="tspan768">4</tspan></text>

</g><g
           id="g772"><text
   transform="matrix(1,0,0,-1,155.395,542.295)"
   style="font-variant:normal;font-weight:normal;font-size:10.00599957px;font-family:'Liberation Serif';-inkscape-font-specification:LiberationSerif;writing-mode:lr-tb;fill:#000000;fill-opacity:1;fill-rule:nonzero;stroke:none"
   id="text776"><tspan
     x="0"
     y="0"
     id="tspan774">5</tspan></text>

</g><g
           id="g778"><text
   transform="matrix(1,0,0,-1,173.906,542.295)"
   style="font-variant:normal;font-weight:normal;font-size:10.00599957px;font-family:'Liberation Serif';-inkscape-font-specification:LiberationSerif;writing-mode:lr-tb;fill:#000000;fill-opacity:1;fill-rule:nonzero;stroke:none"
   id="text782"><tspan
     x="0"
     y="0"
     id="tspan780">6</tspan></text>

</g><g
           id="g802"><text
   transform="matrix(1,0,0,-1,136.913,525.202)"
   style="font-variant:normal;font-weight:normal;font-size:10.00599957px;font-family:'Liberation Serif';-inkscape-font-specification:LiberationSerif;writing-mode:lr-tb;fill:#000000;fill-opacity:1;fill-rule:nonzero;stroke:none"
   id="text806"><tspan
     x="0"
     y="0"
     id="tspan804">7</tspan></text>

</g><g
           id="g808"><text
   transform="matrix(1,0,0,-1,155.395,525.202)"
   style="font-variant:normal;font-weight:normal;font-size:10.00599957px;font-family:'Liberation Serif';-inkscape-font-specification:LiberationSerif;writing-mode:lr-tb;fill:#000000;fill-opacity:1;fill-rule:nonzero;stroke:none"
   id="text812"><tspan
     x="0"
     y="0"
     id="tspan810">8</tspan></text>

</g><g
           id="g814"><text
   transform="matrix(1,0,0,-1,173.906,525.202)"
   style="font-variant:normal;font-weight:normal;font-size:10.00599957px;font-family:'Liberation Serif';-inkscape-font-specification:LiberationSerif;writing-mode:lr-tb;fill:#000000;fill-opacity:1;fill-rule:nonzero;stroke:none"
   id="text818"><tspan
     x="0"
     y="0"
     id="tspan816">9</tspan></text>

</g></g></g><g
       id="g1629"><g
         transform="translate(-13.732957)"
         id="g1727"><g
           id="g394"><text
   transform="matrix(1,0,0,-1,251.405,744.576)"
   style="font-variant:normal;font-weight:normal;font-size:10.00599957px;font-family:'Liberation Serif';-inkscape-font-specification:LiberationSerif;writing-mode:lr-tb;fill:#000000;fill-opacity:1;fill-rule:nonzero;stroke:none"
   id="text398"><tspan
     x="0 3.30198 6.0936542 8.8853283 13.287968 18.290968 22.693607 30.488281 34.890923"
     y="0"
     sodipodi:role="line"
     id="tspan396">filename:</tspan></text>

</g><g
           id="g400"><text
   transform="matrix(1,0,0,-1,296.192,744.576)"
   style="font-variant:normal;font-weight:bold;font-size:10.00599957px;font-family:'Liberation Serif';-inkscape-font-specification:LiberationSerif-Bold;writing-mode:lr-tb;fill:#000000;fill-opacity:1;fill-rule:nonzero;stroke:none"
   id="text404"><tspan
     x="0 5.5933542 11.186708 15.589348"
     y="0"
     sodipodi:role="line"
     id="tspan402">hpc_</tspan></text>

</g><g
           id="g406"><text
   transform="matrix(1,0,0,-1,321.987,744.576)"
   style="font-variant:normal;font-weight:bold;font-size:10.00599957px;font-family:'Liberation Serif';-inkscape-font-specification:LiberationSerif-Bold;writing-mode:lr-tb;fill:#000000;fill-opacity:1;fill-rule:nonzero;stroke:none"
   id="text410"><tspan
     x="0 5.0029998"
     y="0"
     sodipodi:role="line"
     id="tspan408">99</tspan></text>

</g><g
           id="g412"><text
   transform="matrix(1,0,0,-1,337.294,744.576)"
   style="font-variant:normal;font-weight:bold;font-size:10.00599957px;font-family:'Liberation Serif';-inkscape-font-specification:LiberationSerif-Bold;writing-mode:lr-tb;fill:#000000;fill-opacity:1;fill-rule:nonzero;stroke:none"
   id="text416"><tspan
     x="0 5.0029998"
     y="0"
     sodipodi:role="line"
     id="tspan414">01</tspan></text>

</g></g><g
         transform="translate(-60)"
         id="g2056"><path
           d="m 317.707,718.865 h 18.51 v 17.178 h -18.51 z"
           style="fill:#ff6d6d;fill-opacity:1;fill-rule:evenodd;stroke:none"
           id="path64"
           inkscape:connector-curvature="0" /><path
           d="m 336.189,718.865 h 18.51 v 17.178 h -18.51 z"
           style="fill:#ffff6d;fill-opacity:1;fill-rule:evenodd;stroke:none"
           id="path66"
           inkscape:connector-curvature="0" /><path
           d="m 354.671,718.865 h 18.51 v 17.178 h -18.51 z"
           style="fill:#ff6d6d;fill-opacity:1;fill-rule:evenodd;stroke:none"
           id="path68"
           inkscape:connector-curvature="0" /><path
           d="m 317.707,701.716 h 18.51 v 17.178 h -18.51 z"
           style="fill:#ffff6d;fill-opacity:1;fill-rule:evenodd;stroke:none"
           id="path72"
           inkscape:connector-curvature="0" /><path
           d="m 336.189,701.716 h 18.51 v 17.178 h -18.51 z"
           style="fill:#ff6d6d;fill-opacity:1;fill-rule:evenodd;stroke:none"
           id="path74"
           inkscape:connector-curvature="0" /><path
           d="m 354.671,701.716 h 18.51 v 17.178 h -18.51 z"
           style="fill:#729fcf;fill-opacity:1;fill-rule:evenodd;stroke:none"
           id="path76"
           inkscape:connector-curvature="0" /><path
           d="m 317.707,684.566 h 18.51 v 17.178 h -18.51 z"
           style="fill:#ff6d6d;fill-opacity:1;fill-rule:evenodd;stroke:none"
           id="path80"
           inkscape:connector-curvature="0" /><path
           d="m 336.189,684.566 h 36.992 v 17.178 h -36.992 z"
           style="fill:#729fcf;fill-opacity:1;fill-rule:evenodd;stroke:none"
           id="path82"
           inkscape:connector-curvature="0" /><g
           id="g150"><path
             d="m 317.083,735.958 h 56.863"
             style="fill:none;stroke:#000000;stroke-width:1.39999998;stroke-linecap:butt;stroke-linejoin:round;stroke-miterlimit:10;stroke-dasharray:none;stroke-opacity:1"
             id="path152"
             inkscape:connector-curvature="0" /></g><g
           id="g154"><path
             d="M 317.792,736.667 V 683.801"
             style="fill:none;stroke:#000000;stroke-width:1.39999998;stroke-linecap:butt;stroke-linejoin:round;stroke-miterlimit:10;stroke-dasharray:none;stroke-opacity:1"
             id="path156"
             inkscape:connector-curvature="0" /></g><g
           id="g158"><path
             d="M 336.274,736.667 V 683.801"
             style="fill:none;stroke:#000000;stroke-width:1.39999998;stroke-linecap:butt;stroke-linejoin:round;stroke-miterlimit:10;stroke-dasharray:none;stroke-opacity:1"
             id="path160"
             inkscape:connector-curvature="0" /></g><g
           id="g162"><path
             d="M 354.756,736.667 V 683.801"
             style="fill:none;stroke:#000000;stroke-width:1.39999998;stroke-linecap:butt;stroke-linejoin:round;stroke-miterlimit:10;stroke-dasharray:none;stroke-opacity:1"
             id="path164"
             inkscape:connector-curvature="0" /></g><g
           id="g166"><path
             d="M 373.238,736.667 V 683.801"
             style="fill:none;stroke:#000000;stroke-width:1.39999998;stroke-linecap:butt;stroke-linejoin:round;stroke-miterlimit:10;stroke-dasharray:none;stroke-opacity:1"
             id="path168"
             inkscape:connector-curvature="0" /></g><g
           id="g174"><path
             d="m 317.083,718.809 h 56.863"
             style="fill:none;stroke:#000000;stroke-width:1.39999998;stroke-linecap:butt;stroke-linejoin:round;stroke-miterlimit:10;stroke-dasharray:none;stroke-opacity:1"
             id="path176"
             inkscape:connector-curvature="0" /></g><g
           id="g182"><path
             d="m 317.083,701.659 h 56.863"
             style="fill:none;stroke:#000000;stroke-width:1.39999998;stroke-linecap:butt;stroke-linejoin:round;stroke-miterlimit:10;stroke-dasharray:none;stroke-opacity:1"
             id="path184"
             inkscape:connector-curvature="0" /></g><g
           id="g190"><path
             d="m 317.083,684.509 h 56.863"
             style="fill:none;stroke:#000000;stroke-width:1.39999998;stroke-linecap:butt;stroke-linejoin:round;stroke-miterlimit:10;stroke-dasharray:none;stroke-opacity:1"
             id="path192"
             inkscape:connector-curvature="0" /></g><g
           id="g436"><text
   transform="matrix(1,0,0,-1,324.51,723.996)"
   style="font-variant:normal;font-weight:normal;font-size:10.00599957px;font-family:'Liberation Serif';-inkscape-font-specification:LiberationSerif;writing-mode:lr-tb;fill:#000000;fill-opacity:1;fill-rule:nonzero;stroke:none"
   id="text440"><tspan
     x="0"
     y="0"
     id="tspan438">1</tspan></text>

</g><g
           id="g442"><text
   transform="matrix(1,0,0,-1,342.992,723.996)"
   style="font-variant:normal;font-weight:normal;font-size:10.00599957px;font-family:'Liberation Serif';-inkscape-font-specification:LiberationSerif;writing-mode:lr-tb;fill:#000000;fill-opacity:1;fill-rule:nonzero;stroke:none"
   id="text446"><tspan
     x="0"
     y="0"
     id="tspan444">2</tspan></text>

</g><g
           id="g448"><text
   transform="matrix(1,0,0,-1,361.502,723.996)"
   style="font-variant:normal;font-weight:normal;font-size:10.00599957px;font-family:'Liberation Serif';-inkscape-font-specification:LiberationSerif;writing-mode:lr-tb;fill:#000000;fill-opacity:1;fill-rule:nonzero;stroke:none"
   id="text452"><tspan
     x="0"
     y="0"
     id="tspan450">3</tspan></text>

</g><g
           id="g472"><text
   transform="matrix(1,0,0,-1,324.51,706.875)"
   style="font-variant:normal;font-weight:normal;font-size:10.00599957px;font-family:'Liberation Serif';-inkscape-font-specification:LiberationSerif;writing-mode:lr-tb;fill:#000000;fill-opacity:1;fill-rule:nonzero;stroke:none"
   id="text476"><tspan
     x="0"
     y="0"
     id="tspan474">4</tspan></text>

</g><g
           id="g478"><text
   transform="matrix(1,0,0,-1,342.992,706.875)"
   style="font-variant:normal;font-weight:normal;font-size:10.00599957px;font-family:'Liberation Serif';-inkscape-font-specification:LiberationSerif;writing-mode:lr-tb;fill:#000000;fill-opacity:1;fill-rule:nonzero;stroke:none"
   id="text482"><tspan
     x="0"
     y="0"
     id="tspan480">5</tspan></text>

</g><g
           id="g484"><text
   transform="matrix(1,0,0,-1,361.502,706.875)"
   style="font-variant:normal;font-weight:normal;font-size:10.00599957px;font-family:'Liberation Serif';-inkscape-font-specification:LiberationSerif;writing-mode:lr-tb;fill:#000000;fill-opacity:1;fill-rule:nonzero;stroke:none"
   id="text488"><tspan
     x="0"
     y="0"
     id="tspan486">6</tspan></text>

</g><g
           id="g508"><text
   transform="matrix(1,0,0,-1,324.51,689.697)"
   style="font-variant:normal;font-weight:normal;font-size:10.00599957px;font-family:'Liberation Serif';-inkscape-font-specification:LiberationSerif;writing-mode:lr-tb;fill:#000000;fill-opacity:1;fill-rule:nonzero;stroke:none"
   id="text512"><tspan
     x="0"
     y="0"
     id="tspan510">7</tspan></text>

</g><g
           id="g514"><text
   transform="matrix(1,0,0,-1,342.992,689.697)"
   style="font-variant:normal;font-weight:normal;font-size:10.00599957px;font-family:'Liberation Serif';-inkscape-font-specification:LiberationSerif;writing-mode:lr-tb;fill:#000000;fill-opacity:1;fill-rule:nonzero;stroke:none"
   id="text518"><tspan
     x="0"
     y="0"
     id="tspan516">8</tspan></text>

</g><g
           id="g520"><text
   transform="matrix(1,0,0,-1,361.502,689.697)"
   style="font-variant:normal;font-weight:normal;font-size:10.00599957px;font-family:'Liberation Serif';-inkscape-font-specification:LiberationSerif;writing-mode:lr-tb;fill:#000000;fill-opacity:1;fill-rule:nonzero;stroke:none"
   id="text524"><tspan
     x="0"
     y="0"
     id="tspan522">9</tspan></text>

</g></g><g
         transform="translate(-13.776929)"
         id="g1741"><g
           id="g550"><text
   transform="matrix(1,0,0,-1,251.405,664.383)"
   style="font-variant:normal;font-weight:normal;font-size:10.00599957px;font-family:'Liberation Serif';-inkscape-font-specification:LiberationSerif;writing-mode:lr-tb;fill:#000000;fill-opacity:1;fill-rule:nonzero;stroke:none"
   id="text554"><tspan
     x="0 3.30198 6.0936542 8.8853283 13.287968 18.290968 22.693607 30.488281 34.890923"
     y="0"
     sodipodi:role="line"
     id="tspan552">filename:</tspan></text>

</g><g
           id="g556"><text
   transform="matrix(1,0,0,-1,296.192,664.383)"
   style="font-variant:normal;font-weight:bold;font-size:10.00599957px;font-family:'Liberation Serif';-inkscape-font-specification:LiberationSerif-Bold;writing-mode:lr-tb;fill:#000000;fill-opacity:1;fill-rule:nonzero;stroke:none"
   id="text560"><tspan
     x="0 5.5933542 11.186708 15.589348"
     y="0"
     sodipodi:role="line"
     id="tspan558">hpc_</tspan></text>

</g><g
           id="g562"><text
   transform="matrix(1,0,0,-1,321.987,664.383)"
   style="font-variant:normal;font-weight:bold;font-size:10.00599957px;font-family:'Liberation Serif';-inkscape-font-specification:LiberationSerif-Bold;writing-mode:lr-tb;fill:#000000;fill-opacity:1;fill-rule:nonzero;stroke:none"
   id="text566"><tspan
     x="0 5.0029998"
     y="0"
     sodipodi:role="line"
     id="tspan564">99</tspan></text>

</g><g
           id="g568"><text
   transform="matrix(1,0,0,-1,337.294,664.383)"
   style="font-variant:normal;font-weight:bold;font-size:10.00599957px;font-family:'Liberation Serif';-inkscape-font-specification:LiberationSerif-Bold;writing-mode:lr-tb;fill:#000000;fill-opacity:1;fill-rule:nonzero;stroke:none"
   id="text572"><tspan
     x="0 5.0029998"
     y="0"
     sodipodi:role="line"
     id="tspan570">02</tspan></text>

</g></g><g
         transform="translate(-60)"
         id="g2003"><path
           d="m 317.707,639.212 h 36.992 v 17.178 h -36.992 z"
           style="fill:#729fcf;fill-opacity:1;fill-rule:evenodd;stroke:none"
           id="path86"
           inkscape:connector-curvature="0" /><path
           d="m 354.671,639.212 h 18.51 v 17.178 h -18.51 z"
           style="fill:#ffff6d;fill-opacity:1;fill-rule:evenodd;stroke:none"
           id="path88"
           inkscape:connector-curvature="0" /><path
           d="m 317.707,622.062 h 18.51 v 17.178 h -18.51 z"
           style="fill:#729fcf;fill-opacity:1;fill-rule:evenodd;stroke:none"
           id="path92"
           inkscape:connector-curvature="0" /><path
           d="m 336.189,622.062 h 18.51 v 17.178 h -18.51 z"
           style="fill:#ffff6d;fill-opacity:1;fill-rule:evenodd;stroke:none"
           id="path94"
           inkscape:connector-curvature="0" /><path
           d="m 354.671,622.062 h 18.51 v 17.178 h -18.51 z"
           style="fill:#ff6d6d;fill-opacity:1;fill-rule:evenodd;stroke:none"
           id="path96"
           inkscape:connector-curvature="0" /><path
           d="m 317.707,604.913 h 18.51 v 17.178 h -18.51 z"
           style="fill:#ffff6d;fill-opacity:1;fill-rule:evenodd;stroke:none"
           id="path100"
           inkscape:connector-curvature="0" /><path
           d="m 336.189,604.913 h 36.992 v 17.178 h -36.992 z"
           style="fill:#ff6d6d;fill-opacity:1;fill-rule:evenodd;stroke:none"
           id="path102"
           inkscape:connector-curvature="0" /><g
           id="g214"><path
             d="m 317.083,656.305 h 56.863"
             style="fill:none;stroke:#000000;stroke-width:1.39999998;stroke-linecap:butt;stroke-linejoin:round;stroke-miterlimit:10;stroke-dasharray:none;stroke-opacity:1"
             id="path216"
             inkscape:connector-curvature="0" /></g><g
           id="g218"><path
             d="M 317.792,657.013 V 604.147"
             style="fill:none;stroke:#000000;stroke-width:1.39999998;stroke-linecap:butt;stroke-linejoin:round;stroke-miterlimit:10;stroke-dasharray:none;stroke-opacity:1"
             id="path220"
             inkscape:connector-curvature="0" /></g><g
           id="g222"><path
             d="M 336.274,657.013 V 604.147"
             style="fill:none;stroke:#000000;stroke-width:1.39999998;stroke-linecap:butt;stroke-linejoin:round;stroke-miterlimit:10;stroke-dasharray:none;stroke-opacity:1"
             id="path224"
             inkscape:connector-curvature="0" /></g><g
           id="g226"><path
             d="M 354.756,657.013 V 604.147"
             style="fill:none;stroke:#000000;stroke-width:1.39999998;stroke-linecap:butt;stroke-linejoin:round;stroke-miterlimit:10;stroke-dasharray:none;stroke-opacity:1"
             id="path228"
             inkscape:connector-curvature="0" /></g><g
           id="g230"><path
             d="M 373.238,657.013 V 604.147"
             style="fill:none;stroke:#000000;stroke-width:1.39999998;stroke-linecap:butt;stroke-linejoin:round;stroke-miterlimit:10;stroke-dasharray:none;stroke-opacity:1"
             id="path232"
             inkscape:connector-curvature="0" /></g><g
           id="g238"><path
             d="m 317.083,639.155 h 56.863"
             style="fill:none;stroke:#000000;stroke-width:1.39999998;stroke-linecap:butt;stroke-linejoin:round;stroke-miterlimit:10;stroke-dasharray:none;stroke-opacity:1"
             id="path240"
             inkscape:connector-curvature="0" /></g><g
           id="g246"><path
             d="m 317.083,622.006 h 56.863"
             style="fill:none;stroke:#000000;stroke-width:1.39999998;stroke-linecap:butt;stroke-linejoin:round;stroke-miterlimit:10;stroke-dasharray:none;stroke-opacity:1"
             id="path248"
             inkscape:connector-curvature="0" /></g><g
           id="g254"><path
             d="m 317.083,604.856 h 56.863"
             style="fill:none;stroke:#000000;stroke-width:1.39999998;stroke-linecap:butt;stroke-linejoin:round;stroke-miterlimit:10;stroke-dasharray:none;stroke-opacity:1"
             id="path256"
             inkscape:connector-curvature="0" /></g><g
           id="g592"><text
   transform="matrix(1,0,0,-1,324.51,644.399)"
   style="font-variant:normal;font-weight:normal;font-size:10.00599957px;font-family:'Liberation Serif';-inkscape-font-specification:LiberationSerif;writing-mode:lr-tb;fill:#000000;fill-opacity:1;fill-rule:nonzero;stroke:none"
   id="text596"><tspan
     x="0"
     y="0"
     id="tspan594">1</tspan></text>

</g><g
           id="g598"><text
   transform="matrix(1,0,0,-1,342.992,644.399)"
   style="font-variant:normal;font-weight:normal;font-size:10.00599957px;font-family:'Liberation Serif';-inkscape-font-specification:LiberationSerif;writing-mode:lr-tb;fill:#000000;fill-opacity:1;fill-rule:nonzero;stroke:none"
   id="text602"><tspan
     x="0"
     y="0"
     id="tspan600">2</tspan></text>

</g><g
           id="g604"><text
   transform="matrix(1,0,0,-1,361.502,644.399)"
   style="font-variant:normal;font-weight:normal;font-size:10.00599957px;font-family:'Liberation Serif';-inkscape-font-specification:LiberationSerif;writing-mode:lr-tb;fill:#000000;fill-opacity:1;fill-rule:nonzero;stroke:none"
   id="text608"><tspan
     x="0"
     y="0"
     id="tspan606">3</tspan></text>

</g><g
           id="g628"><text
   transform="matrix(1,0,0,-1,324.51,627.193)"
   style="font-variant:normal;font-weight:normal;font-size:10.00599957px;font-family:'Liberation Serif';-inkscape-font-specification:LiberationSerif;writing-mode:lr-tb;fill:#000000;fill-opacity:1;fill-rule:nonzero;stroke:none"
   id="text632"><tspan
     x="0"
     y="0"
     id="tspan630">4</tspan></text>

</g><g
           id="g634"><text
   transform="matrix(1,0,0,-1,342.992,627.193)"
   style="font-variant:normal;font-weight:normal;font-size:10.00599957px;font-family:'Liberation Serif';-inkscape-font-specification:LiberationSerif;writing-mode:lr-tb;fill:#000000;fill-opacity:1;fill-rule:nonzero;stroke:none"
   id="text638"><tspan
     x="0"
     y="0"
     id="tspan636">5</tspan></text>

</g><g
           id="g640"><text
   transform="matrix(1,0,0,-1,361.502,627.193)"
   style="font-variant:normal;font-weight:normal;font-size:10.00599957px;font-family:'Liberation Serif';-inkscape-font-specification:LiberationSerif;writing-mode:lr-tb;fill:#000000;fill-opacity:1;fill-rule:nonzero;stroke:none"
   id="text644"><tspan
     x="0"
     y="0"
     id="tspan642">6</tspan></text>

</g><g
           id="g664"><text
   transform="matrix(1,0,0,-1,324.51,610.1)"
   style="font-variant:normal;font-weight:normal;font-size:10.00599957px;font-family:'Liberation Serif';-inkscape-font-specification:LiberationSerif;writing-mode:lr-tb;fill:#000000;fill-opacity:1;fill-rule:nonzero;stroke:none"
   id="text668"><tspan
     x="0"
     y="0"
     id="tspan666">7</tspan></text>

</g><g
           id="g670"><text
   transform="matrix(1,0,0,-1,342.992,610.1)"
   style="font-variant:normal;font-weight:normal;font-size:10.00599957px;font-family:'Liberation Serif';-inkscape-font-specification:LiberationSerif;writing-mode:lr-tb;fill:#000000;fill-opacity:1;fill-rule:nonzero;stroke:none"
   id="text674"><tspan
     x="0"
     y="0"
     id="tspan672">8</tspan></text>

</g><g
           id="g676"><text
   transform="matrix(1,0,0,-1,361.502,610.1)"
   style="font-variant:normal;font-weight:normal;font-size:10.00599957px;font-family:'Liberation Serif';-inkscape-font-specification:LiberationSerif;writing-mode:lr-tb;fill:#000000;fill-opacity:1;fill-rule:nonzero;stroke:none"
   id="text680"><tspan
     x="0"
     y="0"
     id="tspan678">9</tspan></text>

</g></g><g
         transform="translate(-13.820901)"
         id="g1755"><g
           id="g706"><text
   transform="matrix(1,0,0,-1,251.405,579.996)"
   style="font-variant:normal;font-weight:normal;font-size:10.00599957px;font-family:'Liberation Serif';-inkscape-font-specification:LiberationSerif;writing-mode:lr-tb;fill:#000000;fill-opacity:1;fill-rule:nonzero;stroke:none"
   id="text710"><tspan
     x="0 3.30198 6.0936542 8.8853283 13.287968 18.290968 22.693607 30.488281 34.890923"
     y="0"
     sodipodi:role="line"
     id="tspan708">filename:</tspan></text>

</g><g
           id="g712"><text
   transform="matrix(1,0,0,-1,296.192,579.996)"
   style="font-variant:normal;font-weight:bold;font-size:10.00599957px;font-family:'Liberation Serif';-inkscape-font-specification:LiberationSerif-Bold;writing-mode:lr-tb;fill:#000000;fill-opacity:1;fill-rule:nonzero;stroke:none"
   id="text716"><tspan
     x="0 5.5933542 11.186708 15.589348"
     y="0"
     sodipodi:role="line"
     id="tspan714">hpc_</tspan></text>

</g><g
           id="g718"><text
   transform="matrix(1,0,0,-1,321.987,579.996)"
   style="font-variant:normal;font-weight:bold;font-size:10.00599957px;font-family:'Liberation Serif';-inkscape-font-specification:LiberationSerif-Bold;writing-mode:lr-tb;fill:#000000;fill-opacity:1;fill-rule:nonzero;stroke:none"
   id="text722"><tspan
     x="0 5.0029998"
     y="0"
     sodipodi:role="line"
     id="tspan720">99</tspan></text>

</g><g
           id="g724"><text
   transform="matrix(1,0,0,-1,337.294,579.996)"
   style="font-variant:normal;font-weight:bold;font-size:10.00599957px;font-family:'Liberation Serif';-inkscape-font-specification:LiberationSerif-Bold;writing-mode:lr-tb;fill:#000000;fill-opacity:1;fill-rule:nonzero;stroke:none"
   id="text728"><tspan
     x="0 5.0029998"
     y="0"
     sodipodi:role="line"
     id="tspan726">03</tspan></text>

</g></g><g
         transform="translate(-60)"
         id="g1951"><path
           d="m 317.707,554.286 h 36.992 v 17.178 h -36.992 z"
           style="fill:#ff6d6d;fill-opacity:1;fill-rule:evenodd;stroke:none"
           id="path106"
           inkscape:connector-curvature="0" /><path
           d="m 354.671,554.286 h 18.51 v 17.178 h -18.51 z"
           style="fill:#729fcf;fill-opacity:1;fill-rule:evenodd;stroke:none"
           id="path108"
           inkscape:connector-curvature="0" /><path
           d="m 317.707,537.136 h 18.51 v 17.178 h -18.51 z"
           style="fill:#ff6d6d;fill-opacity:1;fill-rule:evenodd;stroke:none"
           id="path112"
           inkscape:connector-curvature="0" /><path
           d="m 336.189,537.136 h 36.992 v 17.178 h -36.992 z"
           style="fill:#ffff6d;fill-opacity:1;fill-rule:evenodd;stroke:none"
           id="path114"
           inkscape:connector-curvature="0" /><path
           d="m 317.707,519.987 h 18.51 v 17.178 h -18.51 z"
           style="fill:#729fcf;fill-opacity:1;fill-rule:evenodd;stroke:none"
           id="path118"
           inkscape:connector-curvature="0" /><path
           d="m 336.189,519.987 h 18.51 v 17.178 h -18.51 z"
           style="fill:#ffff6d;fill-opacity:1;fill-rule:evenodd;stroke:none"
           id="path120"
           inkscape:connector-curvature="0" /><path
           d="m 354.671,519.987 h 18.51 v 17.178 h -18.51 z"
           style="fill:#729fcf;fill-opacity:1;fill-rule:evenodd;stroke:none"
           id="path122"
           inkscape:connector-curvature="0" /><g
           id="g278"><path
             d="m 317.083,571.379 h 56.863"
             style="fill:none;stroke:#000000;stroke-width:1.39999998;stroke-linecap:butt;stroke-linejoin:round;stroke-miterlimit:10;stroke-dasharray:none;stroke-opacity:1"
             id="path280"
             inkscape:connector-curvature="0" /></g><g
           id="g282"><path
             d="M 317.792,572.087 V 519.221"
             style="fill:none;stroke:#000000;stroke-width:1.39999998;stroke-linecap:butt;stroke-linejoin:round;stroke-miterlimit:10;stroke-dasharray:none;stroke-opacity:1"
             id="path284"
             inkscape:connector-curvature="0" /></g><g
           id="g286"><path
             d="M 336.274,572.087 V 519.221"
             style="fill:none;stroke:#000000;stroke-width:1.39999998;stroke-linecap:butt;stroke-linejoin:round;stroke-miterlimit:10;stroke-dasharray:none;stroke-opacity:1"
             id="path288"
             inkscape:connector-curvature="0" /></g><g
           id="g290"><path
             d="M 354.756,572.087 V 519.221"
             style="fill:none;stroke:#000000;stroke-width:1.39999998;stroke-linecap:butt;stroke-linejoin:round;stroke-miterlimit:10;stroke-dasharray:none;stroke-opacity:1"
             id="path292"
             inkscape:connector-curvature="0" /></g><g
           id="g294"><path
             d="M 373.238,572.087 V 519.221"
             style="fill:none;stroke:#000000;stroke-width:1.39999998;stroke-linecap:butt;stroke-linejoin:round;stroke-miterlimit:10;stroke-dasharray:none;stroke-opacity:1"
             id="path296"
             inkscape:connector-curvature="0" /></g><g
           id="g302"><path
             d="m 317.083,554.229 h 56.863"
             style="fill:none;stroke:#000000;stroke-width:1.39999998;stroke-linecap:butt;stroke-linejoin:round;stroke-miterlimit:10;stroke-dasharray:none;stroke-opacity:1"
             id="path304"
             inkscape:connector-curvature="0" /></g><g
           id="g310"><path
             d="m 317.083,537.08 h 56.863"
             style="fill:none;stroke:#000000;stroke-width:1.39999998;stroke-linecap:butt;stroke-linejoin:round;stroke-miterlimit:10;stroke-dasharray:none;stroke-opacity:1"
             id="path312"
             inkscape:connector-curvature="0" /></g><g
           id="g318"><path
             d="m 317.083,519.93 h 56.863"
             style="fill:none;stroke:#000000;stroke-width:1.39999998;stroke-linecap:butt;stroke-linejoin:round;stroke-miterlimit:10;stroke-dasharray:none;stroke-opacity:1"
             id="path320"
             inkscape:connector-curvature="0" /></g><g
           id="g748"><text
   transform="matrix(1,0,0,-1,324.51,559.502)"
   style="font-variant:normal;font-weight:normal;font-size:10.00599957px;font-family:'Liberation Serif';-inkscape-font-specification:LiberationSerif;writing-mode:lr-tb;fill:#000000;fill-opacity:1;fill-rule:nonzero;stroke:none"
   id="text752"><tspan
     x="0"
     y="0"
     id="tspan750">1</tspan></text>

</g><g
           id="g754"><text
   transform="matrix(1,0,0,-1,342.992,559.502)"
   style="font-variant:normal;font-weight:normal;font-size:10.00599957px;font-family:'Liberation Serif';-inkscape-font-specification:LiberationSerif;writing-mode:lr-tb;fill:#000000;fill-opacity:1;fill-rule:nonzero;stroke:none"
   id="text758"><tspan
     x="0"
     y="0"
     id="tspan756">2</tspan></text>

</g><g
           id="g760"><text
   transform="matrix(1,0,0,-1,361.502,559.502)"
   style="font-variant:normal;font-weight:normal;font-size:10.00599957px;font-family:'Liberation Serif';-inkscape-font-specification:LiberationSerif;writing-mode:lr-tb;fill:#000000;fill-opacity:1;fill-rule:nonzero;stroke:none"
   id="text764"><tspan
     x="0"
     y="0"
     id="tspan762">3</tspan></text>

</g><g
           id="g784"><text
   transform="matrix(1,0,0,-1,324.51,542.295)"
   style="font-variant:normal;font-weight:normal;font-size:10.00599957px;font-family:'Liberation Serif';-inkscape-font-specification:LiberationSerif;writing-mode:lr-tb;fill:#000000;fill-opacity:1;fill-rule:nonzero;stroke:none"
   id="text788"><tspan
     x="0"
     y="0"
     id="tspan786">4</tspan></text>

</g><g
           id="g790"><text
   transform="matrix(1,0,0,-1,342.992,542.295)"
   style="font-variant:normal;font-weight:normal;font-size:10.00599957px;font-family:'Liberation Serif';-inkscape-font-specification:LiberationSerif;writing-mode:lr-tb;fill:#000000;fill-opacity:1;fill-rule:nonzero;stroke:none"
   id="text794"><tspan
     x="0"
     y="0"
     id="tspan792">5</tspan></text>

</g><g
           id="g796"><text
   transform="matrix(1,0,0,-1,361.502,542.295)"
   style="font-variant:normal;font-weight:normal;font-size:10.00599957px;font-family:'Liberation Serif';-inkscape-font-specification:LiberationSerif;writing-mode:lr-tb;fill:#000000;fill-opacity:1;fill-rule:nonzero;stroke:none"
   id="text800"><tspan
     x="0"
     y="0"
     id="tspan798">6</tspan></text>

</g><g
           id="g820"><text
   transform="matrix(1,0,0,-1,324.51,525.202)"
   style="font-variant:normal;font-weight:normal;font-size:10.00599957px;font-family:'Liberation Serif';-inkscape-font-specification:LiberationSerif;writing-mode:lr-tb;fill:#000000;fill-opacity:1;fill-rule:nonzero;stroke:none"
   id="text824"><tspan
     x="0"
     y="0"
     id="tspan822">7</tspan></text>

</g><g
           id="g826"><text
   transform="matrix(1,0,0,-1,342.992,525.202)"
   style="font-variant:normal;font-weight:normal;font-size:10.00599957px;font-family:'Liberation Serif';-inkscape-font-specification:LiberationSerif;writing-mode:lr-tb;fill:#000000;fill-opacity:1;fill-rule:nonzero;stroke:none"
   id="text830"><tspan
     x="0"
     y="0"
     id="tspan828">8</tspan></text>

</g><g
           id="g832"><text
   transform="matrix(1,0,0,-1,361.502,525.202)"
   style="font-variant:normal;font-weight:normal;font-size:10.00599957px;font-family:'Liberation Serif';-inkscape-font-specification:LiberationSerif;writing-mode:lr-tb;fill:#000000;fill-opacity:1;fill-rule:nonzero;stroke:none"
   id="text836"><tspan
     x="0"
     y="0"
     id="tspan834">9</tspan></text>

</g></g></g><g
       id="g2108"><path
         inkscape:connector-curvature="0"
         id="path124"
         style="fill:#729fcf;fill-opacity:1;fill-rule:evenodd;stroke:none"
         d="m 374.60283,636.06373 h 21.628 v 17.178 h -21.628 z" /><path
         inkscape:connector-curvature="0"
         id="path126"
         style="fill:#ffff6d;fill-opacity:1;fill-rule:evenodd;stroke:none"
         d="m 374.60283,613.98173 h 21.628 v 17.178 h -21.628 z" /><path
         inkscape:connector-curvature="0"
         id="path128"
         style="fill:#ff6d6d;fill-opacity:1;fill-rule:evenodd;stroke:none"
         d="m 374.60283,591.89973 h 21.628 v 17.178 h -21.628 z" /><g
         transform="translate(167.47483,160.75073)"
         id="g322"><path
           inkscape:connector-curvature="0"
           id="path324"
           style="fill:none;stroke:#000000;stroke-width:1.39999998;stroke-linecap:butt;stroke-linejoin:round;stroke-miterlimit:10;stroke-dasharray:none;stroke-opacity:1"
           d="m 206.504,492.406 h 23.017" /></g><g
         transform="translate(167.47483,160.75073)"
         id="g326"><path
           inkscape:connector-curvature="0"
           id="path328"
           style="fill:none;stroke:#000000;stroke-width:1.39999998;stroke-linecap:butt;stroke-linejoin:round;stroke-miterlimit:10;stroke-dasharray:none;stroke-opacity:1"
           d="M 207.213,493.114 V 474.547" /></g><g
         transform="translate(167.47483,160.75073)"
         id="g330"><path
           inkscape:connector-curvature="0"
           id="path332"
           style="fill:none;stroke:#000000;stroke-width:1.39999998;stroke-linecap:butt;stroke-linejoin:round;stroke-miterlimit:10;stroke-dasharray:none;stroke-opacity:1"
           d="M 228.813,493.114 V 474.547" /></g><g
         transform="translate(167.47483,160.75073)"
         id="g334"><path
           inkscape:connector-curvature="0"
           id="path336"
           style="fill:none;stroke:#000000;stroke-width:1.39999998;stroke-linecap:butt;stroke-linejoin:round;stroke-miterlimit:10;stroke-dasharray:none;stroke-opacity:1"
           d="m 206.504,475.256 h 23.017" /></g><g
         transform="translate(167.47483,160.75073)"
         id="g338"><path
           inkscape:connector-curvature="0"
           id="path340"
           style="fill:none;stroke:#000000;stroke-width:1.39999998;stroke-linecap:butt;stroke-linejoin:round;stroke-miterlimit:10;stroke-dasharray:none;stroke-opacity:1"
           d="m 206.504,470.324 h 23.017" /></g><g
         transform="translate(167.47483,160.75073)"
         id="g342"><path
           inkscape:connector-curvature="0"
           id="path344"
           style="fill:none;stroke:#000000;stroke-width:1.39999998;stroke-linecap:butt;stroke-linejoin:round;stroke-miterlimit:10;stroke-dasharray:none;stroke-opacity:1"
           d="M 207.213,471.032 V 452.465" /></g><g
         transform="translate(167.47483,160.75073)"
         id="g346"><path
           inkscape:connector-curvature="0"
           id="path348"
           style="fill:none;stroke:#000000;stroke-width:1.39999998;stroke-linecap:butt;stroke-linejoin:round;stroke-miterlimit:10;stroke-dasharray:none;stroke-opacity:1"
           d="M 228.813,471.032 V 452.465" /></g><g
         transform="translate(167.47483,160.75073)"
         id="g350"><path
           inkscape:connector-curvature="0"
           id="path352"
           style="fill:none;stroke:#000000;stroke-width:1.39999998;stroke-linecap:butt;stroke-linejoin:round;stroke-miterlimit:10;stroke-dasharray:none;stroke-opacity:1"
           d="m 206.504,453.174 h 23.017" /></g><g
         transform="translate(167.47483,160.75073)"
         id="g354"><path
           inkscape:connector-curvature="0"
           id="path356"
           style="fill:none;stroke:#000000;stroke-width:1.39999998;stroke-linecap:butt;stroke-linejoin:round;stroke-miterlimit:10;stroke-dasharray:none;stroke-opacity:1"
           d="m 206.504,448.242 h 23.017" /></g><g
         transform="translate(167.47483,160.75073)"
         id="g358"><path
           inkscape:connector-curvature="0"
           id="path360"
           style="fill:none;stroke:#000000;stroke-width:1.39999998;stroke-linecap:butt;stroke-linejoin:round;stroke-miterlimit:10;stroke-dasharray:none;stroke-opacity:1"
           d="M 207.213,448.95 V 430.383" /></g><g
         transform="translate(167.47483,160.75073)"
         id="g362"><path
           inkscape:connector-curvature="0"
           id="path364"
           style="fill:none;stroke:#000000;stroke-width:1.39999998;stroke-linecap:butt;stroke-linejoin:round;stroke-miterlimit:10;stroke-dasharray:none;stroke-opacity:1"
           d="M 228.813,448.95 V 430.383" /></g><g
         transform="translate(167.47483,160.75073)"
         id="g366"><path
           inkscape:connector-curvature="0"
           id="path368"
           style="fill:none;stroke:#000000;stroke-width:1.39999998;stroke-linecap:butt;stroke-linejoin:round;stroke-miterlimit:10;stroke-dasharray:none;stroke-opacity:1"
           d="m 206.504,431.092 h 23.017" /></g><g
         transform="translate(-48.698493,-15)"
         id="g2063"><g
           id="g838"
           transform="translate(227.47483,175.75073)"><text
   transform="matrix(1,0,0,-1,229.805,500.484)"
   style="font-variant:normal;font-weight:bold;font-size:10.00599957px;font-family:'Liberation Serif';-inkscape-font-specification:LiberationSerif-Bold;writing-mode:lr-tb;fill:#000000;fill-opacity:1;fill-rule:nonzero;stroke:none"
   id="text842"><tspan
     x="0 6.6940141 11.096654 16.099653 20.502295 26.095648"
     y="0"
     sodipodi:role="line"
     id="tspan840">Legend</tspan></text>

</g><g
           id="g844"
           transform="translate(457.27983,676.23473)"><path
             d="M 0,-0.907 H 31.691"
             style="fill:none;stroke:#000000;stroke-width:0.59500003;stroke-linecap:butt;stroke-linejoin:miter;stroke-miterlimit:10;stroke-dasharray:none;stroke-opacity:1"
             id="path846"
             inkscape:connector-curvature="0" /></g></g><g
         transform="translate(167.47483,160.75073)"
         id="g848"><text
   id="text852"
   style="font-variant:normal;font-weight:normal;font-size:10.00599957px;font-family:'Liberation Serif';-inkscape-font-specification:LiberationSerif;writing-mode:lr-tb;fill:#000000;fill-opacity:1;fill-rule:nonzero;stroke:none"
   transform="matrix(1,0,0,-1,251.405,478.402)"><tspan
     id="tspan850"
     sodipodi:role="line"
     y="0"
     x="0 5.0029998 7.5044999 12.5075 15.009 22.21332 25.004993 30.007994 32.509495 39.713814 44.716812 49.719814">3.2 w/o U235</tspan></text>

</g><g
         transform="translate(167.47483,160.75073)"
         id="g854"><text
   id="text858"
   style="font-variant:normal;font-weight:normal;font-size:10.00599957px;font-family:'Liberation Serif';-inkscape-font-specification:LiberationSerif;writing-mode:lr-tb;fill:#000000;fill-opacity:1;fill-rule:nonzero;stroke:none"
   transform="matrix(1,0,0,-1,251.405,456.377)"><tspan
     id="tspan856"
     sodipodi:role="line"
     y="0"
     x="0 5.0029998 7.5044999 12.5075 15.009 22.21332 25.004993 30.007994 32.509495 39.713814 44.716812 49.719814">2.4 w/o U235</tspan></text>

</g><g
         transform="translate(167.47483,160.75073)"
         id="g860"><text
   id="text864"
   style="font-variant:normal;font-weight:normal;font-size:10.00599957px;font-family:'Liberation Serif';-inkscape-font-specification:LiberationSerif;writing-mode:lr-tb;fill:#000000;fill-opacity:1;fill-rule:nonzero;stroke:none"
   transform="matrix(1,0,0,-1,251.405,434.295)"><tspan
     id="tspan862"
     sodipodi:role="line"
     y="0"
     x="0 5.0029998 7.5044999 12.5075 15.009 22.21332 25.004993 30.007994 32.509495 39.713814 44.716812 49.719814">1.6 w/o U235</tspan></text>

</g><rect
         ry="1.6450051"
         transform="scale(1,-1)"
         y="-673.54248"
         x="367.14099"
         height="93.352486"
         width="114.57169"
         id="rect1671"
         style="opacity:0.98000004;fill:none;fill-opacity:1;stroke:#000000;stroke-width:1.41732287;stroke-linecap:round;stroke-linejoin:round;stroke-miterlimit:4;stroke-dasharray:none;stroke-dashoffset:0;stroke-opacity:1" /></g><rect
       style="opacity:0.98000004;fill:none;fill-opacity:1;stroke:#000000;stroke-width:1.41732287;stroke-linecap:round;stroke-linejoin:round;stroke-miterlimit:4;stroke-dasharray:none;stroke-dashoffset:0;stroke-opacity:1"
       id="rect1237"
       width="120.06108"
       height="259.55115"
       x="97.858955"
       y="-765.19672"
       transform="scale(1,-1)"
       ry="1.6450051" /><rect
       style="opacity:0.98000004;fill:none;fill-opacity:1;stroke:#000000;stroke-width:1.41732287;stroke-linecap:round;stroke-linejoin:round;stroke-miterlimit:4;stroke-dasharray:none;stroke-dashoffset:0;stroke-opacity:1"
       id="rect1237-3"
       width="120.06108"
       height="259.55115"
       x="225.48396"
       y="-765.19672"
       ry="1.6450051"
       transform="scale(1,-1)" /><text
       xml:space="preserve"
       style="font-style:normal;font-variant:normal;font-weight:normal;font-stretch:normal;font-size:16px;line-height:125%;font-family:'Liberation Serif';-inkscape-font-specification:'Liberation Serif';letter-spacing:0px;word-spacing:0px;fill:#000000;fill-opacity:1;stroke:none;stroke-width:0.75"
       x="122.69809"
       y="-769.35852"
       id="text1633"
       transform="scale(1,-1)"><tspan
         sodipodi:role="line"
         id="tspan1631"
         x="122.69809"
         y="-769.35852"
         style="font-style:normal;font-variant:normal;font-weight:normal;font-stretch:normal;font-size:16px;font-family:'Liberation Serif';-inkscape-font-specification:'Liberation Serif';stroke-width:0.75">A:Training</tspan></text>
<text
       xml:space="preserve"
       style="font-style:normal;font-variant:normal;font-weight:normal;font-stretch:normal;font-size:16px;line-height:125%;font-family:'Liberation Serif';-inkscape-font-specification:'Liberation Serif';letter-spacing:0px;word-spacing:0px;fill:#000000;fill-opacity:1;stroke:none;stroke-width:0.75"
       x="264.56137"
       y="-769.35852"
       id="text1637"
       transform="scale(1,-1)"><tspan
         sodipodi:role="line"
         id="tspan1635"
         x="264.56137"
         y="-769.35852"
         style="font-style:normal;font-variant:normal;font-weight:normal;font-stretch:normal;font-size:16px;font-family:'Liberation Serif';-inkscape-font-specification:'Liberation Serif';stroke-width:0.75">B:Test</tspan></text>
</g></svg>