<?xml version="1.0" encoding="utf-8" standalone="no"?>
<!DOCTYPE svg PUBLIC "-//W3C//DTD SVG 1.1//EN"
  "http://www.w3.org/Graphics/SVG/1.1/DTD/svg11.dtd">
<!-- Created with matplotlib (https://matplotlib.org/) -->
<svg height="345.6pt" version="1.1" viewBox="0 0 460.8 345.6" width="460.8pt" xmlns="http://www.w3.org/2000/svg" xmlns:xlink="http://www.w3.org/1999/xlink">
 <defs>
  <style type="text/css">
*{stroke-linecap:butt;stroke-linejoin:round;}
  </style>
 </defs>
 <g id="figure_1">
  <g id="patch_1">
   <path d="M 0 345.6 
L 460.8 345.6 
L 460.8 0 
L 0 0 
z
" style="fill:#ffffff;"/>
  </g>
  <g id="axes_1">
   <g id="patch_2">
    <path d="M 57.6 307.584 
L 414.72 307.584 
L 414.72 41.472 
L 57.6 41.472 
z
" style="fill:#ffffff;"/>
   </g>
   <g id="PathCollection_1">
    <defs>
     <path d="M 0 3 
C 0.795609 3 1.55874 2.683901 2.12132 2.12132 
C 2.683901 1.55874 3 0.795609 3 0 
C 3 -0.795609 2.683901 -1.55874 2.12132 -2.12132 
C 1.55874 -2.683901 0.795609 -3 0 -3 
C -0.795609 -3 -1.55874 -2.683901 -2.12132 -2.12132 
C -2.683901 -1.55874 -3 -0.795609 -3 0 
C -3 0.795609 -2.683901 1.55874 -2.12132 2.12132 
C -1.55874 2.683901 -0.795609 3 0 3 
z
" id="m42dde20b7d" style="stroke:#008000;stroke-opacity:0.6;"/>
    </defs>
    <g clip-path="url(#p233f3a51fe)">
     <use style="fill:#008000;fill-opacity:0.6;stroke:#008000;stroke-opacity:0.6;" x="242.764044" xlink:href="#m42dde20b7d" y="271.567927"/>
     <use style="fill:#008000;fill-opacity:0.6;stroke:#008000;stroke-opacity:0.6;" x="191.439647" xlink:href="#m42dde20b7d" y="161.873831"/>
     <use style="fill:#008000;fill-opacity:0.6;stroke:#008000;stroke-opacity:0.6;" x="219.285737" xlink:href="#m42dde20b7d" y="209.682536"/>
     <use style="fill:#008000;fill-opacity:0.6;stroke:#008000;stroke-opacity:0.6;" x="240.462364" xlink:href="#m42dde20b7d" y="263.422415"/>
     <use style="fill:#008000;fill-opacity:0.6;stroke:#008000;stroke-opacity:0.6;" x="241.002209" xlink:href="#m42dde20b7d" y="259.493679"/>
     <use style="fill:#008000;fill-opacity:0.6;stroke:#008000;stroke-opacity:0.6;" x="229.666966" xlink:href="#m42dde20b7d" y="231.890824"/>
     <use style="fill:#008000;fill-opacity:0.6;stroke:#008000;stroke-opacity:0.6;" x="237.218422" xlink:href="#m42dde20b7d" y="266.054332"/>
     <use style="fill:#008000;fill-opacity:0.6;stroke:#008000;stroke-opacity:0.6;" x="226.155349" xlink:href="#m42dde20b7d" y="247.818429"/>
     <use style="fill:#008000;fill-opacity:0.6;stroke:#008000;stroke-opacity:0.6;" x="221.629828" xlink:href="#m42dde20b7d" y="232.386404"/>
     <use style="fill:#008000;fill-opacity:0.6;stroke:#008000;stroke-opacity:0.6;" x="155.914186" xlink:href="#m42dde20b7d" y="129.75628"/>
     <use style="fill:#008000;fill-opacity:0.6;stroke:#008000;stroke-opacity:0.6;" x="238.985367" xlink:href="#m42dde20b7d" y="258.282875"/>
     <use style="fill:#008000;fill-opacity:0.6;stroke:#008000;stroke-opacity:0.6;" x="229.406737" xlink:href="#m42dde20b7d" y="246.690777"/>
     <use style="fill:#008000;fill-opacity:0.6;stroke:#008000;stroke-opacity:0.6;" x="208.560959" xlink:href="#m42dde20b7d" y="168.863989"/>
     <use style="fill:#008000;fill-opacity:0.6;stroke:#008000;stroke-opacity:0.6;" x="179.665426" xlink:href="#m42dde20b7d" y="152.750676"/>
     <use style="fill:#008000;fill-opacity:0.6;stroke:#008000;stroke-opacity:0.6;" x="248.419421" xlink:href="#m42dde20b7d" y="277.01579"/>
     <use style="fill:#008000;fill-opacity:0.6;stroke:#008000;stroke-opacity:0.6;" x="238.028082" xlink:href="#m42dde20b7d" y="278.871661"/>
     <use style="fill:#008000;fill-opacity:0.6;stroke:#008000;stroke-opacity:0.6;" x="229.737819" xlink:href="#m42dde20b7d" y="244.344535"/>
     <use style="fill:#008000;fill-opacity:0.6;stroke:#008000;stroke-opacity:0.6;" x="242.310694" xlink:href="#m42dde20b7d" y="254.072246"/>
     <use style="fill:#008000;fill-opacity:0.6;stroke:#008000;stroke-opacity:0.6;" x="221.323552" xlink:href="#m42dde20b7d" y="231.647432"/>
     <use style="fill:#008000;fill-opacity:0.6;stroke:#008000;stroke-opacity:0.6;" x="241.665824" xlink:href="#m42dde20b7d" y="256.625556"/>
     <use style="fill:#008000;fill-opacity:0.6;stroke:#008000;stroke-opacity:0.6;" x="229.388033" xlink:href="#m42dde20b7d" y="262.033337"/>
     <use style="fill:#008000;fill-opacity:0.6;stroke:#008000;stroke-opacity:0.6;" x="240.212031" xlink:href="#m42dde20b7d" y="269.891643"/>
     <use style="fill:#008000;fill-opacity:0.6;stroke:#008000;stroke-opacity:0.6;" x="245.774436" xlink:href="#m42dde20b7d" y="258.707904"/>
     <use style="fill:#008000;fill-opacity:0.6;stroke:#008000;stroke-opacity:0.6;" x="244.597737" xlink:href="#m42dde20b7d" y="283.525896"/>
     <use style="fill:#008000;fill-opacity:0.6;stroke:#008000;stroke-opacity:0.6;" x="241.155837" xlink:href="#m42dde20b7d" y="263.460972"/>
     <use style="fill:#008000;fill-opacity:0.6;stroke:#008000;stroke-opacity:0.6;" x="239.144137" xlink:href="#m42dde20b7d" y="287.021895"/>
     <use style="fill:#008000;fill-opacity:0.6;stroke:#008000;stroke-opacity:0.6;" x="239.147139" xlink:href="#m42dde20b7d" y="267.046224"/>
     <use style="fill:#008000;fill-opacity:0.6;stroke:#008000;stroke-opacity:0.6;" x="216.613592" xlink:href="#m42dde20b7d" y="194.727834"/>
     <use style="fill:#008000;fill-opacity:0.6;stroke:#008000;stroke-opacity:0.6;" x="229.940547" xlink:href="#m42dde20b7d" y="210.630775"/>
     <use style="fill:#008000;fill-opacity:0.6;stroke:#008000;stroke-opacity:0.6;" x="212.454278" xlink:href="#m42dde20b7d" y="214.867995"/>
     <use style="fill:#008000;fill-opacity:0.6;stroke:#008000;stroke-opacity:0.6;" x="188.900655" xlink:href="#m42dde20b7d" y="206.636"/>
     <use style="fill:#008000;fill-opacity:0.6;stroke:#008000;stroke-opacity:0.6;" x="227.25766" xlink:href="#m42dde20b7d" y="199.74886"/>
     <use style="fill:#008000;fill-opacity:0.6;stroke:#008000;stroke-opacity:0.6;" x="181.515799" xlink:href="#m42dde20b7d" y="133.233196"/>
     <use style="fill:#008000;fill-opacity:0.6;stroke:#008000;stroke-opacity:0.6;" x="228.34284" xlink:href="#m42dde20b7d" y="229.097017"/>
     <use style="fill:#008000;fill-opacity:0.6;stroke:#008000;stroke-opacity:0.6;" x="235.9975" xlink:href="#m42dde20b7d" y="267.190416"/>
     <use style="fill:#008000;fill-opacity:0.6;stroke:#008000;stroke-opacity:0.6;" x="240.127635" xlink:href="#m42dde20b7d" y="260.775408"/>
     <use style="fill:#008000;fill-opacity:0.6;stroke:#008000;stroke-opacity:0.6;" x="238.667881" xlink:href="#m42dde20b7d" y="259.840148"/>
     <use style="fill:#008000;fill-opacity:0.6;stroke:#008000;stroke-opacity:0.6;" x="206.193304" xlink:href="#m42dde20b7d" y="187.874692"/>
     <use style="fill:#008000;fill-opacity:0.6;stroke:#008000;stroke-opacity:0.6;" x="234.470301" xlink:href="#m42dde20b7d" y="255.879471"/>
     <use style="fill:#008000;fill-opacity:0.6;stroke:#008000;stroke-opacity:0.6;" x="239.707383" xlink:href="#m42dde20b7d" y="251.809356"/>
     <use style="fill:#008000;fill-opacity:0.6;stroke:#008000;stroke-opacity:0.6;" x="236.777246" xlink:href="#m42dde20b7d" y="249.537444"/>
     <use style="fill:#008000;fill-opacity:0.6;stroke:#008000;stroke-opacity:0.6;" x="205.230791" xlink:href="#m42dde20b7d" y="233.585828"/>
     <use style="fill:#008000;fill-opacity:0.6;stroke:#008000;stroke-opacity:0.6;" x="194.373164" xlink:href="#m42dde20b7d" y="174.288171"/>
     <use style="fill:#008000;fill-opacity:0.6;stroke:#008000;stroke-opacity:0.6;" x="223.368357" xlink:href="#m42dde20b7d" y="203.03322"/>
     <use style="fill:#008000;fill-opacity:0.6;stroke:#008000;stroke-opacity:0.6;" x="222.251649" xlink:href="#m42dde20b7d" y="235.217667"/>
     <use style="fill:#008000;fill-opacity:0.6;stroke:#008000;stroke-opacity:0.6;" x="252.891084" xlink:href="#m42dde20b7d" y="280.540851"/>
     <use style="fill:#008000;fill-opacity:0.6;stroke:#008000;stroke-opacity:0.6;" x="234.861917" xlink:href="#m42dde20b7d" y="252.312843"/>
     <use style="fill:#008000;fill-opacity:0.6;stroke:#008000;stroke-opacity:0.6;" x="229.909233" xlink:href="#m42dde20b7d" y="235.062852"/>
     <use style="fill:#008000;fill-opacity:0.6;stroke:#008000;stroke-opacity:0.6;" x="249.396264" xlink:href="#m42dde20b7d" y="274.923059"/>
     <use style="fill:#008000;fill-opacity:0.6;stroke:#008000;stroke-opacity:0.6;" x="215.783905" xlink:href="#m42dde20b7d" y="192.681218"/>
     <use style="fill:#008000;fill-opacity:0.6;stroke:#008000;stroke-opacity:0.6;" x="176.161587" xlink:href="#m42dde20b7d" y="146.738898"/>
     <use style="fill:#008000;fill-opacity:0.6;stroke:#008000;stroke-opacity:0.6;" x="224.11241" xlink:href="#m42dde20b7d" y="247.454454"/>
     <use style="fill:#008000;fill-opacity:0.6;stroke:#008000;stroke-opacity:0.6;" x="217.659899" xlink:href="#m42dde20b7d" y="212.040328"/>
     <use style="fill:#008000;fill-opacity:0.6;stroke:#008000;stroke-opacity:0.6;" x="247.344646" xlink:href="#m42dde20b7d" y="269.30204"/>
     <use style="fill:#008000;fill-opacity:0.6;stroke:#008000;stroke-opacity:0.6;" x="195.529636" xlink:href="#m42dde20b7d" y="154.226249"/>
     <use style="fill:#008000;fill-opacity:0.6;stroke:#008000;stroke-opacity:0.6;" x="240.49722" xlink:href="#m42dde20b7d" y="256.020449"/>
     <use style="fill:#008000;fill-opacity:0.6;stroke:#008000;stroke-opacity:0.6;" x="193.486422" xlink:href="#m42dde20b7d" y="171.633473"/>
     <use style="fill:#008000;fill-opacity:0.6;stroke:#008000;stroke-opacity:0.6;" x="219.546367" xlink:href="#m42dde20b7d" y="181.452409"/>
     <use style="fill:#008000;fill-opacity:0.6;stroke:#008000;stroke-opacity:0.6;" x="217.06452" xlink:href="#m42dde20b7d" y="185.58251"/>
     <use style="fill:#008000;fill-opacity:0.6;stroke:#008000;stroke-opacity:0.6;" x="182.045973" xlink:href="#m42dde20b7d" y="166.819188"/>
    </g>
   </g>
   <g id="PathCollection_2">
    <defs>
     <path d="M 0 3 
C 0.795609 3 1.55874 2.683901 2.12132 2.12132 
C 2.683901 1.55874 3 0.795609 3 0 
C 3 -0.795609 2.683901 -1.55874 2.12132 -2.12132 
C 1.55874 -2.683901 0.795609 -3 0 -3 
C -0.795609 -3 -1.55874 -2.683901 -2.12132 -2.12132 
C -2.683901 -1.55874 -3 -0.795609 -3 0 
C -3 0.795609 -2.683901 1.55874 -2.12132 2.12132 
C -1.55874 2.683901 -0.795609 3 0 3 
z
" id="m8273fc3cea" style="stroke:#800080;stroke-opacity:0.6;"/>
    </defs>
    <g clip-path="url(#p233f3a51fe)">
     <use style="fill:#800080;fill-opacity:0.6;stroke:#800080;stroke-opacity:0.6;" x="106.642286" xlink:href="#m8273fc3cea" y="74.421792"/>
     <use style="fill:#800080;fill-opacity:0.6;stroke:#800080;stroke-opacity:0.6;" x="235.705957" xlink:href="#m8273fc3cea" y="295.488"/>
     <use style="fill:#800080;fill-opacity:0.6;stroke:#800080;stroke-opacity:0.6;" x="119.574241" xlink:href="#m8273fc3cea" y="99.305121"/>
     <use style="fill:#800080;fill-opacity:0.6;stroke:#800080;stroke-opacity:0.6;" x="119.574241" xlink:href="#m8273fc3cea" y="99.305121"/>
     <use style="fill:#800080;fill-opacity:0.6;stroke:#800080;stroke-opacity:0.6;" x="128.601532" xlink:href="#m8273fc3cea" y="115.731986"/>
     <use style="fill:#800080;fill-opacity:0.6;stroke:#800080;stroke-opacity:0.6;" x="142.826548" xlink:href="#m8273fc3cea" y="147.178031"/>
     <use style="fill:#800080;fill-opacity:0.6;stroke:#800080;stroke-opacity:0.6;" x="136.148835" xlink:href="#m8273fc3cea" y="133.371289"/>
     <use style="fill:#800080;fill-opacity:0.6;stroke:#800080;stroke-opacity:0.6;" x="106.642286" xlink:href="#m8273fc3cea" y="74.421792"/>
     <use style="fill:#800080;fill-opacity:0.6;stroke:#800080;stroke-opacity:0.6;" x="151.469817" xlink:href="#m8273fc3cea" y="155.201994"/>
     <use style="fill:#800080;fill-opacity:0.6;stroke:#800080;stroke-opacity:0.6;" x="106.642286" xlink:href="#m8273fc3cea" y="74.421792"/>
     <use style="fill:#800080;fill-opacity:0.6;stroke:#800080;stroke-opacity:0.6;" x="137.529733" xlink:href="#m8273fc3cea" y="134.63064"/>
     <use style="fill:#800080;fill-opacity:0.6;stroke:#800080;stroke-opacity:0.6;" x="168.362461" xlink:href="#m8273fc3cea" y="174.028467"/>
     <use style="fill:#800080;fill-opacity:0.6;stroke:#800080;stroke-opacity:0.6;" x="182.385793" xlink:href="#m8273fc3cea" y="207.423361"/>
     <use style="fill:#800080;fill-opacity:0.6;stroke:#800080;stroke-opacity:0.6;" x="175.764291" xlink:href="#m8273fc3cea" y="199.730966"/>
     <use style="fill:#800080;fill-opacity:0.6;stroke:#800080;stroke-opacity:0.6;" x="195.033643" xlink:href="#m8273fc3cea" y="219.375954"/>
     <use style="fill:#800080;fill-opacity:0.6;stroke:#800080;stroke-opacity:0.6;" x="217.074531" xlink:href="#m8273fc3cea" y="262.517917"/>
     <use style="fill:#800080;fill-opacity:0.6;stroke:#800080;stroke-opacity:0.6;" x="129.558108" xlink:href="#m8273fc3cea" y="118.859924"/>
     <use style="fill:#800080;fill-opacity:0.6;stroke:#800080;stroke-opacity:0.6;" x="229.058101" xlink:href="#m8273fc3cea" y="284.020012"/>
     <use style="fill:#800080;fill-opacity:0.6;stroke:#800080;stroke-opacity:0.6;" x="161.655751" xlink:href="#m8273fc3cea" y="166.745132"/>
     <use style="fill:#800080;fill-opacity:0.6;stroke:#800080;stroke-opacity:0.6;" x="182.385793" xlink:href="#m8273fc3cea" y="207.423361"/>
     <use style="fill:#800080;fill-opacity:0.6;stroke:#800080;stroke-opacity:0.6;" x="215.24328" xlink:href="#m8273fc3cea" y="256.784153"/>
     <use style="fill:#800080;fill-opacity:0.6;stroke:#800080;stroke-opacity:0.6;" x="227.456038" xlink:href="#m8273fc3cea" y="279.940423"/>
     <use style="fill:#800080;fill-opacity:0.6;stroke:#800080;stroke-opacity:0.6;" x="219.889119" xlink:href="#m8273fc3cea" y="278.2085"/>
     <use style="fill:#800080;fill-opacity:0.6;stroke:#800080;stroke-opacity:0.6;" x="199.474009" xlink:href="#m8273fc3cea" y="233.258809"/>
     <use style="fill:#800080;fill-opacity:0.6;stroke:#800080;stroke-opacity:0.6;" x="195.330178" xlink:href="#m8273fc3cea" y="225.91472"/>
     <use style="fill:#800080;fill-opacity:0.6;stroke:#800080;stroke-opacity:0.6;" x="129.558108" xlink:href="#m8273fc3cea" y="118.859924"/>
     <use style="fill:#800080;fill-opacity:0.6;stroke:#800080;stroke-opacity:0.6;" x="231.929101" xlink:href="#m8273fc3cea" y="288.226348"/>
     <use style="fill:#800080;fill-opacity:0.6;stroke:#800080;stroke-opacity:0.6;" x="153.863942" xlink:href="#m8273fc3cea" y="158.153928"/>
     <use style="fill:#800080;fill-opacity:0.6;stroke:#800080;stroke-opacity:0.6;" x="158.073794" xlink:href="#m8273fc3cea" y="162.486467"/>
     <use style="fill:#800080;fill-opacity:0.6;stroke:#800080;stroke-opacity:0.6;" x="209.856503" xlink:href="#m8273fc3cea" y="244.113149"/>
     <use style="fill:#800080;fill-opacity:0.6;stroke:#800080;stroke-opacity:0.6;" x="206.977549" xlink:href="#m8273fc3cea" y="237.664384"/>
     <use style="fill:#800080;fill-opacity:0.6;stroke:#800080;stroke-opacity:0.6;" x="172.463588" xlink:href="#m8273fc3cea" y="180.686989"/>
     <use style="fill:#800080;fill-opacity:0.6;stroke:#800080;stroke-opacity:0.6;" x="173.611384" xlink:href="#m8273fc3cea" y="190.005748"/>
     <use style="fill:#800080;fill-opacity:0.6;stroke:#800080;stroke-opacity:0.6;" x="219.889119" xlink:href="#m8273fc3cea" y="278.2085"/>
     <use style="fill:#800080;fill-opacity:0.6;stroke:#800080;stroke-opacity:0.6;" x="219.152162" xlink:href="#m8273fc3cea" y="268.245298"/>
     <use style="fill:#800080;fill-opacity:0.6;stroke:#800080;stroke-opacity:0.6;" x="202.630534" xlink:href="#m8273fc3cea" y="236.738638"/>
     <use style="fill:#800080;fill-opacity:0.6;stroke:#800080;stroke-opacity:0.6;" x="174.4836" xlink:href="#m8273fc3cea" y="191.282528"/>
     <use style="fill:#800080;fill-opacity:0.6;stroke:#800080;stroke-opacity:0.6;" x="175.764291" xlink:href="#m8273fc3cea" y="199.730966"/>
     <use style="fill:#800080;fill-opacity:0.6;stroke:#800080;stroke-opacity:0.6;" x="158.073794" xlink:href="#m8273fc3cea" y="162.486467"/>
     <use style="fill:#800080;fill-opacity:0.6;stroke:#800080;stroke-opacity:0.6;" x="189.710035" xlink:href="#m8273fc3cea" y="218.389038"/>
     <use style="fill:#800080;fill-opacity:0.6;stroke:#800080;stroke-opacity:0.6;" x="212.613365" xlink:href="#m8273fc3cea" y="254.595003"/>
     <use style="fill:#800080;fill-opacity:0.6;stroke:#800080;stroke-opacity:0.6;" x="210.696037" xlink:href="#m8273fc3cea" y="247.981202"/>
     <use style="fill:#800080;fill-opacity:0.6;stroke:#800080;stroke-opacity:0.6;" x="235.045147" xlink:href="#m8273fc3cea" y="294.51569"/>
     <use style="fill:#800080;fill-opacity:0.6;stroke:#800080;stroke-opacity:0.6;" x="171.992431" xlink:href="#m8273fc3cea" y="180.069661"/>
     <use style="fill:#800080;fill-opacity:0.6;stroke:#800080;stroke-opacity:0.6;" x="169.421538" xlink:href="#m8273fc3cea" y="174.994169"/>
     <use style="fill:#800080;fill-opacity:0.6;stroke:#800080;stroke-opacity:0.6;" x="218.911833" xlink:href="#m8273fc3cea" y="267.449575"/>
     <use style="fill:#800080;fill-opacity:0.6;stroke:#800080;stroke-opacity:0.6;" x="142.826548" xlink:href="#m8273fc3cea" y="147.178031"/>
     <use style="fill:#800080;fill-opacity:0.6;stroke:#800080;stroke-opacity:0.6;" x="199.474009" xlink:href="#m8273fc3cea" y="233.258809"/>
     <use style="fill:#800080;fill-opacity:0.6;stroke:#800080;stroke-opacity:0.6;" x="187.332735" xlink:href="#m8273fc3cea" y="214.556886"/>
     <use style="fill:#800080;fill-opacity:0.6;stroke:#800080;stroke-opacity:0.6;" x="206.977549" xlink:href="#m8273fc3cea" y="237.664384"/>
     <use style="fill:#800080;fill-opacity:0.6;stroke:#800080;stroke-opacity:0.6;" x="142.826548" xlink:href="#m8273fc3cea" y="147.178031"/>
     <use style="fill:#800080;fill-opacity:0.6;stroke:#800080;stroke-opacity:0.6;" x="189.710035" xlink:href="#m8273fc3cea" y="218.389038"/>
     <use style="fill:#800080;fill-opacity:0.6;stroke:#800080;stroke-opacity:0.6;" x="187.332735" xlink:href="#m8273fc3cea" y="214.556886"/>
     <use style="fill:#800080;fill-opacity:0.6;stroke:#800080;stroke-opacity:0.6;" x="232.143097" xlink:href="#m8273fc3cea" y="291.842684"/>
     <use style="fill:#800080;fill-opacity:0.6;stroke:#800080;stroke-opacity:0.6;" x="161.655751" xlink:href="#m8273fc3cea" y="166.745132"/>
     <use style="fill:#800080;fill-opacity:0.6;stroke:#800080;stroke-opacity:0.6;" x="187.332735" xlink:href="#m8273fc3cea" y="214.556886"/>
     <use style="fill:#800080;fill-opacity:0.6;stroke:#800080;stroke-opacity:0.6;" x="151.469817" xlink:href="#m8273fc3cea" y="155.201994"/>
     <use style="fill:#800080;fill-opacity:0.6;stroke:#800080;stroke-opacity:0.6;" x="153.863942" xlink:href="#m8273fc3cea" y="158.153928"/>
     <use style="fill:#800080;fill-opacity:0.6;stroke:#800080;stroke-opacity:0.6;" x="195.330178" xlink:href="#m8273fc3cea" y="225.91472"/>
     <use style="fill:#800080;fill-opacity:0.6;stroke:#800080;stroke-opacity:0.6;" x="227.456038" xlink:href="#m8273fc3cea" y="279.940423"/>
    </g>
   </g>
   <g id="PathCollection_3">
    <defs>
     <path d="M 0 3 
C 0.795609 3 1.55874 2.683901 2.12132 2.12132 
C 2.683901 1.55874 3 0.795609 3 0 
C 3 -0.795609 2.683901 -1.55874 2.12132 -2.12132 
C 1.55874 -2.683901 0.795609 -3 0 -3 
C -0.795609 -3 -1.55874 -2.683901 -2.12132 -2.12132 
C -2.683901 -1.55874 -3 -0.795609 -3 0 
C -3 0.795609 -2.683901 1.55874 -2.12132 2.12132 
C -1.55874 2.683901 -0.795609 3 0 3 
z
" id="m9b5cbef602" style="stroke:#ff4500;stroke-opacity:0.6;"/>
    </defs>
    <g clip-path="url(#p233f3a51fe)">
     <use style="fill:#ff4500;fill-opacity:0.6;stroke:#ff4500;stroke-opacity:0.6;" x="224.173554" xlink:href="#m9b5cbef602" y="117.262944"/>
     <use style="fill:#ff4500;fill-opacity:0.6;stroke:#ff4500;stroke-opacity:0.6;" x="284.868169" xlink:href="#m9b5cbef602" y="155.298574"/>
     <use style="fill:#ff4500;fill-opacity:0.6;stroke:#ff4500;stroke-opacity:0.6;" x="236.835737" xlink:href="#m9b5cbef602" y="184.395057"/>
     <use style="fill:#ff4500;fill-opacity:0.6;stroke:#ff4500;stroke-opacity:0.6;" x="313.054705" xlink:href="#m9b5cbef602" y="232.076579"/>
     <use style="fill:#ff4500;fill-opacity:0.6;stroke:#ff4500;stroke-opacity:0.6;" x="398.487273" xlink:href="#m9b5cbef602" y="255.898967"/>
     <use style="fill:#ff4500;fill-opacity:0.6;stroke:#ff4500;stroke-opacity:0.6;" x="284.90196" xlink:href="#m9b5cbef602" y="183.206456"/>
     <use style="fill:#ff4500;fill-opacity:0.6;stroke:#ff4500;stroke-opacity:0.6;" x="260.43206" xlink:href="#m9b5cbef602" y="100.220049"/>
     <use style="fill:#ff4500;fill-opacity:0.6;stroke:#ff4500;stroke-opacity:0.6;" x="386.995625" xlink:href="#m9b5cbef602" y="258.138273"/>
     <use style="fill:#ff4500;fill-opacity:0.6;stroke:#ff4500;stroke-opacity:0.6;" x="296.980177" xlink:href="#m9b5cbef602" y="226.824776"/>
     <use style="fill:#ff4500;fill-opacity:0.6;stroke:#ff4500;stroke-opacity:0.6;" x="331.583168" xlink:href="#m9b5cbef602" y="224.502156"/>
     <use style="fill:#ff4500;fill-opacity:0.6;stroke:#ff4500;stroke-opacity:0.6;" x="263.188668" xlink:href="#m9b5cbef602" y="84.576806"/>
     <use style="fill:#ff4500;fill-opacity:0.6;stroke:#ff4500;stroke-opacity:0.6;" x="204.843887" xlink:href="#m9b5cbef602" y="149.574028"/>
     <use style="fill:#ff4500;fill-opacity:0.6;stroke:#ff4500;stroke-opacity:0.6;" x="274.07232" xlink:href="#m9b5cbef602" y="264.936712"/>
     <use style="fill:#ff4500;fill-opacity:0.6;stroke:#ff4500;stroke-opacity:0.6;" x="227.072545" xlink:href="#m9b5cbef602" y="195.481108"/>
     <use style="fill:#ff4500;fill-opacity:0.6;stroke:#ff4500;stroke-opacity:0.6;" x="266.462584" xlink:href="#m9b5cbef602" y="164.388154"/>
     <use style="fill:#ff4500;fill-opacity:0.6;stroke:#ff4500;stroke-opacity:0.6;" x="242.319868" xlink:href="#m9b5cbef602" y="106.174328"/>
     <use style="fill:#ff4500;fill-opacity:0.6;stroke:#ff4500;stroke-opacity:0.6;" x="235.378414" xlink:href="#m9b5cbef602" y="198.311689"/>
     <use style="fill:#ff4500;fill-opacity:0.6;stroke:#ff4500;stroke-opacity:0.6;" x="335.32657" xlink:href="#m9b5cbef602" y="223.30104"/>
     <use style="fill:#ff4500;fill-opacity:0.6;stroke:#ff4500;stroke-opacity:0.6;" x="321.626703" xlink:href="#m9b5cbef602" y="255.146704"/>
     <use style="fill:#ff4500;fill-opacity:0.6;stroke:#ff4500;stroke-opacity:0.6;" x="302.267654" xlink:href="#m9b5cbef602" y="53.568"/>
     <use style="fill:#ff4500;fill-opacity:0.6;stroke:#ff4500;stroke-opacity:0.6;" x="378.092423" xlink:href="#m9b5cbef602" y="247.139571"/>
     <use style="fill:#ff4500;fill-opacity:0.6;stroke:#ff4500;stroke-opacity:0.6;" x="384.237169" xlink:href="#m9b5cbef602" y="213.249851"/>
     <use style="fill:#ff4500;fill-opacity:0.6;stroke:#ff4500;stroke-opacity:0.6;" x="266.322981" xlink:href="#m9b5cbef602" y="172.377942"/>
     <use style="fill:#ff4500;fill-opacity:0.6;stroke:#ff4500;stroke-opacity:0.6;" x="216.267505" xlink:href="#m9b5cbef602" y="203.409963"/>
     <use style="fill:#ff4500;fill-opacity:0.6;stroke:#ff4500;stroke-opacity:0.6;" x="280.92788" xlink:href="#m9b5cbef602" y="69.295097"/>
     <use style="fill:#ff4500;fill-opacity:0.6;stroke:#ff4500;stroke-opacity:0.6;" x="193.54077" xlink:href="#m9b5cbef602" y="154.674102"/>
     <use style="fill:#ff4500;fill-opacity:0.6;stroke:#ff4500;stroke-opacity:0.6;" x="395.705349" xlink:href="#m9b5cbef602" y="248.497212"/>
     <use style="fill:#ff4500;fill-opacity:0.6;stroke:#ff4500;stroke-opacity:0.6;" x="320.012828" xlink:href="#m9b5cbef602" y="211.342506"/>
     <use style="fill:#ff4500;fill-opacity:0.6;stroke:#ff4500;stroke-opacity:0.6;" x="193.59634" xlink:href="#m9b5cbef602" y="153.259677"/>
     <use style="fill:#ff4500;fill-opacity:0.6;stroke:#ff4500;stroke-opacity:0.6;" x="227.702991" xlink:href="#m9b5cbef602" y="193.840432"/>
     <use style="fill:#ff4500;fill-opacity:0.6;stroke:#ff4500;stroke-opacity:0.6;" x="396.433472" xlink:href="#m9b5cbef602" y="237.673335"/>
     <use style="fill:#ff4500;fill-opacity:0.6;stroke:#ff4500;stroke-opacity:0.6;" x="384.109794" xlink:href="#m9b5cbef602" y="237.387327"/>
     <use style="fill:#ff4500;fill-opacity:0.6;stroke:#ff4500;stroke-opacity:0.6;" x="300.29255" xlink:href="#m9b5cbef602" y="236.424323"/>
     <use style="fill:#ff4500;fill-opacity:0.6;stroke:#ff4500;stroke-opacity:0.6;" x="247.367607" xlink:href="#m9b5cbef602" y="183.743971"/>
     <use style="fill:#ff4500;fill-opacity:0.6;stroke:#ff4500;stroke-opacity:0.6;" x="242.451774" xlink:href="#m9b5cbef602" y="113.222766"/>
     <use style="fill:#ff4500;fill-opacity:0.6;stroke:#ff4500;stroke-opacity:0.6;" x="214.322698" xlink:href="#m9b5cbef602" y="136.113743"/>
     <use style="fill:#ff4500;fill-opacity:0.6;stroke:#ff4500;stroke-opacity:0.6;" x="205.029964" xlink:href="#m9b5cbef602" y="146.228152"/>
     <use style="fill:#ff4500;fill-opacity:0.6;stroke:#ff4500;stroke-opacity:0.6;" x="205.228834" xlink:href="#m9b5cbef602" y="213.070464"/>
     <use style="fill:#ff4500;fill-opacity:0.6;stroke:#ff4500;stroke-opacity:0.6;" x="288.496437" xlink:href="#m9b5cbef602" y="146.554279"/>
     <use style="fill:#ff4500;fill-opacity:0.6;stroke:#ff4500;stroke-opacity:0.6;" x="213.719553" xlink:href="#m9b5cbef602" y="133.399731"/>
    </g>
   </g>
   <g id="matplotlib.axis_1">
    <g id="xtick_1">
     <g id="line2d_1">
      <defs>
       <path d="M 0 0 
L 0 3.5 
" id="m2f5d0a1d01" style="stroke:#000000;stroke-width:0.8;"/>
      </defs>
      <g>
       <use style="stroke:#000000;stroke-width:0.8;" x="72.935574" xlink:href="#m2f5d0a1d01" y="307.584"/>
      </g>
     </g>
     <g id="text_1">
      <!-- −17.5 -->
      <defs>
       <path d="M 10.59375 35.5 
L 73.1875 35.5 
L 73.1875 27.203125 
L 10.59375 27.203125 
z
" id="DejaVuSans-8722"/>
       <path d="M 12.40625 8.296875 
L 28.515625 8.296875 
L 28.515625 63.921875 
L 10.984375 60.40625 
L 10.984375 69.390625 
L 28.421875 72.90625 
L 38.28125 72.90625 
L 38.28125 8.296875 
L 54.390625 8.296875 
L 54.390625 0 
L 12.40625 0 
z
" id="DejaVuSans-49"/>
       <path d="M 8.203125 72.90625 
L 55.078125 72.90625 
L 55.078125 68.703125 
L 28.609375 0 
L 18.3125 0 
L 43.21875 64.59375 
L 8.203125 64.59375 
z
" id="DejaVuSans-55"/>
       <path d="M 10.6875 12.40625 
L 21 12.40625 
L 21 0 
L 10.6875 0 
z
" id="DejaVuSans-46"/>
       <path d="M 10.796875 72.90625 
L 49.515625 72.90625 
L 49.515625 64.59375 
L 19.828125 64.59375 
L 19.828125 46.734375 
Q 21.96875 47.46875 24.109375 47.828125 
Q 26.265625 48.1875 28.421875 48.1875 
Q 40.625 48.1875 47.75 41.5 
Q 54.890625 34.8125 54.890625 23.390625 
Q 54.890625 11.625 47.5625 5.09375 
Q 40.234375 -1.421875 26.90625 -1.421875 
Q 22.3125 -1.421875 17.546875 -0.640625 
Q 12.796875 0.140625 7.71875 1.703125 
L 7.71875 11.625 
Q 12.109375 9.234375 16.796875 8.0625 
Q 21.484375 6.890625 26.703125 6.890625 
Q 35.15625 6.890625 40.078125 11.328125 
Q 45.015625 15.765625 45.015625 23.390625 
Q 45.015625 31 40.078125 35.4375 
Q 35.15625 39.890625 26.703125 39.890625 
Q 22.75 39.890625 18.8125 39.015625 
Q 14.890625 38.140625 10.796875 36.28125 
z
" id="DejaVuSans-53"/>
      </defs>
      <g transform="translate(57.612918 322.182437)scale(0.1 -0.1)">
       <use xlink:href="#DejaVuSans-8722"/>
       <use x="83.789062" xlink:href="#DejaVuSans-49"/>
       <use x="147.412109" xlink:href="#DejaVuSans-55"/>
       <use x="211.035156" xlink:href="#DejaVuSans-46"/>
       <use x="242.822266" xlink:href="#DejaVuSans-53"/>
      </g>
     </g>
    </g>
    <g id="xtick_2">
     <g id="line2d_2">
      <g>
       <use style="stroke:#000000;stroke-width:0.8;" x="121.357613" xlink:href="#m2f5d0a1d01" y="307.584"/>
      </g>
     </g>
     <g id="text_2">
      <!-- −15.0 -->
      <defs>
       <path d="M 31.78125 66.40625 
Q 24.171875 66.40625 20.328125 58.90625 
Q 16.5 51.421875 16.5 36.375 
Q 16.5 21.390625 20.328125 13.890625 
Q 24.171875 6.390625 31.78125 6.390625 
Q 39.453125 6.390625 43.28125 13.890625 
Q 47.125 21.390625 47.125 36.375 
Q 47.125 51.421875 43.28125 58.90625 
Q 39.453125 66.40625 31.78125 66.40625 
z
M 31.78125 74.21875 
Q 44.046875 74.21875 50.515625 64.515625 
Q 56.984375 54.828125 56.984375 36.375 
Q 56.984375 17.96875 50.515625 8.265625 
Q 44.046875 -1.421875 31.78125 -1.421875 
Q 19.53125 -1.421875 13.0625 8.265625 
Q 6.59375 17.96875 6.59375 36.375 
Q 6.59375 54.828125 13.0625 64.515625 
Q 19.53125 74.21875 31.78125 74.21875 
z
" id="DejaVuSans-48"/>
      </defs>
      <g transform="translate(106.034957 322.182437)scale(0.1 -0.1)">
       <use xlink:href="#DejaVuSans-8722"/>
       <use x="83.789062" xlink:href="#DejaVuSans-49"/>
       <use x="147.412109" xlink:href="#DejaVuSans-53"/>
       <use x="211.035156" xlink:href="#DejaVuSans-46"/>
       <use x="242.822266" xlink:href="#DejaVuSans-48"/>
      </g>
     </g>
    </g>
    <g id="xtick_3">
     <g id="line2d_3">
      <g>
       <use style="stroke:#000000;stroke-width:0.8;" x="169.779652" xlink:href="#m2f5d0a1d01" y="307.584"/>
      </g>
     </g>
     <g id="text_3">
      <!-- −12.5 -->
      <defs>
       <path d="M 19.1875 8.296875 
L 53.609375 8.296875 
L 53.609375 0 
L 7.328125 0 
L 7.328125 8.296875 
Q 12.9375 14.109375 22.625 23.890625 
Q 32.328125 33.6875 34.8125 36.53125 
Q 39.546875 41.84375 41.421875 45.53125 
Q 43.3125 49.21875 43.3125 52.78125 
Q 43.3125 58.59375 39.234375 62.25 
Q 35.15625 65.921875 28.609375 65.921875 
Q 23.96875 65.921875 18.8125 64.3125 
Q 13.671875 62.703125 7.8125 59.421875 
L 7.8125 69.390625 
Q 13.765625 71.78125 18.9375 73 
Q 24.125 74.21875 28.421875 74.21875 
Q 39.75 74.21875 46.484375 68.546875 
Q 53.21875 62.890625 53.21875 53.421875 
Q 53.21875 48.921875 51.53125 44.890625 
Q 49.859375 40.875 45.40625 35.40625 
Q 44.1875 33.984375 37.640625 27.21875 
Q 31.109375 20.453125 19.1875 8.296875 
z
" id="DejaVuSans-50"/>
      </defs>
      <g transform="translate(154.456996 322.182437)scale(0.1 -0.1)">
       <use xlink:href="#DejaVuSans-8722"/>
       <use x="83.789062" xlink:href="#DejaVuSans-49"/>
       <use x="147.412109" xlink:href="#DejaVuSans-50"/>
       <use x="211.035156" xlink:href="#DejaVuSans-46"/>
       <use x="242.822266" xlink:href="#DejaVuSans-53"/>
      </g>
     </g>
    </g>
    <g id="xtick_4">
     <g id="line2d_4">
      <g>
       <use style="stroke:#000000;stroke-width:0.8;" x="218.201691" xlink:href="#m2f5d0a1d01" y="307.584"/>
      </g>
     </g>
     <g id="text_4">
      <!-- −10.0 -->
      <g transform="translate(202.879035 322.182437)scale(0.1 -0.1)">
       <use xlink:href="#DejaVuSans-8722"/>
       <use x="83.789062" xlink:href="#DejaVuSans-49"/>
       <use x="147.412109" xlink:href="#DejaVuSans-48"/>
       <use x="211.035156" xlink:href="#DejaVuSans-46"/>
       <use x="242.822266" xlink:href="#DejaVuSans-48"/>
      </g>
     </g>
    </g>
    <g id="xtick_5">
     <g id="line2d_5">
      <g>
       <use style="stroke:#000000;stroke-width:0.8;" x="266.623731" xlink:href="#m2f5d0a1d01" y="307.584"/>
      </g>
     </g>
     <g id="text_5">
      <!-- −7.5 -->
      <g transform="translate(254.482324 322.182437)scale(0.1 -0.1)">
       <use xlink:href="#DejaVuSans-8722"/>
       <use x="83.789062" xlink:href="#DejaVuSans-55"/>
       <use x="147.412109" xlink:href="#DejaVuSans-46"/>
       <use x="179.199219" xlink:href="#DejaVuSans-53"/>
      </g>
     </g>
    </g>
    <g id="xtick_6">
     <g id="line2d_6">
      <g>
       <use style="stroke:#000000;stroke-width:0.8;" x="315.04577" xlink:href="#m2f5d0a1d01" y="307.584"/>
      </g>
     </g>
     <g id="text_6">
      <!-- −5.0 -->
      <g transform="translate(302.904364 322.182437)scale(0.1 -0.1)">
       <use xlink:href="#DejaVuSans-8722"/>
       <use x="83.789062" xlink:href="#DejaVuSans-53"/>
       <use x="147.412109" xlink:href="#DejaVuSans-46"/>
       <use x="179.199219" xlink:href="#DejaVuSans-48"/>
      </g>
     </g>
    </g>
    <g id="xtick_7">
     <g id="line2d_7">
      <g>
       <use style="stroke:#000000;stroke-width:0.8;" x="363.467809" xlink:href="#m2f5d0a1d01" y="307.584"/>
      </g>
     </g>
     <g id="text_7">
      <!-- −2.5 -->
      <g transform="translate(351.326403 322.182437)scale(0.1 -0.1)">
       <use xlink:href="#DejaVuSans-8722"/>
       <use x="83.789062" xlink:href="#DejaVuSans-50"/>
       <use x="147.412109" xlink:href="#DejaVuSans-46"/>
       <use x="179.199219" xlink:href="#DejaVuSans-53"/>
      </g>
     </g>
    </g>
    <g id="xtick_8">
     <g id="line2d_8">
      <g>
       <use style="stroke:#000000;stroke-width:0.8;" x="411.889848" xlink:href="#m2f5d0a1d01" y="307.584"/>
      </g>
     </g>
     <g id="text_8">
      <!-- 0.0 -->
      <g transform="translate(403.938286 322.182437)scale(0.1 -0.1)">
       <use xlink:href="#DejaVuSans-48"/>
       <use x="63.623047" xlink:href="#DejaVuSans-46"/>
       <use x="95.410156" xlink:href="#DejaVuSans-48"/>
      </g>
     </g>
    </g>
    <g id="text_9">
     <!-- Cycle Lenthg (MWd/kgU) -->
     <defs>
      <path d="M 37.796875 -0.984375 
Q 21.875 -0.984375 12.984375 7.6875 
Q 4.109375 16.359375 4.109375 31.984375 
Q 4.109375 48.875 12.640625 57.546875 
Q 21.1875 66.21875 37.984375 66.21875 
Q 48.1875 66.21875 59.90625 63.71875 
L 60.203125 49.421875 
L 56.984375 49.421875 
L 55.515625 57.90625 
Q 52.09375 60.015625 47.578125 61.15625 
Q 43.0625 62.3125 38.375 62.3125 
Q 25.828125 62.3125 20.0625 54.9375 
Q 14.3125 47.5625 14.3125 32.078125 
Q 14.3125 17.828125 20.34375 10.296875 
Q 26.375 2.78125 37.890625 2.78125 
Q 43.453125 2.78125 48.390625 4.125 
Q 53.328125 5.46875 56.203125 7.71875 
L 58.015625 17.484375 
L 61.1875 17.484375 
L 60.890625 2.09375 
Q 50.140625 -0.984375 37.796875 -0.984375 
z
" id="LiberationSerif-67"/>
      <path d="M 9.71875 -21.578125 
Q 5.90625 -21.578125 2.203125 -20.703125 
L 2.203125 -10.796875 
L 4.5 -10.796875 
L 6.109375 -15.484375 
Q 7.625 -16.609375 10.296875 -16.609375 
Q 12.84375 -16.609375 14.984375 -15.140625 
Q 17.140625 -13.671875 18.921875 -10.78125 
Q 20.703125 -7.90625 23.390625 -0.484375 
L 5.90625 42.484375 
L 1.21875 43.703125 
L 1.21875 45.90625 
L 22.515625 45.90625 
L 22.515625 43.703125 
L 15.28125 42.390625 
L 27.6875 10.296875 
L 39.703125 42.484375 
L 32.515625 43.703125 
L 32.515625 45.90625 
L 49.609375 45.90625 
L 49.609375 43.703125 
L 44.828125 42.671875 
L 26.90625 -2.875 
Q 23.734375 -10.9375 21.390625 -14.453125 
Q 19.046875 -17.96875 16.203125 -19.765625 
Q 13.375 -21.578125 9.71875 -21.578125 
z
" id="LiberationSerif-121"/>
      <path d="M 41.3125 2.78125 
Q 38.921875 1.03125 34.71875 0.015625 
Q 30.515625 -0.984375 26.125 -0.984375 
Q 3.8125 -0.984375 3.8125 23.296875 
Q 3.8125 34.765625 9.5 40.9375 
Q 15.1875 47.125 25.78125 47.125 
Q 32.375 47.125 40.1875 45.609375 
L 40.1875 32.8125 
L 37.5 32.8125 
L 35.40625 40.921875 
Q 31.34375 43.21875 25.6875 43.21875 
Q 12.59375 43.21875 12.59375 23.296875 
Q 12.59375 12.9375 16.578125 8.515625 
Q 20.5625 4.109375 28.90625 4.109375 
Q 36.03125 4.109375 41.3125 5.71875 
z
" id="LiberationSerif-99"/>
      <path d="M 17.921875 3.421875 
L 25.78125 2.203125 
L 25.78125 0 
L 2 0 
L 2 2.203125 
L 9.8125 3.421875 
L 9.8125 66.015625 
L 2 67.1875 
L 2 69.390625 
L 17.921875 69.390625 
z
" id="LiberationSerif-108"/>
      <path d="M 12.703125 23.09375 
L 12.703125 22.21875 
Q 12.703125 15.484375 14.1875 11.75 
Q 15.671875 8.015625 18.765625 6.0625 
Q 21.875 4.109375 26.90625 4.109375 
Q 29.546875 4.109375 33.15625 4.546875 
Q 36.765625 4.984375 39.109375 5.515625 
L 39.109375 2.78125 
Q 36.765625 1.265625 32.734375 0.140625 
Q 28.71875 -0.984375 24.515625 -0.984375 
Q 13.8125 -0.984375 8.859375 4.78125 
Q 3.90625 10.546875 3.90625 23.296875 
Q 3.90625 35.296875 8.9375 41.203125 
Q 13.96875 47.125 23.296875 47.125 
Q 40.921875 47.125 40.921875 27.09375 
L 40.921875 23.09375 
z
M 23.296875 43.21875 
Q 18.21875 43.21875 15.5 39.109375 
Q 12.796875 35.015625 12.796875 27 
L 32.421875 27 
Q 32.421875 35.75 30.171875 39.484375 
Q 27.9375 43.21875 23.296875 43.21875 
z
" id="LiberationSerif-101"/>
      <path id="LiberationSerif-32"/>
      <path d="M 30.8125 62.890625 
L 20.703125 61.625 
L 20.703125 4.203125 
L 33.59375 4.203125 
Q 44 4.203125 48.875 5.171875 
L 51.90625 18.796875 
L 55.078125 18.796875 
L 54.203125 0 
L 2.875 0 
L 2.875 2.59375 
L 11.28125 3.90625 
L 11.28125 61.625 
L 2.875 62.890625 
L 2.875 65.484375 
L 30.8125 65.484375 
z
" id="LiberationSerif-76"/>
      <path d="M 15.828125 42.1875 
Q 19.578125 44.34375 23.828125 45.734375 
Q 28.078125 47.125 30.90625 47.125 
Q 36.859375 47.125 39.890625 43.65625 
Q 42.921875 40.1875 42.921875 33.59375 
L 42.921875 3.421875 
L 48.484375 2.203125 
L 48.484375 0 
L 28.71875 0 
L 28.71875 2.203125 
L 34.8125 3.421875 
L 34.8125 32.71875 
Q 34.8125 36.765625 32.828125 39.078125 
Q 30.859375 41.40625 26.703125 41.40625 
Q 22.3125 41.40625 15.921875 39.984375 
L 15.921875 3.421875 
L 22.125 2.203125 
L 22.125 0 
L 2.296875 0 
L 2.296875 2.203125 
L 7.8125 3.421875 
L 7.8125 42.484375 
L 2.296875 43.703125 
L 2.296875 45.90625 
L 15.375 45.90625 
z
" id="LiberationSerif-110"/>
      <path d="M 16.3125 -0.984375 
Q 11.625 -0.984375 9.296875 1.796875 
Q 6.984375 4.59375 6.984375 9.625 
L 6.984375 41.796875 
L 0.984375 41.796875 
L 0.984375 44 
L 7.078125 45.90625 
L 12.015625 56.296875 
L 15.09375 56.296875 
L 15.09375 45.90625 
L 25.59375 45.90625 
L 25.59375 41.796875 
L 15.09375 41.796875 
L 15.09375 10.5 
Q 15.09375 7.328125 16.53125 5.71875 
Q 17.96875 4.109375 20.3125 4.109375 
Q 23.140625 4.109375 27.203125 4.890625 
L 27.203125 1.703125 
Q 25.484375 0.53125 22.265625 -0.21875 
Q 19.046875 -0.984375 16.3125 -0.984375 
z
" id="LiberationSerif-116"/>
      <path d="M 15.921875 49.515625 
Q 15.921875 44.4375 15.578125 42.1875 
Q 19.09375 44.1875 23.5625 45.65625 
Q 28.03125 47.125 31.109375 47.125 
Q 37.0625 47.125 40.078125 43.65625 
Q 43.109375 40.1875 43.109375 33.59375 
L 43.109375 3.421875 
L 48.6875 2.203125 
L 48.6875 0 
L 28.90625 0 
L 28.90625 2.203125 
L 35.015625 3.421875 
L 35.015625 33.015625 
Q 35.015625 41.40625 26.90625 41.40625 
Q 22.3125 41.40625 15.921875 39.984375 
L 15.921875 3.421875 
L 22.125 2.203125 
L 22.125 0 
L 2 0 
L 2 2.203125 
L 7.8125 3.421875 
L 7.8125 66.015625 
L 0.984375 67.1875 
L 0.984375 69.390625 
L 15.921875 69.390625 
z
" id="LiberationSerif-104"/>
      <path d="M 42.484375 31.390625 
Q 42.484375 23.484375 37.75 19.421875 
Q 33.015625 15.375 24.125 15.375 
Q 20.125 15.375 16.703125 16.109375 
L 13.625 9.71875 
Q 13.765625 8.890625 15.515625 8.15625 
Q 17.28125 7.421875 19.921875 7.421875 
L 33.5 7.421875 
Q 40.921875 7.421875 44.5 4.203125 
Q 48.09375 0.984375 48.09375 -4.6875 
Q 48.09375 -9.8125 45.234375 -13.625 
Q 42.390625 -17.4375 36.859375 -19.5 
Q 31.34375 -21.578125 23.484375 -21.578125 
Q 14.109375 -21.578125 9.203125 -18.703125 
Q 4.296875 -15.828125 4.296875 -10.5 
Q 4.296875 -7.90625 6.046875 -5.390625 
Q 7.8125 -2.875 12.5 0.484375 
Q 9.71875 1.421875 7.8125 3.65625 
Q 5.90625 5.90625 5.90625 8.5 
L 13.625 17.1875 
Q 5.90625 20.796875 5.90625 31.390625 
Q 5.90625 38.921875 10.671875 43.015625 
Q 15.4375 47.125 24.515625 47.125 
Q 26.3125 47.125 29.140625 46.75 
Q 31.984375 46.390625 33.5 45.90625 
L 44.28125 51.3125 
L 46 49.21875 
L 39.203125 42.1875 
Q 42.484375 38.53125 42.484375 31.390625 
z
M 40.484375 -6.203125 
Q 40.484375 -3.421875 38.765625 -1.859375 
Q 37.0625 -0.296875 33.59375 -0.296875 
L 15.828125 -0.296875 
Q 13.765625 -2.046875 12.46875 -4.75 
Q 11.1875 -7.46875 11.1875 -9.8125 
Q 11.1875 -14.015625 14.203125 -15.84375 
Q 17.234375 -17.671875 23.484375 -17.671875 
Q 31.640625 -17.671875 36.0625 -14.640625 
Q 40.484375 -11.625 40.484375 -6.203125 
z
M 24.21875 19.09375 
Q 29.546875 19.09375 31.765625 22.140625 
Q 33.984375 25.203125 33.984375 31.390625 
Q 33.984375 37.890625 31.6875 40.640625 
Q 29.390625 43.40625 24.3125 43.40625 
Q 19.1875 43.40625 16.796875 40.625 
Q 14.40625 37.84375 14.40625 31.390625 
Q 14.40625 24.953125 16.75 22.015625 
Q 19.09375 19.09375 24.21875 19.09375 
z
" id="LiberationSerif-103"/>
      <path d="M 13.8125 24.125 
Q 13.8125 11.421875 15.515625 3.875 
Q 17.234375 -3.65625 20.890625 -8.828125 
Q 24.5625 -14.015625 30.078125 -17.1875 
L 30.078125 -21.296875 
Q 20.40625 -16.15625 14.953125 -10.078125 
Q 9.515625 -4 6.953125 4.21875 
Q 4.390625 12.453125 4.390625 24.125 
Q 4.390625 35.75 6.921875 43.921875 
Q 9.46875 52.09375 14.890625 58.140625 
Q 20.3125 64.203125 30.078125 69.390625 
L 30.078125 65.28125 
Q 24.125 61.859375 20.609375 56.515625 
Q 17.09375 51.171875 15.453125 44.046875 
Q 13.8125 36.921875 13.8125 24.125 
z
" id="LiberationSerif-40"/>
      <path d="M 42.09375 0 
L 40.375 0 
L 16.40625 56.296875 
L 16.40625 3.90625 
L 25.203125 2.59375 
L 25.203125 0 
L 2.875 0 
L 2.875 2.59375 
L 11.28125 3.90625 
L 11.28125 61.625 
L 2.875 62.890625 
L 2.875 65.484375 
L 22.703125 65.484375 
L 44 15.671875 
L 67.234375 65.484375 
L 85.984375 65.484375 
L 85.984375 62.890625 
L 77.59375 61.625 
L 77.59375 3.90625 
L 85.984375 2.59375 
L 85.984375 0 
L 59.421875 0 
L 59.421875 2.59375 
L 68.21875 3.90625 
L 68.21875 56.296875 
z
" id="LiberationSerif-77"/>
      <path d="M 67.09375 -1.515625 
L 64.5 -1.515625 
L 47.515625 43.609375 
L 30.078125 -1.515625 
L 27.484375 -1.515625 
L 5.8125 61.625 
L 0.09375 62.890625 
L 0.09375 65.484375 
L 25.09375 65.484375 
L 25.09375 62.890625 
L 15.484375 61.625 
L 31.0625 15.484375 
L 48.6875 60.890625 
L 50.875 60.890625 
L 67.875 15.484375 
L 82.71875 61.625 
L 72.515625 62.890625 
L 72.515625 65.484375 
L 94.1875 65.484375 
L 94.1875 62.890625 
L 88.484375 61.625 
z
" id="LiberationSerif-87"/>
      <path d="M 35.296875 3.421875 
Q 29.78125 -0.984375 22.40625 -0.984375 
Q 3.609375 -0.984375 3.609375 22.515625 
Q 3.609375 34.578125 8.9375 40.84375 
Q 14.265625 47.125 24.609375 47.125 
Q 29.890625 47.125 35.296875 46 
Q 35.015625 47.609375 35.015625 54.109375 
L 35.015625 66.015625 
L 27.296875 67.1875 
L 27.296875 69.390625 
L 43.109375 69.390625 
L 43.109375 3.421875 
L 48.78125 2.203125 
L 48.78125 0 
L 35.890625 0 
z
M 12.40625 22.515625 
Q 12.40625 13.234375 15.53125 8.671875 
Q 18.65625 4.109375 25.09375 4.109375 
Q 30.609375 4.109375 35.015625 6 
L 35.015625 42.28125 
Q 30.671875 43.109375 25.09375 43.109375 
Q 12.40625 43.109375 12.40625 22.515625 
z
" id="LiberationSerif-100"/>
      <path d="M 4.890625 -0.984375 
L 0 -0.984375 
L 23 65.921875 
L 27.78125 65.921875 
z
" id="LiberationSerif-47"/>
      <path d="M 16.796875 22.125 
L 35.59375 42.390625 
L 30.8125 43.703125 
L 30.8125 45.90625 
L 47.015625 45.90625 
L 47.015625 43.703125 
L 41.3125 42.578125 
L 28.21875 29.203125 
L 45.015625 3.328125 
L 50 2.203125 
L 50 0 
L 31.203125 0 
L 31.203125 2.203125 
L 35.40625 3.421875 
L 22.796875 23.1875 
L 16.796875 16.609375 
L 16.796875 3.421875 
L 21.6875 2.203125 
L 21.6875 0 
L 2.875 0 
L 2.875 2.203125 
L 8.6875 3.421875 
L 8.6875 66.015625 
L 1.90625 67.1875 
L 1.90625 69.390625 
L 16.796875 69.390625 
z
" id="LiberationSerif-107"/>
      <path d="M 56.59375 61.625 
L 47.796875 62.890625 
L 47.796875 65.484375 
L 70.125 65.484375 
L 70.125 62.890625 
L 61.71875 61.625 
L 61.71875 22.515625 
Q 61.71875 10.75 55.25 4.875 
Q 48.78125 -0.984375 36.46875 -0.984375 
Q 23.4375 -0.984375 16.96875 4.90625 
Q 10.5 10.796875 10.5 21.578125 
L 10.5 61.625 
L 2.09375 62.890625 
L 2.09375 65.484375 
L 28.265625 65.484375 
L 28.265625 62.890625 
L 19.875 61.625 
L 19.875 22.3125 
Q 19.875 4.5 37.203125 4.5 
Q 46.578125 4.5 51.578125 8.9375 
Q 56.59375 13.375 56.59375 22.125 
z
" id="LiberationSerif-85"/>
      <path d="M 3.21875 -21.296875 
L 3.21875 -17.1875 
Q 8.734375 -14.015625 12.390625 -8.8125 
Q 16.0625 -3.609375 17.765625 3.921875 
Q 19.484375 11.46875 19.484375 24.125 
Q 19.484375 36.921875 17.84375 44.046875 
Q 16.21875 51.171875 12.703125 56.515625 
Q 9.1875 61.859375 3.21875 65.28125 
L 3.21875 69.390625 
Q 12.984375 64.15625 18.40625 58.125 
Q 23.828125 52.09375 26.359375 43.921875 
Q 28.90625 35.75 28.90625 24.125 
Q 28.90625 12.5 26.359375 4.265625 
Q 23.828125 -3.953125 18.40625 -10 
Q 12.984375 -16.0625 3.21875 -21.296875 
z
" id="LiberationSerif-41"/>
     </defs>
     <g transform="translate(182.838906 335.201188)scale(0.1 -0.1)">
      <use xlink:href="#LiberationSerif-67"/>
      <use x="66.699219" xlink:href="#LiberationSerif-121"/>
      <use x="116.699219" xlink:href="#LiberationSerif-99"/>
      <use x="161.083984" xlink:href="#LiberationSerif-108"/>
      <use x="188.867188" xlink:href="#LiberationSerif-101"/>
      <use x="233.251953" xlink:href="#LiberationSerif-32"/>
      <use x="258.251953" xlink:href="#LiberationSerif-76"/>
      <use x="319.335938" xlink:href="#LiberationSerif-101"/>
      <use x="363.720703" xlink:href="#LiberationSerif-110"/>
      <use x="413.720703" xlink:href="#LiberationSerif-116"/>
      <use x="441.503906" xlink:href="#LiberationSerif-104"/>
      <use x="491.503906" xlink:href="#LiberationSerif-103"/>
      <use x="541.503906" xlink:href="#LiberationSerif-32"/>
      <use x="566.503906" xlink:href="#LiberationSerif-40"/>
      <use x="599.804688" xlink:href="#LiberationSerif-77"/>
      <use x="688.720703" xlink:href="#LiberationSerif-87"/>
      <use x="783.105469" xlink:href="#LiberationSerif-100"/>
      <use x="833.105469" xlink:href="#LiberationSerif-47"/>
      <use x="860.888672" xlink:href="#LiberationSerif-107"/>
      <use x="910.888672" xlink:href="#LiberationSerif-103"/>
      <use x="960.888672" xlink:href="#LiberationSerif-85"/>
      <use x="1033.105469" xlink:href="#LiberationSerif-41"/>
     </g>
    </g>
   </g>
   <g id="matplotlib.axis_2">
    <g id="ytick_1">
     <g id="line2d_9">
      <defs>
       <path d="M 0 0 
L -3.5 0 
" id="mfc4329b1e9" style="stroke:#000000;stroke-width:0.8;"/>
      </defs>
      <g>
       <use style="stroke:#000000;stroke-width:0.8;" x="57.6" xlink:href="#mfc4329b1e9" y="269.569265"/>
      </g>
     </g>
     <g id="text_10">
      <!-- 1.5 -->
      <g transform="translate(34.696875 273.368484)scale(0.1 -0.1)">
       <use xlink:href="#DejaVuSans-49"/>
       <use x="63.623047" xlink:href="#DejaVuSans-46"/>
       <use x="95.410156" xlink:href="#DejaVuSans-53"/>
      </g>
     </g>
    </g>
    <g id="ytick_2">
     <g id="line2d_10">
      <g>
       <use style="stroke:#000000;stroke-width:0.8;" x="57.6" xlink:href="#mfc4329b1e9" y="226.724797"/>
      </g>
     </g>
     <g id="text_11">
      <!-- 2.0 -->
      <g transform="translate(34.696875 230.524016)scale(0.1 -0.1)">
       <use xlink:href="#DejaVuSans-50"/>
       <use x="63.623047" xlink:href="#DejaVuSans-46"/>
       <use x="95.410156" xlink:href="#DejaVuSans-48"/>
      </g>
     </g>
    </g>
    <g id="ytick_3">
     <g id="line2d_11">
      <g>
       <use style="stroke:#000000;stroke-width:0.8;" x="57.6" xlink:href="#mfc4329b1e9" y="183.88033"/>
      </g>
     </g>
     <g id="text_12">
      <!-- 2.5 -->
      <g transform="translate(34.696875 187.679549)scale(0.1 -0.1)">
       <use xlink:href="#DejaVuSans-50"/>
       <use x="63.623047" xlink:href="#DejaVuSans-46"/>
       <use x="95.410156" xlink:href="#DejaVuSans-53"/>
      </g>
     </g>
    </g>
    <g id="ytick_4">
     <g id="line2d_12">
      <g>
       <use style="stroke:#000000;stroke-width:0.8;" x="57.6" xlink:href="#mfc4329b1e9" y="141.035863"/>
      </g>
     </g>
     <g id="text_13">
      <!-- 3.0 -->
      <defs>
       <path d="M 40.578125 39.3125 
Q 47.65625 37.796875 51.625 33 
Q 55.609375 28.21875 55.609375 21.1875 
Q 55.609375 10.40625 48.1875 4.484375 
Q 40.765625 -1.421875 27.09375 -1.421875 
Q 22.515625 -1.421875 17.65625 -0.515625 
Q 12.796875 0.390625 7.625 2.203125 
L 7.625 11.71875 
Q 11.71875 9.328125 16.59375 8.109375 
Q 21.484375 6.890625 26.8125 6.890625 
Q 36.078125 6.890625 40.9375 10.546875 
Q 45.796875 14.203125 45.796875 21.1875 
Q 45.796875 27.640625 41.28125 31.265625 
Q 36.765625 34.90625 28.71875 34.90625 
L 20.21875 34.90625 
L 20.21875 43.015625 
L 29.109375 43.015625 
Q 36.375 43.015625 40.234375 45.921875 
Q 44.09375 48.828125 44.09375 54.296875 
Q 44.09375 59.90625 40.109375 62.90625 
Q 36.140625 65.921875 28.71875 65.921875 
Q 24.65625 65.921875 20.015625 65.03125 
Q 15.375 64.15625 9.8125 62.3125 
L 9.8125 71.09375 
Q 15.4375 72.65625 20.34375 73.4375 
Q 25.25 74.21875 29.59375 74.21875 
Q 40.828125 74.21875 47.359375 69.109375 
Q 53.90625 64.015625 53.90625 55.328125 
Q 53.90625 49.265625 50.4375 45.09375 
Q 46.96875 40.921875 40.578125 39.3125 
z
" id="DejaVuSans-51"/>
      </defs>
      <g transform="translate(34.696875 144.835081)scale(0.1 -0.1)">
       <use xlink:href="#DejaVuSans-51"/>
       <use x="63.623047" xlink:href="#DejaVuSans-46"/>
       <use x="95.410156" xlink:href="#DejaVuSans-48"/>
      </g>
     </g>
    </g>
    <g id="ytick_5">
     <g id="line2d_13">
      <g>
       <use style="stroke:#000000;stroke-width:0.8;" x="57.6" xlink:href="#mfc4329b1e9" y="98.191395"/>
      </g>
     </g>
     <g id="text_14">
      <!-- 3.5 -->
      <g transform="translate(34.696875 101.990614)scale(0.1 -0.1)">
       <use xlink:href="#DejaVuSans-51"/>
       <use x="63.623047" xlink:href="#DejaVuSans-46"/>
       <use x="95.410156" xlink:href="#DejaVuSans-53"/>
      </g>
     </g>
    </g>
    <g id="ytick_6">
     <g id="line2d_14">
      <g>
       <use style="stroke:#000000;stroke-width:0.8;" x="57.6" xlink:href="#mfc4329b1e9" y="55.346928"/>
      </g>
     </g>
     <g id="text_15">
      <!-- 4.0 -->
      <defs>
       <path d="M 37.796875 64.3125 
L 12.890625 25.390625 
L 37.796875 25.390625 
z
M 35.203125 72.90625 
L 47.609375 72.90625 
L 47.609375 25.390625 
L 58.015625 25.390625 
L 58.015625 17.1875 
L 47.609375 17.1875 
L 47.609375 0 
L 37.796875 0 
L 37.796875 17.1875 
L 4.890625 17.1875 
L 4.890625 26.703125 
z
" id="DejaVuSans-52"/>
      </defs>
      <g transform="translate(34.696875 59.146147)scale(0.1 -0.1)">
       <use xlink:href="#DejaVuSans-52"/>
       <use x="63.623047" xlink:href="#DejaVuSans-46"/>
       <use x="95.410156" xlink:href="#DejaVuSans-48"/>
      </g>
     </g>
    </g>
    <g id="text_16">
     <!-- PPF -->
     <defs>
      <path d="M 41.890625 46.09375 
Q 41.890625 54.15625 38.125 57.609375 
Q 34.375 61.078125 25.484375 61.078125 
L 20.703125 61.078125 
L 20.703125 30.078125 
L 25.78125 30.078125 
Q 34.03125 30.078125 37.953125 33.828125 
Q 41.890625 37.59375 41.890625 46.09375 
z
M 20.703125 25.6875 
L 20.703125 3.90625 
L 31.109375 2.59375 
L 31.109375 0 
L 3.515625 0 
L 3.515625 2.59375 
L 11.28125 3.90625 
L 11.28125 61.625 
L 2.875 62.890625 
L 2.875 65.484375 
L 27.59375 65.484375 
Q 51.609375 65.484375 51.609375 46.1875 
Q 51.609375 36.140625 45.53125 30.90625 
Q 39.453125 25.6875 28.078125 25.6875 
z
" id="LiberationSerif-80"/>
      <path d="M 20.703125 29.390625 
L 20.703125 3.90625 
L 31.59375 2.59375 
L 31.59375 0 
L 3.515625 0 
L 3.515625 2.59375 
L 11.28125 3.90625 
L 11.28125 61.625 
L 2.875 62.890625 
L 2.875 65.484375 
L 52 65.484375 
L 52 49.8125 
L 48.78125 49.8125 
L 47.21875 60.40625 
Q 41.75 61.078125 31.390625 61.078125 
L 20.703125 61.078125 
L 20.703125 33.796875 
L 39.984375 33.796875 
L 41.5 41.609375 
L 44.484375 41.609375 
L 44.484375 21.484375 
L 41.5 21.484375 
L 39.984375 29.390625 
z
" id="LiberationSerif-70"/>
     </defs>
     <g transform="translate(28.567187 182.869406)rotate(-90)scale(0.1 -0.1)">
      <use xlink:href="#LiberationSerif-80"/>
      <use x="55.615234" xlink:href="#LiberationSerif-80"/>
      <use x="111.230469" xlink:href="#LiberationSerif-70"/>
     </g>
    </g>
   </g>
   <g id="line2d_15">
    <path clip-path="url(#p233f3a51fe)" d="M 199.950725 273.765293 
L 199.950725 273.765293 
L 199.950725 273.765293 
L 199.950725 273.765293 
L 199.950725 273.765293 
L 199.950725 273.765293 
L 199.950725 273.765293 
L 199.950725 273.765293 
L 199.950725 273.765293 
L 199.950725 273.765293 
L 199.950725 273.765293 
L 199.950725 273.765293 
L 199.950725 273.765293 
L 199.950725 273.765293 
L 199.950725 273.765293 
L 180.425301 273.765293 
L 180.425301 264.481165 
L 180.425301 264.481165 
L 180.425301 264.481165 
L 180.425301 264.481165 
L 180.425301 264.481165 
L 180.425301 264.481165 
L 180.425301 264.481165 
L 180.425301 264.481165 
L 180.425301 264.481165 
L 180.425301 264.481165 
L 180.425301 264.481165 
L 180.425301 264.481165 
L 180.425301 264.481165 
L 180.425301 264.481165 
L 180.425301 264.481165 
L 180.425301 264.481165 
L 180.425301 264.481165 
L 180.425301 264.481165 
L 180.425301 264.481165 
L 180.425301 264.481165 
L 180.425301 264.481165 
L 180.425301 264.481165 
L 180.425301 264.481165 
L 144.75535 264.481165 
L 144.75535 259.629614 
L 144.75535 259.629614 
L 144.75535 259.629614 
L 144.75535 259.629614 
L 144.75535 259.629614 
L 144.75535 259.629614 
L 144.75535 259.629614 
L 144.75535 259.629614 
L 144.75535 259.629614 
L 144.75535 259.629614 
L 144.75535 259.629614 
L 144.75535 259.629614 
L 144.75535 259.629614 
L 144.75535 259.629614 
L 144.75535 259.629614 
L 123.979569 259.629614 
L 123.979569 258.767367 
L 123.979569 258.767367 
L 123.979569 258.767367 
L 79.054947 258.767367 
L 79.054947 256.129131 
L 79.054947 256.129131 
L 79.054947 256.129131 
L 79.054947 256.129131 
L 79.054947 256.129131 
L 79.054947 256.129131 
L 79.054947 256.129131 
L 73.832727 256.129131 
L 73.832727 247.477002 
L 73.832727 247.477002 
L 73.832727 247.477002 
L 73.832727 247.477002 
L 73.832727 247.477002 
L 73.832727 247.477002 
L 73.832727 247.477002 
L 73.832727 247.477002 
L 73.832727 247.477002 
L 73.832727 247.477002 
L 73.832727 247.477002 
" style="fill:none;stroke:#ff0000;stroke-linecap:square;stroke-opacity:0.8;stroke-width:1.5;"/>
   </g>
   <g id="patch_3">
    <path d="M 57.6 307.584 
L 57.6 41.472 
" style="fill:none;stroke:#000000;stroke-linecap:square;stroke-linejoin:miter;stroke-width:0.8;"/>
   </g>
   <g id="patch_4">
    <path d="M 414.72 307.584 
L 414.72 41.472 
" style="fill:none;stroke:#000000;stroke-linecap:square;stroke-linejoin:miter;stroke-width:0.8;"/>
   </g>
   <g id="patch_5">
    <path d="M 57.6 307.584 
L 414.72 307.584 
" style="fill:none;stroke:#000000;stroke-linecap:square;stroke-linejoin:miter;stroke-width:0.8;"/>
   </g>
   <g id="patch_6">
    <path d="M 57.6 41.472 
L 414.72 41.472 
" style="fill:none;stroke:#000000;stroke-linecap:square;stroke-linejoin:miter;stroke-width:0.8;"/>
   </g>
   <g id="patch_7">
    <path d="M 111.503276 73.255257 
Q 150.092293 63.994712 187.594143 54.995064 
" style="fill:none;stroke:#808080;stroke-linecap:round;"/>
    <path d="M 183.237868 53.983694 
L 187.594143 54.995064 
L 184.171282 57.873262 
" style="fill:none;stroke:#808080;stroke-linecap:round;"/>
   </g>
   <g id="patch_8">
    <path d="M 240.621488 294.565438 
Q 317.094954 280.212668 392.469572 266.066132 
" style="fill:none;stroke:#808080;stroke-linecap:round;"/>
    <path d="M 388.169289 264.838302 
L 392.469572 266.066132 
L 388.907138 268.76966 
" style="fill:none;stroke:#808080;stroke-linecap:round;"/>
   </g>
   <g id="text_17">
    <!-- Fission Matrix SMO with NDF evaluated in Serpent -->
    <defs>
     <path d="M 18.5 60.890625 
Q 18.5 58.734375 16.9375 57.171875 
Q 15.375 55.609375 13.1875 55.609375 
Q 11.03125 55.609375 9.46875 57.171875 
Q 7.90625 58.734375 7.90625 60.890625 
Q 7.90625 63.09375 9.46875 64.65625 
Q 11.03125 66.21875 13.1875 66.21875 
Q 15.375 66.21875 16.9375 64.65625 
Q 18.5 63.09375 18.5 60.890625 
z
M 18.015625 3.421875 
L 25.875 2.203125 
L 25.875 0 
L 2.09375 0 
L 2.09375 2.203125 
L 9.90625 3.421875 
L 9.90625 42.484375 
L 3.421875 43.703125 
L 3.421875 45.90625 
L 18.015625 45.90625 
z
" id="LiberationSerif-105"/>
     <path d="M 35.296875 12.890625 
Q 35.296875 6.0625 30.96875 2.53125 
Q 26.65625 -0.984375 18.21875 -0.984375 
Q 14.796875 -0.984375 10.671875 -0.265625 
Q 6.546875 0.4375 4.203125 1.3125 
L 4.203125 12.59375 
L 6.390625 12.59375 
L 8.796875 6.203125 
Q 12.453125 2.875 18.3125 2.875 
Q 27.78125 2.875 27.78125 10.984375 
Q 27.78125 16.9375 20.3125 19.484375 
L 15.96875 20.90625 
Q 11.03125 22.515625 8.78125 24.171875 
Q 6.546875 25.828125 5.328125 28.25 
Q 4.109375 30.671875 4.109375 34.078125 
Q 4.109375 40.140625 8.234375 43.625 
Q 12.359375 47.125 19.390625 47.125 
Q 24.421875 47.125 31.984375 45.609375 
L 31.984375 35.59375 
L 29.6875 35.59375 
L 27.640625 40.921875 
Q 25.046875 43.21875 19.484375 43.21875 
Q 15.53125 43.21875 13.453125 41.265625 
Q 11.375 39.3125 11.375 35.984375 
Q 11.375 33.203125 13.25 31.296875 
Q 15.140625 29.390625 18.953125 28.125 
Q 26.125 25.6875 28.3125 24.5625 
Q 30.515625 23.4375 32.046875 21.796875 
Q 33.59375 20.171875 34.4375 18.0625 
Q 35.296875 15.96875 35.296875 12.890625 
z
" id="LiberationSerif-115"/>
     <path d="M 46.1875 23.1875 
Q 46.1875 -0.984375 24.703125 -0.984375 
Q 14.359375 -0.984375 9.078125 5.21875 
Q 3.8125 11.421875 3.8125 23.1875 
Q 3.8125 34.8125 9.078125 40.96875 
Q 14.359375 47.125 25.09375 47.125 
Q 35.546875 47.125 40.859375 41.09375 
Q 46.1875 35.0625 46.1875 23.1875 
z
M 37.40625 23.1875 
Q 37.40625 33.734375 34.328125 38.46875 
Q 31.25 43.21875 24.703125 43.21875 
Q 18.3125 43.21875 15.453125 38.671875 
Q 12.59375 34.125 12.59375 23.1875 
Q 12.59375 12.109375 15.5 7.484375 
Q 18.40625 2.875 24.703125 2.875 
Q 31.15625 2.875 34.28125 7.65625 
Q 37.40625 12.453125 37.40625 23.1875 
z
" id="LiberationSerif-111"/>
     <path d="M 22.703125 46.921875 
Q 30.21875 46.921875 33.765625 43.84375 
Q 37.3125 40.765625 37.3125 34.421875 
L 37.3125 3.421875 
L 43.015625 2.203125 
L 43.015625 0 
L 30.421875 0 
L 29.5 4.59375 
Q 23.921875 -0.984375 15.28125 -0.984375 
Q 3.515625 -0.984375 3.515625 12.703125 
Q 3.515625 17.28125 5.296875 20.28125 
Q 7.078125 23.296875 10.984375 24.875 
Q 14.890625 26.46875 22.3125 26.609375 
L 29.203125 26.8125 
L 29.203125 33.984375 
Q 29.203125 38.71875 27.46875 40.96875 
Q 25.734375 43.21875 22.125 43.21875 
Q 17.234375 43.21875 13.1875 40.921875 
L 11.53125 35.203125 
L 8.796875 35.203125 
L 8.796875 45.21875 
Q 16.703125 46.921875 22.703125 46.921875 
z
M 29.203125 23.390625 
L 22.796875 23.1875 
Q 16.265625 22.953125 13.9375 20.65625 
Q 11.625 18.359375 11.625 12.984375 
Q 11.625 4.390625 18.609375 4.390625 
Q 21.921875 4.390625 24.34375 5.140625 
Q 26.765625 5.90625 29.203125 7.078125 
z
" id="LiberationSerif-97"/>
     <path d="M 32.421875 47.125 
L 32.421875 34.71875 
L 30.328125 34.71875 
L 27.484375 40.09375 
Q 25.046875 40.09375 21.703125 39.421875 
Q 18.359375 38.765625 15.921875 37.703125 
L 15.921875 3.421875 
L 23.78125 2.203125 
L 23.78125 0 
L 2 0 
L 2 2.203125 
L 7.8125 3.421875 
L 7.8125 42.484375 
L 2 43.703125 
L 2 45.90625 
L 15.375 45.90625 
L 15.828125 40.1875 
Q 18.75 42.625 23.75 44.875 
Q 28.765625 47.125 31.6875 47.125 
z
" id="LiberationSerif-114"/>
     <path d="M 48.78125 2.203125 
L 48.78125 0 
L 27.984375 0 
L 27.984375 2.203125 
L 34.078125 3.328125 
L 23.484375 19.578125 
L 11.078125 3.21875 
L 17.390625 2.203125 
L 17.390625 0 
L 0.875 0 
L 0.875 2.203125 
L 6.203125 2.984375 
L 21.296875 22.90625 
L 8.015625 42.484375 
L 2.59375 43.703125 
L 2.59375 45.90625 
L 23.390625 45.90625 
L 23.390625 43.703125 
L 17.28125 42.390625 
L 26.125 29.203125 
L 36.28125 42.484375 
L 29.984375 43.703125 
L 29.984375 45.90625 
L 46.484375 45.90625 
L 46.484375 43.703125 
L 41.21875 42.671875 
L 28.328125 25.984375 
L 43.40625 3.21875 
z
" id="LiberationSerif-120"/>
     <path d="M 6.78125 17.625 
L 9.96875 17.625 
L 11.671875 8.796875 
Q 13.484375 6.5 17.890625 4.734375 
Q 22.3125 2.984375 26.609375 2.984375 
Q 33.453125 2.984375 37.28125 6.46875 
Q 41.109375 9.96875 41.109375 16.109375 
Q 41.109375 19.625 39.625 21.921875 
Q 38.140625 24.21875 35.71875 25.796875 
Q 33.296875 27.390625 30.21875 28.484375 
Q 27.15625 29.59375 23.90625 30.71875 
Q 20.65625 31.84375 17.578125 33.203125 
Q 14.5 34.578125 12.078125 36.671875 
Q 9.671875 38.765625 8.171875 41.859375 
Q 6.6875 44.96875 6.6875 49.515625 
Q 6.6875 57.328125 12.546875 61.765625 
Q 18.40625 66.21875 28.8125 66.21875 
Q 36.71875 66.21875 46 64.109375 
L 46 50.484375 
L 42.828125 50.484375 
L 41.109375 58.5 
Q 36.140625 62.109375 28.8125 62.109375 
Q 22.265625 62.109375 18.578125 59.4375 
Q 14.890625 56.78125 14.890625 52.09375 
Q 14.890625 48.921875 16.375 46.828125 
Q 17.875 44.734375 20.28125 43.234375 
Q 22.703125 41.75 25.796875 40.671875 
Q 28.90625 39.59375 32.15625 38.453125 
Q 35.40625 37.3125 38.5 35.859375 
Q 41.609375 34.421875 44.015625 32.203125 
Q 46.4375 29.984375 47.921875 26.78125 
Q 49.421875 23.578125 49.421875 18.890625 
Q 49.421875 9.421875 43.609375 4.21875 
Q 37.796875 -0.984375 26.859375 -0.984375 
Q 21.578125 -0.984375 16.25 -0.046875 
Q 10.9375 0.875 6.78125 2.484375 
z
" id="LiberationSerif-83"/>
     <path d="M 14.3125 32.8125 
Q 14.3125 17.046875 19.578125 9.953125 
Q 24.859375 2.875 36.078125 2.875 
Q 47.265625 2.875 52.578125 9.953125 
Q 57.90625 17.046875 57.90625 32.8125 
Q 57.90625 48.484375 52.609375 55.390625 
Q 47.3125 62.3125 36.078125 62.3125 
Q 24.8125 62.3125 19.5625 55.390625 
Q 14.3125 48.484375 14.3125 32.8125 
z
M 4.109375 32.8125 
Q 4.109375 66.21875 36.078125 66.21875 
Q 51.90625 66.21875 60 57.734375 
Q 68.109375 49.265625 68.109375 32.8125 
Q 68.109375 16.109375 59.90625 7.5625 
Q 51.703125 -0.984375 36.078125 -0.984375 
Q 20.515625 -0.984375 12.3125 7.53125 
Q 4.109375 16.0625 4.109375 32.8125 
z
" id="LiberationSerif-79"/>
     <path d="M 51.3125 -0.984375 
L 47.515625 -0.984375 
L 36.1875 29.296875 
L 25 -0.984375 
L 21.390625 -0.984375 
L 5.515625 42.484375 
L 0.09375 43.703125 
L 0.09375 45.90625 
L 21.921875 45.90625 
L 21.921875 43.703125 
L 14.3125 42.390625 
L 25.203125 11.375 
L 36.28125 41.3125 
L 40.375 41.3125 
L 51.421875 11.1875 
L 61.8125 42.484375 
L 54.296875 43.703125 
L 54.296875 45.90625 
L 71.78125 45.90625 
L 71.78125 43.703125 
L 66.703125 42.671875 
z
" id="LiberationSerif-119"/>
     <path d="M 56.390625 61.625 
L 47.609375 62.890625 
L 47.609375 65.484375 
L 69.921875 65.484375 
L 69.921875 62.890625 
L 61.53125 61.625 
L 61.53125 0 
L 56.78125 0 
L 16.40625 58.890625 
L 16.40625 3.90625 
L 25.203125 2.59375 
L 25.203125 0 
L 2.875 0 
L 2.875 2.59375 
L 11.28125 3.90625 
L 11.28125 61.625 
L 2.875 62.890625 
L 2.875 65.484375 
L 22.703125 65.484375 
L 56.390625 17 
z
" id="LiberationSerif-78"/>
     <path d="M 58.015625 33.203125 
Q 58.015625 46.921875 50.609375 54 
Q 43.21875 61.078125 29.5 61.078125 
L 20.703125 61.078125 
L 20.703125 4.59375 
Q 26.5625 4.203125 34.625 4.203125 
Q 46.625 4.203125 52.3125 11.28125 
Q 58.015625 18.359375 58.015625 33.203125 
z
M 32.625 65.484375 
Q 50.734375 65.484375 59.46875 57.390625 
Q 68.21875 49.3125 68.21875 33.109375 
Q 68.21875 16.703125 59.796875 8.25 
Q 51.375 -0.203125 34.625 -0.203125 
L 11.28125 0 
L 2.875 0 
L 2.875 2.59375 
L 11.28125 3.90625 
L 11.28125 61.625 
L 2.875 62.890625 
L 2.875 65.484375 
z
" id="LiberationSerif-68"/>
     <path d="M 27.203125 -0.984375 
L 23.578125 -0.984375 
L 4.6875 42.484375 
L 0 43.703125 
L 0 45.90625 
L 21.390625 45.90625 
L 21.390625 43.703125 
L 14.109375 42.390625 
L 27.484375 10.6875 
L 40.28125 42.484375 
L 33.015625 43.703125 
L 33.015625 45.90625 
L 50 45.90625 
L 50 43.703125 
L 45.609375 42.671875 
z
" id="LiberationSerif-118"/>
     <path d="M 15.28125 13.09375 
Q 15.28125 4.6875 23.09375 4.6875 
Q 29.15625 4.6875 34.421875 6.203125 
L 34.421875 42.484375 
L 27.484375 43.703125 
L 27.484375 45.90625 
L 42.484375 45.90625 
L 42.484375 3.421875 
L 48.296875 2.203125 
L 48.296875 0 
L 34.90625 0 
L 34.515625 3.71875 
Q 31.0625 1.8125 26.515625 0.40625 
Q 21.96875 -0.984375 18.890625 -0.984375 
Q 7.171875 -0.984375 7.171875 12.5 
L 7.171875 42.484375 
L 1.3125 43.703125 
L 1.3125 45.90625 
L 15.28125 45.90625 
z
" id="LiberationSerif-117"/>
     <path d="M 7.421875 42.484375 
L 2.203125 43.703125 
L 2.203125 45.90625 
L 15.09375 45.90625 
L 15.1875 43.21875 
Q 17.234375 44.96875 20.671875 46.046875 
Q 24.125 47.125 27.6875 47.125 
Q 36.46875 47.125 41.28125 41.015625 
Q 46.09375 34.90625 46.09375 23.484375 
Q 46.09375 11.8125 40.84375 5.40625 
Q 35.59375 -0.984375 25.6875 -0.984375 
Q 20.171875 -0.984375 15.1875 0.09375 
Q 15.484375 -3.421875 15.484375 -5.421875 
L 15.484375 -17.828125 
L 23.484375 -19 
L 23.484375 -21.296875 
L 1.609375 -21.296875 
L 1.609375 -19 
L 7.421875 -17.828125 
z
M 37.3125 23.484375 
Q 37.3125 32.859375 34.25 37.421875 
Q 31.203125 42 25 42 
Q 19.28125 42 15.484375 40.375 
L 15.484375 3.71875 
Q 19.828125 2.875 25 2.875 
Q 37.3125 2.875 37.3125 23.484375 
z
" id="LiberationSerif-112"/>
    </defs>
    <g transform="translate(110.331563 35.472)scale(0.12 -0.12)">
     <use xlink:href="#LiberationSerif-70"/>
     <use x="55.615234" xlink:href="#LiberationSerif-105"/>
     <use x="83.398438" xlink:href="#LiberationSerif-115"/>
     <use x="122.314453" xlink:href="#LiberationSerif-115"/>
     <use x="161.230469" xlink:href="#LiberationSerif-105"/>
     <use x="189.013672" xlink:href="#LiberationSerif-111"/>
     <use x="239.013672" xlink:href="#LiberationSerif-110"/>
     <use x="289.013672" xlink:href="#LiberationSerif-32"/>
     <use x="314.013672" xlink:href="#LiberationSerif-77"/>
     <use x="402.929688" xlink:href="#LiberationSerif-97"/>
     <use x="447.314453" xlink:href="#LiberationSerif-116"/>
     <use x="475.097656" xlink:href="#LiberationSerif-114"/>
     <use x="508.398438" xlink:href="#LiberationSerif-105"/>
     <use x="536.181641" xlink:href="#LiberationSerif-120"/>
     <use x="586.181641" xlink:href="#LiberationSerif-32"/>
     <use x="611.181641" xlink:href="#LiberationSerif-83"/>
     <use x="666.796875" xlink:href="#LiberationSerif-77"/>
     <use x="755.712891" xlink:href="#LiberationSerif-79"/>
     <use x="827.929688" xlink:href="#LiberationSerif-32"/>
     <use x="852.929688" xlink:href="#LiberationSerif-119"/>
     <use x="925.146484" xlink:href="#LiberationSerif-105"/>
     <use x="952.929688" xlink:href="#LiberationSerif-116"/>
     <use x="980.712891" xlink:href="#LiberationSerif-104"/>
     <use x="1030.712891" xlink:href="#LiberationSerif-32"/>
     <use x="1055.712891" xlink:href="#LiberationSerif-78"/>
     <use x="1127.929688" xlink:href="#LiberationSerif-68"/>
     <use x="1200.146484" xlink:href="#LiberationSerif-70"/>
     <use x="1255.761719" xlink:href="#LiberationSerif-32"/>
     <use x="1280.761719" xlink:href="#LiberationSerif-101"/>
     <use x="1325.146484" xlink:href="#LiberationSerif-118"/>
     <use x="1375.146484" xlink:href="#LiberationSerif-97"/>
     <use x="1419.53125" xlink:href="#LiberationSerif-108"/>
     <use x="1447.314453" xlink:href="#LiberationSerif-117"/>
     <use x="1497.314453" xlink:href="#LiberationSerif-97"/>
     <use x="1541.699219" xlink:href="#LiberationSerif-116"/>
     <use x="1569.482422" xlink:href="#LiberationSerif-101"/>
     <use x="1613.867188" xlink:href="#LiberationSerif-100"/>
     <use x="1663.867188" xlink:href="#LiberationSerif-32"/>
     <use x="1688.867188" xlink:href="#LiberationSerif-105"/>
     <use x="1716.650391" xlink:href="#LiberationSerif-110"/>
     <use x="1766.650391" xlink:href="#LiberationSerif-32"/>
     <use x="1791.650391" xlink:href="#LiberationSerif-83"/>
     <use x="1847.265625" xlink:href="#LiberationSerif-101"/>
     <use x="1891.650391" xlink:href="#LiberationSerif-114"/>
     <use x="1924.951172" xlink:href="#LiberationSerif-112"/>
     <use x="1974.951172" xlink:href="#LiberationSerif-101"/>
     <use x="2019.335938" xlink:href="#LiberationSerif-110"/>
     <use x="2069.335938" xlink:href="#LiberationSerif-116"/>
    </g>
   </g>
   <g id="legend_1">
    <g id="patch_9">
     <path d="M 64.6 106.031375 
L 253.88125 106.031375 
Q 255.88125 106.031375 255.88125 104.031375 
L 255.88125 48.472 
Q 255.88125 46.472 253.88125 46.472 
L 64.6 46.472 
Q 62.6 46.472 62.6 48.472 
L 62.6 104.031375 
Q 62.6 106.031375 64.6 106.031375 
z
" style="fill:#ffffff;opacity:0.8;stroke:#cccccc;stroke-linejoin:miter;"/>
    </g>
    <g id="line2d_16">
     <path d="M 66.6 54.012625 
L 86.6 54.012625 
" style="fill:none;stroke:#ff0000;stroke-linecap:square;stroke-opacity:0.8;stroke-width:1.5;"/>
    </g>
    <g id="line2d_17"/>
    <g id="text_18">
     <!-- NDF of example DSO (seed=3454322) -->
     <defs>
      <path d="M 10.984375 41.796875 
L 3.078125 41.796875 
L 3.078125 44.1875 
L 10.984375 46.09375 
L 10.984375 49.3125 
Q 10.984375 59.46875 15.015625 64.9375 
Q 19.046875 70.40625 26.3125 70.40625 
Q 30.078125 70.40625 33.296875 69.484375 
L 33.296875 59.46875 
L 30.90625 59.46875 
L 28.71875 65.484375 
Q 27.046875 66.5 24.703125 66.5 
Q 21.625 66.5 20.359375 63.765625 
Q 19.09375 61.03125 19.09375 53.515625 
L 19.09375 45.90625 
L 31.296875 45.90625 
L 31.296875 41.796875 
L 19.09375 41.796875 
L 19.09375 3.8125 
L 29 2.203125 
L 29 0 
L 4.203125 0 
L 4.203125 2.203125 
L 10.984375 3.8125 
z
" id="LiberationSerif-102"/>
      <path d="M 15.921875 42.1875 
Q 19.578125 44.28125 23.671875 45.703125 
Q 27.78125 47.125 30.90625 47.125 
Q 34.28125 47.125 37.125 45.84375 
Q 39.984375 44.578125 41.40625 41.796875 
Q 45.171875 43.890625 50.21875 45.5 
Q 55.28125 47.125 58.59375 47.125 
Q 70.3125 47.125 70.3125 33.59375 
L 70.3125 3.421875 
L 76.21875 2.203125 
L 76.21875 0 
L 55.375 0 
L 55.375 2.203125 
L 62.203125 3.421875 
L 62.203125 32.71875 
Q 62.203125 41.109375 54.390625 41.109375 
Q 53.125 41.109375 51.4375 40.90625 
Q 49.75 40.71875 48.0625 40.46875 
Q 46.390625 40.234375 44.84375 39.90625 
Q 43.3125 39.59375 42.28125 39.40625 
Q 43.109375 36.765625 43.109375 33.59375 
L 43.109375 3.421875 
L 50 2.203125 
L 50 0 
L 28.21875 0 
L 28.21875 2.203125 
L 35.015625 3.421875 
L 35.015625 32.71875 
Q 35.015625 36.765625 32.9375 38.9375 
Q 30.859375 41.109375 26.703125 41.109375 
Q 22.40625 41.109375 16.015625 39.703125 
L 16.015625 3.421875 
L 22.90625 2.203125 
L 22.90625 0 
L 2.09375 0 
L 2.09375 2.203125 
L 7.90625 3.421875 
L 7.90625 42.484375 
L 2.09375 43.703125 
L 2.09375 45.90625 
L 15.53125 45.90625 
z
" id="LiberationSerif-109"/>
      <path d="M 51.515625 25.6875 
L 51.515625 20.703125 
L 4.984375 20.703125 
L 4.984375 25.6875 
z
M 51.515625 45.703125 
L 51.515625 40.71875 
L 4.984375 40.71875 
L 4.984375 45.703125 
z
" id="LiberationSerif-61"/>
      <path d="M 46.09375 17.828125 
Q 46.09375 8.984375 40.03125 4 
Q 33.984375 -0.984375 22.90625 -0.984375 
Q 13.625 -0.984375 5.328125 1.125 
L 4.78125 14.890625 
L 8.015625 14.890625 
L 10.203125 5.71875 
Q 12.109375 4.640625 15.59375 3.859375 
Q 19.09375 3.078125 22.125 3.078125 
Q 29.78125 3.078125 33.4375 6.59375 
Q 37.109375 10.109375 37.109375 18.3125 
Q 37.109375 24.75 33.734375 28.09375 
Q 30.375 31.453125 23.296875 31.78125 
L 16.3125 32.171875 
L 16.3125 36.1875 
L 23.296875 36.625 
Q 28.8125 36.921875 31.4375 40.046875 
Q 34.078125 43.171875 34.078125 49.515625 
Q 34.078125 56.109375 31.21875 59.109375 
Q 28.375 62.109375 22.125 62.109375 
Q 19.53125 62.109375 16.703125 61.390625 
Q 13.875 60.6875 11.71875 59.515625 
L 10.015625 51.515625 
L 6.78125 51.515625 
L 6.78125 64.109375 
Q 11.625 65.375 15.140625 65.796875 
Q 18.65625 66.21875 22.125 66.21875 
Q 43.109375 66.21875 43.109375 50.09375 
Q 43.109375 43.3125 39.375 39.28125 
Q 35.640625 35.25 28.8125 34.28125 
Q 37.703125 33.25 41.890625 29.171875 
Q 46.09375 25.09375 46.09375 17.828125 
z
" id="LiberationSerif-51"/>
      <path d="M 39.546875 14.40625 
L 39.546875 0 
L 31.15625 0 
L 31.15625 14.40625 
L 1.953125 14.40625 
L 1.953125 20.90625 
L 33.9375 65.828125 
L 39.546875 65.828125 
L 39.546875 21.390625 
L 48.4375 21.390625 
L 48.4375 14.40625 
z
M 31.15625 54.34375 
L 30.90625 54.34375 
L 7.46875 21.390625 
L 31.15625 21.390625 
z
" id="LiberationSerif-52"/>
      <path d="M 23.6875 38.28125 
Q 35.015625 38.28125 40.546875 33.640625 
Q 46.09375 29 46.09375 19.484375 
Q 46.09375 9.625 40.078125 4.3125 
Q 34.078125 -0.984375 22.90625 -0.984375 
Q 13.625 -0.984375 6.34375 1.125 
L 5.8125 14.890625 
L 9.03125 14.890625 
L 11.234375 5.71875 
Q 13.375 4.546875 16.375 3.8125 
Q 19.390625 3.078125 22.125 3.078125 
Q 29.828125 3.078125 33.46875 6.71875 
Q 37.109375 10.359375 37.109375 19 
Q 37.109375 25.046875 35.546875 28.140625 
Q 33.984375 31.25 30.5625 32.71875 
Q 27.15625 34.1875 21.390625 34.1875 
Q 16.9375 34.1875 12.703125 33.015625 
L 8.015625 33.015625 
L 8.015625 65.484375 
L 41.21875 65.484375 
L 41.21875 58.015625 
L 12.40625 58.015625 
L 12.40625 37.109375 
Q 17.671875 38.28125 23.6875 38.28125 
z
" id="LiberationSerif-53"/>
      <path d="M 44.484375 0 
L 4.390625 0 
L 4.390625 7.171875 
L 13.484375 15.4375 
Q 22.21875 23.09375 26.3125 27.828125 
Q 30.421875 32.5625 32.203125 37.59375 
Q 33.984375 42.625 33.984375 49.125 
Q 33.984375 55.46875 31.09375 58.78125 
Q 28.21875 62.109375 21.6875 62.109375 
Q 19.09375 62.109375 16.359375 61.390625 
Q 13.625 60.6875 11.53125 59.515625 
L 9.8125 51.515625 
L 6.59375 51.515625 
L 6.59375 64.109375 
Q 15.484375 66.21875 21.6875 66.21875 
Q 32.421875 66.21875 37.8125 61.75 
Q 43.21875 57.28125 43.21875 49.125 
Q 43.21875 43.65625 41.09375 38.796875 
Q 38.96875 33.9375 34.5625 29.125 
Q 30.171875 24.3125 20.015625 15.671875 
Q 15.671875 11.96875 10.796875 7.515625 
L 44.484375 7.515625 
z
" id="LiberationSerif-50"/>
     </defs>
     <g transform="translate(94.6 57.512625)scale(0.1 -0.1)">
      <use xlink:href="#LiberationSerif-78"/>
      <use x="72.216797" xlink:href="#LiberationSerif-68"/>
      <use x="144.433594" xlink:href="#LiberationSerif-70"/>
      <use x="200.048828" xlink:href="#LiberationSerif-32"/>
      <use x="225.048828" xlink:href="#LiberationSerif-111"/>
      <use x="275.048828" xlink:href="#LiberationSerif-102"/>
      <use x="308.349609" xlink:href="#LiberationSerif-32"/>
      <use x="333.349609" xlink:href="#LiberationSerif-101"/>
      <use x="377.734375" xlink:href="#LiberationSerif-120"/>
      <use x="427.734375" xlink:href="#LiberationSerif-97"/>
      <use x="472.119141" xlink:href="#LiberationSerif-109"/>
      <use x="549.902344" xlink:href="#LiberationSerif-112"/>
      <use x="599.902344" xlink:href="#LiberationSerif-108"/>
      <use x="627.685547" xlink:href="#LiberationSerif-101"/>
      <use x="672.070312" xlink:href="#LiberationSerif-32"/>
      <use x="697.070312" xlink:href="#LiberationSerif-68"/>
      <use x="769.287109" xlink:href="#LiberationSerif-83"/>
      <use x="824.902344" xlink:href="#LiberationSerif-79"/>
      <use x="897.119141" xlink:href="#LiberationSerif-32"/>
      <use x="922.119141" xlink:href="#LiberationSerif-40"/>
      <use x="955.419922" xlink:href="#LiberationSerif-115"/>
      <use x="994.335938" xlink:href="#LiberationSerif-101"/>
      <use x="1038.720703" xlink:href="#LiberationSerif-101"/>
      <use x="1083.105469" xlink:href="#LiberationSerif-100"/>
      <use x="1133.105469" xlink:href="#LiberationSerif-61"/>
      <use x="1189.501953" xlink:href="#LiberationSerif-51"/>
      <use x="1239.501953" xlink:href="#LiberationSerif-52"/>
      <use x="1289.501953" xlink:href="#LiberationSerif-53"/>
      <use x="1339.501953" xlink:href="#LiberationSerif-52"/>
      <use x="1389.501953" xlink:href="#LiberationSerif-51"/>
      <use x="1439.501953" xlink:href="#LiberationSerif-50"/>
      <use x="1489.501953" xlink:href="#LiberationSerif-50"/>
      <use x="1539.501953" xlink:href="#LiberationSerif-41"/>
     </g>
    </g>
    <g id="PathCollection_4">
     <g>
      <use style="fill:#008000;fill-opacity:0.6;stroke:#008000;stroke-opacity:0.6;" x="76.6" xlink:href="#m42dde20b7d" y="69.017313"/>
     </g>
    </g>
    <g id="text_19">
     <!-- Initial SMO popultion -->
     <defs>
      <path d="M 21.390625 3.90625 
L 29.78125 2.59375 
L 29.78125 0 
L 3.609375 0 
L 3.609375 2.59375 
L 12.015625 3.90625 
L 12.015625 61.625 
L 3.609375 62.890625 
L 3.609375 65.484375 
L 29.78125 65.484375 
L 29.78125 62.890625 
L 21.390625 61.625 
z
" id="LiberationSerif-73"/>
     </defs>
     <g transform="translate(94.6 71.642313)scale(0.1 -0.1)">
      <use xlink:href="#LiberationSerif-73"/>
      <use x="33.300781" xlink:href="#LiberationSerif-110"/>
      <use x="83.300781" xlink:href="#LiberationSerif-105"/>
      <use x="111.083984" xlink:href="#LiberationSerif-116"/>
      <use x="138.867188" xlink:href="#LiberationSerif-105"/>
      <use x="166.650391" xlink:href="#LiberationSerif-97"/>
      <use x="211.035156" xlink:href="#LiberationSerif-108"/>
      <use x="238.818359" xlink:href="#LiberationSerif-32"/>
      <use x="263.818359" xlink:href="#LiberationSerif-83"/>
      <use x="319.433594" xlink:href="#LiberationSerif-77"/>
      <use x="408.349609" xlink:href="#LiberationSerif-79"/>
      <use x="480.566406" xlink:href="#LiberationSerif-32"/>
      <use x="505.566406" xlink:href="#LiberationSerif-112"/>
      <use x="555.566406" xlink:href="#LiberationSerif-111"/>
      <use x="605.566406" xlink:href="#LiberationSerif-112"/>
      <use x="655.566406" xlink:href="#LiberationSerif-117"/>
      <use x="705.566406" xlink:href="#LiberationSerif-108"/>
      <use x="733.349609" xlink:href="#LiberationSerif-116"/>
      <use x="761.132812" xlink:href="#LiberationSerif-105"/>
      <use x="788.916016" xlink:href="#LiberationSerif-111"/>
      <use x="838.916016" xlink:href="#LiberationSerif-110"/>
     </g>
    </g>
    <g id="PathCollection_5">
     <g>
      <use style="fill:#800080;fill-opacity:0.6;stroke:#800080;stroke-opacity:0.6;" x="76.6" xlink:href="#m8273fc3cea" y="83.147"/>
     </g>
    </g>
    <g id="text_20">
     <!-- Final SMO population -->
     <g transform="translate(94.6 85.772)scale(0.1 -0.1)">
      <use xlink:href="#LiberationSerif-70"/>
      <use x="55.615234" xlink:href="#LiberationSerif-105"/>
      <use x="83.398438" xlink:href="#LiberationSerif-110"/>
      <use x="133.398438" xlink:href="#LiberationSerif-97"/>
      <use x="177.783203" xlink:href="#LiberationSerif-108"/>
      <use x="205.566406" xlink:href="#LiberationSerif-32"/>
      <use x="230.566406" xlink:href="#LiberationSerif-83"/>
      <use x="286.181641" xlink:href="#LiberationSerif-77"/>
      <use x="375.097656" xlink:href="#LiberationSerif-79"/>
      <use x="447.314453" xlink:href="#LiberationSerif-32"/>
      <use x="472.314453" xlink:href="#LiberationSerif-112"/>
      <use x="522.314453" xlink:href="#LiberationSerif-111"/>
      <use x="572.314453" xlink:href="#LiberationSerif-112"/>
      <use x="622.314453" xlink:href="#LiberationSerif-117"/>
      <use x="672.314453" xlink:href="#LiberationSerif-108"/>
      <use x="700.097656" xlink:href="#LiberationSerif-97"/>
      <use x="744.482422" xlink:href="#LiberationSerif-116"/>
      <use x="772.265625" xlink:href="#LiberationSerif-105"/>
      <use x="800.048828" xlink:href="#LiberationSerif-111"/>
      <use x="850.048828" xlink:href="#LiberationSerif-110"/>
     </g>
    </g>
    <g id="PathCollection_6">
     <g>
      <use style="fill:#ff4500;fill-opacity:0.6;stroke:#ff4500;stroke-opacity:0.6;" x="76.6" xlink:href="#m9b5cbef602" y="97.276688"/>
     </g>
    </g>
    <g id="text_21">
     <!-- Final SMO population in Serpent -->
     <g transform="translate(94.6 99.901688)scale(0.1 -0.1)">
      <use xlink:href="#LiberationSerif-70"/>
      <use x="55.615234" xlink:href="#LiberationSerif-105"/>
      <use x="83.398438" xlink:href="#LiberationSerif-110"/>
      <use x="133.398438" xlink:href="#LiberationSerif-97"/>
      <use x="177.783203" xlink:href="#LiberationSerif-108"/>
      <use x="205.566406" xlink:href="#LiberationSerif-32"/>
      <use x="230.566406" xlink:href="#LiberationSerif-83"/>
      <use x="286.181641" xlink:href="#LiberationSerif-77"/>
      <use x="375.097656" xlink:href="#LiberationSerif-79"/>
      <use x="447.314453" xlink:href="#LiberationSerif-32"/>
      <use x="472.314453" xlink:href="#LiberationSerif-112"/>
      <use x="522.314453" xlink:href="#LiberationSerif-111"/>
      <use x="572.314453" xlink:href="#LiberationSerif-112"/>
      <use x="622.314453" xlink:href="#LiberationSerif-117"/>
      <use x="672.314453" xlink:href="#LiberationSerif-108"/>
      <use x="700.097656" xlink:href="#LiberationSerif-97"/>
      <use x="744.482422" xlink:href="#LiberationSerif-116"/>
      <use x="772.265625" xlink:href="#LiberationSerif-105"/>
      <use x="800.048828" xlink:href="#LiberationSerif-111"/>
      <use x="850.048828" xlink:href="#LiberationSerif-110"/>
      <use x="900.048828" xlink:href="#LiberationSerif-32"/>
      <use x="925.048828" xlink:href="#LiberationSerif-105"/>
      <use x="952.832031" xlink:href="#LiberationSerif-110"/>
      <use x="1002.832031" xlink:href="#LiberationSerif-32"/>
      <use x="1027.832031" xlink:href="#LiberationSerif-83"/>
      <use x="1083.447266" xlink:href="#LiberationSerif-101"/>
      <use x="1127.832031" xlink:href="#LiberationSerif-114"/>
      <use x="1161.132812" xlink:href="#LiberationSerif-112"/>
      <use x="1211.132812" xlink:href="#LiberationSerif-101"/>
      <use x="1255.517578" xlink:href="#LiberationSerif-110"/>
      <use x="1305.517578" xlink:href="#LiberationSerif-116"/>
     </g>
    </g>
   </g>
  </g>
 </g>
 <defs>
  <clipPath id="p233f3a51fe">
   <rect height="266.112" width="357.12" x="57.6" y="41.472"/>
  </clipPath>
 </defs>
</svg>
