<?xml version="1.0" encoding="UTF-8" standalone="no"?>
<svg
   xmlns:dc="http://purl.org/dc/elements/1.1/"
   xmlns:cc="http://creativecommons.org/ns#"
   xmlns:rdf="http://www.w3.org/1999/02/22-rdf-syntax-ns#"
   xmlns:svg="http://www.w3.org/2000/svg"
   xmlns="http://www.w3.org/2000/svg"
   xmlns:sodipodi="http://sodipodi.sourceforge.net/DTD/sodipodi-0.dtd"
   xmlns:inkscape="http://www.inkscape.org/namespaces/inkscape"
   version="1.1"
   id="svg2"
   xml:space="preserve"
   width="188.59798mm"
   height="52.206364mm"
   viewBox="0 0 712.81128 197.31539"
   sodipodi:docname="surrogate_core_designs_burnup4.svg"
   inkscape:version="1.0rc1 (09960d6f05, 2020-04-09)"><metadata
     id="metadata8"><rdf:RDF><cc:Work
         rdf:about=""><dc:format>image/svg+xml</dc:format><dc:type
           rdf:resource="http://purl.org/dc/dcmitype/StillImage" /><dc:title /></cc:Work></rdf:RDF></metadata><defs
     id="defs6"><clipPath
       clipPathUnits="userSpaceOnUse"
       id="clipPath18"><path
         d="M 0,0.028 H 595.275 V 841.889 H 0 Z"
         clip-rule="evenodd"
         id="path16"
         inkscape:connector-curvature="0" /></clipPath><clipPath
       clipPathUnits="userSpaceOnUse"
       id="clipPath26"><path
         d="m 56.7,771.089 h 481.85 v 14.099 H 56.7 Z"
         clip-rule="evenodd"
         id="path24"
         inkscape:connector-curvature="0" /></clipPath><clipPath
       clipPathUnits="userSpaceOnUse"
       id="clipPath44"><path
         d="M 56.7,56.789 H 538.55 V 70.888 H 56.7 Z"
         clip-rule="evenodd"
         id="path42"
         inkscape:connector-curvature="0" /></clipPath></defs><sodipodi:namedview
     inkscape:document-rotation="0"
     pagecolor="#ffffff"
     bordercolor="#666666"
     borderopacity="1"
     objecttolerance="10"
     gridtolerance="10"
     guidetolerance="10"
     inkscape:pageopacity="0"
     inkscape:pageshadow="2"
     inkscape:window-width="1920"
     inkscape:window-height="1016"
     id="namedview4"
     showgrid="false"
     units="mm"
     lock-margins="true"
     fit-margin-top="5"
     fit-margin-left="5"
     fit-margin-right="5"
     fit-margin-bottom="5"
     inkscape:zoom="1.0772399"
     inkscape:cx="438.5872"
     inkscape:cy="45.791787"
     inkscape:window-x="0"
     inkscape:window-y="27"
     inkscape:window-maximized="1"
     inkscape:current-layer="layer1" /><g
     id="g10"
     inkscape:groupmode="layer"
     inkscape:label="surrogate_core_designs_burnup4"
     transform="matrix(1.3333333,0,0,-1.3333333,10.928308,1023.4816)"><g
       id="g12"><g
         id="g14"
         clip-path="url(#clipPath18)" /></g><path
       d="m 69.222,741.769 h 12.671 v 11.169 H 69.222 Z"
       style="fill:#355269;fill-opacity:1;fill-rule:evenodd;stroke:#000000;stroke-opacity:1"
       id="path62"
       inkscape:connector-curvature="0" /><path
       d="m 81.865,741.769 h 12.671 v 11.169 H 81.865 Z"
       style="fill:#355269;fill-opacity:1;fill-rule:evenodd;stroke:#000000;stroke-opacity:1"
       id="path64"
       inkscape:connector-curvature="0" /><path
       d="m 94.507,741.769 h 12.671 v 11.169 H 94.507 Z"
       style="fill:#ffff6d;fill-opacity:1;fill-rule:evenodd;stroke:#000000;stroke-opacity:1"
       id="path66"
       inkscape:connector-curvature="0" /><path
       d="m 119.792,741.769 h 12.671 v 11.169 h -12.671 z"
       style="fill:#355269;fill-opacity:1;fill-rule:evenodd;stroke:#000000;stroke-opacity:1"
       id="path68"
       inkscape:connector-curvature="0" /><path
       d="m 132.435,741.769 h 12.671 v 11.169 h -12.671 z"
       style="fill:#355269;fill-opacity:1;fill-rule:evenodd;stroke:#000000;stroke-opacity:1"
       id="path70"
       inkscape:connector-curvature="0" /><path
       d="m 145.077,741.769 h 12.671 v 11.169 h -12.671 z"
       style="fill:#ffff6d;fill-opacity:1;fill-rule:evenodd;stroke:#000000;stroke-opacity:1"
       id="path72"
       inkscape:connector-curvature="0" /><path
       d="m 170.362,741.769 h 12.671 v 11.169 h -12.671 z"
       style="fill:#355269;fill-opacity:1;fill-rule:evenodd;stroke:#000000;stroke-opacity:1"
       id="path74"
       inkscape:connector-curvature="0" /><path
       d="m 183.005,741.769 h 12.671 v 11.169 h -12.671 z"
       style="fill:#355269;fill-opacity:1;fill-rule:evenodd;stroke:#000000;stroke-opacity:1"
       id="path76"
       inkscape:connector-curvature="0" /><path
       d="m 195.647,741.769 h 12.671 v 11.169 h -12.671 z"
       style="fill:#ffff6d;fill-opacity:1;fill-rule:evenodd;stroke:#000000;stroke-opacity:1"
       id="path78"
       inkscape:connector-curvature="0" /><path
       d="m 220.932,741.769 h 12.671 v 11.169 h -12.671 z"
       style="fill:#355269;fill-opacity:1;fill-rule:evenodd;stroke:#000000;stroke-opacity:1"
       id="path80"
       inkscape:connector-curvature="0" /><path
       d="m 233.575,741.769 h 12.671 v 11.169 h -12.671 z"
       style="fill:#45891b;fill-opacity:1;fill-rule:evenodd;stroke:#000000;stroke-opacity:1"
       id="path82"
       inkscape:connector-curvature="0" /><path
       d="m 246.217,741.769 h 12.671 v 11.169 h -12.671 z"
       style="fill:#ffff6d;fill-opacity:1;fill-rule:evenodd;stroke:#000000;stroke-opacity:1"
       id="path84"
       inkscape:connector-curvature="0" /><path
       d="m 271.502,741.769 h 12.671 v 11.169 h -12.671 z"
       style="fill:#355269;fill-opacity:1;fill-rule:evenodd;stroke:#000000;stroke-opacity:1"
       id="path86"
       inkscape:connector-curvature="0" /><path
       d="m 284.145,741.769 h 12.671 v 11.169 h -12.671 z"
       style="fill:#ffff6d;fill-opacity:1;fill-rule:evenodd;stroke:#000000;stroke-opacity:1"
       id="path88"
       inkscape:connector-curvature="0" /><path
       d="m 296.787,741.769 h 12.671 v 11.169 h -12.671 z"
       style="fill:#ffff6d;fill-opacity:1;fill-rule:evenodd;stroke:#000000;stroke-opacity:1"
       id="path90"
       inkscape:connector-curvature="0" /><path
       d="m 322.072,741.769 h 12.671 v 11.169 h -12.671 z"
       style="fill:#45891b;fill-opacity:1;fill-rule:evenodd;stroke:#000000;stroke-opacity:1"
       id="path92"
       inkscape:connector-curvature="0" /><path
       d="m 334.715,741.769 h 12.671 v 11.169 h -12.671 z"
       style="fill:#355269;fill-opacity:1;fill-rule:evenodd;stroke:#000000;stroke-opacity:1"
       id="path94"
       inkscape:connector-curvature="0" /><path
       d="m 347.357,741.769 h 12.671 v 11.169 h -12.671 z"
       style="fill:#ffff6d;fill-opacity:1;fill-rule:evenodd;stroke:#000000;stroke-opacity:1"
       id="path96"
       inkscape:connector-curvature="0" /><path
       d="m 372.643,741.769 h 12.671 v 11.169 h -12.671 z"
       style="fill:#45891b;fill-opacity:1;fill-rule:evenodd;stroke:#000000;stroke-opacity:1"
       id="path98"
       inkscape:connector-curvature="0" /><path
       d="m 385.285,741.769 h 12.671 v 11.169 h -12.671 z"
       style="fill:#355269;fill-opacity:1;fill-rule:evenodd;stroke:#000000;stroke-opacity:1"
       id="path100"
       inkscape:connector-curvature="0" /><path
       d="m 397.928,741.769 h 12.671 v 11.169 h -12.671 z"
       style="fill:#ffff6d;fill-opacity:1;fill-rule:evenodd;stroke:#000000;stroke-opacity:1"
       id="path102"
       inkscape:connector-curvature="0" /><path
       d="m 423.213,741.769 h 12.671 v 11.169 h -12.671 z"
       style="fill:#45891b;fill-opacity:1;fill-rule:evenodd;stroke:#000000;stroke-opacity:1"
       id="path104"
       inkscape:connector-curvature="0" /><path
       d="m 435.855,741.769 h 12.671 v 11.169 h -12.671 z"
       style="fill:#45891b;fill-opacity:1;fill-rule:evenodd;stroke:#000000;stroke-opacity:1"
       id="path106"
       inkscape:connector-curvature="0" /><path
       d="m 448.498,741.769 h 12.671 v 11.169 h -12.671 z"
       style="fill:#ffff6d;fill-opacity:1;fill-rule:evenodd;stroke:#000000;stroke-opacity:1"
       id="path108"
       inkscape:connector-curvature="0" /><path
       d="m 473.783,741.769 h 12.671 v 11.169 h -12.671 z"
       style="fill:#45891b;fill-opacity:1;fill-rule:evenodd;stroke:#000000;stroke-opacity:1"
       id="path110"
       inkscape:connector-curvature="0" /><path
       d="m 486.425,741.769 h 12.671 v 11.169 h -12.671 z"
       style="fill:#ffff6d;fill-opacity:1;fill-rule:evenodd;stroke:#000000;stroke-opacity:1"
       id="path112"
       inkscape:connector-curvature="0" /><path
       d="m 499.068,741.769 h 12.671 v 11.169 h -12.671 z"
       style="fill:#ffff6d;fill-opacity:1;fill-rule:evenodd;stroke:#000000;stroke-opacity:1"
       id="path114"
       inkscape:connector-curvature="0" /><path
       d="m 69.222,730.629 h 12.671 v 11.169 H 69.222 Z"
       style="fill:#355269;fill-opacity:1;fill-rule:evenodd;stroke:#000000;stroke-opacity:1"
       id="path116"
       inkscape:connector-curvature="0" /><path
       d="m 81.865,730.629 h 12.671 v 11.169 H 81.865 Z"
       style="fill:#355269;fill-opacity:1;fill-rule:evenodd;stroke:#000000;stroke-opacity:1"
       id="path118"
       inkscape:connector-curvature="0" /><path
       d="m 94.507,730.629 h 12.671 v 11.169 H 94.507 Z"
       style="fill:#ffff6d;fill-opacity:1;fill-rule:evenodd;stroke:#000000;stroke-opacity:1"
       id="path120"
       inkscape:connector-curvature="0" /><path
       d="m 119.792,730.629 h 12.671 v 11.169 h -12.671 z"
       style="fill:#45891b;fill-opacity:1;fill-rule:evenodd;stroke:#000000;stroke-opacity:1"
       id="path122"
       inkscape:connector-curvature="0" /><path
       d="m 132.435,730.629 h 12.671 v 11.169 h -12.671 z"
       style="fill:#355269;fill-opacity:1;fill-rule:evenodd;stroke:#000000;stroke-opacity:1"
       id="path124"
       inkscape:connector-curvature="0" /><path
       d="m 145.077,730.629 h 12.671 v 11.169 h -12.671 z"
       style="fill:#ffff6d;fill-opacity:1;fill-rule:evenodd;stroke:#000000;stroke-opacity:1"
       id="path126"
       inkscape:connector-curvature="0" /><path
       d="m 170.362,730.629 h 12.671 v 11.169 h -12.671 z"
       style="fill:#ffff6d;fill-opacity:1;fill-rule:evenodd;stroke:#000000;stroke-opacity:1"
       id="path128"
       inkscape:connector-curvature="0" /><path
       d="m 183.005,730.629 h 12.671 v 11.169 h -12.671 z"
       style="fill:#355269;fill-opacity:1;fill-rule:evenodd;stroke:#000000;stroke-opacity:1"
       id="path130"
       inkscape:connector-curvature="0" /><path
       d="m 195.647,730.629 h 12.671 v 11.169 h -12.671 z"
       style="fill:#ffff6d;fill-opacity:1;fill-rule:evenodd;stroke:#000000;stroke-opacity:1"
       id="path132"
       inkscape:connector-curvature="0" /><path
       d="m 220.932,730.629 h 12.671 v 11.169 h -12.671 z"
       style="fill:#ffff6d;fill-opacity:1;fill-rule:evenodd;stroke:#000000;stroke-opacity:1"
       id="path134"
       inkscape:connector-curvature="0" /><path
       d="m 233.575,730.629 h 12.671 v 11.169 h -12.671 z"
       style="fill:#ffff6d;fill-opacity:1;fill-rule:evenodd;stroke:#000000;stroke-opacity:1"
       id="path136"
       inkscape:connector-curvature="0" /><path
       d="m 246.217,730.629 h 12.671 v 11.169 h -12.671 z"
       style="fill:#ffff6d;fill-opacity:1;fill-rule:evenodd;stroke:#000000;stroke-opacity:1"
       id="path138"
       inkscape:connector-curvature="0" /><path
       d="m 271.502,730.629 h 12.671 v 11.169 h -12.671 z"
       style="fill:#ffff6d;fill-opacity:1;fill-rule:evenodd;stroke:#000000;stroke-opacity:1"
       id="path140"
       inkscape:connector-curvature="0" /><path
       d="m 284.145,730.629 h 12.671 v 11.169 h -12.671 z"
       style="fill:#ffff6d;fill-opacity:1;fill-rule:evenodd;stroke:#000000;stroke-opacity:1"
       id="path142"
       inkscape:connector-curvature="0" /><path
       d="m 296.787,730.629 h 12.671 v 11.169 h -12.671 z"
       style="fill:#ffff6d;fill-opacity:1;fill-rule:evenodd;stroke:#000000;stroke-opacity:1"
       id="path144"
       inkscape:connector-curvature="0" /><path
       d="m 322.072,730.629 h 12.671 v 11.169 h -12.671 z"
       style="fill:#45891b;fill-opacity:1;fill-rule:evenodd;stroke:#000000;stroke-opacity:1"
       id="path146"
       inkscape:connector-curvature="0" /><path
       d="m 334.715,730.629 h 12.671 v 11.169 h -12.671 z"
       style="fill:#ffff6d;fill-opacity:1;fill-rule:evenodd;stroke:#000000;stroke-opacity:1"
       id="path148"
       inkscape:connector-curvature="0" /><path
       d="m 347.357,730.629 h 12.671 v 11.169 h -12.671 z"
       style="fill:#ffff6d;fill-opacity:1;fill-rule:evenodd;stroke:#000000;stroke-opacity:1"
       id="path150"
       inkscape:connector-curvature="0" /><path
       d="m 372.643,730.629 h 12.671 v 11.169 h -12.671 z"
       style="fill:#ffff6d;fill-opacity:1;fill-rule:evenodd;stroke:#000000;stroke-opacity:1"
       id="path152"
       inkscape:connector-curvature="0" /><path
       d="m 385.285,730.629 h 12.671 v 11.169 h -12.671 z"
       style="fill:#ffff6d;fill-opacity:1;fill-rule:evenodd;stroke:#000000;stroke-opacity:1"
       id="path154"
       inkscape:connector-curvature="0" /><path
       d="m 397.928,730.629 h 12.671 v 11.169 h -12.671 z"
       style="fill:#ffff6d;fill-opacity:1;fill-rule:evenodd;stroke:#000000;stroke-opacity:1"
       id="path156"
       inkscape:connector-curvature="0" /><path
       d="m 423.213,730.629 h 12.671 v 11.169 h -12.671 z"
       style="fill:#ffff6d;fill-opacity:1;fill-rule:evenodd;stroke:#000000;stroke-opacity:1"
       id="path158"
       inkscape:connector-curvature="0" /><path
       d="m 435.855,730.629 h 12.671 v 11.169 h -12.671 z"
       style="fill:#ffff6d;fill-opacity:1;fill-rule:evenodd;stroke:#000000;stroke-opacity:1"
       id="path160"
       inkscape:connector-curvature="0" /><path
       d="m 448.498,730.629 h 12.671 v 11.169 h -12.671 z"
       style="fill:#ffff6d;fill-opacity:1;fill-rule:evenodd;stroke:#000000;stroke-opacity:1"
       id="path162"
       inkscape:connector-curvature="0" /><path
       d="m 473.783,730.629 h 12.671 v 11.169 h -12.671 z"
       style="fill:#ffff6d;fill-opacity:1;fill-rule:evenodd;stroke:#000000;stroke-opacity:1"
       id="path164"
       inkscape:connector-curvature="0" /><path
       d="m 486.425,730.629 h 12.671 v 11.169 h -12.671 z"
       style="fill:#ffff6d;fill-opacity:1;fill-rule:evenodd;stroke:#000000;stroke-opacity:1"
       id="path166"
       inkscape:connector-curvature="0" /><path
       d="m 499.068,730.629 h 12.671 v 11.169 h -12.671 z"
       style="fill:#ffff6d;fill-opacity:1;fill-rule:evenodd;stroke:#000000;stroke-opacity:1"
       id="path168"
       inkscape:connector-curvature="0" /><path
       d="m 69.222,719.489 h 12.671 v 11.169 H 69.222 Z"
       style="fill:#ffff6d;fill-opacity:1;fill-rule:evenodd;stroke:#000000;stroke-opacity:1"
       id="path170"
       inkscape:connector-curvature="0" /><path
       d="m 81.865,719.489 h 12.671 v 11.169 H 81.865 Z"
       style="fill:#ffff6d;fill-opacity:1;fill-rule:evenodd;stroke:#000000;stroke-opacity:1"
       id="path172"
       inkscape:connector-curvature="0" /><path
       d="m 94.507,719.489 h 12.671 v 11.169 H 94.507 Z"
       style="fill:#ffff6d;fill-opacity:1;fill-rule:evenodd;stroke:#000000;stroke-opacity:1"
       id="path174"
       inkscape:connector-curvature="0" /><path
       d="m 119.792,719.489 h 12.671 v 11.169 h -12.671 z"
       style="fill:#ffff6d;fill-opacity:1;fill-rule:evenodd;stroke:#000000;stroke-opacity:1"
       id="path176"
       inkscape:connector-curvature="0" /><path
       d="m 132.435,719.489 h 12.671 v 11.169 h -12.671 z"
       style="fill:#ffff6d;fill-opacity:1;fill-rule:evenodd;stroke:#000000;stroke-opacity:1"
       id="path178"
       inkscape:connector-curvature="0" /><path
       d="m 145.077,719.489 h 12.671 v 11.169 h -12.671 z"
       style="fill:#ffff6d;fill-opacity:1;fill-rule:evenodd;stroke:#000000;stroke-opacity:1"
       id="path180"
       inkscape:connector-curvature="0" /><path
       d="m 170.362,719.489 h 12.671 v 11.169 h -12.671 z"
       style="fill:#ffff6d;fill-opacity:1;fill-rule:evenodd;stroke:#000000;stroke-opacity:1"
       id="path182"
       inkscape:connector-curvature="0" /><path
       d="m 183.005,719.489 h 12.671 v 11.169 h -12.671 z"
       style="fill:#ffff6d;fill-opacity:1;fill-rule:evenodd;stroke:#000000;stroke-opacity:1"
       id="path184"
       inkscape:connector-curvature="0" /><path
       d="m 195.647,719.489 h 12.671 v 11.169 h -12.671 z"
       style="fill:#ffff6d;fill-opacity:1;fill-rule:evenodd;stroke:#000000;stroke-opacity:1"
       id="path186"
       inkscape:connector-curvature="0" /><path
       d="m 220.932,719.489 h 12.671 v 11.169 h -12.671 z"
       style="fill:#ffff6d;fill-opacity:1;fill-rule:evenodd;stroke:#000000;stroke-opacity:1"
       id="path188"
       inkscape:connector-curvature="0" /><path
       d="m 233.575,719.489 h 12.671 v 11.169 h -12.671 z"
       style="fill:#ffff6d;fill-opacity:1;fill-rule:evenodd;stroke:#000000;stroke-opacity:1"
       id="path190"
       inkscape:connector-curvature="0" /><path
       d="m 246.217,719.489 h 12.671 v 11.169 h -12.671 z"
       style="fill:#ffff6d;fill-opacity:1;fill-rule:evenodd;stroke:#000000;stroke-opacity:1"
       id="path192"
       inkscape:connector-curvature="0" /><path
       d="m 271.502,719.489 h 12.671 v 11.169 h -12.671 z"
       style="fill:#ffff6d;fill-opacity:1;fill-rule:evenodd;stroke:#000000;stroke-opacity:1"
       id="path194"
       inkscape:connector-curvature="0" /><path
       d="m 284.145,719.489 h 12.671 v 11.169 h -12.671 z"
       style="fill:#ffff6d;fill-opacity:1;fill-rule:evenodd;stroke:#000000;stroke-opacity:1"
       id="path196"
       inkscape:connector-curvature="0" /><path
       d="m 296.787,719.489 h 12.671 v 11.169 h -12.671 z"
       style="fill:#ffff6d;fill-opacity:1;fill-rule:evenodd;stroke:#000000;stroke-opacity:1"
       id="path198"
       inkscape:connector-curvature="0" /><path
       d="m 322.072,719.489 h 12.671 v 11.169 h -12.671 z"
       style="fill:#ffff6d;fill-opacity:1;fill-rule:evenodd;stroke:#000000;stroke-opacity:1"
       id="path200"
       inkscape:connector-curvature="0" /><path
       d="m 334.715,719.489 h 12.671 v 11.169 h -12.671 z"
       style="fill:#ffff6d;fill-opacity:1;fill-rule:evenodd;stroke:#000000;stroke-opacity:1"
       id="path202"
       inkscape:connector-curvature="0" /><path
       d="m 347.357,719.489 h 12.671 v 11.169 h -12.671 z"
       style="fill:#ffff6d;fill-opacity:1;fill-rule:evenodd;stroke:#000000;stroke-opacity:1"
       id="path204"
       inkscape:connector-curvature="0" /><path
       d="m 372.643,719.489 h 12.671 v 11.169 h -12.671 z"
       style="fill:#ffff6d;fill-opacity:1;fill-rule:evenodd;stroke:#000000;stroke-opacity:1"
       id="path206"
       inkscape:connector-curvature="0" /><path
       d="m 385.285,719.489 h 12.671 v 11.169 h -12.671 z"
       style="fill:#ffff6d;fill-opacity:1;fill-rule:evenodd;stroke:#000000;stroke-opacity:1"
       id="path208"
       inkscape:connector-curvature="0" /><path
       d="m 397.928,719.489 h 12.671 v 11.169 h -12.671 z"
       style="fill:#ffff6d;fill-opacity:1;fill-rule:evenodd;stroke:#000000;stroke-opacity:1"
       id="path210"
       inkscape:connector-curvature="0" /><path
       d="m 423.213,719.489 h 12.671 v 11.169 h -12.671 z"
       style="fill:#ffff6d;fill-opacity:1;fill-rule:evenodd;stroke:#000000;stroke-opacity:1"
       id="path212"
       inkscape:connector-curvature="0" /><path
       d="m 435.855,719.489 h 12.671 v 11.169 h -12.671 z"
       style="fill:#ffff6d;fill-opacity:1;fill-rule:evenodd;stroke:#000000;stroke-opacity:1"
       id="path214"
       inkscape:connector-curvature="0" /><path
       d="m 448.498,719.489 h 12.671 v 11.169 h -12.671 z"
       style="fill:#ffff6d;fill-opacity:1;fill-rule:evenodd;stroke:#000000;stroke-opacity:1"
       id="path216"
       inkscape:connector-curvature="0" /><path
       d="m 473.783,719.489 h 12.671 v 11.169 h -12.671 z"
       style="fill:#ffff6d;fill-opacity:1;fill-rule:evenodd;stroke:#000000;stroke-opacity:1"
       id="path218"
       inkscape:connector-curvature="0" /><path
       d="m 486.425,719.489 h 12.671 v 11.169 h -12.671 z"
       style="fill:#ffff6d;fill-opacity:1;fill-rule:evenodd;stroke:#000000;stroke-opacity:1"
       id="path220"
       inkscape:connector-curvature="0" /><path
       d="m 499.068,719.489 h 12.671 v 11.169 h -12.671 z"
       style="fill:#ffff6d;fill-opacity:1;fill-rule:evenodd;stroke:#000000;stroke-opacity:1"
       id="path222"
       inkscape:connector-curvature="0" /><path
       d="m 69.222,674.928 h 12.671 v 11.169 H 69.222 Z"
       style="fill:#ffff6d;fill-opacity:1;fill-rule:evenodd;stroke:#000000;stroke-opacity:1"
       id="path224"
       inkscape:connector-curvature="0" /><path
       d="m 81.865,674.928 h 12.671 v 11.169 H 81.865 Z"
       style="fill:#ffff6d;fill-opacity:1;fill-rule:evenodd;stroke:#000000;stroke-opacity:1"
       id="path226"
       inkscape:connector-curvature="0" /><path
       d="m 94.507,674.928 h 12.671 v 11.169 H 94.507 Z"
       style="fill:#ffff6d;fill-opacity:1;fill-rule:evenodd;stroke:#000000;stroke-opacity:1"
       id="path228"
       inkscape:connector-curvature="0" /><path
       d="m 119.792,674.928 h 12.671 v 11.169 h -12.671 z"
       style="fill:#ffff6d;fill-opacity:1;fill-rule:evenodd;stroke:#000000;stroke-opacity:1"
       id="path230"
       inkscape:connector-curvature="0" /><path
       d="m 132.435,674.928 h 12.671 v 11.169 h -12.671 z"
       style="fill:#ffff6d;fill-opacity:1;fill-rule:evenodd;stroke:#000000;stroke-opacity:1"
       id="path232"
       inkscape:connector-curvature="0" /><path
       d="m 145.077,674.928 h 12.671 v 11.169 h -12.671 z"
       style="fill:#ffff6d;fill-opacity:1;fill-rule:evenodd;stroke:#000000;stroke-opacity:1"
       id="path234"
       inkscape:connector-curvature="0" /><path
       d="m 170.362,674.928 h 12.671 v 11.169 h -12.671 z"
       style="fill:#ffff6d;fill-opacity:1;fill-rule:evenodd;stroke:#000000;stroke-opacity:1"
       id="path236"
       inkscape:connector-curvature="0" /><path
       d="m 183.005,674.928 h 12.671 v 11.169 h -12.671 z"
       style="fill:#ffff6d;fill-opacity:1;fill-rule:evenodd;stroke:#000000;stroke-opacity:1"
       id="path238"
       inkscape:connector-curvature="0" /><path
       d="m 195.647,674.928 h 12.671 v 11.169 h -12.671 z"
       style="fill:#ffff6d;fill-opacity:1;fill-rule:evenodd;stroke:#000000;stroke-opacity:1"
       id="path240"
       inkscape:connector-curvature="0" /><path
       d="m 69.222,663.788 h 12.671 v 11.169 H 69.222 Z"
       style="fill:#ffff6d;fill-opacity:1;fill-rule:evenodd;stroke:#000000;stroke-opacity:1"
       id="path248"
       inkscape:connector-curvature="0" /><path
       d="m 81.865,663.788 h 12.671 v 11.169 H 81.865 Z"
       style="fill:#355269;fill-opacity:1;fill-rule:evenodd;stroke:#000000;stroke-opacity:1"
       id="path250"
       inkscape:connector-curvature="0" /><path
       d="m 94.507,663.788 h 12.671 v 11.169 H 94.507 Z"
       style="fill:#355269;fill-opacity:1;fill-rule:evenodd;stroke:#000000;stroke-opacity:1"
       id="path252"
       inkscape:connector-curvature="0" /><path
       d="m 119.792,663.788 h 12.671 v 11.169 h -12.671 z"
       style="fill:#ffff6d;fill-opacity:1;fill-rule:evenodd;stroke:#000000;stroke-opacity:1"
       id="path254"
       inkscape:connector-curvature="0" /><path
       d="m 132.435,663.788 h 12.671 v 11.169 h -12.671 z"
       style="fill:#355269;fill-opacity:1;fill-rule:evenodd;stroke:#000000;stroke-opacity:1"
       id="path256"
       inkscape:connector-curvature="0" /><path
       d="m 145.077,663.788 h 12.671 v 11.169 h -12.671 z"
       style="fill:#355269;fill-opacity:1;fill-rule:evenodd;stroke:#000000;stroke-opacity:1"
       id="path258"
       inkscape:connector-curvature="0" /><path
       d="m 170.362,663.788 h 12.671 v 11.169 h -12.671 z"
       style="fill:#ffff6d;fill-opacity:1;fill-rule:evenodd;stroke:#000000;stroke-opacity:1"
       id="path260"
       inkscape:connector-curvature="0" /><path
       d="m 183.005,663.788 h 12.671 v 11.169 h -12.671 z"
       style="fill:#ffff6d;fill-opacity:1;fill-rule:evenodd;stroke:#000000;stroke-opacity:1"
       id="path262"
       inkscape:connector-curvature="0" /><path
       d="m 195.647,663.788 h 12.671 v 11.169 h -12.671 z"
       style="fill:#355269;fill-opacity:1;fill-rule:evenodd;stroke:#000000;stroke-opacity:1"
       id="path264"
       inkscape:connector-curvature="0" /><path
       d="m 69.222,652.648 h 12.671 v 11.169 H 69.222 Z"
       style="fill:#355269;fill-opacity:1;fill-rule:evenodd;stroke:#000000;stroke-opacity:1"
       id="path272"
       inkscape:connector-curvature="0" /><path
       d="m 81.865,652.648 h 12.671 v 11.169 H 81.865 Z"
       style="fill:#ffff6d;fill-opacity:1;fill-rule:evenodd;stroke:#000000;stroke-opacity:1"
       id="path274"
       inkscape:connector-curvature="0" /><path
       d="m 94.507,652.648 h 12.671 v 11.169 H 94.507 Z"
       style="fill:#ffff6d;fill-opacity:1;fill-rule:evenodd;stroke:#000000;stroke-opacity:1"
       id="path276"
       inkscape:connector-curvature="0" /><path
       d="m 119.792,652.648 h 12.671 v 11.169 h -12.671 z"
       style="fill:#ffff6d;fill-opacity:1;fill-rule:evenodd;stroke:#000000;stroke-opacity:1"
       id="path278"
       inkscape:connector-curvature="0" /><path
       d="m 132.435,652.648 h 12.671 v 11.169 h -12.671 z"
       style="fill:#ffff6d;fill-opacity:1;fill-rule:evenodd;stroke:#000000;stroke-opacity:1"
       id="path280"
       inkscape:connector-curvature="0" /><path
       d="m 145.077,652.648 h 12.671 v 11.169 h -12.671 z"
       style="fill:#ffff6d;fill-opacity:1;fill-rule:evenodd;stroke:#000000;stroke-opacity:1"
       id="path282"
       inkscape:connector-curvature="0" /><path
       d="m 170.362,652.648 h 12.671 v 11.169 h -12.671 z"
       style="fill:#ffff6d;fill-opacity:1;fill-rule:evenodd;stroke:#000000;stroke-opacity:1"
       id="path284"
       inkscape:connector-curvature="0" /><path
       d="m 183.005,652.648 h 12.671 v 11.169 h -12.671 z"
       style="fill:#ffff6d;fill-opacity:1;fill-rule:evenodd;stroke:#000000;stroke-opacity:1"
       id="path286"
       inkscape:connector-curvature="0" /><path
       d="m 195.647,652.648 h 12.671 v 11.169 h -12.671 z"
       style="fill:#ffff6d;fill-opacity:1;fill-rule:evenodd;stroke:#000000;stroke-opacity:1"
       id="path288"
       inkscape:connector-curvature="0" /></g><g
     inkscape:groupmode="layer"
     id="layer1"
     inkscape:label="text"
     style="display:inline"
     transform="translate(10.928308,-99.038087)"><g
       transform="matrix(1.3333333,0,0,-1.3333333,0,1122.5197)"
       id="g1034"><text
         transform="matrix(1,0,0,-1,71.887,656.078)"
         style="font-variant:normal;font-weight:normal;font-size:6.009px;font-family:'Liberation Serif';-inkscape-font-specification:LiberationSerif;writing-mode:lr-tb;fill:#000000;fill-opacity:1;fill-rule:nonzero;stroke:none"
         id="text1038"><tspan
           x="0 3.0044999 4.5067501"
           y="0"
           sodipodi:role="line"
           id="tspan1036">1.6</tspan></text></g><g
       transform="matrix(1.3333333,0,0,-1.3333333,0,1122.5197)"
       id="g1040"><text
         transform="matrix(1,0,0,-1,84.501,656.078)"
         style="font-variant:normal;font-weight:normal;font-size:6.009px;font-family:'Liberation Serif';-inkscape-font-specification:LiberationSerif;writing-mode:lr-tb;fill:#000000;fill-opacity:1;fill-rule:nonzero;stroke:none"
         id="text1044"><tspan
           x="0 3.0044999 4.5067501"
           y="0"
           sodipodi:role="line"
           id="tspan1042">3.2</tspan></text></g><g
       transform="matrix(1.3333333,0,0,-1.3333333,0,1122.5197)"
       id="g1046"><text
         transform="matrix(1,0,0,-1,97.2,656.078)"
         style="font-variant:normal;font-weight:normal;font-size:6.009px;font-family:'Liberation Serif';-inkscape-font-specification:LiberationSerif;writing-mode:lr-tb;fill:#000000;fill-opacity:1;fill-rule:nonzero;stroke:none"
         id="text1050"><tspan
           x="0 3.0044999 4.5067501"
           y="0"
           sodipodi:role="line"
           id="tspan1048">3.2</tspan></text></g><g
       transform="matrix(1.3333333,0,0,-1.3333333,0,1122.5197)"
       id="g1052"><text
         transform="matrix(1,0,0,-1,122.513,656.078)"
         style="font-variant:normal;font-weight:normal;font-size:6.009px;font-family:'Liberation Serif';-inkscape-font-specification:LiberationSerif;writing-mode:lr-tb;fill:#000000;fill-opacity:1;fill-rule:nonzero;stroke:none"
         id="text1056"><tspan
           x="0 3.0044999 4.5067501"
           y="0"
           sodipodi:role="line"
           id="tspan1054">3.2</tspan></text></g><g
       transform="matrix(1.3333333,0,0,-1.3333333,0,1122.5197)"
       id="g1058"><text
         transform="matrix(1,0,0,-1,135.099,656.078)"
         style="font-variant:normal;font-weight:normal;font-size:6.009px;font-family:'Liberation Serif';-inkscape-font-specification:LiberationSerif;writing-mode:lr-tb;fill:#000000;fill-opacity:1;fill-rule:nonzero;stroke:none"
         id="text1062"><tspan
           x="0 3.0044999 4.5067501"
           y="0"
           sodipodi:role="line"
           id="tspan1060">3.2</tspan></text></g><g
       transform="matrix(1.3333333,0,0,-1.3333333,0,1122.5197)"
       id="g1064"><text
         transform="matrix(1,0,0,-1,147.713,656.078)"
         style="font-variant:normal;font-weight:normal;font-size:6.009px;font-family:'Liberation Serif';-inkscape-font-specification:LiberationSerif;writing-mode:lr-tb;fill:#000000;fill-opacity:1;fill-rule:nonzero;stroke:none"
         id="text1068"><tspan
           x="0 3.0044999 4.5067501"
           y="0"
           sodipodi:role="line"
           id="tspan1066">3.2</tspan></text></g><g
       transform="matrix(1.3333333,0,0,-1.3333333,0,1122.5197)"
       id="g1070"><text
         transform="matrix(1,0,0,-1,172.998,656.078)"
         style="font-variant:normal;font-weight:normal;font-size:6.009px;font-family:'Liberation Serif';-inkscape-font-specification:LiberationSerif;writing-mode:lr-tb;fill:#000000;fill-opacity:1;fill-rule:nonzero;stroke:none"
         id="text1074"><tspan
           x="0 3.0044999 4.5067501"
           y="0"
           sodipodi:role="line"
           id="tspan1072">3.2</tspan></text></g><g
       transform="matrix(1.3333333,0,0,-1.3333333,0,1122.5197)"
       id="g1076"><text
         transform="matrix(1,0,0,-1,185.698,656.078)"
         style="font-variant:normal;font-weight:normal;font-size:6.009px;font-family:'Liberation Serif';-inkscape-font-specification:LiberationSerif;writing-mode:lr-tb;fill:#000000;fill-opacity:1;fill-rule:nonzero;stroke:none"
         id="text1080"><tspan
           x="0 3.0044999 4.5067501"
           y="0"
           sodipodi:role="line"
           id="tspan1078">3.2</tspan></text></g><g
       transform="matrix(1.3333333,0,0,-1.3333333,0,1122.5197)"
       id="g1082"><text
         transform="matrix(1,0,0,-1,198.312,656.078)"
         style="font-variant:normal;font-weight:normal;font-size:6.009px;font-family:'Liberation Serif';-inkscape-font-specification:LiberationSerif;writing-mode:lr-tb;fill:#000000;fill-opacity:1;fill-rule:nonzero;stroke:none"
         id="text1086"><tspan
           x="0 3.0044999 4.5067501"
           y="0"
           sodipodi:role="line"
           id="tspan1084">3.2</tspan></text></g><g
       transform="matrix(1.3333333,0,0,-1.3333333,0,1122.5197)"
       id="g1106"><text
         transform="matrix(1,0,0,-1,84.302,644.995)"
         style="font-variant:normal;font-weight:normal;font-size:6.009px;font-family:'Liberation Serif';-inkscape-font-specification:LiberationSerif;writing-mode:lr-tb;fill:#000000;fill-opacity:1;fill-rule:nonzero;stroke:none"
         id="text1110"><tspan
           x="0 2.0009971 5.005497"
           y="0"
           sodipodi:role="line"
           id="tspan1108">-12</tspan></text></g><g
       transform="matrix(1.3333333,0,0,-1.3333333,0,1122.5197)"
       id="g1112"><text
         transform="matrix(1,0,0,-1,134.787,644.995)"
         style="font-variant:normal;font-weight:normal;font-size:6.009px;font-family:'Liberation Serif';-inkscape-font-specification:LiberationSerif;writing-mode:lr-tb;fill:#000000;fill-opacity:1;fill-rule:nonzero;stroke:none"
         id="text1116"><tspan
           x="0 2.0009971 5.005497"
           y="0"
           sodipodi:role="line"
           id="tspan1114">-14</tspan></text></g><g
       transform="matrix(1.3333333,0,0,-1.3333333,0,1122.5197)"
       id="g1118"><text
         transform="matrix(1,0,0,-1,185.414,644.995)"
         style="font-variant:normal;font-weight:normal;font-size:6.009px;font-family:'Liberation Serif';-inkscape-font-specification:LiberationSerif;writing-mode:lr-tb;fill:#000000;fill-opacity:1;fill-rule:nonzero;stroke:none"
         id="text1122"><tspan
           x="0 2.0009971 5.005497"
           y="0"
           sodipodi:role="line"
           id="tspan1120">-16</tspan></text></g><g
       transform="matrix(1.3333333,0,0,-1.3333333,0,1122.5197)"
       id="g1130"><text
         transform="matrix(1,0,0,-1,84.501,633.883)"
         style="font-variant:normal;font-weight:normal;font-size:6.009px;font-family:'Liberation Serif';-inkscape-font-specification:LiberationSerif;writing-mode:lr-tb;fill:#000000;fill-opacity:1;fill-rule:nonzero;stroke:none"
         id="text1134"><tspan
           x="0 3.0044999 4.5067501"
           y="0"
           sodipodi:role="line"
           id="tspan1132">2.8</tspan></text></g><g
       transform="matrix(1.3333333,0,0,-1.3333333,0,1122.5197)"
       id="g1136"><text
         transform="matrix(1,0,0,-1,135.099,633.883)"
         style="font-variant:normal;font-weight:normal;font-size:6.009px;font-family:'Liberation Serif';-inkscape-font-specification:LiberationSerif;writing-mode:lr-tb;fill:#000000;fill-opacity:1;fill-rule:nonzero;stroke:none"
         id="text1140"><tspan
           x="0 3.0044999 4.5067501"
           y="0"
           sodipodi:role="line"
           id="tspan1138">2.5</tspan></text></g><g
       transform="matrix(1.3333333,0,0,-1.3333333,0,1122.5197)"
       id="g1142"><text
         transform="matrix(1,0,0,-1,184.195,633.883)"
         style="font-variant:normal;font-weight:normal;font-size:6.009px;font-family:'Liberation Serif';-inkscape-font-specification:LiberationSerif;writing-mode:lr-tb;fill:#000000;fill-opacity:1;fill-rule:nonzero;stroke:none"
         id="text1146"><tspan
           x="0 3.0044999 4.5067501 7.51125"
           y="0"
           sodipodi:role="line"
           id="tspan1144">2.24</tspan></text></g><g
       transform="matrix(1.3333333,0,0,-1.3333333,0,1122.5197)"
       id="g890"><text
         transform="matrix(1,0,0,-1,71.887,678.387)"
         style="font-variant:normal;font-weight:normal;font-size:6.009px;font-family:'Liberation Serif';-inkscape-font-specification:LiberationSerif;writing-mode:lr-tb;fill:#000000;fill-opacity:1;fill-rule:nonzero;stroke:none"
         id="text894"><tspan
           x="0 3.0044999 4.5067501"
           y="0"
           sodipodi:role="line"
           id="tspan892">3.2</tspan></text></g><g
       transform="matrix(1.3333333,0,0,-1.3333333,0,1122.5197)"
       id="g896"><text
         transform="matrix(1,0,0,-1,84.501,678.387)"
         style="font-variant:normal;font-weight:normal;font-size:6.009px;font-family:'Liberation Serif';-inkscape-font-specification:LiberationSerif;writing-mode:lr-tb;fill:#000000;fill-opacity:1;fill-rule:nonzero;stroke:none"
         id="text900"><tspan
           x="0 3.0044999 4.5067501"
           y="0"
           sodipodi:role="line"
           id="tspan898">3.2</tspan></text></g><g
       transform="matrix(1.3333333,0,0,-1.3333333,0,1122.5197)"
       id="g902"><text
         transform="matrix(1,0,0,-1,97.2,678.387)"
         style="font-variant:normal;font-weight:normal;font-size:6.009px;font-family:'Liberation Serif';-inkscape-font-specification:LiberationSerif;writing-mode:lr-tb;fill:#000000;fill-opacity:1;fill-rule:nonzero;stroke:none"
         id="text906"><tspan
           x="0 3.0044999 4.5067501"
           y="0"
           sodipodi:role="line"
           id="tspan904">3.2</tspan></text></g><g
       transform="matrix(1.3333333,0,0,-1.3333333,0,1122.5197)"
       id="g908"><text
         transform="matrix(1,0,0,-1,122.513,678.387)"
         style="font-variant:normal;font-weight:normal;font-size:6.009px;font-family:'Liberation Serif';-inkscape-font-specification:LiberationSerif;writing-mode:lr-tb;fill:#000000;fill-opacity:1;fill-rule:nonzero;stroke:none"
         id="text912"><tspan
           x="0 3.0044999 4.5067501"
           y="0"
           sodipodi:role="line"
           id="tspan910">3.2</tspan></text></g><g
       transform="matrix(1.3333333,0,0,-1.3333333,0,1122.5197)"
       id="g914"><text
         transform="matrix(1,0,0,-1,135.099,678.387)"
         style="font-variant:normal;font-weight:normal;font-size:6.009px;font-family:'Liberation Serif';-inkscape-font-specification:LiberationSerif;writing-mode:lr-tb;fill:#000000;fill-opacity:1;fill-rule:nonzero;stroke:none"
         id="text918"><tspan
           x="0 3.0044999 4.5067501"
           y="0"
           sodipodi:role="line"
           id="tspan916">3.2</tspan></text></g><g
       transform="matrix(1.3333333,0,0,-1.3333333,0,1122.5197)"
       id="g920"><text
         transform="matrix(1,0,0,-1,147.713,678.387)"
         style="font-variant:normal;font-weight:normal;font-size:6.009px;font-family:'Liberation Serif';-inkscape-font-specification:LiberationSerif;writing-mode:lr-tb;fill:#000000;fill-opacity:1;fill-rule:nonzero;stroke:none"
         id="text924"><tspan
           x="0 3.0044999 4.5067501"
           y="0"
           sodipodi:role="line"
           id="tspan922">3.2</tspan></text></g><g
       transform="matrix(1.3333333,0,0,-1.3333333,0,1122.5197)"
       id="g926"><text
         transform="matrix(1,0,0,-1,172.998,678.387)"
         style="font-variant:normal;font-weight:normal;font-size:6.009px;font-family:'Liberation Serif';-inkscape-font-specification:LiberationSerif;writing-mode:lr-tb;fill:#000000;fill-opacity:1;fill-rule:nonzero;stroke:none"
         id="text930"><tspan
           x="0 3.0044999 4.5067501"
           y="0"
           sodipodi:role="line"
           id="tspan928">3.2</tspan></text></g><g
       transform="matrix(1.3333333,0,0,-1.3333333,0,1122.5197)"
       id="g932"><text
         transform="matrix(1,0,0,-1,185.698,678.387)"
         style="font-variant:normal;font-weight:normal;font-size:6.009px;font-family:'Liberation Serif';-inkscape-font-specification:LiberationSerif;writing-mode:lr-tb;fill:#000000;fill-opacity:1;fill-rule:nonzero;stroke:none"
         id="text936"><tspan
           x="0 3.0044999 4.5067501"
           y="0"
           sodipodi:role="line"
           id="tspan934">3.2</tspan></text></g><g
       transform="matrix(1.3333333,0,0,-1.3333333,0,1122.5197)"
       id="g938"><text
         transform="matrix(1,0,0,-1,198.312,678.387)"
         style="font-variant:normal;font-weight:normal;font-size:6.009px;font-family:'Liberation Serif';-inkscape-font-specification:LiberationSerif;writing-mode:lr-tb;fill:#000000;fill-opacity:1;fill-rule:nonzero;stroke:none"
         id="text942"><tspan
           x="0 3.0044999 4.5067501"
           y="0"
           sodipodi:role="line"
           id="tspan940">3.2</tspan></text></g><g
       transform="matrix(1.3333333,0,0,-1.3333333,0,1122.5197)"
       id="g962"><text
         transform="matrix(1,0,0,-1,71.887,667.275)"
         style="font-variant:normal;font-weight:normal;font-size:6.009px;font-family:'Liberation Serif';-inkscape-font-specification:LiberationSerif;writing-mode:lr-tb;fill:#000000;fill-opacity:1;fill-rule:nonzero;stroke:none"
         id="text966"><tspan
           x="0 3.0044999 4.5067501"
           y="0"
           sodipodi:role="line"
           id="tspan964">3.2</tspan></text></g><g
       transform="matrix(1.3333333,0,0,-1.3333333,0,1122.5197)"
       id="g968"><text
         transform="matrix(1,0,0,-1,84.501,667.275)"
         style="font-variant:normal;font-weight:normal;font-size:6.009px;font-family:'Liberation Serif';-inkscape-font-specification:LiberationSerif;writing-mode:lr-tb;fill:#000000;fill-opacity:1;fill-rule:nonzero;stroke:none"
         id="text972"><tspan
           x="0 3.0044999 4.5067501"
           y="0"
           sodipodi:role="line"
           id="tspan970">1.6</tspan></text></g><g
       transform="matrix(1.3333333,0,0,-1.3333333,0,1122.5197)"
       id="g974"><text
         transform="matrix(1,0,0,-1,97.2,667.275)"
         style="font-variant:normal;font-weight:normal;font-size:6.009px;font-family:'Liberation Serif';-inkscape-font-specification:LiberationSerif;writing-mode:lr-tb;fill:#000000;fill-opacity:1;fill-rule:nonzero;stroke:none"
         id="text978"><tspan
           x="0 3.0044999 4.5067501"
           y="0"
           sodipodi:role="line"
           id="tspan976">1.6</tspan></text></g><g
       transform="matrix(1.3333333,0,0,-1.3333333,0,1122.5197)"
       id="g980"><text
         transform="matrix(1,0,0,-1,122.513,667.275)"
         style="font-variant:normal;font-weight:normal;font-size:6.009px;font-family:'Liberation Serif';-inkscape-font-specification:LiberationSerif;writing-mode:lr-tb;fill:#000000;fill-opacity:1;fill-rule:nonzero;stroke:none"
         id="text984"><tspan
           x="0 3.0044999 4.5067501"
           y="0"
           sodipodi:role="line"
           id="tspan982">3.2</tspan></text></g><g
       transform="matrix(1.3333333,0,0,-1.3333333,0,1122.5197)"
       id="g986"><text
         transform="matrix(1,0,0,-1,135.099,667.275)"
         style="font-variant:normal;font-weight:normal;font-size:6.009px;font-family:'Liberation Serif';-inkscape-font-specification:LiberationSerif;writing-mode:lr-tb;fill:#000000;fill-opacity:1;fill-rule:nonzero;stroke:none"
         id="text990"><tspan
           x="0 3.0044999 4.5067501"
           y="0"
           sodipodi:role="line"
           id="tspan988">1.6</tspan></text></g><g
       transform="matrix(1.3333333,0,0,-1.3333333,0,1122.5197)"
       id="g992"><text
         transform="matrix(1,0,0,-1,147.713,667.275)"
         style="font-variant:normal;font-weight:normal;font-size:6.009px;font-family:'Liberation Serif';-inkscape-font-specification:LiberationSerif;writing-mode:lr-tb;fill:#000000;fill-opacity:1;fill-rule:nonzero;stroke:none"
         id="text996"><tspan
           x="0 3.0044999 4.5067501"
           y="0"
           sodipodi:role="line"
           id="tspan994">1.6</tspan></text></g><g
       transform="matrix(1.3333333,0,0,-1.3333333,0,1122.5197)"
       id="g998"><text
         transform="matrix(1,0,0,-1,172.998,667.275)"
         style="font-variant:normal;font-weight:normal;font-size:6.009px;font-family:'Liberation Serif';-inkscape-font-specification:LiberationSerif;writing-mode:lr-tb;fill:#000000;fill-opacity:1;fill-rule:nonzero;stroke:none"
         id="text1002"><tspan
           x="0 3.0044999 4.5067501"
           y="0"
           sodipodi:role="line"
           id="tspan1000">3.2</tspan></text></g><g
       transform="matrix(1.3333333,0,0,-1.3333333,0,1122.5197)"
       id="g1004"><text
         transform="matrix(1,0,0,-1,185.698,667.275)"
         style="font-variant:normal;font-weight:normal;font-size:6.009px;font-family:'Liberation Serif';-inkscape-font-specification:LiberationSerif;writing-mode:lr-tb;fill:#000000;fill-opacity:1;fill-rule:nonzero;stroke:none"
         id="text1008"><tspan
           x="0 3.0044999 4.5067501"
           y="0"
           sodipodi:role="line"
           id="tspan1006">3.2</tspan></text></g><g
       transform="matrix(1.3333333,0,0,-1.3333333,0,1122.5197)"
       id="g1010"><text
         transform="matrix(1,0,0,-1,198.312,667.275)"
         style="font-variant:normal;font-weight:normal;font-size:6.009px;font-family:'Liberation Serif';-inkscape-font-specification:LiberationSerif;writing-mode:lr-tb;fill:#000000;fill-opacity:1;fill-rule:nonzero;stroke:none"
         id="text1014"><tspan
           x="0 3.0044999 4.5067501"
           y="0"
           sodipodi:role="line"
           id="tspan1012">1.6</tspan></text></g><g
       transform="matrix(1.3333333,0,0,-1.3333333,0,1122.5197)"
       id="g296"><text
         transform="matrix(1,0,0,-1,71.887,745.284)"
         style="font-variant:normal;font-weight:normal;font-size:6.009px;font-family:'Liberation Serif';-inkscape-font-specification:LiberationSerif;writing-mode:lr-tb;fill:#000000;fill-opacity:1;fill-rule:nonzero;stroke:none"
         id="text300"><tspan
           x="0 3.0044999 4.5067501"
           y="0"
           sodipodi:role="line"
           id="tspan298">1.6</tspan></text></g><g
       transform="matrix(1.3333333,0,0,-1.3333333,0,1122.5197)"
       id="g302"><text
         transform="matrix(1,0,0,-1,84.501,745.284)"
         style="font-variant:normal;font-weight:normal;font-size:6.009px;font-family:'Liberation Serif';-inkscape-font-specification:LiberationSerif;writing-mode:lr-tb;fill:#000000;fill-opacity:1;fill-rule:nonzero;stroke:none"
         id="text306"><tspan
           x="0 3.0044999 4.5067501"
           y="0"
           sodipodi:role="line"
           id="tspan304">1.6</tspan></text></g><g
       transform="matrix(1.3333333,0,0,-1.3333333,0,1122.5197)"
       id="g308"><text
         transform="matrix(1,0,0,-1,97.2,745.284)"
         style="font-variant:normal;font-weight:normal;font-size:6.009px;font-family:'Liberation Serif';-inkscape-font-specification:LiberationSerif;writing-mode:lr-tb;fill:#000000;fill-opacity:1;fill-rule:nonzero;stroke:none"
         id="text312"><tspan
           x="0 3.0044999 4.5067501"
           y="0"
           sodipodi:role="line"
           id="tspan310">3.2</tspan></text></g><g
       transform="matrix(1.3333333,0,0,-1.3333333,0,1122.5197)"
       id="g314"><text
         transform="matrix(1,0,0,-1,122.513,745.284)"
         style="font-variant:normal;font-weight:normal;font-size:6.009px;font-family:'Liberation Serif';-inkscape-font-specification:LiberationSerif;writing-mode:lr-tb;fill:#000000;fill-opacity:1;fill-rule:nonzero;stroke:none"
         id="text318"><tspan
           x="0 3.0044999 4.5067501"
           y="0"
           sodipodi:role="line"
           id="tspan316">1.6</tspan></text></g><g
       transform="matrix(1.3333333,0,0,-1.3333333,0,1122.5197)"
       id="g320"><text
         transform="matrix(1,0,0,-1,135.099,745.284)"
         style="font-variant:normal;font-weight:normal;font-size:6.009px;font-family:'Liberation Serif';-inkscape-font-specification:LiberationSerif;writing-mode:lr-tb;fill:#000000;fill-opacity:1;fill-rule:nonzero;stroke:none"
         id="text324"><tspan
           x="0 3.0044999 4.5067501"
           y="0"
           sodipodi:role="line"
           id="tspan322">1.6</tspan></text></g><g
       transform="matrix(1.3333333,0,0,-1.3333333,0,1122.5197)"
       id="g326"><text
         transform="matrix(1,0,0,-1,147.713,745.284)"
         style="font-variant:normal;font-weight:normal;font-size:6.009px;font-family:'Liberation Serif';-inkscape-font-specification:LiberationSerif;writing-mode:lr-tb;fill:#000000;fill-opacity:1;fill-rule:nonzero;stroke:none"
         id="text330"><tspan
           x="0 3.0044999 4.5067501"
           y="0"
           sodipodi:role="line"
           id="tspan328">3.2</tspan></text></g><g
       transform="matrix(1.3333333,0,0,-1.3333333,0,1122.5197)"
       id="g332"><text
         transform="matrix(1,0,0,-1,172.998,745.284)"
         style="font-variant:normal;font-weight:normal;font-size:6.009px;font-family:'Liberation Serif';-inkscape-font-specification:LiberationSerif;writing-mode:lr-tb;fill:#000000;fill-opacity:1;fill-rule:nonzero;stroke:none"
         id="text336"><tspan
           x="0 3.0044999 4.5067501"
           y="0"
           sodipodi:role="line"
           id="tspan334">1.6</tspan></text></g><g
       transform="matrix(1.3333333,0,0,-1.3333333,0,1122.5197)"
       id="g338"><text
         transform="matrix(1,0,0,-1,185.698,745.284)"
         style="font-variant:normal;font-weight:normal;font-size:6.009px;font-family:'Liberation Serif';-inkscape-font-specification:LiberationSerif;writing-mode:lr-tb;fill:#000000;fill-opacity:1;fill-rule:nonzero;stroke:none"
         id="text342"><tspan
           x="0 3.0044999 4.5067501"
           y="0"
           sodipodi:role="line"
           id="tspan340">1.6</tspan></text></g><g
       transform="matrix(1.3333333,0,0,-1.3333333,0,1122.5197)"
       id="g344"><text
         transform="matrix(1,0,0,-1,198.312,745.284)"
         style="font-variant:normal;font-weight:normal;font-size:6.009px;font-family:'Liberation Serif';-inkscape-font-specification:LiberationSerif;writing-mode:lr-tb;fill:#000000;fill-opacity:1;fill-rule:nonzero;stroke:none"
         id="text348"><tspan
           x="0 3.0044999 4.5067501"
           y="0"
           sodipodi:role="line"
           id="tspan346">3.2</tspan></text></g><g
       transform="matrix(1.3333333,0,0,-1.3333333,0,1122.5197)"
       id="g350"><text
         transform="matrix(1,0,0,-1,223.597,745.284)"
         style="font-variant:normal;font-weight:normal;font-size:6.009px;font-family:'Liberation Serif';-inkscape-font-specification:LiberationSerif;writing-mode:lr-tb;fill:#000000;fill-opacity:1;fill-rule:nonzero;stroke:none"
         id="text354"><tspan
           x="0 3.0044999 4.5067501"
           y="0"
           sodipodi:role="line"
           id="tspan352">1.6</tspan></text></g><g
       transform="matrix(1.3333333,0,0,-1.3333333,0,1122.5197)"
       id="g356"><text
         transform="matrix(1,0,0,-1,236.211,745.284)"
         style="font-variant:normal;font-weight:normal;font-size:6.009px;font-family:'Liberation Serif';-inkscape-font-specification:LiberationSerif;writing-mode:lr-tb;fill:#000000;fill-opacity:1;fill-rule:nonzero;stroke:none"
         id="text360"><tspan
           x="0 3.0044999 4.5067501"
           y="0"
           sodipodi:role="line"
           id="tspan358">2.4</tspan></text></g><g
       transform="matrix(1.3333333,0,0,-1.3333333,0,1122.5197)"
       id="g362"><text
         transform="matrix(1,0,0,-1,248.91,745.284)"
         style="font-variant:normal;font-weight:normal;font-size:6.009px;font-family:'Liberation Serif';-inkscape-font-specification:LiberationSerif;writing-mode:lr-tb;fill:#000000;fill-opacity:1;fill-rule:nonzero;stroke:none"
         id="text366"><tspan
           x="0 3.0044999 4.5067501"
           y="0"
           sodipodi:role="line"
           id="tspan364">3.2</tspan></text></g><g
       transform="matrix(1.3333333,0,0,-1.3333333,0,1122.5197)"
       id="g368"><text
         transform="matrix(1,0,0,-1,274.195,745.284)"
         style="font-variant:normal;font-weight:normal;font-size:6.009px;font-family:'Liberation Serif';-inkscape-font-specification:LiberationSerif;writing-mode:lr-tb;fill:#000000;fill-opacity:1;fill-rule:nonzero;stroke:none"
         id="text372"><tspan
           x="0 3.0044999 4.5067501"
           y="0"
           sodipodi:role="line"
           id="tspan370">1.6</tspan></text></g><g
       transform="matrix(1.3333333,0,0,-1.3333333,0,1122.5197)"
       id="g374"><text
         transform="matrix(1,0,0,-1,286.809,745.284)"
         style="font-variant:normal;font-weight:normal;font-size:6.009px;font-family:'Liberation Serif';-inkscape-font-specification:LiberationSerif;writing-mode:lr-tb;fill:#000000;fill-opacity:1;fill-rule:nonzero;stroke:none"
         id="text378"><tspan
           x="0 3.0044999 4.5067501"
           y="0"
           sodipodi:role="line"
           id="tspan376">3.2</tspan></text></g><g
       transform="matrix(1.3333333,0,0,-1.3333333,0,1122.5197)"
       id="g380"><text
         transform="matrix(1,0,0,-1,299.509,745.284)"
         style="font-variant:normal;font-weight:normal;font-size:6.009px;font-family:'Liberation Serif';-inkscape-font-specification:LiberationSerif;writing-mode:lr-tb;fill:#000000;fill-opacity:1;fill-rule:nonzero;stroke:none"
         id="text384"><tspan
           x="0 3.0044999 4.5067501"
           y="0"
           sodipodi:role="line"
           id="tspan382">3.2</tspan></text></g><g
       transform="matrix(1.3333333,0,0,-1.3333333,0,1122.5197)"
       id="g386"><text
         transform="matrix(1,0,0,-1,324.709,745.284)"
         style="font-variant:normal;font-weight:normal;font-size:6.009px;font-family:'Liberation Serif';-inkscape-font-specification:LiberationSerif;writing-mode:lr-tb;fill:#000000;fill-opacity:1;fill-rule:nonzero;stroke:none"
         id="text390"><tspan
           x="0 3.0044999 4.5067501"
           y="0"
           sodipodi:role="line"
           id="tspan388">2.4</tspan></text></g><g
       transform="matrix(1.3333333,0,0,-1.3333333,0,1122.5197)"
       id="g392"><text
         transform="matrix(1,0,0,-1,337.408,745.284)"
         style="font-variant:normal;font-weight:normal;font-size:6.009px;font-family:'Liberation Serif';-inkscape-font-specification:LiberationSerif;writing-mode:lr-tb;fill:#000000;fill-opacity:1;fill-rule:nonzero;stroke:none"
         id="text396"><tspan
           x="0 3.0044999 4.5067501"
           y="0"
           sodipodi:role="line"
           id="tspan394">1.6</tspan></text></g><g
       transform="matrix(1.3333333,0,0,-1.3333333,0,1122.5197)"
       id="g398"><text
         transform="matrix(1,0,0,-1,349.994,745.284)"
         style="font-variant:normal;font-weight:normal;font-size:6.009px;font-family:'Liberation Serif';-inkscape-font-specification:LiberationSerif;writing-mode:lr-tb;fill:#000000;fill-opacity:1;fill-rule:nonzero;stroke:none"
         id="text402"><tspan
           x="0 3.0044999 4.5067501"
           y="0"
           sodipodi:role="line"
           id="tspan400">3.2</tspan></text></g><g
       transform="matrix(1.3333333,0,0,-1.3333333,0,1122.5197)"
       id="g404"><text
         transform="matrix(1,0,0,-1,375.307,745.284)"
         style="font-variant:normal;font-weight:normal;font-size:6.009px;font-family:'Liberation Serif';-inkscape-font-specification:LiberationSerif;writing-mode:lr-tb;fill:#000000;fill-opacity:1;fill-rule:nonzero;stroke:none"
         id="text408"><tspan
           x="0 3.0044999 4.5067501"
           y="0"
           sodipodi:role="line"
           id="tspan406">2.4</tspan></text></g><g
       transform="matrix(1.3333333,0,0,-1.3333333,0,1122.5197)"
       id="g410"><text
         transform="matrix(1,0,0,-1,387.893,745.284)"
         style="font-variant:normal;font-weight:normal;font-size:6.009px;font-family:'Liberation Serif';-inkscape-font-specification:LiberationSerif;writing-mode:lr-tb;fill:#000000;fill-opacity:1;fill-rule:nonzero;stroke:none"
         id="text414"><tspan
           x="0 3.0044999 4.5067501"
           y="0"
           sodipodi:role="line"
           id="tspan412">1.6</tspan></text></g><g
       transform="matrix(1.3333333,0,0,-1.3333333,0,1122.5197)"
       id="g416"><text
         transform="matrix(1,0,0,-1,400.592,745.284)"
         style="font-variant:normal;font-weight:normal;font-size:6.009px;font-family:'Liberation Serif';-inkscape-font-specification:LiberationSerif;writing-mode:lr-tb;fill:#000000;fill-opacity:1;fill-rule:nonzero;stroke:none"
         id="text420"><tspan
           x="0 3.0044999 4.5067501"
           y="0"
           sodipodi:role="line"
           id="tspan418">3.2</tspan></text></g><g
       transform="matrix(1.3333333,0,0,-1.3333333,0,1122.5197)"
       id="g422"><text
         transform="matrix(1,0,0,-1,425.906,745.284)"
         style="font-variant:normal;font-weight:normal;font-size:6.009px;font-family:'Liberation Serif';-inkscape-font-specification:LiberationSerif;writing-mode:lr-tb;fill:#000000;fill-opacity:1;fill-rule:nonzero;stroke:none"
         id="text426"><tspan
           x="0 3.0044999 4.5067501"
           y="0"
           sodipodi:role="line"
           id="tspan424">2.4</tspan></text></g><g
       transform="matrix(1.3333333,0,0,-1.3333333,0,1122.5197)"
       id="g428"><text
         transform="matrix(1,0,0,-1,438.491,745.284)"
         style="font-variant:normal;font-weight:normal;font-size:6.009px;font-family:'Liberation Serif';-inkscape-font-specification:LiberationSerif;writing-mode:lr-tb;fill:#000000;fill-opacity:1;fill-rule:nonzero;stroke:none"
         id="text432"><tspan
           x="0 3.0044999 4.5067501"
           y="0"
           sodipodi:role="line"
           id="tspan430">2.4</tspan></text></g><g
       transform="matrix(1.3333333,0,0,-1.3333333,0,1122.5197)"
       id="g434"><text
         transform="matrix(1,0,0,-1,451.191,745.284)"
         style="font-variant:normal;font-weight:normal;font-size:6.009px;font-family:'Liberation Serif';-inkscape-font-specification:LiberationSerif;writing-mode:lr-tb;fill:#000000;fill-opacity:1;fill-rule:nonzero;stroke:none"
         id="text438"><tspan
           x="0 3.0044999 4.5067501"
           y="0"
           sodipodi:role="line"
           id="tspan436">3.2</tspan></text></g><g
       transform="matrix(1.3333333,0,0,-1.3333333,0,1122.5197)"
       id="g440"><text
         transform="matrix(1,0,0,-1,476.391,745.284)"
         style="font-variant:normal;font-weight:normal;font-size:6.009px;font-family:'Liberation Serif';-inkscape-font-specification:LiberationSerif;writing-mode:lr-tb;fill:#000000;fill-opacity:1;fill-rule:nonzero;stroke:none"
         id="text444"><tspan
           x="0 3.0044999 4.5067501"
           y="0"
           sodipodi:role="line"
           id="tspan442">2.4</tspan></text></g><g
       transform="matrix(1.3333333,0,0,-1.3333333,0,1122.5197)"
       id="g446"><text
         transform="matrix(1,0,0,-1,489.09,745.284)"
         style="font-variant:normal;font-weight:normal;font-size:6.009px;font-family:'Liberation Serif';-inkscape-font-specification:LiberationSerif;writing-mode:lr-tb;fill:#000000;fill-opacity:1;fill-rule:nonzero;stroke:none"
         id="text450"><tspan
           x="0 3.0044999 4.5067501"
           y="0"
           sodipodi:role="line"
           id="tspan448">3.2</tspan></text></g><g
       transform="matrix(1.3333333,0,0,-1.3333333,0,1122.5197)"
       id="g452"><text
         transform="matrix(1,0,0,-1,501.704,745.284)"
         style="font-variant:normal;font-weight:normal;font-size:6.009px;font-family:'Liberation Serif';-inkscape-font-specification:LiberationSerif;writing-mode:lr-tb;fill:#000000;fill-opacity:1;fill-rule:nonzero;stroke:none"
         id="text456"><tspan
           x="0 3.0044999 4.5067501"
           y="0"
           sodipodi:role="line"
           id="tspan454">3.2</tspan></text></g><g
       transform="matrix(1.3333333,0,0,-1.3333333,0,1122.5197)"
       id="g458"><text
         transform="matrix(1,0,0,-1,71.887,734.087)"
         style="font-variant:normal;font-weight:normal;font-size:6.009px;font-family:'Liberation Serif';-inkscape-font-specification:LiberationSerif;writing-mode:lr-tb;fill:#000000;fill-opacity:1;fill-rule:nonzero;stroke:none"
         id="text462"><tspan
           x="0 3.0044999 4.5067501"
           y="0"
           sodipodi:role="line"
           id="tspan460">1.6</tspan></text></g><g
       transform="matrix(1.3333333,0,0,-1.3333333,0,1122.5197)"
       id="g464"><text
         transform="matrix(1,0,0,-1,84.501,734.087)"
         style="font-variant:normal;font-weight:normal;font-size:6.009px;font-family:'Liberation Serif';-inkscape-font-specification:LiberationSerif;writing-mode:lr-tb;fill:#000000;fill-opacity:1;fill-rule:nonzero;stroke:none"
         id="text468"><tspan
           x="0 3.0044999 4.5067501"
           y="0"
           sodipodi:role="line"
           id="tspan466">1.6</tspan></text></g><g
       transform="matrix(1.3333333,0,0,-1.3333333,0,1122.5197)"
       id="g470"><text
         transform="matrix(1,0,0,-1,97.2,734.087)"
         style="font-variant:normal;font-weight:normal;font-size:6.009px;font-family:'Liberation Serif';-inkscape-font-specification:LiberationSerif;writing-mode:lr-tb;fill:#000000;fill-opacity:1;fill-rule:nonzero;stroke:none"
         id="text474"><tspan
           x="0 3.0044999 4.5067501"
           y="0"
           sodipodi:role="line"
           id="tspan472">3.2</tspan></text></g><g
       transform="matrix(1.3333333,0,0,-1.3333333,0,1122.5197)"
       id="g476"><text
         transform="matrix(1,0,0,-1,122.513,734.087)"
         style="font-variant:normal;font-weight:normal;font-size:6.009px;font-family:'Liberation Serif';-inkscape-font-specification:LiberationSerif;writing-mode:lr-tb;fill:#000000;fill-opacity:1;fill-rule:nonzero;stroke:none"
         id="text480"><tspan
           x="0 3.0044999 4.5067501"
           y="0"
           sodipodi:role="line"
           id="tspan478">2.4</tspan></text></g><g
       transform="matrix(1.3333333,0,0,-1.3333333,0,1122.5197)"
       id="g482"><text
         transform="matrix(1,0,0,-1,135.099,734.087)"
         style="font-variant:normal;font-weight:normal;font-size:6.009px;font-family:'Liberation Serif';-inkscape-font-specification:LiberationSerif;writing-mode:lr-tb;fill:#000000;fill-opacity:1;fill-rule:nonzero;stroke:none"
         id="text486"><tspan
           x="0 3.0044999 4.5067501"
           y="0"
           sodipodi:role="line"
           id="tspan484">1.6</tspan></text></g><g
       transform="matrix(1.3333333,0,0,-1.3333333,0,1122.5197)"
       id="g488"><text
         transform="matrix(1,0,0,-1,147.713,734.087)"
         style="font-variant:normal;font-weight:normal;font-size:6.009px;font-family:'Liberation Serif';-inkscape-font-specification:LiberationSerif;writing-mode:lr-tb;fill:#000000;fill-opacity:1;fill-rule:nonzero;stroke:none"
         id="text492"><tspan
           x="0 3.0044999 4.5067501"
           y="0"
           sodipodi:role="line"
           id="tspan490">3.2</tspan></text></g><g
       transform="matrix(1.3333333,0,0,-1.3333333,0,1122.5197)"
       id="g494"><text
         transform="matrix(1,0,0,-1,172.998,734.087)"
         style="font-variant:normal;font-weight:normal;font-size:6.009px;font-family:'Liberation Serif';-inkscape-font-specification:LiberationSerif;writing-mode:lr-tb;fill:#000000;fill-opacity:1;fill-rule:nonzero;stroke:none"
         id="text498"><tspan
           x="0 3.0044999 4.5067501"
           y="0"
           sodipodi:role="line"
           id="tspan496">3.2</tspan></text></g><g
       transform="matrix(1.3333333,0,0,-1.3333333,0,1122.5197)"
       id="g500"><text
         transform="matrix(1,0,0,-1,185.698,734.087)"
         style="font-variant:normal;font-weight:normal;font-size:6.009px;font-family:'Liberation Serif';-inkscape-font-specification:LiberationSerif;writing-mode:lr-tb;fill:#000000;fill-opacity:1;fill-rule:nonzero;stroke:none"
         id="text504"><tspan
           x="0 3.0044999 4.5067501"
           y="0"
           sodipodi:role="line"
           id="tspan502">1.6</tspan></text></g><g
       transform="matrix(1.3333333,0,0,-1.3333333,0,1122.5197)"
       id="g506"><text
         transform="matrix(1,0,0,-1,198.312,734.087)"
         style="font-variant:normal;font-weight:normal;font-size:6.009px;font-family:'Liberation Serif';-inkscape-font-specification:LiberationSerif;writing-mode:lr-tb;fill:#000000;fill-opacity:1;fill-rule:nonzero;stroke:none"
         id="text510"><tspan
           x="0 3.0044999 4.5067501"
           y="0"
           sodipodi:role="line"
           id="tspan508">3.2</tspan></text></g><g
       transform="matrix(1.3333333,0,0,-1.3333333,0,1122.5197)"
       id="g512"><text
         transform="matrix(1,0,0,-1,223.597,734.087)"
         style="font-variant:normal;font-weight:normal;font-size:6.009px;font-family:'Liberation Serif';-inkscape-font-specification:LiberationSerif;writing-mode:lr-tb;fill:#000000;fill-opacity:1;fill-rule:nonzero;stroke:none"
         id="text516"><tspan
           x="0 3.0044999 4.5067501"
           y="0"
           sodipodi:role="line"
           id="tspan514">3.2</tspan></text></g><g
       transform="matrix(1.3333333,0,0,-1.3333333,0,1122.5197)"
       id="g518"><text
         transform="matrix(1,0,0,-1,236.211,734.087)"
         style="font-variant:normal;font-weight:normal;font-size:6.009px;font-family:'Liberation Serif';-inkscape-font-specification:LiberationSerif;writing-mode:lr-tb;fill:#000000;fill-opacity:1;fill-rule:nonzero;stroke:none"
         id="text522"><tspan
           x="0 3.0044999 4.5067501"
           y="0"
           sodipodi:role="line"
           id="tspan520">3.2</tspan></text></g><g
       transform="matrix(1.3333333,0,0,-1.3333333,0,1122.5197)"
       id="g524"><text
         transform="matrix(1,0,0,-1,248.91,734.087)"
         style="font-variant:normal;font-weight:normal;font-size:6.009px;font-family:'Liberation Serif';-inkscape-font-specification:LiberationSerif;writing-mode:lr-tb;fill:#000000;fill-opacity:1;fill-rule:nonzero;stroke:none"
         id="text528"><tspan
           x="0 3.0044999 4.5067501"
           y="0"
           sodipodi:role="line"
           id="tspan526">3.2</tspan></text></g><g
       transform="matrix(1.3333333,0,0,-1.3333333,0,1122.5197)"
       id="g530"><text
         transform="matrix(1,0,0,-1,274.195,734.087)"
         style="font-variant:normal;font-weight:normal;font-size:6.009px;font-family:'Liberation Serif';-inkscape-font-specification:LiberationSerif;writing-mode:lr-tb;fill:#000000;fill-opacity:1;fill-rule:nonzero;stroke:none"
         id="text534"><tspan
           x="0 3.0044999 4.5067501"
           y="0"
           sodipodi:role="line"
           id="tspan532">3.2</tspan></text></g><g
       transform="matrix(1.3333333,0,0,-1.3333333,0,1122.5197)"
       id="g536"><text
         transform="matrix(1,0,0,-1,286.809,734.087)"
         style="font-variant:normal;font-weight:normal;font-size:6.009px;font-family:'Liberation Serif';-inkscape-font-specification:LiberationSerif;writing-mode:lr-tb;fill:#000000;fill-opacity:1;fill-rule:nonzero;stroke:none"
         id="text540"><tspan
           x="0 3.0044999 4.5067501"
           y="0"
           sodipodi:role="line"
           id="tspan538">3.2</tspan></text></g><g
       transform="matrix(1.3333333,0,0,-1.3333333,0,1122.5197)"
       id="g542"><text
         transform="matrix(1,0,0,-1,299.509,734.087)"
         style="font-variant:normal;font-weight:normal;font-size:6.009px;font-family:'Liberation Serif';-inkscape-font-specification:LiberationSerif;writing-mode:lr-tb;fill:#000000;fill-opacity:1;fill-rule:nonzero;stroke:none"
         id="text546"><tspan
           x="0 3.0044999 4.5067501"
           y="0"
           sodipodi:role="line"
           id="tspan544">3.2</tspan></text></g><g
       transform="matrix(1.3333333,0,0,-1.3333333,0,1122.5197)"
       id="g548"><text
         transform="matrix(1,0,0,-1,324.709,734.087)"
         style="font-variant:normal;font-weight:normal;font-size:6.009px;font-family:'Liberation Serif';-inkscape-font-specification:LiberationSerif;writing-mode:lr-tb;fill:#000000;fill-opacity:1;fill-rule:nonzero;stroke:none"
         id="text552"><tspan
           x="0 3.0044999 4.5067501"
           y="0"
           sodipodi:role="line"
           id="tspan550">2.4</tspan></text></g><g
       transform="matrix(1.3333333,0,0,-1.3333333,0,1122.5197)"
       id="g554"><text
         transform="matrix(1,0,0,-1,337.408,734.087)"
         style="font-variant:normal;font-weight:normal;font-size:6.009px;font-family:'Liberation Serif';-inkscape-font-specification:LiberationSerif;writing-mode:lr-tb;fill:#000000;fill-opacity:1;fill-rule:nonzero;stroke:none"
         id="text558"><tspan
           x="0 3.0044999 4.5067501"
           y="0"
           sodipodi:role="line"
           id="tspan556">3.2</tspan></text></g><g
       transform="matrix(1.3333333,0,0,-1.3333333,0,1122.5197)"
       id="g560"><text
         transform="matrix(1,0,0,-1,349.994,734.087)"
         style="font-variant:normal;font-weight:normal;font-size:6.009px;font-family:'Liberation Serif';-inkscape-font-specification:LiberationSerif;writing-mode:lr-tb;fill:#000000;fill-opacity:1;fill-rule:nonzero;stroke:none"
         id="text564"><tspan
           x="0 3.0044999 4.5067501"
           y="0"
           sodipodi:role="line"
           id="tspan562">3.2</tspan></text></g><g
       transform="matrix(1.3333333,0,0,-1.3333333,0,1122.5197)"
       id="g566"><text
         transform="matrix(1,0,0,-1,375.307,734.087)"
         style="font-variant:normal;font-weight:normal;font-size:6.009px;font-family:'Liberation Serif';-inkscape-font-specification:LiberationSerif;writing-mode:lr-tb;fill:#000000;fill-opacity:1;fill-rule:nonzero;stroke:none"
         id="text570"><tspan
           x="0 3.0044999 4.5067501"
           y="0"
           sodipodi:role="line"
           id="tspan568">3.2</tspan></text></g><g
       transform="matrix(1.3333333,0,0,-1.3333333,0,1122.5197)"
       id="g572"><text
         transform="matrix(1,0,0,-1,387.893,734.087)"
         style="font-variant:normal;font-weight:normal;font-size:6.009px;font-family:'Liberation Serif';-inkscape-font-specification:LiberationSerif;writing-mode:lr-tb;fill:#000000;fill-opacity:1;fill-rule:nonzero;stroke:none"
         id="text576"><tspan
           x="0 3.0044999 4.5067501"
           y="0"
           sodipodi:role="line"
           id="tspan574">3.2</tspan></text></g><g
       transform="matrix(1.3333333,0,0,-1.3333333,0,1122.5197)"
       id="g578"><text
         transform="matrix(1,0,0,-1,400.592,734.087)"
         style="font-variant:normal;font-weight:normal;font-size:6.009px;font-family:'Liberation Serif';-inkscape-font-specification:LiberationSerif;writing-mode:lr-tb;fill:#000000;fill-opacity:1;fill-rule:nonzero;stroke:none"
         id="text582"><tspan
           x="0 3.0044999 4.5067501"
           y="0"
           sodipodi:role="line"
           id="tspan580">3.2</tspan></text></g><g
       transform="matrix(1.3333333,0,0,-1.3333333,0,1122.5197)"
       id="g584"><text
         transform="matrix(1,0,0,-1,425.906,734.087)"
         style="font-variant:normal;font-weight:normal;font-size:6.009px;font-family:'Liberation Serif';-inkscape-font-specification:LiberationSerif;writing-mode:lr-tb;fill:#000000;fill-opacity:1;fill-rule:nonzero;stroke:none"
         id="text588"><tspan
           x="0 3.0044999 4.5067501"
           y="0"
           sodipodi:role="line"
           id="tspan586">3.2</tspan></text></g><g
       transform="matrix(1.3333333,0,0,-1.3333333,0,1122.5197)"
       id="g590"><text
         transform="matrix(1,0,0,-1,438.491,734.087)"
         style="font-variant:normal;font-weight:normal;font-size:6.009px;font-family:'Liberation Serif';-inkscape-font-specification:LiberationSerif;writing-mode:lr-tb;fill:#000000;fill-opacity:1;fill-rule:nonzero;stroke:none"
         id="text594"><tspan
           x="0 3.0044999 4.5067501"
           y="0"
           sodipodi:role="line"
           id="tspan592">3.2</tspan></text></g><g
       transform="matrix(1.3333333,0,0,-1.3333333,0,1122.5197)"
       id="g596"><text
         transform="matrix(1,0,0,-1,451.191,734.087)"
         style="font-variant:normal;font-weight:normal;font-size:6.009px;font-family:'Liberation Serif';-inkscape-font-specification:LiberationSerif;writing-mode:lr-tb;fill:#000000;fill-opacity:1;fill-rule:nonzero;stroke:none"
         id="text600"><tspan
           x="0 3.0044999 4.5067501"
           y="0"
           sodipodi:role="line"
           id="tspan598">3.2</tspan></text></g><g
       transform="matrix(1.3333333,0,0,-1.3333333,0,1122.5197)"
       id="g602"><text
         transform="matrix(1,0,0,-1,476.391,734.087)"
         style="font-variant:normal;font-weight:normal;font-size:6.009px;font-family:'Liberation Serif';-inkscape-font-specification:LiberationSerif;writing-mode:lr-tb;fill:#000000;fill-opacity:1;fill-rule:nonzero;stroke:none"
         id="text606"><tspan
           x="0 3.0044999 4.5067501"
           y="0"
           sodipodi:role="line"
           id="tspan604">3.2</tspan></text></g><g
       transform="matrix(1.3333333,0,0,-1.3333333,0,1122.5197)"
       id="g608"><text
         transform="matrix(1,0,0,-1,489.09,734.087)"
         style="font-variant:normal;font-weight:normal;font-size:6.009px;font-family:'Liberation Serif';-inkscape-font-specification:LiberationSerif;writing-mode:lr-tb;fill:#000000;fill-opacity:1;fill-rule:nonzero;stroke:none"
         id="text612"><tspan
           x="0 3.0044999 4.5067501"
           y="0"
           sodipodi:role="line"
           id="tspan610">3.2</tspan></text></g><g
       transform="matrix(1.3333333,0,0,-1.3333333,0,1122.5197)"
       id="g614"><text
         transform="matrix(1,0,0,-1,501.704,734.087)"
         style="font-variant:normal;font-weight:normal;font-size:6.009px;font-family:'Liberation Serif';-inkscape-font-specification:LiberationSerif;writing-mode:lr-tb;fill:#000000;fill-opacity:1;fill-rule:nonzero;stroke:none"
         id="text618"><tspan
           x="0 3.0044999 4.5067501"
           y="0"
           sodipodi:role="line"
           id="tspan616">3.2</tspan></text></g><g
       transform="matrix(1.3333333,0,0,-1.3333333,0,1122.5197)"
       id="g620"><text
         transform="matrix(1,0,0,-1,71.887,722.976)"
         style="font-variant:normal;font-weight:normal;font-size:6.009px;font-family:'Liberation Serif';-inkscape-font-specification:LiberationSerif;writing-mode:lr-tb;fill:#000000;fill-opacity:1;fill-rule:nonzero;stroke:none"
         id="text624"><tspan
           x="0 3.0044999 4.5067501"
           y="0"
           sodipodi:role="line"
           id="tspan622">3.2</tspan></text></g><g
       transform="matrix(1.3333333,0,0,-1.3333333,0,1122.5197)"
       id="g626"><text
         transform="matrix(1,0,0,-1,84.501,722.976)"
         style="font-variant:normal;font-weight:normal;font-size:6.009px;font-family:'Liberation Serif';-inkscape-font-specification:LiberationSerif;writing-mode:lr-tb;fill:#000000;fill-opacity:1;fill-rule:nonzero;stroke:none"
         id="text630"><tspan
           x="0 3.0044999 4.5067501"
           y="0"
           sodipodi:role="line"
           id="tspan628">3.2</tspan></text></g><g
       transform="matrix(1.3333333,0,0,-1.3333333,0,1122.5197)"
       id="g632"><text
         transform="matrix(1,0,0,-1,97.2,722.976)"
         style="font-variant:normal;font-weight:normal;font-size:6.009px;font-family:'Liberation Serif';-inkscape-font-specification:LiberationSerif;writing-mode:lr-tb;fill:#000000;fill-opacity:1;fill-rule:nonzero;stroke:none"
         id="text636"><tspan
           x="0 3.0044999 4.5067501"
           y="0"
           sodipodi:role="line"
           id="tspan634">3.2</tspan></text></g><g
       transform="matrix(1.3333333,0,0,-1.3333333,0,1122.5197)"
       id="g638"><text
         transform="matrix(1,0,0,-1,122.513,722.976)"
         style="font-variant:normal;font-weight:normal;font-size:6.009px;font-family:'Liberation Serif';-inkscape-font-specification:LiberationSerif;writing-mode:lr-tb;fill:#000000;fill-opacity:1;fill-rule:nonzero;stroke:none"
         id="text642"><tspan
           x="0 3.0044999 4.5067501"
           y="0"
           sodipodi:role="line"
           id="tspan640">3.2</tspan></text></g><g
       transform="matrix(1.3333333,0,0,-1.3333333,0,1122.5197)"
       id="g644"><text
         transform="matrix(1,0,0,-1,135.099,722.976)"
         style="font-variant:normal;font-weight:normal;font-size:6.009px;font-family:'Liberation Serif';-inkscape-font-specification:LiberationSerif;writing-mode:lr-tb;fill:#000000;fill-opacity:1;fill-rule:nonzero;stroke:none"
         id="text648"><tspan
           x="0 3.0044999 4.5067501"
           y="0"
           sodipodi:role="line"
           id="tspan646">3.2</tspan></text></g><g
       transform="matrix(1.3333333,0,0,-1.3333333,0,1122.5197)"
       id="g650"><text
         transform="matrix(1,0,0,-1,147.713,722.976)"
         style="font-variant:normal;font-weight:normal;font-size:6.009px;font-family:'Liberation Serif';-inkscape-font-specification:LiberationSerif;writing-mode:lr-tb;fill:#000000;fill-opacity:1;fill-rule:nonzero;stroke:none"
         id="text654"><tspan
           x="0 3.0044999 4.5067501"
           y="0"
           sodipodi:role="line"
           id="tspan652">3.2</tspan></text></g><g
       transform="matrix(1.3333333,0,0,-1.3333333,0,1122.5197)"
       id="g656"><text
         transform="matrix(1,0,0,-1,172.998,722.976)"
         style="font-variant:normal;font-weight:normal;font-size:6.009px;font-family:'Liberation Serif';-inkscape-font-specification:LiberationSerif;writing-mode:lr-tb;fill:#000000;fill-opacity:1;fill-rule:nonzero;stroke:none"
         id="text660"><tspan
           x="0 3.0044999 4.5067501"
           y="0"
           sodipodi:role="line"
           id="tspan658">3.2</tspan></text></g><g
       transform="matrix(1.3333333,0,0,-1.3333333,0,1122.5197)"
       id="g662"><text
         transform="matrix(1,0,0,-1,185.698,722.976)"
         style="font-variant:normal;font-weight:normal;font-size:6.009px;font-family:'Liberation Serif';-inkscape-font-specification:LiberationSerif;writing-mode:lr-tb;fill:#000000;fill-opacity:1;fill-rule:nonzero;stroke:none"
         id="text666"><tspan
           x="0 3.0044999 4.5067501"
           y="0"
           sodipodi:role="line"
           id="tspan664">3.2</tspan></text></g><g
       transform="matrix(1.3333333,0,0,-1.3333333,0,1122.5197)"
       id="g668"><text
         transform="matrix(1,0,0,-1,198.312,722.976)"
         style="font-variant:normal;font-weight:normal;font-size:6.009px;font-family:'Liberation Serif';-inkscape-font-specification:LiberationSerif;writing-mode:lr-tb;fill:#000000;fill-opacity:1;fill-rule:nonzero;stroke:none"
         id="text672"><tspan
           x="0 3.0044999 4.5067501"
           y="0"
           sodipodi:role="line"
           id="tspan670">3.2</tspan></text></g><g
       transform="matrix(1.3333333,0,0,-1.3333333,0,1122.5197)"
       id="g674"><text
         transform="matrix(1,0,0,-1,223.597,722.976)"
         style="font-variant:normal;font-weight:normal;font-size:6.009px;font-family:'Liberation Serif';-inkscape-font-specification:LiberationSerif;writing-mode:lr-tb;fill:#000000;fill-opacity:1;fill-rule:nonzero;stroke:none"
         id="text678"><tspan
           x="0 3.0044999 4.5067501"
           y="0"
           sodipodi:role="line"
           id="tspan676">3.2</tspan></text></g><g
       transform="matrix(1.3333333,0,0,-1.3333333,0,1122.5197)"
       id="g680"><text
         transform="matrix(1,0,0,-1,236.211,722.976)"
         style="font-variant:normal;font-weight:normal;font-size:6.009px;font-family:'Liberation Serif';-inkscape-font-specification:LiberationSerif;writing-mode:lr-tb;fill:#000000;fill-opacity:1;fill-rule:nonzero;stroke:none"
         id="text684"><tspan
           x="0 3.0044999 4.5067501"
           y="0"
           sodipodi:role="line"
           id="tspan682">3.2</tspan></text></g><g
       transform="matrix(1.3333333,0,0,-1.3333333,0,1122.5197)"
       id="g686"><text
         transform="matrix(1,0,0,-1,248.91,722.976)"
         style="font-variant:normal;font-weight:normal;font-size:6.009px;font-family:'Liberation Serif';-inkscape-font-specification:LiberationSerif;writing-mode:lr-tb;fill:#000000;fill-opacity:1;fill-rule:nonzero;stroke:none"
         id="text690"><tspan
           x="0 3.0044999 4.5067501"
           y="0"
           sodipodi:role="line"
           id="tspan688">3.2</tspan></text></g><g
       transform="matrix(1.3333333,0,0,-1.3333333,0,1122.5197)"
       id="g692"><text
         transform="matrix(1,0,0,-1,274.195,722.976)"
         style="font-variant:normal;font-weight:normal;font-size:6.009px;font-family:'Liberation Serif';-inkscape-font-specification:LiberationSerif;writing-mode:lr-tb;fill:#000000;fill-opacity:1;fill-rule:nonzero;stroke:none"
         id="text696"><tspan
           x="0 3.0044999 4.5067501"
           y="0"
           sodipodi:role="line"
           id="tspan694">3.2</tspan></text></g><g
       transform="matrix(1.3333333,0,0,-1.3333333,0,1122.5197)"
       id="g698"><text
         transform="matrix(1,0,0,-1,286.809,722.976)"
         style="font-variant:normal;font-weight:normal;font-size:6.009px;font-family:'Liberation Serif';-inkscape-font-specification:LiberationSerif;writing-mode:lr-tb;fill:#000000;fill-opacity:1;fill-rule:nonzero;stroke:none"
         id="text702"><tspan
           x="0 3.0044999 4.5067501"
           y="0"
           sodipodi:role="line"
           id="tspan700">3.2</tspan></text></g><g
       transform="matrix(1.3333333,0,0,-1.3333333,0,1122.5197)"
       id="g704"><text
         transform="matrix(1,0,0,-1,299.509,722.976)"
         style="font-variant:normal;font-weight:normal;font-size:6.009px;font-family:'Liberation Serif';-inkscape-font-specification:LiberationSerif;writing-mode:lr-tb;fill:#000000;fill-opacity:1;fill-rule:nonzero;stroke:none"
         id="text708"><tspan
           x="0 3.0044999 4.5067501"
           y="0"
           sodipodi:role="line"
           id="tspan706">3.2</tspan></text></g><g
       transform="matrix(1.3333333,0,0,-1.3333333,0,1122.5197)"
       id="g710"><text
         transform="matrix(1,0,0,-1,324.709,722.976)"
         style="font-variant:normal;font-weight:normal;font-size:6.009px;font-family:'Liberation Serif';-inkscape-font-specification:LiberationSerif;writing-mode:lr-tb;fill:#000000;fill-opacity:1;fill-rule:nonzero;stroke:none"
         id="text714"><tspan
           x="0 3.0044999 4.5067501"
           y="0"
           sodipodi:role="line"
           id="tspan712">3.2</tspan></text></g><g
       transform="matrix(1.3333333,0,0,-1.3333333,0,1122.5197)"
       id="g716"><text
         transform="matrix(1,0,0,-1,337.408,722.976)"
         style="font-variant:normal;font-weight:normal;font-size:6.009px;font-family:'Liberation Serif';-inkscape-font-specification:LiberationSerif;writing-mode:lr-tb;fill:#000000;fill-opacity:1;fill-rule:nonzero;stroke:none"
         id="text720"><tspan
           x="0 3.0044999 4.5067501"
           y="0"
           sodipodi:role="line"
           id="tspan718">3.2</tspan></text></g><g
       transform="matrix(1.3333333,0,0,-1.3333333,0,1122.5197)"
       id="g722"><text
         transform="matrix(1,0,0,-1,349.994,722.976)"
         style="font-variant:normal;font-weight:normal;font-size:6.009px;font-family:'Liberation Serif';-inkscape-font-specification:LiberationSerif;writing-mode:lr-tb;fill:#000000;fill-opacity:1;fill-rule:nonzero;stroke:none"
         id="text726"><tspan
           x="0 3.0044999 4.5067501"
           y="0"
           sodipodi:role="line"
           id="tspan724">3.2</tspan></text></g><g
       transform="matrix(1.3333333,0,0,-1.3333333,0,1122.5197)"
       id="g728"><text
         transform="matrix(1,0,0,-1,375.307,722.976)"
         style="font-variant:normal;font-weight:normal;font-size:6.009px;font-family:'Liberation Serif';-inkscape-font-specification:LiberationSerif;writing-mode:lr-tb;fill:#000000;fill-opacity:1;fill-rule:nonzero;stroke:none"
         id="text732"><tspan
           x="0 3.0044999 4.5067501"
           y="0"
           sodipodi:role="line"
           id="tspan730">3.2</tspan></text></g><g
       transform="matrix(1.3333333,0,0,-1.3333333,0,1122.5197)"
       id="g734"><text
         transform="matrix(1,0,0,-1,387.893,722.976)"
         style="font-variant:normal;font-weight:normal;font-size:6.009px;font-family:'Liberation Serif';-inkscape-font-specification:LiberationSerif;writing-mode:lr-tb;fill:#000000;fill-opacity:1;fill-rule:nonzero;stroke:none"
         id="text738"><tspan
           x="0 3.0044999 4.5067501"
           y="0"
           sodipodi:role="line"
           id="tspan736">3.2</tspan></text></g><g
       transform="matrix(1.3333333,0,0,-1.3333333,0,1122.5197)"
       id="g740"><text
         transform="matrix(1,0,0,-1,400.592,722.976)"
         style="font-variant:normal;font-weight:normal;font-size:6.009px;font-family:'Liberation Serif';-inkscape-font-specification:LiberationSerif;writing-mode:lr-tb;fill:#000000;fill-opacity:1;fill-rule:nonzero;stroke:none"
         id="text744"><tspan
           x="0 3.0044999 4.5067501"
           y="0"
           sodipodi:role="line"
           id="tspan742">3.2</tspan></text></g><g
       transform="matrix(1.3333333,0,0,-1.3333333,0,1122.5197)"
       id="g746"><text
         transform="matrix(1,0,0,-1,425.906,722.976)"
         style="font-variant:normal;font-weight:normal;font-size:6.009px;font-family:'Liberation Serif';-inkscape-font-specification:LiberationSerif;writing-mode:lr-tb;fill:#000000;fill-opacity:1;fill-rule:nonzero;stroke:none"
         id="text750"><tspan
           x="0 3.0044999 4.5067501"
           y="0"
           sodipodi:role="line"
           id="tspan748">3.2</tspan></text></g><g
       transform="matrix(1.3333333,0,0,-1.3333333,0,1122.5197)"
       id="g752"><text
         transform="matrix(1,0,0,-1,438.491,722.976)"
         style="font-variant:normal;font-weight:normal;font-size:6.009px;font-family:'Liberation Serif';-inkscape-font-specification:LiberationSerif;writing-mode:lr-tb;fill:#000000;fill-opacity:1;fill-rule:nonzero;stroke:none"
         id="text756"><tspan
           x="0 3.0044999 4.5067501"
           y="0"
           sodipodi:role="line"
           id="tspan754">3.2</tspan></text></g><g
       transform="matrix(1.3333333,0,0,-1.3333333,0,1122.5197)"
       id="g758"><text
         transform="matrix(1,0,0,-1,451.191,722.976)"
         style="font-variant:normal;font-weight:normal;font-size:6.009px;font-family:'Liberation Serif';-inkscape-font-specification:LiberationSerif;writing-mode:lr-tb;fill:#000000;fill-opacity:1;fill-rule:nonzero;stroke:none"
         id="text762"><tspan
           x="0 3.0044999 4.5067501"
           y="0"
           sodipodi:role="line"
           id="tspan760">3.2</tspan></text></g><g
       transform="matrix(1.3333333,0,0,-1.3333333,0,1122.5197)"
       id="g764"><text
         transform="matrix(1,0,0,-1,476.391,722.976)"
         style="font-variant:normal;font-weight:normal;font-size:6.009px;font-family:'Liberation Serif';-inkscape-font-specification:LiberationSerif;writing-mode:lr-tb;fill:#000000;fill-opacity:1;fill-rule:nonzero;stroke:none"
         id="text768"><tspan
           x="0 3.0044999 4.5067501"
           y="0"
           sodipodi:role="line"
           id="tspan766">3.2</tspan></text></g><g
       transform="matrix(1.3333333,0,0,-1.3333333,0,1122.5197)"
       id="g770"><text
         transform="matrix(1,0,0,-1,489.09,722.976)"
         style="font-variant:normal;font-weight:normal;font-size:6.009px;font-family:'Liberation Serif';-inkscape-font-specification:LiberationSerif;writing-mode:lr-tb;fill:#000000;fill-opacity:1;fill-rule:nonzero;stroke:none"
         id="text774"><tspan
           x="0 3.0044999 4.5067501"
           y="0"
           sodipodi:role="line"
           id="tspan772">3.2</tspan></text></g><g
       transform="matrix(1.3333333,0,0,-1.3333333,0,1122.5197)"
       id="g776"><text
         transform="matrix(1,0,0,-1,501.704,722.976)"
         style="font-variant:normal;font-weight:normal;font-size:6.009px;font-family:'Liberation Serif';-inkscape-font-specification:LiberationSerif;writing-mode:lr-tb;fill:#000000;fill-opacity:1;fill-rule:nonzero;stroke:none"
         id="text780"><tspan
           x="0 3.0044999 4.5067501"
           y="0"
           sodipodi:role="line"
           id="tspan778">3.2</tspan></text></g><g
       transform="matrix(1.3333333,0,0,-1.3333333,0,1122.5197)"
       id="g782"><text
         transform="matrix(1,0,0,-1,85.805,711.779)"
         style="font-variant:normal;font-weight:normal;font-size:6.009px;font-family:'Liberation Serif';-inkscape-font-specification:LiberationSerif;writing-mode:lr-tb;fill:#000000;fill-opacity:1;fill-rule:nonzero;stroke:none"
         id="text786"><tspan
           x="0 2.0009971"
           y="0"
           sodipodi:role="line"
           id="tspan784">-7</tspan></text></g><g
       transform="matrix(1.3333333,0,0,-1.3333333,0,1122.5197)"
       id="g788"><text
         transform="matrix(1,0,0,-1,136.29,711.779)"
         style="font-variant:normal;font-weight:normal;font-size:6.009px;font-family:'Liberation Serif';-inkscape-font-specification:LiberationSerif;writing-mode:lr-tb;fill:#000000;fill-opacity:1;fill-rule:nonzero;stroke:none"
         id="text792"><tspan
           x="0 2.0009971"
           y="0"
           sodipodi:role="line"
           id="tspan790">-8</tspan></text></g><g
       transform="matrix(1.3333333,0,0,-1.3333333,0,1122.5197)"
       id="g794"><text
         transform="matrix(1,0,0,-1,185.414,711.779)"
         style="font-variant:normal;font-weight:normal;font-size:6.009px;font-family:'Liberation Serif';-inkscape-font-specification:LiberationSerif;writing-mode:lr-tb;fill:#000000;fill-opacity:1;fill-rule:nonzero;stroke:none"
         id="text798"><tspan
           x="0 2.0009971 5.005497"
           y="0"
           sodipodi:role="line"
           id="tspan796">-10</tspan></text></g><g
       transform="matrix(1.3333333,0,0,-1.3333333,0,1122.5197)"
       id="g800"><text
         transform="matrix(1,0,0,-1,236.013,711.779)"
         style="font-variant:normal;font-weight:normal;font-size:6.009px;font-family:'Liberation Serif';-inkscape-font-specification:LiberationSerif;writing-mode:lr-tb;fill:#000000;fill-opacity:1;fill-rule:nonzero;stroke:none"
         id="text804"><tspan
           x="0 2.0009971 5.005497"
           y="0"
           sodipodi:role="line"
           id="tspan802">-14</tspan></text></g><g
       transform="matrix(1.3333333,0,0,-1.3333333,0,1122.5197)"
       id="g806"><text
         transform="matrix(1,0,0,-1,286.611,711.779)"
         style="font-variant:normal;font-weight:normal;font-size:6.009px;font-family:'Liberation Serif';-inkscape-font-specification:LiberationSerif;writing-mode:lr-tb;fill:#000000;fill-opacity:1;fill-rule:nonzero;stroke:none"
         id="text810"><tspan
           x="0 2.0009971 5.005497"
           y="0"
           sodipodi:role="line"
           id="tspan808">-15</tspan></text></g><g
       transform="matrix(1.3333333,0,0,-1.3333333,0,1122.5197)"
       id="g812"><text
         transform="matrix(1,0,0,-1,337.096,711.779)"
         style="font-variant:normal;font-weight:normal;font-size:6.009px;font-family:'Liberation Serif';-inkscape-font-specification:LiberationSerif;writing-mode:lr-tb;fill:#000000;fill-opacity:1;fill-rule:nonzero;stroke:none"
         id="text816"><tspan
           x="0 2.0009971 5.005497"
           y="0"
           sodipodi:role="line"
           id="tspan814">-12</tspan></text></g><g
       transform="matrix(1.3333333,0,0,-1.3333333,0,1122.5197)"
       id="g818"><text
         transform="matrix(1,0,0,-1,387.694,711.779)"
         style="font-variant:normal;font-weight:normal;font-size:6.009px;font-family:'Liberation Serif';-inkscape-font-specification:LiberationSerif;writing-mode:lr-tb;fill:#000000;fill-opacity:1;fill-rule:nonzero;stroke:none"
         id="text822"><tspan
           x="0 2.0009971 5.005497"
           y="0"
           sodipodi:role="line"
           id="tspan820">-14</tspan></text></g><g
       transform="matrix(1.3333333,0,0,-1.3333333,0,1122.5197)"
       id="g824"><text
         transform="matrix(1,0,0,-1,438.293,711.779)"
         style="font-variant:normal;font-weight:normal;font-size:6.009px;font-family:'Liberation Serif';-inkscape-font-specification:LiberationSerif;writing-mode:lr-tb;fill:#000000;fill-opacity:1;fill-rule:nonzero;stroke:none"
         id="text828"><tspan
           x="0 2.0009971 5.005497"
           y="0"
           sodipodi:role="line"
           id="tspan826">-15</tspan></text></g><g
       transform="matrix(1.3333333,0,0,-1.3333333,0,1122.5197)"
       id="g830"><text
         transform="matrix(1,0,0,-1,488.806,711.779)"
         style="font-variant:normal;font-weight:normal;font-size:6.009px;font-family:'Liberation Serif';-inkscape-font-specification:LiberationSerif;writing-mode:lr-tb;fill:#000000;fill-opacity:1;fill-rule:nonzero;stroke:none"
         id="text834"><tspan
           x="0 2.0009971 5.005497"
           y="0"
           sodipodi:role="line"
           id="tspan832">-16</tspan></text></g><g
       transform="matrix(1.3333333,0,0,-1.3333333,0,1122.5197)"
       id="g836"><text
         transform="matrix(1,0,0,-1,82.998,700.695)"
         style="font-variant:normal;font-weight:normal;font-size:6.009px;font-family:'Liberation Serif';-inkscape-font-specification:LiberationSerif;writing-mode:lr-tb;fill:#000000;fill-opacity:1;fill-rule:nonzero;stroke:none"
         id="text840"><tspan
           x="0 3.0044999 4.5067501 7.51125"
           y="0"
           sodipodi:role="line"
           id="tspan838">1.56</tspan></text></g><g
       transform="matrix(1.3333333,0,0,-1.3333333,0,1122.5197)"
       id="g842"><text
         transform="matrix(1,0,0,-1,133.597,700.695)"
         style="font-variant:normal;font-weight:normal;font-size:6.009px;font-family:'Liberation Serif';-inkscape-font-specification:LiberationSerif;writing-mode:lr-tb;fill:#000000;fill-opacity:1;fill-rule:nonzero;stroke:none"
         id="text846"><tspan
           x="0 3.0044999 4.5067501 7.51125"
           y="0"
           sodipodi:role="line"
           id="tspan844">1.59</tspan></text></g><g
       transform="matrix(1.3333333,0,0,-1.3333333,0,1122.5197)"
       id="g848"><text
         transform="matrix(1,0,0,-1,184.195,700.695)"
         style="font-variant:normal;font-weight:normal;font-size:6.009px;font-family:'Liberation Serif';-inkscape-font-specification:LiberationSerif;writing-mode:lr-tb;fill:#000000;fill-opacity:1;fill-rule:nonzero;stroke:none"
         id="text852"><tspan
           x="0 3.0044999 4.5067501 7.51125"
           y="0"
           sodipodi:role="line"
           id="tspan850">1.76</tspan></text></g><g
       transform="matrix(1.3333333,0,0,-1.3333333,0,1122.5197)"
       id="g854"><text
         transform="matrix(1,0,0,-1,234.709,700.695)"
         style="font-variant:normal;font-weight:normal;font-size:6.009px;font-family:'Liberation Serif';-inkscape-font-specification:LiberationSerif;writing-mode:lr-tb;fill:#000000;fill-opacity:1;fill-rule:nonzero;stroke:none"
         id="text858"><tspan
           x="0 3.0044999 4.5067501 7.51125"
           y="0"
           sodipodi:role="line"
           id="tspan856">1.58</tspan></text></g><g
       transform="matrix(1.3333333,0,0,-1.3333333,0,1122.5197)"
       id="g860"><text
         transform="matrix(1,0,0,-1,285.307,700.695)"
         style="font-variant:normal;font-weight:normal;font-size:6.009px;font-family:'Liberation Serif';-inkscape-font-specification:LiberationSerif;writing-mode:lr-tb;fill:#000000;fill-opacity:1;fill-rule:nonzero;stroke:none"
         id="text864"><tspan
           x="0 3.0044999 4.5067501 7.51125"
           y="0"
           sodipodi:role="line"
           id="tspan862">1.72</tspan></text></g><g
       transform="matrix(1.3333333,0,0,-1.3333333,0,1122.5197)"
       id="g866"><text
         transform="matrix(1,0,0,-1,335.906,700.695)"
         style="font-variant:normal;font-weight:normal;font-size:6.009px;font-family:'Liberation Serif';-inkscape-font-specification:LiberationSerif;writing-mode:lr-tb;fill:#000000;fill-opacity:1;fill-rule:nonzero;stroke:none"
         id="text870"><tspan
           x="0 3.0044999 4.5067501 7.51125"
           y="0"
           sodipodi:role="line"
           id="tspan868">1.65</tspan></text></g><g
       transform="matrix(1.3333333,0,0,-1.3333333,0,1122.5197)"
       id="g872"><text
         transform="matrix(1,0,0,-1,386.391,700.695)"
         style="font-variant:normal;font-weight:normal;font-size:6.009px;font-family:'Liberation Serif';-inkscape-font-specification:LiberationSerif;writing-mode:lr-tb;fill:#000000;fill-opacity:1;fill-rule:nonzero;stroke:none"
         id="text876"><tspan
           x="0 3.0044999 4.5067501 7.51125"
           y="0"
           sodipodi:role="line"
           id="tspan874">1.77</tspan></text></g><g
       transform="matrix(1.3333333,0,0,-1.3333333,0,1122.5197)"
       id="g878"><text
         transform="matrix(1,0,0,-1,438.491,700.695)"
         style="font-variant:normal;font-weight:normal;font-size:6.009px;font-family:'Liberation Serif';-inkscape-font-specification:LiberationSerif;writing-mode:lr-tb;fill:#000000;fill-opacity:1;fill-rule:nonzero;stroke:none"
         id="text882"><tspan
           x="0 3.0044999 4.5067501"
           y="0"
           sodipodi:role="line"
           id="tspan880">1.7</tspan></text></g><g
       transform="matrix(1.3333333,0,0,-1.3333333,0,1122.5197)"
       id="g884"><text
         transform="matrix(1,0,0,-1,487.587,700.695)"
         style="font-variant:normal;font-weight:normal;font-size:6.009px;font-family:'Liberation Serif';-inkscape-font-specification:LiberationSerif;writing-mode:lr-tb;fill:#000000;fill-opacity:1;fill-rule:nonzero;stroke:none"
         id="text888"><tspan
           x="0 3.0044999 4.5067501 7.51125"
           y="0"
           sodipodi:role="line"
           id="tspan886">1.77</tspan></text></g><text
       xml:space="preserve"
       style="font-style:normal;font-variant:normal;font-weight:normal;font-stretch:normal;font-size:8.66667px;line-height:165%;font-family:'Liberation Serif';-inkscape-font-specification:'Liberation Serif';text-align:end;letter-spacing:0px;word-spacing:0px;text-anchor:end;fill:#000000;fill-opacity:1;stroke:none"
       x="99.379845"
       y="173.97371"
       id="text2422"><tspan
         sodipodi:role="line"
         id="tspan2420"
         x="99.379845"
         y="173.97371"
         style="font-weight:bold">cycle length(MWd/kgU):</tspan><tspan
         sodipodi:role="line"
         x="99.379845"
         y="188.31084"
         id="tspan2424"
         style="font-weight:bold">PPF                        :</tspan></text></g></svg>
