<?xml version="1.0" encoding="UTF-8" standalone="no"?>
<svg
   xmlns:dc="http://purl.org/dc/elements/1.1/"
   xmlns:cc="http://creativecommons.org/ns#"
   xmlns:rdf="http://www.w3.org/1999/02/22-rdf-syntax-ns#"
   xmlns:svg="http://www.w3.org/2000/svg"
   xmlns="http://www.w3.org/2000/svg"
   xmlns:sodipodi="http://sodipodi.sourceforge.net/DTD/sodipodi-0.dtd"
   xmlns:inkscape="http://www.inkscape.org/namespaces/inkscape"
   inkscape:version="1.0rc1 (09960d6f05, 2020-04-09)"
   sodipodi:docname="surrogate_core_designs5.svg"
   viewBox="0 0 713.16722 124.57879"
   height="32.961472mm"
   width="188.69215mm"
   xml:space="preserve"
   id="svg2"
   version="1.1"><metadata
     id="metadata8"><rdf:RDF><cc:Work
         rdf:about=""><dc:format>image/svg+xml</dc:format><dc:type
           rdf:resource="http://purl.org/dc/dcmitype/StillImage" /><dc:title></dc:title></cc:Work></rdf:RDF></metadata><defs
     id="defs6"><clipPath
       id="clipPath18"
       clipPathUnits="userSpaceOnUse"><path
         inkscape:connector-curvature="0"
         id="path16"
         clip-rule="evenodd"
         d="M 0,0.028 H 595.275 V 841.889 H 0 Z" /></clipPath><clipPath
       id="clipPath26"
       clipPathUnits="userSpaceOnUse"><path
         inkscape:connector-curvature="0"
         id="path24"
         clip-rule="evenodd"
         d="m 56.7,771.089 h 481.85 v 14.099 H 56.7 Z" /></clipPath><clipPath
       id="clipPath44"
       clipPathUnits="userSpaceOnUse"><path
         inkscape:connector-curvature="0"
         id="path42"
         clip-rule="evenodd"
         d="M 56.7,56.789 H 538.55 V 70.888 H 56.7 Z" /></clipPath></defs><sodipodi:namedview
     inkscape:current-layer="layer1"
     inkscape:window-maximized="1"
     inkscape:window-y="27"
     inkscape:window-x="0"
     inkscape:cy="45.571685"
     inkscape:cx="324.89729"
     inkscape:zoom="1.4145201"
     fit-margin-bottom="5"
     fit-margin-right="5"
     fit-margin-left="5"
     fit-margin-top="5"
     lock-margins="true"
     units="mm"
     showgrid="false"
     id="namedview4"
     inkscape:window-height="1016"
     inkscape:window-width="1920"
     inkscape:pageshadow="2"
     inkscape:pageopacity="0"
     guidetolerance="10"
     gridtolerance="10"
     objecttolerance="10"
     borderopacity="1"
     bordercolor="#666666"
     pagecolor="#ffffff" /><g
     transform="matrix(1.3333333,0,0,-1.3333333,11.284249,1023.4816)"
     inkscape:label="surrogate_core_designs5"
     inkscape:groupmode="layer"
     id="g10"><g
       id="g12"><g
         clip-path="url(#clipPath18)"
         id="g14" /></g><path
       inkscape:connector-curvature="0"
       id="path62"
       style="fill:#3465a4;fill-opacity:1;fill-rule:evenodd;stroke:#000000;stroke-opacity:1"
       d="m 69.222,741.769 h 12.671 v 11.169 H 69.222 Z" /><path
       inkscape:connector-curvature="0"
       id="path64"
       style="fill:#3465a4;fill-opacity:1;fill-rule:evenodd;stroke:#000000;stroke-opacity:1"
       d="m 81.865,741.769 h 12.671 v 11.169 H 81.865 Z" /><path
       inkscape:connector-curvature="0"
       id="path66"
       style="fill:#3465a4;fill-opacity:1;fill-rule:evenodd;stroke:#000000;stroke-opacity:1"
       d="m 94.507,741.769 h 12.671 v 11.169 H 94.507 Z" /><path
       inkscape:connector-curvature="0"
       id="path68"
       style="fill:#3465a4;fill-opacity:1;fill-rule:evenodd;stroke:#000000;stroke-opacity:1"
       d="m 119.792,741.769 h 12.671 v 11.169 h -12.671 z" /><path
       inkscape:connector-curvature="0"
       id="path70"
       style="fill:#3465a4;fill-opacity:1;fill-rule:evenodd;stroke:#000000;stroke-opacity:1"
       d="m 132.435,741.769 h 12.671 v 11.169 h -12.671 z" /><path
       inkscape:connector-curvature="0"
       id="path72"
       style="fill:#3465a4;fill-opacity:1;fill-rule:evenodd;stroke:#000000;stroke-opacity:1"
       d="m 145.077,741.769 h 12.671 v 11.169 h -12.671 z" /><path
       inkscape:connector-curvature="0"
       id="path74"
       style="fill:#3465a4;fill-opacity:1;fill-rule:evenodd;stroke:#000000;stroke-opacity:1"
       d="m 170.362,741.769 h 12.671 v 11.169 h -12.671 z" /><path
       inkscape:connector-curvature="0"
       id="path76"
       style="fill:#3465a4;fill-opacity:1;fill-rule:evenodd;stroke:#000000;stroke-opacity:1"
       d="m 183.005,741.769 h 12.671 v 11.169 h -12.671 z" /><path
       inkscape:connector-curvature="0"
       id="path78"
       style="fill:#3465a4;fill-opacity:1;fill-rule:evenodd;stroke:#000000;stroke-opacity:1"
       d="m 195.647,741.769 h 12.671 v 11.169 h -12.671 z" /><path
       inkscape:connector-curvature="0"
       id="path80"
       style="fill:#3465a4;fill-opacity:1;fill-rule:evenodd;stroke:#000000;stroke-opacity:1"
       d="m 220.932,741.769 h 12.671 v 11.169 h -12.671 z" /><path
       inkscape:connector-curvature="0"
       id="path82"
       style="fill:#3465a4;fill-opacity:1;fill-rule:evenodd;stroke:#000000;stroke-opacity:1"
       d="m 233.575,741.769 h 12.671 v 11.169 h -12.671 z" /><path
       inkscape:connector-curvature="0"
       id="path84"
       style="fill:#3465a4;fill-opacity:1;fill-rule:evenodd;stroke:#000000;stroke-opacity:1"
       d="m 246.217,741.769 h 12.671 v 11.169 h -12.671 z" /><path
       inkscape:connector-curvature="0"
       id="path86"
       style="fill:#3465a4;fill-opacity:1;fill-rule:evenodd;stroke:#000000;stroke-opacity:1"
       d="m 271.502,741.769 h 12.671 v 11.169 h -12.671 z" /><path
       inkscape:connector-curvature="0"
       id="path88"
       style="fill:#3465a4;fill-opacity:1;fill-rule:evenodd;stroke:#000000;stroke-opacity:1"
       d="m 284.145,741.769 h 12.671 v 11.169 h -12.671 z" /><path
       inkscape:connector-curvature="0"
       id="path90"
       style="fill:#88ba47;fill-opacity:1;fill-rule:evenodd;stroke:#000000;stroke-opacity:1"
       d="m 296.787,741.769 h 12.671 v 11.169 h -12.671 z" /><path
       inkscape:connector-curvature="0"
       id="path92"
       style="fill:#3465a4;fill-opacity:1;fill-rule:evenodd;stroke:#000000;stroke-opacity:1"
       d="m 322.072,741.769 h 12.671 v 11.169 h -12.671 z" /><path
       inkscape:connector-curvature="0"
       id="path94"
       style="fill:#3465a4;fill-opacity:1;fill-rule:evenodd;stroke:#000000;stroke-opacity:1"
       d="m 334.715,741.769 h 12.671 v 11.169 h -12.671 z" /><path
       inkscape:connector-curvature="0"
       id="path96"
       style="fill:#88ba47;fill-opacity:1;fill-rule:evenodd;stroke:#000000;stroke-opacity:1"
       d="m 347.357,741.769 h 12.671 v 11.169 h -12.671 z" /><path
       inkscape:connector-curvature="0"
       id="path98"
       style="fill:#3465a4;fill-opacity:1;fill-rule:evenodd;stroke:#000000;stroke-opacity:1"
       d="m 372.643,741.769 h 12.671 v 11.169 h -12.671 z" /><path
       inkscape:connector-curvature="0"
       id="path100"
       style="fill:#3465a4;fill-opacity:1;fill-rule:evenodd;stroke:#000000;stroke-opacity:1"
       d="m 385.285,741.769 h 12.671 v 11.169 h -12.671 z" /><path
       inkscape:connector-curvature="0"
       id="path102"
       style="fill:#88ba47;fill-opacity:1;fill-rule:evenodd;stroke:#000000;stroke-opacity:1"
       d="m 397.928,741.769 h 12.671 v 11.169 h -12.671 z" /><path
       inkscape:connector-curvature="0"
       id="path104"
       style="fill:#3465a4;fill-opacity:1;fill-rule:evenodd;stroke:#000000;stroke-opacity:1"
       d="m 423.213,741.769 h 12.671 v 11.169 h -12.671 z" /><path
       inkscape:connector-curvature="0"
       id="path106"
       style="fill:#3465a4;fill-opacity:1;fill-rule:evenodd;stroke:#000000;stroke-opacity:1"
       d="m 435.855,741.769 h 12.671 v 11.169 h -12.671 z" /><path
       inkscape:connector-curvature="0"
       id="path108"
       style="fill:#88ba47;fill-opacity:1;fill-rule:evenodd;stroke:#000000;stroke-opacity:1"
       d="m 448.498,741.769 h 12.671 v 11.169 h -12.671 z" /><path
       inkscape:connector-curvature="0"
       id="path110"
       style="fill:#3465a4;fill-opacity:1;fill-rule:evenodd;stroke:#000000;stroke-opacity:1"
       d="m 473.783,741.769 h 12.671 v 11.169 h -12.671 z" /><path
       inkscape:connector-curvature="0"
       id="path112"
       style="fill:#3465a4;fill-opacity:1;fill-rule:evenodd;stroke:#000000;stroke-opacity:1"
       d="m 486.425,741.769 h 12.671 v 11.169 h -12.671 z" /><path
       inkscape:connector-curvature="0"
       id="path114"
       style="fill:#88ba47;fill-opacity:1;fill-rule:evenodd;stroke:#000000;stroke-opacity:1"
       d="m 499.068,741.769 h 12.671 v 11.169 h -12.671 z" /><path
       inkscape:connector-curvature="0"
       id="path116"
       style="fill:#3465a4;fill-opacity:1;fill-rule:evenodd;stroke:#000000;stroke-opacity:1"
       d="m 69.222,730.629 h 12.671 v 11.169 H 69.222 Z" /><path
       inkscape:connector-curvature="0"
       id="path118"
       style="fill:#3465a4;fill-opacity:1;fill-rule:evenodd;stroke:#000000;stroke-opacity:1"
       d="m 81.865,730.629 h 12.671 v 11.169 H 81.865 Z" /><path
       inkscape:connector-curvature="0"
       id="path120"
       style="fill:#3465a4;fill-opacity:1;fill-rule:evenodd;stroke:#000000;stroke-opacity:1"
       d="m 94.507,730.629 h 12.671 v 11.169 H 94.507 Z" /><path
       inkscape:connector-curvature="0"
       id="path122"
       style="fill:#3465a4;fill-opacity:1;fill-rule:evenodd;stroke:#000000;stroke-opacity:1"
       d="m 119.792,730.629 h 12.671 v 11.169 h -12.671 z" /><path
       inkscape:connector-curvature="0"
       id="path124"
       style="fill:#3465a4;fill-opacity:1;fill-rule:evenodd;stroke:#000000;stroke-opacity:1"
       d="m 132.435,730.629 h 12.671 v 11.169 h -12.671 z" /><path
       inkscape:connector-curvature="0"
       id="path126"
       style="fill:#3465a4;fill-opacity:1;fill-rule:evenodd;stroke:#000000;stroke-opacity:1"
       d="m 145.077,730.629 h 12.671 v 11.169 h -12.671 z" /><path
       inkscape:connector-curvature="0"
       id="path128"
       style="fill:#3465a4;fill-opacity:1;fill-rule:evenodd;stroke:#000000;stroke-opacity:1"
       d="m 170.362,730.629 h 12.671 v 11.169 h -12.671 z" /><path
       inkscape:connector-curvature="0"
       id="path130"
       style="fill:#3465a4;fill-opacity:1;fill-rule:evenodd;stroke:#000000;stroke-opacity:1"
       d="m 183.005,730.629 h 12.671 v 11.169 h -12.671 z" /><path
       inkscape:connector-curvature="0"
       id="path132"
       style="fill:#88ba47;fill-opacity:1;fill-rule:evenodd;stroke:#000000;stroke-opacity:1"
       d="m 195.647,730.629 h 12.671 v 11.169 h -12.671 z" /><path
       inkscape:connector-curvature="0"
       id="path134"
       style="fill:#3465a4;fill-opacity:1;fill-rule:evenodd;stroke:#000000;stroke-opacity:1"
       d="m 220.932,730.629 h 12.671 v 11.169 h -12.671 z" /><path
       inkscape:connector-curvature="0"
       id="path136"
       style="fill:#3465a4;fill-opacity:1;fill-rule:evenodd;stroke:#000000;stroke-opacity:1"
       d="m 233.575,730.629 h 12.671 v 11.169 h -12.671 z" /><path
       inkscape:connector-curvature="0"
       id="path138"
       style="fill:#88ba47;fill-opacity:1;fill-rule:evenodd;stroke:#000000;stroke-opacity:1"
       d="m 246.217,730.629 h 12.671 v 11.169 h -12.671 z" /><path
       inkscape:connector-curvature="0"
       id="path140"
       style="fill:#3465a4;fill-opacity:1;fill-rule:evenodd;stroke:#000000;stroke-opacity:1"
       d="m 271.502,730.629 h 12.671 v 11.169 h -12.671 z" /><path
       inkscape:connector-curvature="0"
       id="path142"
       style="fill:#3465a4;fill-opacity:1;fill-rule:evenodd;stroke:#000000;stroke-opacity:1"
       d="m 284.145,730.629 h 12.671 v 11.169 h -12.671 z" /><path
       inkscape:connector-curvature="0"
       id="path144"
       style="fill:#88ba47;fill-opacity:1;fill-rule:evenodd;stroke:#000000;stroke-opacity:1"
       d="m 296.787,730.629 h 12.671 v 11.169 h -12.671 z" /><path
       inkscape:connector-curvature="0"
       id="path146"
       style="fill:#3465a4;fill-opacity:1;fill-rule:evenodd;stroke:#000000;stroke-opacity:1"
       d="m 322.072,730.629 h 12.671 v 11.169 h -12.671 z" /><path
       inkscape:connector-curvature="0"
       id="path148"
       style="fill:#3465a4;fill-opacity:1;fill-rule:evenodd;stroke:#000000;stroke-opacity:1"
       d="m 334.715,730.629 h 12.671 v 11.169 h -12.671 z" /><path
       inkscape:connector-curvature="0"
       id="path150"
       style="fill:#88ba47;fill-opacity:1;fill-rule:evenodd;stroke:#000000;stroke-opacity:1"
       d="m 347.357,730.629 h 12.671 v 11.169 h -12.671 z" /><path
       inkscape:connector-curvature="0"
       id="path152"
       style="fill:#3465a4;fill-opacity:1;fill-rule:evenodd;stroke:#000000;stroke-opacity:1"
       d="m 372.643,730.629 h 12.671 v 11.169 h -12.671 z" /><path
       inkscape:connector-curvature="0"
       id="path154"
       style="fill:#3465a4;fill-opacity:1;fill-rule:evenodd;stroke:#000000;stroke-opacity:1"
       d="m 385.285,730.629 h 12.671 v 11.169 h -12.671 z" /><path
       inkscape:connector-curvature="0"
       id="path156"
       style="fill:#88ba47;fill-opacity:1;fill-rule:evenodd;stroke:#000000;stroke-opacity:1"
       d="m 397.928,730.629 h 12.671 v 11.169 h -12.671 z" /><path
       inkscape:connector-curvature="0"
       id="path158"
       style="fill:#3465a4;fill-opacity:1;fill-rule:evenodd;stroke:#000000;stroke-opacity:1"
       d="m 423.213,730.629 h 12.671 v 11.169 h -12.671 z" /><path
       inkscape:connector-curvature="0"
       id="path160"
       style="fill:#3465a4;fill-opacity:1;fill-rule:evenodd;stroke:#000000;stroke-opacity:1"
       d="m 435.855,730.629 h 12.671 v 11.169 h -12.671 z" /><path
       inkscape:connector-curvature="0"
       id="path162"
       style="fill:#88ba47;fill-opacity:1;fill-rule:evenodd;stroke:#000000;stroke-opacity:1"
       d="m 448.498,730.629 h 12.671 v 11.169 h -12.671 z" /><path
       inkscape:connector-curvature="0"
       id="path164"
       style="fill:#3465a4;fill-opacity:1;fill-rule:evenodd;stroke:#000000;stroke-opacity:1"
       d="m 473.783,730.629 h 12.671 v 11.169 h -12.671 z" /><path
       inkscape:connector-curvature="0"
       id="path166"
       style="fill:#3465a4;fill-opacity:1;fill-rule:evenodd;stroke:#000000;stroke-opacity:1"
       d="m 486.425,730.629 h 12.671 v 11.169 h -12.671 z" /><path
       inkscape:connector-curvature="0"
       id="path168"
       style="fill:#88ba47;fill-opacity:1;fill-rule:evenodd;stroke:#000000;stroke-opacity:1"
       d="m 499.068,730.629 h 12.671 v 11.169 h -12.671 z" /><path
       inkscape:connector-curvature="0"
       id="path170"
       style="fill:#3465a4;fill-opacity:1;fill-rule:evenodd;stroke:#000000;stroke-opacity:1"
       d="m 69.222,719.489 h 12.671 v 11.169 H 69.222 Z" /><path
       inkscape:connector-curvature="0"
       id="path172"
       style="fill:#3465a4;fill-opacity:1;fill-rule:evenodd;stroke:#000000;stroke-opacity:1"
       d="m 81.865,719.489 h 12.671 v 11.169 H 81.865 Z" /><path
       inkscape:connector-curvature="0"
       id="path174"
       style="fill:#3465a4;fill-opacity:1;fill-rule:evenodd;stroke:#000000;stroke-opacity:1"
       d="m 94.507,719.489 h 12.671 v 11.169 H 94.507 Z" /><path
       inkscape:connector-curvature="0"
       id="path176"
       style="fill:#88ba47;fill-opacity:1;fill-rule:evenodd;stroke:#000000;stroke-opacity:1"
       d="m 119.792,719.489 h 12.671 v 11.169 h -12.671 z" /><path
       inkscape:connector-curvature="0"
       id="path178"
       style="fill:#3465a4;fill-opacity:1;fill-rule:evenodd;stroke:#000000;stroke-opacity:1"
       d="m 132.435,719.489 h 12.671 v 11.169 h -12.671 z" /><path
       inkscape:connector-curvature="0"
       id="path180"
       style="fill:#3465a4;fill-opacity:1;fill-rule:evenodd;stroke:#000000;stroke-opacity:1"
       d="m 145.077,719.489 h 12.671 v 11.169 h -12.671 z" /><path
       inkscape:connector-curvature="0"
       id="path182"
       style="fill:#3465a4;fill-opacity:1;fill-rule:evenodd;stroke:#000000;stroke-opacity:1"
       d="m 170.362,719.489 h 12.671 v 11.169 h -12.671 z" /><path
       inkscape:connector-curvature="0"
       id="path184"
       style="fill:#88ba47;fill-opacity:1;fill-rule:evenodd;stroke:#000000;stroke-opacity:1"
       d="m 183.005,719.489 h 12.671 v 11.169 h -12.671 z" /><path
       inkscape:connector-curvature="0"
       id="path186"
       style="fill:#88ba47;fill-opacity:1;fill-rule:evenodd;stroke:#000000;stroke-opacity:1"
       d="m 195.647,719.489 h 12.671 v 11.169 h -12.671 z" /><path
       inkscape:connector-curvature="0"
       id="path188"
       style="fill:#88ba47;fill-opacity:1;fill-rule:evenodd;stroke:#000000;stroke-opacity:1"
       d="m 220.932,719.489 h 12.671 v 11.169 h -12.671 z" /><path
       inkscape:connector-curvature="0"
       id="path190"
       style="fill:#3465a4;fill-opacity:1;fill-rule:evenodd;stroke:#000000;stroke-opacity:1"
       d="m 233.575,719.489 h 12.671 v 11.169 h -12.671 z" /><path
       inkscape:connector-curvature="0"
       id="path192"
       style="fill:#3465a4;fill-opacity:1;fill-rule:evenodd;stroke:#000000;stroke-opacity:1"
       d="m 246.217,719.489 h 12.671 v 11.169 h -12.671 z" /><path
       inkscape:connector-curvature="0"
       id="path194"
       style="fill:#3465a4;fill-opacity:1;fill-rule:evenodd;stroke:#000000;stroke-opacity:1"
       d="m 271.502,719.489 h 12.671 v 11.169 h -12.671 z" /><path
       inkscape:connector-curvature="0"
       id="path196"
       style="fill:#88ba47;fill-opacity:1;fill-rule:evenodd;stroke:#000000;stroke-opacity:1"
       d="m 284.145,719.489 h 12.671 v 11.169 h -12.671 z" /><path
       inkscape:connector-curvature="0"
       id="path198"
       style="fill:#88ba47;fill-opacity:1;fill-rule:evenodd;stroke:#000000;stroke-opacity:1"
       d="m 296.787,719.489 h 12.671 v 11.169 h -12.671 z" /><path
       inkscape:connector-curvature="0"
       id="path200"
       style="fill:#3465a4;fill-opacity:1;fill-rule:evenodd;stroke:#000000;stroke-opacity:1"
       d="m 322.072,719.489 h 12.671 v 11.169 h -12.671 z" /><path
       inkscape:connector-curvature="0"
       id="path202"
       style="fill:#88ba47;fill-opacity:1;fill-rule:evenodd;stroke:#000000;stroke-opacity:1"
       d="m 334.715,719.489 h 12.671 v 11.169 h -12.671 z" /><path
       inkscape:connector-curvature="0"
       id="path204"
       style="fill:#ffff6d;fill-opacity:1;fill-rule:evenodd;stroke:#000000;stroke-opacity:1"
       d="m 347.357,719.489 h 12.671 v 11.169 h -12.671 z" /><path
       inkscape:connector-curvature="0"
       id="path206"
       style="fill:#88ba47;fill-opacity:1;fill-rule:evenodd;stroke:#000000;stroke-opacity:1"
       d="m 372.643,719.489 h 12.671 v 11.169 h -12.671 z" /><path
       inkscape:connector-curvature="0"
       id="path208"
       style="fill:#3465a4;fill-opacity:1;fill-rule:evenodd;stroke:#000000;stroke-opacity:1"
       d="m 385.285,719.489 h 12.671 v 11.169 h -12.671 z" /><path
       inkscape:connector-curvature="0"
       id="path210"
       style="fill:#3465a4;fill-opacity:1;fill-rule:evenodd;stroke:#000000;stroke-opacity:1"
       d="m 397.928,719.489 h 12.671 v 11.169 h -12.671 z" /><path
       inkscape:connector-curvature="0"
       id="path212"
       style="fill:#88ba47;fill-opacity:1;fill-rule:evenodd;stroke:#000000;stroke-opacity:1"
       d="m 423.213,719.489 h 12.671 v 11.169 h -12.671 z" /><path
       inkscape:connector-curvature="0"
       id="path214"
       style="fill:#88ba47;fill-opacity:1;fill-rule:evenodd;stroke:#000000;stroke-opacity:1"
       d="m 435.855,719.489 h 12.671 v 11.169 h -12.671 z" /><path
       inkscape:connector-curvature="0"
       id="path216"
       style="fill:#3465a4;fill-opacity:1;fill-rule:evenodd;stroke:#000000;stroke-opacity:1"
       d="m 448.498,719.489 h 12.671 v 11.169 h -12.671 z" /><path
       inkscape:connector-curvature="0"
       id="path218"
       style="fill:#88ba47;fill-opacity:1;fill-rule:evenodd;stroke:#000000;stroke-opacity:1"
       d="m 473.783,719.489 h 12.671 v 11.169 h -12.671 z" /><path
       inkscape:connector-curvature="0"
       id="path220"
       style="fill:#88ba47;fill-opacity:1;fill-rule:evenodd;stroke:#000000;stroke-opacity:1"
       d="m 486.425,719.489 h 12.671 v 11.169 h -12.671 z" /><path
       inkscape:connector-curvature="0"
       id="path222"
       style="fill:#ffff6d;fill-opacity:1;fill-rule:evenodd;stroke:#000000;stroke-opacity:1"
       d="m 499.068,719.489 h 12.671 v 11.169 h -12.671 z" /></g><g
     transform="translate(11.284249,-99.038087)"
     style="display:inline"
     inkscape:label="text"
     id="layer1"
     inkscape:groupmode="layer"><g
       id="g548"
       transform="matrix(1.3333333,0,0,-1.3333333,0,1122.5197)"><text
         id="text552"
         style="font-variant:normal;font-weight:normal;font-size:6.009px;font-family:'Liberation Serif';-inkscape-font-specification:LiberationSerif;writing-mode:lr-tb;fill:#000000;fill-opacity:1;fill-rule:nonzero;stroke:none"
         transform="matrix(1,0,0,-1,71.887,722.976)"><tspan
           id="tspan550"
           sodipodi:role="line"
           y="0"
           x="0 3.0044999 4.5067501">1.6</tspan></text></g><g
       id="g554"
       transform="matrix(1.3333333,0,0,-1.3333333,0,1122.5197)"><text
         id="text558"
         style="font-variant:normal;font-weight:normal;font-size:6.009px;font-family:'Liberation Serif';-inkscape-font-specification:LiberationSerif;writing-mode:lr-tb;fill:#000000;fill-opacity:1;fill-rule:nonzero;stroke:none"
         transform="matrix(1,0,0,-1,84.501,722.976)"><tspan
           id="tspan556"
           sodipodi:role="line"
           y="0"
           x="0 3.0044999 4.5067501">1.6</tspan></text></g><g
       id="g560"
       transform="matrix(1.3333333,0,0,-1.3333333,0,1122.5197)"><text
         id="text564"
         style="font-variant:normal;font-weight:normal;font-size:6.009px;font-family:'Liberation Serif';-inkscape-font-specification:LiberationSerif;writing-mode:lr-tb;fill:#000000;fill-opacity:1;fill-rule:nonzero;stroke:none"
         transform="matrix(1,0,0,-1,97.2,722.976)"><tspan
           id="tspan562"
           sodipodi:role="line"
           y="0"
           x="0 3.0044999 4.5067501">1.6</tspan></text></g><g
       id="g566"
       transform="matrix(1.3333333,0,0,-1.3333333,0,1122.5197)"><text
         id="text570"
         style="font-variant:normal;font-weight:normal;font-size:6.009px;font-family:'Liberation Serif';-inkscape-font-specification:LiberationSerif;writing-mode:lr-tb;fill:#000000;fill-opacity:1;fill-rule:nonzero;stroke:none"
         transform="matrix(1,0,0,-1,122.513,722.976)"><tspan
           id="tspan568"
           sodipodi:role="line"
           y="0"
           x="0 3.0044999 4.5067501">2.4</tspan></text></g><g
       id="g572"
       transform="matrix(1.3333333,0,0,-1.3333333,0,1122.5197)"><text
         id="text576"
         style="font-variant:normal;font-weight:normal;font-size:6.009px;font-family:'Liberation Serif';-inkscape-font-specification:LiberationSerif;writing-mode:lr-tb;fill:#000000;fill-opacity:1;fill-rule:nonzero;stroke:none"
         transform="matrix(1,0,0,-1,135.099,722.976)"><tspan
           id="tspan574"
           sodipodi:role="line"
           y="0"
           x="0 3.0044999 4.5067501">1.6</tspan></text></g><g
       id="g578"
       transform="matrix(1.3333333,0,0,-1.3333333,0,1122.5197)"><text
         id="text582"
         style="font-variant:normal;font-weight:normal;font-size:6.009px;font-family:'Liberation Serif';-inkscape-font-specification:LiberationSerif;writing-mode:lr-tb;fill:#000000;fill-opacity:1;fill-rule:nonzero;stroke:none"
         transform="matrix(1,0,0,-1,147.713,722.976)"><tspan
           id="tspan580"
           sodipodi:role="line"
           y="0"
           x="0 3.0044999 4.5067501">1.6</tspan></text></g><g
       id="g584"
       transform="matrix(1.3333333,0,0,-1.3333333,0,1122.5197)"><text
         id="text588"
         style="font-variant:normal;font-weight:normal;font-size:6.009px;font-family:'Liberation Serif';-inkscape-font-specification:LiberationSerif;writing-mode:lr-tb;fill:#000000;fill-opacity:1;fill-rule:nonzero;stroke:none"
         transform="matrix(1,0,0,-1,172.998,722.976)"><tspan
           id="tspan586"
           sodipodi:role="line"
           y="0"
           x="0 3.0044999 4.5067501">1.6</tspan></text></g><g
       id="g590"
       transform="matrix(1.3333333,0,0,-1.3333333,0,1122.5197)"><text
         id="text594"
         style="font-variant:normal;font-weight:normal;font-size:6.009px;font-family:'Liberation Serif';-inkscape-font-specification:LiberationSerif;writing-mode:lr-tb;fill:#000000;fill-opacity:1;fill-rule:nonzero;stroke:none"
         transform="matrix(1,0,0,-1,185.698,722.976)"><tspan
           id="tspan592"
           sodipodi:role="line"
           y="0"
           x="0 3.0044999 4.5067501">2.4</tspan></text></g><g
       id="g596"
       transform="matrix(1.3333333,0,0,-1.3333333,0,1122.5197)"><text
         id="text600"
         style="font-variant:normal;font-weight:normal;font-size:6.009px;font-family:'Liberation Serif';-inkscape-font-specification:LiberationSerif;writing-mode:lr-tb;fill:#000000;fill-opacity:1;fill-rule:nonzero;stroke:none"
         transform="matrix(1,0,0,-1,198.312,722.976)"><tspan
           id="tspan598"
           sodipodi:role="line"
           y="0"
           x="0 3.0044999 4.5067501">2.4</tspan></text></g><g
       id="g602"
       transform="matrix(1.3333333,0,0,-1.3333333,0,1122.5197)"><text
         id="text606"
         style="font-variant:normal;font-weight:normal;font-size:6.009px;font-family:'Liberation Serif';-inkscape-font-specification:LiberationSerif;writing-mode:lr-tb;fill:#000000;fill-opacity:1;fill-rule:nonzero;stroke:none"
         transform="matrix(1,0,0,-1,223.597,722.976)"><tspan
           id="tspan604"
           sodipodi:role="line"
           y="0"
           x="0 3.0044999 4.5067501">2.4</tspan></text></g><g
       id="g608"
       transform="matrix(1.3333333,0,0,-1.3333333,0,1122.5197)"><text
         id="text612"
         style="font-variant:normal;font-weight:normal;font-size:6.009px;font-family:'Liberation Serif';-inkscape-font-specification:LiberationSerif;writing-mode:lr-tb;fill:#000000;fill-opacity:1;fill-rule:nonzero;stroke:none"
         transform="matrix(1,0,0,-1,236.211,722.976)"><tspan
           id="tspan610"
           sodipodi:role="line"
           y="0"
           x="0 3.0044999 4.5067501">1.6</tspan></text></g><g
       id="g614"
       transform="matrix(1.3333333,0,0,-1.3333333,0,1122.5197)"><text
         id="text618"
         style="font-variant:normal;font-weight:normal;font-size:6.009px;font-family:'Liberation Serif';-inkscape-font-specification:LiberationSerif;writing-mode:lr-tb;fill:#000000;fill-opacity:1;fill-rule:nonzero;stroke:none"
         transform="matrix(1,0,0,-1,248.91,722.976)"><tspan
           id="tspan616"
           sodipodi:role="line"
           y="0"
           x="0 3.0044999 4.5067501">1.6</tspan></text></g><g
       id="g620"
       transform="matrix(1.3333333,0,0,-1.3333333,0,1122.5197)"><text
         id="text624"
         style="font-variant:normal;font-weight:normal;font-size:6.009px;font-family:'Liberation Serif';-inkscape-font-specification:LiberationSerif;writing-mode:lr-tb;fill:#000000;fill-opacity:1;fill-rule:nonzero;stroke:none"
         transform="matrix(1,0,0,-1,274.195,722.976)"><tspan
           id="tspan622"
           sodipodi:role="line"
           y="0"
           x="0 3.0044999 4.5067501">1.6</tspan></text></g><g
       id="g626"
       transform="matrix(1.3333333,0,0,-1.3333333,0,1122.5197)"><text
         id="text630"
         style="font-variant:normal;font-weight:normal;font-size:6.009px;font-family:'Liberation Serif';-inkscape-font-specification:LiberationSerif;writing-mode:lr-tb;fill:#000000;fill-opacity:1;fill-rule:nonzero;stroke:none"
         transform="matrix(1,0,0,-1,286.809,722.976)"><tspan
           id="tspan628"
           sodipodi:role="line"
           y="0"
           x="0 3.0044999 4.5067501">2.4</tspan></text></g><g
       id="g632"
       transform="matrix(1.3333333,0,0,-1.3333333,0,1122.5197)"><text
         id="text636"
         style="font-variant:normal;font-weight:normal;font-size:6.009px;font-family:'Liberation Serif';-inkscape-font-specification:LiberationSerif;writing-mode:lr-tb;fill:#000000;fill-opacity:1;fill-rule:nonzero;stroke:none"
         transform="matrix(1,0,0,-1,299.509,722.976)"><tspan
           id="tspan634"
           sodipodi:role="line"
           y="0"
           x="0 3.0044999 4.5067501">2.4</tspan></text></g><g
       id="g638"
       transform="matrix(1.3333333,0,0,-1.3333333,0,1122.5197)"><text
         id="text642"
         style="font-variant:normal;font-weight:normal;font-size:6.009px;font-family:'Liberation Serif';-inkscape-font-specification:LiberationSerif;writing-mode:lr-tb;fill:#000000;fill-opacity:1;fill-rule:nonzero;stroke:none"
         transform="matrix(1,0,0,-1,324.709,722.976)"><tspan
           id="tspan640"
           sodipodi:role="line"
           y="0"
           x="0 3.0044999 4.5067501">1.6</tspan></text></g><g
       id="g644"
       transform="matrix(1.3333333,0,0,-1.3333333,0,1122.5197)"><text
         id="text648"
         style="font-variant:normal;font-weight:normal;font-size:6.009px;font-family:'Liberation Serif';-inkscape-font-specification:LiberationSerif;writing-mode:lr-tb;fill:#000000;fill-opacity:1;fill-rule:nonzero;stroke:none"
         transform="matrix(1,0,0,-1,337.408,722.976)"><tspan
           id="tspan646"
           sodipodi:role="line"
           y="0"
           x="0 3.0044999 4.5067501">2.4</tspan></text></g><g
       id="g650"
       transform="matrix(1.3333333,0,0,-1.3333333,0,1122.5197)"><text
         id="text654"
         style="font-variant:normal;font-weight:normal;font-size:6.009px;font-family:'Liberation Serif';-inkscape-font-specification:LiberationSerif;writing-mode:lr-tb;fill:#000000;fill-opacity:1;fill-rule:nonzero;stroke:none"
         transform="matrix(1,0,0,-1,349.994,722.976)"><tspan
           id="tspan652"
           sodipodi:role="line"
           y="0"
           x="0 3.0044999 4.5067501">3.2</tspan></text></g><g
       id="g656"
       transform="matrix(1.3333333,0,0,-1.3333333,0,1122.5197)"><text
         id="text660"
         style="font-variant:normal;font-weight:normal;font-size:6.009px;font-family:'Liberation Serif';-inkscape-font-specification:LiberationSerif;writing-mode:lr-tb;fill:#000000;fill-opacity:1;fill-rule:nonzero;stroke:none"
         transform="matrix(1,0,0,-1,375.307,722.976)"><tspan
           id="tspan658"
           sodipodi:role="line"
           y="0"
           x="0 3.0044999 4.5067501">2.4</tspan></text></g><g
       id="g662"
       transform="matrix(1.3333333,0,0,-1.3333333,0,1122.5197)"><text
         id="text666"
         style="font-variant:normal;font-weight:normal;font-size:6.009px;font-family:'Liberation Serif';-inkscape-font-specification:LiberationSerif;writing-mode:lr-tb;fill:#000000;fill-opacity:1;fill-rule:nonzero;stroke:none"
         transform="matrix(1,0,0,-1,387.893,722.976)"><tspan
           id="tspan664"
           sodipodi:role="line"
           y="0"
           x="0 3.0044999 4.5067501">1.6</tspan></text></g><g
       id="g668"
       transform="matrix(1.3333333,0,0,-1.3333333,0,1122.5197)"><text
         id="text672"
         style="font-variant:normal;font-weight:normal;font-size:6.009px;font-family:'Liberation Serif';-inkscape-font-specification:LiberationSerif;writing-mode:lr-tb;fill:#000000;fill-opacity:1;fill-rule:nonzero;stroke:none"
         transform="matrix(1,0,0,-1,400.592,722.976)"><tspan
           id="tspan670"
           sodipodi:role="line"
           y="0"
           x="0 3.0044999 4.5067501">1.6</tspan></text></g><g
       id="g674"
       transform="matrix(1.3333333,0,0,-1.3333333,0,1122.5197)"><text
         id="text678"
         style="font-variant:normal;font-weight:normal;font-size:6.009px;font-family:'Liberation Serif';-inkscape-font-specification:LiberationSerif;writing-mode:lr-tb;fill:#000000;fill-opacity:1;fill-rule:nonzero;stroke:none"
         transform="matrix(1,0,0,-1,425.906,722.976)"><tspan
           id="tspan676"
           sodipodi:role="line"
           y="0"
           x="0 3.0044999 4.5067501">2.4</tspan></text></g><g
       id="g680"
       transform="matrix(1.3333333,0,0,-1.3333333,0,1122.5197)"><text
         id="text684"
         style="font-variant:normal;font-weight:normal;font-size:6.009px;font-family:'Liberation Serif';-inkscape-font-specification:LiberationSerif;writing-mode:lr-tb;fill:#000000;fill-opacity:1;fill-rule:nonzero;stroke:none"
         transform="matrix(1,0,0,-1,438.491,722.976)"><tspan
           id="tspan682"
           sodipodi:role="line"
           y="0"
           x="0 3.0044999 4.5067501">2.4</tspan></text></g><g
       id="g686"
       transform="matrix(1.3333333,0,0,-1.3333333,0,1122.5197)"><text
         id="text690"
         style="font-variant:normal;font-weight:normal;font-size:6.009px;font-family:'Liberation Serif';-inkscape-font-specification:LiberationSerif;writing-mode:lr-tb;fill:#000000;fill-opacity:1;fill-rule:nonzero;stroke:none"
         transform="matrix(1,0,0,-1,451.191,722.976)"><tspan
           id="tspan688"
           sodipodi:role="line"
           y="0"
           x="0 3.0044999 4.5067501">1.6</tspan></text></g><g
       id="g692"
       transform="matrix(1.3333333,0,0,-1.3333333,0,1122.5197)"><text
         id="text696"
         style="font-variant:normal;font-weight:normal;font-size:6.009px;font-family:'Liberation Serif';-inkscape-font-specification:LiberationSerif;writing-mode:lr-tb;fill:#000000;fill-opacity:1;fill-rule:nonzero;stroke:none"
         transform="matrix(1,0,0,-1,476.391,722.976)"><tspan
           id="tspan694"
           sodipodi:role="line"
           y="0"
           x="0 3.0044999 4.5067501">2.4</tspan></text></g><g
       id="g698"
       transform="matrix(1.3333333,0,0,-1.3333333,0,1122.5197)"><text
         id="text702"
         style="font-variant:normal;font-weight:normal;font-size:6.009px;font-family:'Liberation Serif';-inkscape-font-specification:LiberationSerif;writing-mode:lr-tb;fill:#000000;fill-opacity:1;fill-rule:nonzero;stroke:none"
         transform="matrix(1,0,0,-1,489.09,722.976)"><tspan
           id="tspan700"
           sodipodi:role="line"
           y="0"
           x="0 3.0044999 4.5067501">2.4</tspan></text></g><g
       id="g704"
       transform="matrix(1.3333333,0,0,-1.3333333,0,1122.5197)"><text
         id="text708"
         style="font-variant:normal;font-weight:normal;font-size:6.009px;font-family:'Liberation Serif';-inkscape-font-specification:LiberationSerif;writing-mode:lr-tb;fill:#000000;fill-opacity:1;fill-rule:nonzero;stroke:none"
         transform="matrix(1,0,0,-1,501.704,722.976)"><tspan
           id="tspan706"
           sodipodi:role="line"
           y="0"
           x="0 3.0044999 4.5067501">3.2</tspan></text></g><g
       id="g710"
       transform="matrix(1.3333333,0,0,-1.3333333,0,1122.5197)"><text
         id="text714"
         style="font-variant:normal;font-weight:normal;font-size:9.014px;font-family:'Liberation Serif';-inkscape-font-specification:LiberationSerif;writing-mode:lr-tb;fill:#000000;fill-opacity:1;fill-rule:nonzero;stroke:none"
         transform="matrix(1,0,0,-1,73.587,710.787)"><tspan
           id="tspan712"
           sodipodi:role="line"
           y="0"
           x="0 4.507 6.8055701 11.31257 15.81957 20.326571 24.83357">1.00361</tspan></text></g><g
       id="g716"
       transform="matrix(1.3333333,0,0,-1.3333333,0,1122.5197)"><text
         id="text720"
         style="font-variant:normal;font-weight:normal;font-size:9.014px;font-family:'Liberation Serif';-inkscape-font-specification:LiberationSerif;writing-mode:lr-tb;fill:#000000;fill-opacity:1;fill-rule:nonzero;stroke:none"
         transform="matrix(1,0,0,-1,124.214,710.787)"><tspan
           id="tspan718"
           sodipodi:role="line"
           y="0"
           x="0 4.507 6.8055701 11.31257 15.81957 20.326571 24.83357">1.01297</tspan></text></g><g
       id="g722"
       transform="matrix(1.3333333,0,0,-1.3333333,0,1122.5197)"><text
         id="text726"
         style="font-variant:normal;font-weight:normal;font-size:9.014px;font-family:'Liberation Serif';-inkscape-font-specification:LiberationSerif;writing-mode:lr-tb;fill:#000000;fill-opacity:1;fill-rule:nonzero;stroke:none"
         transform="matrix(1,0,0,-1,174.813,710.787)"><tspan
           id="tspan724"
           sodipodi:role="line"
           y="0"
           x="0 4.507 6.8055701 11.31257 15.81957 20.326571 24.83357">1.01828</tspan></text></g><g
       id="g728"
       transform="matrix(1.3333333,0,0,-1.3333333,0,1122.5197)"><text
         id="text732"
         style="font-variant:normal;font-weight:normal;font-size:9.014px;font-family:'Liberation Serif';-inkscape-font-specification:LiberationSerif;writing-mode:lr-tb;fill:#000000;fill-opacity:1;fill-rule:nonzero;stroke:none"
         transform="matrix(1,0,0,-1,225.298,710.787)"><tspan
           id="tspan730"
           sodipodi:role="line"
           y="0"
           x="0 4.507 6.8055701 11.31257 15.81957 20.326571 24.83357">1.01794</tspan></text></g><g
       id="g734"
       transform="matrix(1.3333333,0,0,-1.3333333,0,1122.5197)"><text
         id="text738"
         style="font-variant:normal;font-weight:normal;font-size:9.014px;font-family:'Liberation Serif';-inkscape-font-specification:LiberationSerif;writing-mode:lr-tb;fill:#000000;fill-opacity:1;fill-rule:nonzero;stroke:none"
         transform="matrix(1,0,0,-1,275.896,710.787)"><tspan
           id="tspan736"
           sodipodi:role="line"
           y="0"
           x="0 4.507 6.8055701 11.31257 15.81957 20.326571 24.83357">1.02802</tspan></text></g><g
       id="g740"
       transform="matrix(1.3333333,0,0,-1.3333333,0,1122.5197)"><text
         id="text744"
         style="font-variant:normal;font-weight:normal;font-size:9.014px;font-family:'Liberation Serif';-inkscape-font-specification:LiberationSerif;writing-mode:lr-tb;fill:#000000;fill-opacity:1;fill-rule:nonzero;stroke:none"
         transform="matrix(1,0,0,-1,326.494,710.787)"><tspan
           id="tspan742"
           sodipodi:role="line"
           y="0"
           x="0 4.507 6.8055701 11.31257 15.81957 20.326571 24.83357">1.03097</tspan></text></g><g
       id="g746"
       transform="matrix(1.3333333,0,0,-1.3333333,0,1122.5197)"><text
         id="text750"
         style="font-variant:normal;font-weight:normal;font-size:9.014px;font-family:'Liberation Serif';-inkscape-font-specification:LiberationSerif;writing-mode:lr-tb;fill:#000000;fill-opacity:1;fill-rule:nonzero;stroke:none"
         transform="matrix(1,0,0,-1,377.008,710.787)"><tspan
           id="tspan748"
           sodipodi:role="line"
           y="0"
           x="0 4.507 6.8055701 11.31257 15.81957 20.326571 24.83357">1.02827</tspan></text></g><g
       id="g752"
       transform="matrix(1.3333333,0,0,-1.3333333,0,1122.5197)"><text
         id="text756"
         style="font-variant:normal;font-weight:normal;font-size:9.014px;font-family:'Liberation Serif';-inkscape-font-specification:LiberationSerif;writing-mode:lr-tb;fill:#000000;fill-opacity:1;fill-rule:nonzero;stroke:none"
         transform="matrix(1,0,0,-1,427.606,710.787)"><tspan
           id="tspan754"
           sodipodi:role="line"
           y="0"
           x="0 4.507 6.8055701 11.31257 15.81957 20.326571 24.83357">1.03488</tspan></text></g><g
       id="g758"
       transform="matrix(1.3333333,0,0,-1.3333333,0,1122.5197)"><text
         id="text762"
         style="font-variant:normal;font-weight:normal;font-size:9.014px;font-family:'Liberation Serif';-inkscape-font-specification:LiberationSerif;writing-mode:lr-tb;fill:#000000;fill-opacity:1;fill-rule:nonzero;stroke:none"
         transform="matrix(1,0,0,-1,478.205,710.787)"><tspan
           id="tspan760"
           sodipodi:role="line"
           y="0"
           x="0 4.507 6.8055701 11.31257 15.81957 20.326571 24.83357">1.03097</tspan></text></g><g
       id="g764"
       transform="matrix(1.3333333,0,0,-1.3333333,0,1122.5197)"><text
         id="text768"
         style="font-variant:normal;font-weight:normal;font-size:9.014px;font-family:'Liberation Serif';-inkscape-font-specification:LiberationSerif;writing-mode:lr-tb;fill:#000000;fill-opacity:1;fill-rule:nonzero;stroke:none"
         transform="matrix(1,0,0,-1,80.391,699.675)"><tspan
           id="tspan766"
           sodipodi:role="line"
           y="0"
           x="0 4.507 6.8055701 11.31257">1.60</tspan></text></g><g
       id="g770"
       transform="matrix(1.3333333,0,0,-1.3333333,0,1122.5197)"><text
         id="text774"
         style="font-variant:normal;font-weight:normal;font-size:9.014px;font-family:'Liberation Serif';-inkscape-font-specification:LiberationSerif;writing-mode:lr-tb;fill:#000000;fill-opacity:1;fill-rule:nonzero;stroke:none"
         transform="matrix(1,0,0,-1,130.989,699.675)"><tspan
           id="tspan772"
           sodipodi:role="line"
           y="0"
           x="0 4.507 6.8055701 11.31257">1.69</tspan></text></g><g
       id="g776"
       transform="matrix(1.3333333,0,0,-1.3333333,0,1122.5197)"><text
         id="text780"
         style="font-variant:normal;font-weight:normal;font-size:9.014px;font-family:'Liberation Serif';-inkscape-font-specification:LiberationSerif;writing-mode:lr-tb;fill:#000000;fill-opacity:1;fill-rule:nonzero;stroke:none"
         transform="matrix(1,0,0,-1,181.502,699.675)"><tspan
           id="tspan778"
           sodipodi:role="line"
           y="0"
           x="0 4.507 6.8055701 11.31257">1.87</tspan></text></g><g
       id="g782"
       transform="matrix(1.3333333,0,0,-1.3333333,0,1122.5197)"><text
         id="text786"
         style="font-variant:normal;font-weight:normal;font-size:9.014px;font-family:'Liberation Serif';-inkscape-font-specification:LiberationSerif;writing-mode:lr-tb;fill:#000000;fill-opacity:1;fill-rule:nonzero;stroke:none"
         transform="matrix(1,0,0,-1,232.101,699.675)"><tspan
           id="tspan784"
           sodipodi:role="line"
           y="0"
           x="0 4.507 6.8055701 11.31257">1.78</tspan></text></g><g
       id="g788"
       transform="matrix(1.3333333,0,0,-1.3333333,0,1122.5197)"><text
         id="text792"
         style="font-variant:normal;font-weight:normal;font-size:9.014px;font-family:'Liberation Serif';-inkscape-font-specification:LiberationSerif;writing-mode:lr-tb;fill:#000000;fill-opacity:1;fill-rule:nonzero;stroke:none"
         transform="matrix(1,0,0,-1,282.699,699.675)"><tspan
           id="tspan790"
           sodipodi:role="line"
           y="0"
           x="0 4.507 6.8055701 11.31257">1.96</tspan></text></g><g
       id="g794"
       transform="matrix(1.3333333,0,0,-1.3333333,0,1122.5197)"><text
         id="text798"
         style="font-variant:normal;font-weight:normal;font-size:9.014px;font-family:'Liberation Serif';-inkscape-font-specification:LiberationSerif;writing-mode:lr-tb;fill:#000000;fill-opacity:1;fill-rule:nonzero;stroke:none"
         transform="matrix(1,0,0,-1,333.213,699.675)"><tspan
           id="tspan796"
           sodipodi:role="line"
           y="0"
           x="0 4.507 6.8055701 11.31257">2.04</tspan></text></g><g
       id="g800"
       transform="matrix(1.3333333,0,0,-1.3333333,0,1122.5197)"><text
         id="text804"
         style="font-variant:normal;font-weight:normal;font-size:9.014px;font-family:'Liberation Serif';-inkscape-font-specification:LiberationSerif;writing-mode:lr-tb;fill:#000000;fill-opacity:1;fill-rule:nonzero;stroke:none"
         transform="matrix(1,0,0,-1,383.811,699.675)"><tspan
           id="tspan802"
           sodipodi:role="line"
           y="0"
           x="0 4.507 6.8055701 11.31257">1.87</tspan></text></g><g
       id="g806"
       transform="matrix(1.3333333,0,0,-1.3333333,0,1122.5197)"><text
         id="text810"
         style="font-variant:normal;font-weight:normal;font-size:9.014px;font-family:'Liberation Serif';-inkscape-font-specification:LiberationSerif;writing-mode:lr-tb;fill:#000000;fill-opacity:1;fill-rule:nonzero;stroke:none"
         transform="matrix(1,0,0,-1,434.409,699.675)"><tspan
           id="tspan808"
           sodipodi:role="line"
           y="0"
           x="0 4.507 6.8055701 11.31257">1.96</tspan></text></g><g
       id="g812"
       transform="matrix(1.3333333,0,0,-1.3333333,0,1122.5197)"><text
         id="text816"
         style="font-variant:normal;font-weight:normal;font-size:9.014px;font-family:'Liberation Serif';-inkscape-font-specification:LiberationSerif;writing-mode:lr-tb;fill:#000000;fill-opacity:1;fill-rule:nonzero;stroke:none"
         transform="matrix(1,0,0,-1,485.008,699.675)"><tspan
           id="tspan814"
           sodipodi:role="line"
           y="0"
           x="0 4.507 6.8055701 11.31257">2.13</tspan></text></g><g
       id="g818"
       transform="matrix(1.3333333,0,0,-1.3333333,0,1122.5197)"><text
         id="text822"
         style="font-variant:normal;font-weight:normal;font-size:9.014px;font-family:'Liberation Serif';-inkscape-font-specification:LiberationSerif;writing-mode:lr-tb;fill:#000000;fill-opacity:1;fill-rule:nonzero;stroke:none"
         transform="matrix(1,0,0,-1,80.391,688.478)"><tspan
           id="tspan820"
           sodipodi:role="line"
           y="0"
           x="0 4.507 6.8055701 11.31257">2.00</tspan></text></g><g
       id="g824"
       transform="matrix(1.3333333,0,0,-1.3333333,0,1122.5197)"><text
         id="text828"
         style="font-variant:normal;font-weight:normal;font-size:9.014px;font-family:'Liberation Serif';-inkscape-font-specification:LiberationSerif;writing-mode:lr-tb;fill:#000000;fill-opacity:1;fill-rule:nonzero;stroke:none"
         transform="matrix(1,0,0,-1,130.989,688.478)"><tspan
           id="tspan826"
           sodipodi:role="line"
           y="0"
           x="0 4.507 6.8055701 11.31257">1.86</tspan></text></g><g
       id="g830"
       transform="matrix(1.3333333,0,0,-1.3333333,0,1122.5197)"><text
         id="text834"
         style="font-variant:normal;font-weight:normal;font-size:9.014px;font-family:'Liberation Serif';-inkscape-font-specification:LiberationSerif;writing-mode:lr-tb;fill:#000000;fill-opacity:1;fill-rule:nonzero;stroke:none"
         transform="matrix(1,0,0,-1,181.502,688.478)"><tspan
           id="tspan832"
           sodipodi:role="line"
           y="0"
           x="0 4.507 6.8055701 11.31257">1.64</tspan></text></g><g
       id="g836"
       transform="matrix(1.3333333,0,0,-1.3333333,0,1122.5197)"><text
         id="text840"
         style="font-variant:normal;font-weight:normal;font-size:9.014px;font-family:'Liberation Serif';-inkscape-font-specification:LiberationSerif;writing-mode:lr-tb;fill:#000000;fill-opacity:1;fill-rule:nonzero;stroke:none"
         transform="matrix(1,0,0,-1,232.101,688.478)"><tspan
           id="tspan838"
           sodipodi:role="line"
           y="0"
           x="0 4.507 6.8055701 11.31257">1.69</tspan></text></g><g
       id="g842"
       transform="matrix(1.3333333,0,0,-1.3333333,0,1122.5197)"><text
         id="text846"
         style="font-variant:normal;font-weight:normal;font-size:9.014px;font-family:'Liberation Serif';-inkscape-font-specification:LiberationSerif;writing-mode:lr-tb;fill:#000000;fill-opacity:1;fill-rule:nonzero;stroke:none"
         transform="matrix(1,0,0,-1,282.699,688.478)"><tspan
           id="tspan844"
           sodipodi:role="line"
           y="0"
           x="0 4.507 6.8055701 11.31257">1.52</tspan></text></g><g
       id="g848"
       transform="matrix(1.3333333,0,0,-1.3333333,0,1122.5197)"><text
         id="text852"
         style="font-variant:normal;font-weight:normal;font-size:9.014px;font-family:'Liberation Serif';-inkscape-font-specification:LiberationSerif;writing-mode:lr-tb;fill:#000000;fill-opacity:1;fill-rule:nonzero;stroke:none"
         transform="matrix(1,0,0,-1,333.213,688.478)"><tspan
           id="tspan850"
           sodipodi:role="line"
           y="0"
           x="0 4.507 6.8055701 11.31257">1.42</tspan></text></g><g
       id="g854"
       transform="matrix(1.3333333,0,0,-1.3333333,0,1122.5197)"><text
         id="text858"
         style="font-variant:normal;font-weight:normal;font-size:9.014px;font-family:'Liberation Serif';-inkscape-font-specification:LiberationSerif;writing-mode:lr-tb;fill:#000000;fill-opacity:1;fill-rule:nonzero;stroke:none"
         transform="matrix(1,0,0,-1,383.811,688.478)"><tspan
           id="tspan856"
           sodipodi:role="line"
           y="0"
           x="0 4.507 6.8055701 11.31257">1.56</tspan></text></g><g
       id="g860"
       transform="matrix(1.3333333,0,0,-1.3333333,0,1122.5197)"><text
         id="text864"
         style="font-variant:normal;font-weight:normal;font-size:9.014px;font-family:'Liberation Serif';-inkscape-font-specification:LiberationSerif;writing-mode:lr-tb;fill:#000000;fill-opacity:1;fill-rule:nonzero;stroke:none"
         transform="matrix(1,0,0,-1,434.409,688.478)"><tspan
           id="tspan862"
           sodipodi:role="line"
           y="0"
           x="0 4.507 6.8055701 11.31257">1.48</tspan></text></g><g
       id="g866"
       transform="matrix(1.3333333,0,0,-1.3333333,0,1122.5197)"><text
         id="text870"
         style="font-variant:normal;font-weight:normal;font-size:9.014px;font-family:'Liberation Serif';-inkscape-font-specification:LiberationSerif;writing-mode:lr-tb;fill:#000000;fill-opacity:1;fill-rule:nonzero;stroke:none"
         transform="matrix(1,0,0,-1,485.008,688.478)"><tspan
           id="tspan868"
           sodipodi:role="line"
           y="0"
           x="0 4.507 6.8055701 11.31257">1.33</tspan></text></g><g
       style="display:inline;opacity:0.999"
       transform="matrix(1.3333333,0,0,-1.3333333,-1.4710632,1115.3988)"
       id="g3906"><text
         id="text2422"
         y="-705.20636"
         x="73.597031"
         style="font-style:normal;font-variant:normal;font-weight:normal;font-stretch:normal;font-size:9px;line-height:0;font-family:'Liberation Serif';-inkscape-font-specification:'Liberation Serif';text-align:end;letter-spacing:0px;word-spacing:0px;text-anchor:end;display:inline;opacity:0.999;fill:#000000;fill-opacity:1;stroke:none;stroke-width:0.75"
         xml:space="preserve"
         transform="scale(1,-1)"><tspan
           style="font-style:italic;font-weight:normal;line-height:120%;stroke-width:0.75"
           y="-705.20636"
           x="73.597031"
           id="tspan2420"
           sodipodi:role="line"> k                    <tspan
   style="font-style:normal;line-height:120%"
   id="tspan3897">:</tspan></tspan><tspan
           style="font-weight:normal;line-height:120%;stroke-width:0.75"
           y="-694.40637"
           x="73.597031"
           sodipodi:role="line"
           id="tspan3891">mean enrichment :</tspan><tspan
           style="font-weight:normal;line-height:120%;stroke-width:0.75"
           id="tspan2424"
           y="-683.60638"
           x="73.597031"
           sodipodi:role="line">PPF                  :</tspan></text><text
         xml:space="preserve"
         style="font-style:normal;font-variant:normal;font-weight:normal;font-stretch:normal;font-size:6px;line-height:125%;font-family:'Liberation Serif';-inkscape-font-specification:'Liberation Serif';letter-spacing:0px;word-spacing:0px;fill:#000000;fill-opacity:1;stroke:none;stroke-width:0.75"
         x="27.214127"
         y="-703.56903"
         id="text3895"
         transform="scale(1,-1)"><tspan
           sodipodi:role="line"
           id="tspan3893"
           x="27.214127"
           y="-703.56903"
           style="font-style:italic;stroke-width:0.75">eff</tspan></text></g><g
       style="opacity:0.999"
       id="g224"
       transform="matrix(1.3333333,0,0,-1.3333333,0,1122.5197)"><text
         id="text228"
         style="font-variant:normal;font-weight:normal;font-size:6.009px;font-family:'Liberation Serif';-inkscape-font-specification:LiberationSerif;writing-mode:lr-tb;fill:#000000;fill-opacity:1;fill-rule:nonzero;stroke:none"
         transform="matrix(1,0,0,-1,71.887,745.284)"><tspan
           id="tspan226"
           sodipodi:role="line"
           y="0"
           x="0 3.0044999 4.5067501">1.6</tspan></text></g><g
       style="opacity:0.999"
       id="g230"
       transform="matrix(1.3333333,0,0,-1.3333333,0,1122.5197)"><text
         id="text234"
         style="font-variant:normal;font-weight:normal;font-size:6.009px;font-family:'Liberation Serif';-inkscape-font-specification:LiberationSerif;writing-mode:lr-tb;fill:#000000;fill-opacity:1;fill-rule:nonzero;stroke:none"
         transform="matrix(1,0,0,-1,84.501,745.284)"><tspan
           id="tspan232"
           sodipodi:role="line"
           y="0"
           x="0 3.0044999 4.5067501">1.6</tspan></text></g><g
       style="opacity:0.999"
       id="g236"
       transform="matrix(1.3333333,0,0,-1.3333333,0,1122.5197)"><text
         id="text240"
         style="font-variant:normal;font-weight:normal;font-size:6.009px;font-family:'Liberation Serif';-inkscape-font-specification:LiberationSerif;writing-mode:lr-tb;fill:#000000;fill-opacity:1;fill-rule:nonzero;stroke:none"
         transform="matrix(1,0,0,-1,97.2,745.284)"><tspan
           id="tspan238"
           sodipodi:role="line"
           y="0"
           x="0 3.0044999 4.5067501">1.6</tspan></text></g><g
       style="opacity:0.999"
       id="g242"
       transform="matrix(1.3333333,0,0,-1.3333333,0,1122.5197)"><text
         id="text246"
         style="font-variant:normal;font-weight:normal;font-size:6.009px;font-family:'Liberation Serif';-inkscape-font-specification:LiberationSerif;writing-mode:lr-tb;fill:#000000;fill-opacity:1;fill-rule:nonzero;stroke:none"
         transform="matrix(1,0,0,-1,122.513,745.284)"><tspan
           id="tspan244"
           sodipodi:role="line"
           y="0"
           x="0 3.0044999 4.5067501">1.6</tspan></text></g><g
       style="opacity:0.999"
       id="g248"
       transform="matrix(1.3333333,0,0,-1.3333333,0,1122.5197)"><text
         id="text252"
         style="font-variant:normal;font-weight:normal;font-size:6.009px;font-family:'Liberation Serif';-inkscape-font-specification:LiberationSerif;writing-mode:lr-tb;fill:#000000;fill-opacity:1;fill-rule:nonzero;stroke:none"
         transform="matrix(1,0,0,-1,135.099,745.284)"><tspan
           id="tspan250"
           sodipodi:role="line"
           y="0"
           x="0 3.0044999 4.5067501">1.6</tspan></text></g><g
       style="opacity:0.999"
       id="g254"
       transform="matrix(1.3333333,0,0,-1.3333333,0,1122.5197)"><text
         id="text258"
         style="font-variant:normal;font-weight:normal;font-size:6.009px;font-family:'Liberation Serif';-inkscape-font-specification:LiberationSerif;writing-mode:lr-tb;fill:#000000;fill-opacity:1;fill-rule:nonzero;stroke:none"
         transform="matrix(1,0,0,-1,147.713,745.284)"><tspan
           id="tspan256"
           sodipodi:role="line"
           y="0"
           x="0 3.0044999 4.5067501">1.6</tspan></text></g><g
       style="opacity:0.999"
       id="g260"
       transform="matrix(1.3333333,0,0,-1.3333333,0,1122.5197)"><text
         id="text264"
         style="font-variant:normal;font-weight:normal;font-size:6.009px;font-family:'Liberation Serif';-inkscape-font-specification:LiberationSerif;writing-mode:lr-tb;fill:#000000;fill-opacity:1;fill-rule:nonzero;stroke:none"
         transform="matrix(1,0,0,-1,172.998,745.284)"><tspan
           id="tspan262"
           sodipodi:role="line"
           y="0"
           x="0 3.0044999 4.5067501">1.6</tspan></text></g><g
       style="opacity:0.999"
       id="g266"
       transform="matrix(1.3333333,0,0,-1.3333333,0,1122.5197)"><text
         id="text270"
         style="font-variant:normal;font-weight:normal;font-size:6.009px;font-family:'Liberation Serif';-inkscape-font-specification:LiberationSerif;writing-mode:lr-tb;fill:#000000;fill-opacity:1;fill-rule:nonzero;stroke:none"
         transform="matrix(1,0,0,-1,185.698,745.284)"><tspan
           id="tspan268"
           sodipodi:role="line"
           y="0"
           x="0 3.0044999 4.5067501">1.6</tspan></text></g><g
       style="opacity:0.999"
       id="g272"
       transform="matrix(1.3333333,0,0,-1.3333333,0,1122.5197)"><text
         id="text276"
         style="font-variant:normal;font-weight:normal;font-size:6.009px;font-family:'Liberation Serif';-inkscape-font-specification:LiberationSerif;writing-mode:lr-tb;fill:#000000;fill-opacity:1;fill-rule:nonzero;stroke:none"
         transform="matrix(1,0,0,-1,198.312,745.284)"><tspan
           id="tspan274"
           sodipodi:role="line"
           y="0"
           x="0 3.0044999 4.5067501">1.6</tspan></text></g><g
       style="opacity:0.999"
       id="g278"
       transform="matrix(1.3333333,0,0,-1.3333333,0,1122.5197)"><text
         id="text282"
         style="font-variant:normal;font-weight:normal;font-size:6.009px;font-family:'Liberation Serif';-inkscape-font-specification:LiberationSerif;writing-mode:lr-tb;fill:#000000;fill-opacity:1;fill-rule:nonzero;stroke:none"
         transform="matrix(1,0,0,-1,223.597,745.284)"><tspan
           id="tspan280"
           sodipodi:role="line"
           y="0"
           x="0 3.0044999 4.5067501">1.6</tspan></text></g><g
       style="opacity:0.999"
       id="g284"
       transform="matrix(1.3333333,0,0,-1.3333333,0,1122.5197)"><text
         id="text288"
         style="font-variant:normal;font-weight:normal;font-size:6.009px;font-family:'Liberation Serif';-inkscape-font-specification:LiberationSerif;writing-mode:lr-tb;fill:#000000;fill-opacity:1;fill-rule:nonzero;stroke:none"
         transform="matrix(1,0,0,-1,236.211,745.284)"><tspan
           id="tspan286"
           sodipodi:role="line"
           y="0"
           x="0 3.0044999 4.5067501">1.6</tspan></text></g><g
       style="opacity:0.999"
       id="g290"
       transform="matrix(1.3333333,0,0,-1.3333333,0,1122.5197)"><text
         id="text294"
         style="font-variant:normal;font-weight:normal;font-size:6.009px;font-family:'Liberation Serif';-inkscape-font-specification:LiberationSerif;writing-mode:lr-tb;fill:#000000;fill-opacity:1;fill-rule:nonzero;stroke:none"
         transform="matrix(1,0,0,-1,248.91,745.284)"><tspan
           id="tspan292"
           sodipodi:role="line"
           y="0"
           x="0 3.0044999 4.5067501">1.6</tspan></text></g><g
       style="opacity:0.999"
       id="g296"
       transform="matrix(1.3333333,0,0,-1.3333333,0,1122.5197)"><text
         id="text300"
         style="font-variant:normal;font-weight:normal;font-size:6.009px;font-family:'Liberation Serif';-inkscape-font-specification:LiberationSerif;writing-mode:lr-tb;fill:#000000;fill-opacity:1;fill-rule:nonzero;stroke:none"
         transform="matrix(1,0,0,-1,274.195,745.284)"><tspan
           id="tspan298"
           sodipodi:role="line"
           y="0"
           x="0 3.0044999 4.5067501">1.6</tspan></text></g><g
       style="opacity:0.999"
       id="g302"
       transform="matrix(1.3333333,0,0,-1.3333333,0,1122.5197)"><text
         id="text306"
         style="font-variant:normal;font-weight:normal;font-size:6.009px;font-family:'Liberation Serif';-inkscape-font-specification:LiberationSerif;writing-mode:lr-tb;fill:#000000;fill-opacity:1;fill-rule:nonzero;stroke:none"
         transform="matrix(1,0,0,-1,286.809,745.284)"><tspan
           id="tspan304"
           sodipodi:role="line"
           y="0"
           x="0 3.0044999 4.5067501">1.6</tspan></text></g><g
       style="opacity:0.999"
       id="g308"
       transform="matrix(1.3333333,0,0,-1.3333333,0,1122.5197)"><text
         id="text312"
         style="font-variant:normal;font-weight:normal;font-size:6.009px;font-family:'Liberation Serif';-inkscape-font-specification:LiberationSerif;writing-mode:lr-tb;fill:#000000;fill-opacity:1;fill-rule:nonzero;stroke:none"
         transform="matrix(1,0,0,-1,299.509,745.284)"><tspan
           id="tspan310"
           sodipodi:role="line"
           y="0"
           x="0 3.0044999 4.5067501">2.4</tspan></text></g><g
       style="opacity:0.999"
       id="g314"
       transform="matrix(1.3333333,0,0,-1.3333333,0,1122.5197)"><text
         id="text318"
         style="font-variant:normal;font-weight:normal;font-size:6.009px;font-family:'Liberation Serif';-inkscape-font-specification:LiberationSerif;writing-mode:lr-tb;fill:#000000;fill-opacity:1;fill-rule:nonzero;stroke:none"
         transform="matrix(1,0,0,-1,324.709,745.284)"><tspan
           id="tspan316"
           sodipodi:role="line"
           y="0"
           x="0 3.0044999 4.5067501">1.6</tspan></text></g><g
       style="opacity:0.999"
       id="g320"
       transform="matrix(1.3333333,0,0,-1.3333333,0,1122.5197)"><text
         id="text324"
         style="font-variant:normal;font-weight:normal;font-size:6.009px;font-family:'Liberation Serif';-inkscape-font-specification:LiberationSerif;writing-mode:lr-tb;fill:#000000;fill-opacity:1;fill-rule:nonzero;stroke:none"
         transform="matrix(1,0,0,-1,337.408,745.284)"><tspan
           id="tspan322"
           sodipodi:role="line"
           y="0"
           x="0 3.0044999 4.5067501">1.6</tspan></text></g><g
       style="opacity:0.999"
       id="g326"
       transform="matrix(1.3333333,0,0,-1.3333333,0,1122.5197)"><text
         id="text330"
         style="font-variant:normal;font-weight:normal;font-size:6.009px;font-family:'Liberation Serif';-inkscape-font-specification:LiberationSerif;writing-mode:lr-tb;fill:#000000;fill-opacity:1;fill-rule:nonzero;stroke:none"
         transform="matrix(1,0,0,-1,349.994,745.284)"><tspan
           id="tspan328"
           sodipodi:role="line"
           y="0"
           x="0 3.0044999 4.5067501">2.4</tspan></text></g><g
       style="opacity:0.999"
       id="g332"
       transform="matrix(1.3333333,0,0,-1.3333333,0,1122.5197)"><text
         id="text336"
         style="font-variant:normal;font-weight:normal;font-size:6.009px;font-family:'Liberation Serif';-inkscape-font-specification:LiberationSerif;writing-mode:lr-tb;fill:#000000;fill-opacity:1;fill-rule:nonzero;stroke:none"
         transform="matrix(1,0,0,-1,375.307,745.284)"><tspan
           id="tspan334"
           sodipodi:role="line"
           y="0"
           x="0 3.0044999 4.5067501">1.6</tspan></text></g><g
       style="opacity:0.999"
       id="g338"
       transform="matrix(1.3333333,0,0,-1.3333333,0,1122.5197)"><text
         id="text342"
         style="font-variant:normal;font-weight:normal;font-size:6.009px;font-family:'Liberation Serif';-inkscape-font-specification:LiberationSerif;writing-mode:lr-tb;fill:#000000;fill-opacity:1;fill-rule:nonzero;stroke:none"
         transform="matrix(1,0,0,-1,387.893,745.284)"><tspan
           id="tspan340"
           sodipodi:role="line"
           y="0"
           x="0 3.0044999 4.5067501">1.6</tspan></text></g><g
       style="opacity:0.999"
       id="g344"
       transform="matrix(1.3333333,0,0,-1.3333333,0,1122.5197)"><text
         id="text348"
         style="font-variant:normal;font-weight:normal;font-size:6.009px;font-family:'Liberation Serif';-inkscape-font-specification:LiberationSerif;writing-mode:lr-tb;fill:#000000;fill-opacity:1;fill-rule:nonzero;stroke:none"
         transform="matrix(1,0,0,-1,400.592,745.284)"><tspan
           id="tspan346"
           sodipodi:role="line"
           y="0"
           x="0 3.0044999 4.5067501">2.4</tspan></text></g><g
       style="opacity:0.999"
       id="g350"
       transform="matrix(1.3333333,0,0,-1.3333333,0,1122.5197)"><text
         id="text354"
         style="font-variant:normal;font-weight:normal;font-size:6.009px;font-family:'Liberation Serif';-inkscape-font-specification:LiberationSerif;writing-mode:lr-tb;fill:#000000;fill-opacity:1;fill-rule:nonzero;stroke:none"
         transform="matrix(1,0,0,-1,425.906,745.284)"><tspan
           id="tspan352"
           sodipodi:role="line"
           y="0"
           x="0 3.0044999 4.5067501">1.6</tspan></text></g><g
       style="opacity:0.999"
       id="g356"
       transform="matrix(1.3333333,0,0,-1.3333333,0,1122.5197)"><text
         id="text360"
         style="font-variant:normal;font-weight:normal;font-size:6.009px;font-family:'Liberation Serif';-inkscape-font-specification:LiberationSerif;writing-mode:lr-tb;fill:#000000;fill-opacity:1;fill-rule:nonzero;stroke:none"
         transform="matrix(1,0,0,-1,438.491,745.284)"><tspan
           id="tspan358"
           sodipodi:role="line"
           y="0"
           x="0 3.0044999 4.5067501">1.6</tspan></text></g><g
       style="opacity:0.999"
       id="g362"
       transform="matrix(1.3333333,0,0,-1.3333333,0,1122.5197)"><text
         id="text366"
         style="font-variant:normal;font-weight:normal;font-size:6.009px;font-family:'Liberation Serif';-inkscape-font-specification:LiberationSerif;writing-mode:lr-tb;fill:#000000;fill-opacity:1;fill-rule:nonzero;stroke:none"
         transform="matrix(1,0,0,-1,451.191,745.284)"><tspan
           id="tspan364"
           sodipodi:role="line"
           y="0"
           x="0 3.0044999 4.5067501">2.4</tspan></text></g><g
       style="opacity:0.999"
       id="g368"
       transform="matrix(1.3333333,0,0,-1.3333333,0,1122.5197)"><text
         id="text372"
         style="font-variant:normal;font-weight:normal;font-size:6.009px;font-family:'Liberation Serif';-inkscape-font-specification:LiberationSerif;writing-mode:lr-tb;fill:#000000;fill-opacity:1;fill-rule:nonzero;stroke:none"
         transform="matrix(1,0,0,-1,476.391,745.284)"><tspan
           id="tspan370"
           sodipodi:role="line"
           y="0"
           x="0 3.0044999 4.5067501">1.6</tspan></text></g><g
       style="opacity:0.999"
       id="g374"
       transform="matrix(1.3333333,0,0,-1.3333333,0,1122.5197)"><text
         id="text378"
         style="font-variant:normal;font-weight:normal;font-size:6.009px;font-family:'Liberation Serif';-inkscape-font-specification:LiberationSerif;writing-mode:lr-tb;fill:#000000;fill-opacity:1;fill-rule:nonzero;stroke:none"
         transform="matrix(1,0,0,-1,489.09,745.284)"><tspan
           id="tspan376"
           sodipodi:role="line"
           y="0"
           x="0 3.0044999 4.5067501">1.6</tspan></text></g><g
       style="opacity:0.999"
       id="g380"
       transform="matrix(1.3333333,0,0,-1.3333333,0,1122.5197)"><text
         id="text384"
         style="font-variant:normal;font-weight:normal;font-size:6.009px;font-family:'Liberation Serif';-inkscape-font-specification:LiberationSerif;writing-mode:lr-tb;fill:#000000;fill-opacity:1;fill-rule:nonzero;stroke:none"
         transform="matrix(1,0,0,-1,501.704,745.284)"><tspan
           id="tspan382"
           sodipodi:role="line"
           y="0"
           x="0 3.0044999 4.5067501">2.4</tspan></text></g><g
       style="opacity:0.999"
       id="g386"
       transform="matrix(1.3333333,0,0,-1.3333333,0,1122.5197)"><text
         id="text390"
         style="font-variant:normal;font-weight:normal;font-size:6.009px;font-family:'Liberation Serif';-inkscape-font-specification:LiberationSerif;writing-mode:lr-tb;fill:#000000;fill-opacity:1;fill-rule:nonzero;stroke:none"
         transform="matrix(1,0,0,-1,71.887,734.087)"><tspan
           id="tspan388"
           sodipodi:role="line"
           y="0"
           x="0 3.0044999 4.5067501">1.6</tspan></text></g><g
       style="opacity:0.999"
       id="g392"
       transform="matrix(1.3333333,0,0,-1.3333333,0,1122.5197)"><text
         id="text396"
         style="font-variant:normal;font-weight:normal;font-size:6.009px;font-family:'Liberation Serif';-inkscape-font-specification:LiberationSerif;writing-mode:lr-tb;fill:#000000;fill-opacity:1;fill-rule:nonzero;stroke:none"
         transform="matrix(1,0,0,-1,84.501,734.087)"><tspan
           id="tspan394"
           sodipodi:role="line"
           y="0"
           x="0 3.0044999 4.5067501">1.6</tspan></text></g><g
       style="opacity:0.999"
       id="g398"
       transform="matrix(1.3333333,0,0,-1.3333333,0,1122.5197)"><text
         id="text402"
         style="font-variant:normal;font-weight:normal;font-size:6.009px;font-family:'Liberation Serif';-inkscape-font-specification:LiberationSerif;writing-mode:lr-tb;fill:#000000;fill-opacity:1;fill-rule:nonzero;stroke:none"
         transform="matrix(1,0,0,-1,97.2,734.087)"><tspan
           id="tspan400"
           sodipodi:role="line"
           y="0"
           x="0 3.0044999 4.5067501">1.6</tspan></text></g><g
       style="opacity:0.999"
       id="g404"
       transform="matrix(1.3333333,0,0,-1.3333333,0,1122.5197)"><text
         id="text408"
         style="font-variant:normal;font-weight:normal;font-size:6.009px;font-family:'Liberation Serif';-inkscape-font-specification:LiberationSerif;writing-mode:lr-tb;fill:#000000;fill-opacity:1;fill-rule:nonzero;stroke:none"
         transform="matrix(1,0,0,-1,122.513,734.087)"><tspan
           id="tspan406"
           sodipodi:role="line"
           y="0"
           x="0 3.0044999 4.5067501">1.6</tspan></text></g><g
       style="opacity:0.999"
       id="g410"
       transform="matrix(1.3333333,0,0,-1.3333333,0,1122.5197)"><text
         id="text414"
         style="font-variant:normal;font-weight:normal;font-size:6.009px;font-family:'Liberation Serif';-inkscape-font-specification:LiberationSerif;writing-mode:lr-tb;fill:#000000;fill-opacity:1;fill-rule:nonzero;stroke:none"
         transform="matrix(1,0,0,-1,135.099,734.087)"><tspan
           id="tspan412"
           sodipodi:role="line"
           y="0"
           x="0 3.0044999 4.5067501">1.6</tspan></text></g><g
       style="opacity:0.999"
       id="g416"
       transform="matrix(1.3333333,0,0,-1.3333333,0,1122.5197)"><text
         id="text420"
         style="font-variant:normal;font-weight:normal;font-size:6.009px;font-family:'Liberation Serif';-inkscape-font-specification:LiberationSerif;writing-mode:lr-tb;fill:#000000;fill-opacity:1;fill-rule:nonzero;stroke:none"
         transform="matrix(1,0,0,-1,147.713,734.087)"><tspan
           id="tspan418"
           sodipodi:role="line"
           y="0"
           x="0 3.0044999 4.5067501">1.6</tspan></text></g><g
       style="opacity:0.999"
       id="g422"
       transform="matrix(1.3333333,0,0,-1.3333333,0,1122.5197)"><text
         id="text426"
         style="font-variant:normal;font-weight:normal;font-size:6.009px;font-family:'Liberation Serif';-inkscape-font-specification:LiberationSerif;writing-mode:lr-tb;fill:#000000;fill-opacity:1;fill-rule:nonzero;stroke:none"
         transform="matrix(1,0,0,-1,172.998,734.087)"><tspan
           id="tspan424"
           sodipodi:role="line"
           y="0"
           x="0 3.0044999 4.5067501">1.6</tspan></text></g><g
       style="opacity:0.999"
       id="g428"
       transform="matrix(1.3333333,0,0,-1.3333333,0,1122.5197)"><text
         id="text432"
         style="font-variant:normal;font-weight:normal;font-size:6.009px;font-family:'Liberation Serif';-inkscape-font-specification:LiberationSerif;writing-mode:lr-tb;fill:#000000;fill-opacity:1;fill-rule:nonzero;stroke:none"
         transform="matrix(1,0,0,-1,185.698,734.087)"><tspan
           id="tspan430"
           sodipodi:role="line"
           y="0"
           x="0 3.0044999 4.5067501">1.6</tspan></text></g><g
       style="opacity:0.999"
       id="g434"
       transform="matrix(1.3333333,0,0,-1.3333333,0,1122.5197)"><text
         id="text438"
         style="font-variant:normal;font-weight:normal;font-size:6.009px;font-family:'Liberation Serif';-inkscape-font-specification:LiberationSerif;writing-mode:lr-tb;fill:#000000;fill-opacity:1;fill-rule:nonzero;stroke:none"
         transform="matrix(1,0,0,-1,198.312,734.087)"><tspan
           id="tspan436"
           sodipodi:role="line"
           y="0"
           x="0 3.0044999 4.5067501">2.4</tspan></text></g><g
       style="opacity:0.999"
       id="g440"
       transform="matrix(1.3333333,0,0,-1.3333333,0,1122.5197)"><text
         id="text444"
         style="font-variant:normal;font-weight:normal;font-size:6.009px;font-family:'Liberation Serif';-inkscape-font-specification:LiberationSerif;writing-mode:lr-tb;fill:#000000;fill-opacity:1;fill-rule:nonzero;stroke:none"
         transform="matrix(1,0,0,-1,223.597,734.087)"><tspan
           id="tspan442"
           sodipodi:role="line"
           y="0"
           x="0 3.0044999 4.5067501">1.6</tspan></text></g><g
       style="opacity:0.999"
       id="g446"
       transform="matrix(1.3333333,0,0,-1.3333333,0,1122.5197)"><text
         id="text450"
         style="font-variant:normal;font-weight:normal;font-size:6.009px;font-family:'Liberation Serif';-inkscape-font-specification:LiberationSerif;writing-mode:lr-tb;fill:#000000;fill-opacity:1;fill-rule:nonzero;stroke:none"
         transform="matrix(1,0,0,-1,236.211,734.087)"><tspan
           id="tspan448"
           sodipodi:role="line"
           y="0"
           x="0 3.0044999 4.5067501">1.6</tspan></text></g><g
       style="opacity:0.999"
       id="g452"
       transform="matrix(1.3333333,0,0,-1.3333333,0,1122.5197)"><text
         id="text456"
         style="font-variant:normal;font-weight:normal;font-size:6.009px;font-family:'Liberation Serif';-inkscape-font-specification:LiberationSerif;writing-mode:lr-tb;fill:#000000;fill-opacity:1;fill-rule:nonzero;stroke:none"
         transform="matrix(1,0,0,-1,248.91,734.087)"><tspan
           id="tspan454"
           sodipodi:role="line"
           y="0"
           x="0 3.0044999 4.5067501">2.4</tspan></text></g><g
       style="opacity:0.999"
       id="g458"
       transform="matrix(1.3333333,0,0,-1.3333333,0,1122.5197)"><text
         id="text462"
         style="font-variant:normal;font-weight:normal;font-size:6.009px;font-family:'Liberation Serif';-inkscape-font-specification:LiberationSerif;writing-mode:lr-tb;fill:#000000;fill-opacity:1;fill-rule:nonzero;stroke:none"
         transform="matrix(1,0,0,-1,274.195,734.087)"><tspan
           id="tspan460"
           sodipodi:role="line"
           y="0"
           x="0 3.0044999 4.5067501">1.6</tspan></text></g><g
       style="opacity:0.999"
       id="g464"
       transform="matrix(1.3333333,0,0,-1.3333333,0,1122.5197)"><text
         id="text468"
         style="font-variant:normal;font-weight:normal;font-size:6.009px;font-family:'Liberation Serif';-inkscape-font-specification:LiberationSerif;writing-mode:lr-tb;fill:#000000;fill-opacity:1;fill-rule:nonzero;stroke:none"
         transform="matrix(1,0,0,-1,286.809,734.087)"><tspan
           id="tspan466"
           sodipodi:role="line"
           y="0"
           x="0 3.0044999 4.5067501">1.6</tspan></text></g><g
       style="opacity:0.999"
       id="g470"
       transform="matrix(1.3333333,0,0,-1.3333333,0,1122.5197)"><text
         id="text474"
         style="font-variant:normal;font-weight:normal;font-size:6.009px;font-family:'Liberation Serif';-inkscape-font-specification:LiberationSerif;writing-mode:lr-tb;fill:#000000;fill-opacity:1;fill-rule:nonzero;stroke:none"
         transform="matrix(1,0,0,-1,299.509,734.087)"><tspan
           id="tspan472"
           sodipodi:role="line"
           y="0"
           x="0 3.0044999 4.5067501">2.4</tspan></text></g><g
       style="opacity:0.999"
       id="g476"
       transform="matrix(1.3333333,0,0,-1.3333333,0,1122.5197)"><text
         id="text480"
         style="font-variant:normal;font-weight:normal;font-size:6.009px;font-family:'Liberation Serif';-inkscape-font-specification:LiberationSerif;writing-mode:lr-tb;fill:#000000;fill-opacity:1;fill-rule:nonzero;stroke:none"
         transform="matrix(1,0,0,-1,324.709,734.087)"><tspan
           id="tspan478"
           sodipodi:role="line"
           y="0"
           x="0 3.0044999 4.5067501">1.6</tspan></text></g><g
       style="opacity:0.999"
       id="g482"
       transform="matrix(1.3333333,0,0,-1.3333333,0,1122.5197)"><text
         id="text486"
         style="font-variant:normal;font-weight:normal;font-size:6.009px;font-family:'Liberation Serif';-inkscape-font-specification:LiberationSerif;writing-mode:lr-tb;fill:#000000;fill-opacity:1;fill-rule:nonzero;stroke:none"
         transform="matrix(1,0,0,-1,337.408,734.087)"><tspan
           id="tspan484"
           sodipodi:role="line"
           y="0"
           x="0 3.0044999 4.5067501">1.6</tspan></text></g><g
       style="opacity:0.999"
       id="g488"
       transform="matrix(1.3333333,0,0,-1.3333333,0,1122.5197)"><text
         id="text492"
         style="font-variant:normal;font-weight:normal;font-size:6.009px;font-family:'Liberation Serif';-inkscape-font-specification:LiberationSerif;writing-mode:lr-tb;fill:#000000;fill-opacity:1;fill-rule:nonzero;stroke:none"
         transform="matrix(1,0,0,-1,349.994,734.087)"><tspan
           id="tspan490"
           sodipodi:role="line"
           y="0"
           x="0 3.0044999 4.5067501">2.4</tspan></text></g><g
       style="opacity:0.999"
       id="g494"
       transform="matrix(1.3333333,0,0,-1.3333333,0,1122.5197)"><text
         id="text498"
         style="font-variant:normal;font-weight:normal;font-size:6.009px;font-family:'Liberation Serif';-inkscape-font-specification:LiberationSerif;writing-mode:lr-tb;fill:#000000;fill-opacity:1;fill-rule:nonzero;stroke:none"
         transform="matrix(1,0,0,-1,375.307,734.087)"><tspan
           id="tspan496"
           sodipodi:role="line"
           y="0"
           x="0 3.0044999 4.5067501">1.6</tspan></text></g><g
       style="opacity:0.999"
       id="g500"
       transform="matrix(1.3333333,0,0,-1.3333333,0,1122.5197)"><text
         id="text504"
         style="font-variant:normal;font-weight:normal;font-size:6.009px;font-family:'Liberation Serif';-inkscape-font-specification:LiberationSerif;writing-mode:lr-tb;fill:#000000;fill-opacity:1;fill-rule:nonzero;stroke:none"
         transform="matrix(1,0,0,-1,387.893,734.087)"><tspan
           id="tspan502"
           sodipodi:role="line"
           y="0"
           x="0 3.0044999 4.5067501">1.6</tspan></text></g><g
       style="opacity:0.999"
       id="g506"
       transform="matrix(1.3333333,0,0,-1.3333333,0,1122.5197)"><text
         id="text510"
         style="font-variant:normal;font-weight:normal;font-size:6.009px;font-family:'Liberation Serif';-inkscape-font-specification:LiberationSerif;writing-mode:lr-tb;fill:#000000;fill-opacity:1;fill-rule:nonzero;stroke:none"
         transform="matrix(1,0,0,-1,400.592,734.087)"><tspan
           id="tspan508"
           sodipodi:role="line"
           y="0"
           x="0 3.0044999 4.5067501">2.4</tspan></text></g><g
       style="opacity:0.999"
       id="g512"
       transform="matrix(1.3333333,0,0,-1.3333333,0,1122.5197)"><text
         id="text516"
         style="font-variant:normal;font-weight:normal;font-size:6.009px;font-family:'Liberation Serif';-inkscape-font-specification:LiberationSerif;writing-mode:lr-tb;fill:#000000;fill-opacity:1;fill-rule:nonzero;stroke:none"
         transform="matrix(1,0,0,-1,425.906,734.087)"><tspan
           id="tspan514"
           sodipodi:role="line"
           y="0"
           x="0 3.0044999 4.5067501">1.6</tspan></text></g><g
       style="opacity:0.999"
       id="g518"
       transform="matrix(1.3333333,0,0,-1.3333333,0,1122.5197)"><text
         id="text522"
         style="font-variant:normal;font-weight:normal;font-size:6.009px;font-family:'Liberation Serif';-inkscape-font-specification:LiberationSerif;writing-mode:lr-tb;fill:#000000;fill-opacity:1;fill-rule:nonzero;stroke:none"
         transform="matrix(1,0,0,-1,438.491,734.087)"><tspan
           id="tspan520"
           sodipodi:role="line"
           y="0"
           x="0 3.0044999 4.5067501">1.6</tspan></text></g><g
       style="opacity:0.999"
       id="g524"
       transform="matrix(1.3333333,0,0,-1.3333333,0,1122.5197)"><text
         id="text528"
         style="font-variant:normal;font-weight:normal;font-size:6.009px;font-family:'Liberation Serif';-inkscape-font-specification:LiberationSerif;writing-mode:lr-tb;fill:#000000;fill-opacity:1;fill-rule:nonzero;stroke:none"
         transform="matrix(1,0,0,-1,451.191,734.087)"><tspan
           id="tspan526"
           sodipodi:role="line"
           y="0"
           x="0 3.0044999 4.5067501">2.4</tspan></text></g><g
       style="opacity:0.999"
       id="g530"
       transform="matrix(1.3333333,0,0,-1.3333333,0,1122.5197)"><text
         id="text534"
         style="font-variant:normal;font-weight:normal;font-size:6.009px;font-family:'Liberation Serif';-inkscape-font-specification:LiberationSerif;writing-mode:lr-tb;fill:#000000;fill-opacity:1;fill-rule:nonzero;stroke:none"
         transform="matrix(1,0,0,-1,476.391,734.087)"><tspan
           id="tspan532"
           sodipodi:role="line"
           y="0"
           x="0 3.0044999 4.5067501">1.6</tspan></text></g><g
       style="opacity:0.999"
       id="g536"
       transform="matrix(1.3333333,0,0,-1.3333333,0,1122.5197)"><text
         id="text540"
         style="font-variant:normal;font-weight:normal;font-size:6.009px;font-family:'Liberation Serif';-inkscape-font-specification:LiberationSerif;writing-mode:lr-tb;fill:#000000;fill-opacity:1;fill-rule:nonzero;stroke:none"
         transform="matrix(1,0,0,-1,489.09,734.087)"><tspan
           id="tspan538"
           sodipodi:role="line"
           y="0"
           x="0 3.0044999 4.5067501">1.6</tspan></text></g><g
       style="opacity:0.999"
       id="g542"
       transform="matrix(1.3333333,0,0,-1.3333333,0,1122.5197)"><text
         id="text546"
         style="font-variant:normal;font-weight:normal;font-size:6.009px;font-family:'Liberation Serif';-inkscape-font-specification:LiberationSerif;writing-mode:lr-tb;fill:#000000;fill-opacity:1;fill-rule:nonzero;stroke:none"
         transform="matrix(1,0,0,-1,501.704,734.087)"><tspan
           id="tspan544"
           sodipodi:role="line"
           y="0"
           x="0 3.0044999 4.5067501">2.4</tspan></text></g></g></svg>
