<?xml version="1.0" encoding="UTF-8" standalone="no"?>
<svg
   xmlns:dc="http://purl.org/dc/elements/1.1/"
   xmlns:cc="http://creativecommons.org/ns#"
   xmlns:rdf="http://www.w3.org/1999/02/22-rdf-syntax-ns#"
   xmlns:svg="http://www.w3.org/2000/svg"
   xmlns="http://www.w3.org/2000/svg"
   xmlns:sodipodi="http://sodipodi.sourceforge.net/DTD/sodipodi-0.dtd"
   xmlns:inkscape="http://www.inkscape.org/namespaces/inkscape"
   inkscape:version="1.0rc1 (09960d6f05, 2020-04-09)"
   sodipodi:docname="surrogate_core_designs2.svg"
   viewBox="0 0 717.61221 108.23273"
   height="28.636576mm"
   width="189.86823mm"
   xml:space="preserve"
   id="svg2"
   version="1.1"><metadata
     id="metadata8"><rdf:RDF><cc:Work
         rdf:about=""><dc:format>image/svg+xml</dc:format><dc:type
           rdf:resource="http://purl.org/dc/dcmitype/StillImage" /><dc:title></dc:title></cc:Work></rdf:RDF></metadata><defs
     id="defs6"><clipPath
       id="clipPath18"
       clipPathUnits="userSpaceOnUse"><path
         inkscape:connector-curvature="0"
         id="path16"
         clip-rule="evenodd"
         d="M 0,0.028 H 595.275 V 841.889 H 0 Z" /></clipPath><clipPath
       id="clipPath26"
       clipPathUnits="userSpaceOnUse"><path
         inkscape:connector-curvature="0"
         id="path24"
         clip-rule="evenodd"
         d="m 56.7,771.089 h 481.85 v 14.099 H 56.7 Z" /></clipPath><clipPath
       id="clipPath44"
       clipPathUnits="userSpaceOnUse"><path
         inkscape:connector-curvature="0"
         id="path42"
         clip-rule="evenodd"
         d="M 56.7,56.789 H 538.55 V 70.888 H 56.7 Z" /></clipPath></defs><sodipodi:namedview
     inkscape:current-layer="layer1"
     inkscape:window-maximized="1"
     inkscape:window-y="27"
     inkscape:window-x="0"
     inkscape:cy="52.299377"
     inkscape:cx="349.08849"
     inkscape:zoom="1.4466349"
     fit-margin-bottom="5"
     fit-margin-right="5"
     fit-margin-left="5"
     fit-margin-top="5"
     lock-margins="true"
     units="mm"
     showgrid="false"
     id="namedview4"
     inkscape:window-height="1016"
     inkscape:window-width="1920"
     inkscape:pageshadow="2"
     inkscape:pageopacity="0"
     guidetolerance="10"
     gridtolerance="10"
     objecttolerance="10"
     borderopacity="1"
     bordercolor="#666666"
     pagecolor="#ffffff" /><g
     transform="matrix(1.3333333,0,0,-1.3333333,15.729222,1023.4816)"
     inkscape:label="surrogate_core_designs2"
     inkscape:groupmode="layer"
     id="g10"><g
       id="g12"><g
         clip-path="url(#clipPath18)"
         id="g14" /></g><path
       inkscape:connector-curvature="0"
       id="path62"
       style="fill:#3465a4;fill-opacity:1;fill-rule:evenodd;stroke:#000000;stroke-opacity:1"
       d="m 69.222,741.769 h 12.671 v 11.169 H 69.222 Z" /><path
       inkscape:connector-curvature="0"
       id="path64"
       style="fill:#3465a4;fill-opacity:1;fill-rule:evenodd;stroke:#000000;stroke-opacity:1"
       d="m 81.865,741.769 h 12.671 v 11.169 H 81.865 Z" /><path
       inkscape:connector-curvature="0"
       id="path66"
       style="fill:#3465a4;fill-opacity:1;fill-rule:evenodd;stroke:#000000;stroke-opacity:1"
       d="m 94.507,741.769 h 12.671 v 11.169 H 94.507 Z" /><path
       inkscape:connector-curvature="0"
       id="path68"
       style="fill:#3465a4;fill-opacity:1;fill-rule:evenodd;stroke:#000000;stroke-opacity:1"
       d="m 119.792,741.769 h 12.671 v 11.169 h -12.671 z" /><path
       inkscape:connector-curvature="0"
       id="path70"
       style="fill:#3465a4;fill-opacity:1;fill-rule:evenodd;stroke:#000000;stroke-opacity:1"
       d="m 132.435,741.769 h 12.671 v 11.169 h -12.671 z" /><path
       inkscape:connector-curvature="0"
       id="path72"
       style="fill:#3465a4;fill-opacity:1;fill-rule:evenodd;stroke:#000000;stroke-opacity:1"
       d="m 145.077,741.769 h 12.671 v 11.169 h -12.671 z" /><path
       inkscape:connector-curvature="0"
       id="path74"
       style="fill:#3465a4;fill-opacity:1;fill-rule:evenodd;stroke:#000000;stroke-opacity:1"
       d="m 170.362,741.769 h 12.671 v 11.169 h -12.671 z" /><path
       inkscape:connector-curvature="0"
       id="path76"
       style="fill:#3465a4;fill-opacity:1;fill-rule:evenodd;stroke:#000000;stroke-opacity:1"
       d="m 183.005,741.769 h 12.671 v 11.169 h -12.671 z" /><path
       inkscape:connector-curvature="0"
       id="path78"
       style="fill:#3465a4;fill-opacity:1;fill-rule:evenodd;stroke:#000000;stroke-opacity:1"
       d="m 195.647,741.769 h 12.671 v 11.169 h -12.671 z" /><path
       inkscape:connector-curvature="0"
       id="path80"
       style="fill:#3465a4;fill-opacity:1;fill-rule:evenodd;stroke:#000000;stroke-opacity:1"
       d="m 220.932,741.769 h 12.671 v 11.169 h -12.671 z" /><path
       inkscape:connector-curvature="0"
       id="path82"
       style="fill:#3465a4;fill-opacity:1;fill-rule:evenodd;stroke:#000000;stroke-opacity:1"
       d="m 233.575,741.769 h 12.671 v 11.169 h -12.671 z" /><path
       inkscape:connector-curvature="0"
       id="path84"
       style="fill:#3465a4;fill-opacity:1;fill-rule:evenodd;stroke:#000000;stroke-opacity:1"
       d="m 246.217,741.769 h 12.671 v 11.169 h -12.671 z" /><path
       inkscape:connector-curvature="0"
       id="path86"
       style="fill:#3465a4;fill-opacity:1;fill-rule:evenodd;stroke:#000000;stroke-opacity:1"
       d="m 271.502,741.769 h 12.671 v 11.169 h -12.671 z" /><path
       inkscape:connector-curvature="0"
       id="path88"
       style="fill:#3465a4;fill-opacity:1;fill-rule:evenodd;stroke:#000000;stroke-opacity:1"
       d="m 284.145,741.769 h 12.671 v 11.169 h -12.671 z" /><path
       inkscape:connector-curvature="0"
       id="path90"
       style="fill:#3465a4;fill-opacity:1;fill-rule:evenodd;stroke:#000000;stroke-opacity:1"
       d="m 296.787,741.769 h 12.671 v 11.169 h -12.671 z" /><path
       inkscape:connector-curvature="0"
       id="path92"
       style="fill:#3465a4;fill-opacity:1;fill-rule:evenodd;stroke:#000000;stroke-opacity:1"
       d="m 322.072,741.769 h 12.671 v 11.169 h -12.671 z" /><path
       inkscape:connector-curvature="0"
       id="path94"
       style="fill:#3465a4;fill-opacity:1;fill-rule:evenodd;stroke:#000000;stroke-opacity:1"
       d="m 334.715,741.769 h 12.671 v 11.169 h -12.671 z" /><path
       inkscape:connector-curvature="0"
       id="path96"
       style="fill:#3465a4;fill-opacity:1;fill-rule:evenodd;stroke:#000000;stroke-opacity:1"
       d="m 347.357,741.769 h 12.671 v 11.169 h -12.671 z" /><path
       inkscape:connector-curvature="0"
       id="path98"
       style="fill:#3465a4;fill-opacity:1;fill-rule:evenodd;stroke:#000000;stroke-opacity:1"
       d="m 372.643,741.769 h 12.671 v 11.169 h -12.671 z" /><path
       inkscape:connector-curvature="0"
       id="path100"
       style="fill:#3465a4;fill-opacity:1;fill-rule:evenodd;stroke:#000000;stroke-opacity:1"
       d="m 385.285,741.769 h 12.671 v 11.169 h -12.671 z" /><path
       inkscape:connector-curvature="0"
       id="path102"
       style="fill:#3465a4;fill-opacity:1;fill-rule:evenodd;stroke:#000000;stroke-opacity:1"
       d="m 397.928,741.769 h 12.671 v 11.169 h -12.671 z" /><path
       inkscape:connector-curvature="0"
       id="path104"
       style="fill:#3465a4;fill-opacity:1;fill-rule:evenodd;stroke:#000000;stroke-opacity:1"
       d="m 423.213,741.769 h 12.671 v 11.169 h -12.671 z" /><path
       inkscape:connector-curvature="0"
       id="path106"
       style="fill:#3465a4;fill-opacity:1;fill-rule:evenodd;stroke:#000000;stroke-opacity:1"
       d="m 435.855,741.769 h 12.671 v 11.169 h -12.671 z" /><path
       inkscape:connector-curvature="0"
       id="path108"
       style="fill:#3465a4;fill-opacity:1;fill-rule:evenodd;stroke:#000000;stroke-opacity:1"
       d="m 448.498,741.769 h 12.671 v 11.169 h -12.671 z" /><path
       inkscape:connector-curvature="0"
       id="path110"
       style="fill:#3465a4;fill-opacity:1;fill-rule:evenodd;stroke:#000000;stroke-opacity:1"
       d="m 473.783,741.769 h 12.671 v 11.169 h -12.671 z" /><path
       inkscape:connector-curvature="0"
       id="path112"
       style="fill:#3465a4;fill-opacity:1;fill-rule:evenodd;stroke:#000000;stroke-opacity:1"
       d="m 486.425,741.769 h 12.671 v 11.169 h -12.671 z" /><path
       inkscape:connector-curvature="0"
       id="path114"
       style="fill:#ffff6d;fill-opacity:1;fill-rule:evenodd;stroke:#000000;stroke-opacity:1"
       d="m 499.068,741.769 h 12.671 v 11.169 h -12.671 z" /><path
       inkscape:connector-curvature="0"
       id="path116"
       style="fill:#3465a4;fill-opacity:1;fill-rule:evenodd;stroke:#000000;stroke-opacity:1"
       d="m 69.222,730.629 h 12.671 v 11.169 H 69.222 Z" /><path
       inkscape:connector-curvature="0"
       id="path118"
       style="fill:#3465a4;fill-opacity:1;fill-rule:evenodd;stroke:#000000;stroke-opacity:1"
       d="m 81.865,730.629 h 12.671 v 11.169 H 81.865 Z" /><path
       inkscape:connector-curvature="0"
       id="path120"
       style="fill:#3465a4;fill-opacity:1;fill-rule:evenodd;stroke:#000000;stroke-opacity:1"
       d="m 94.507,730.629 h 12.671 v 11.169 H 94.507 Z" /><path
       inkscape:connector-curvature="0"
       id="path122"
       style="fill:#3465a4;fill-opacity:1;fill-rule:evenodd;stroke:#000000;stroke-opacity:1"
       d="m 119.792,730.629 h 12.671 v 11.169 h -12.671 z" /><path
       inkscape:connector-curvature="0"
       id="path124"
       style="fill:#3465a4;fill-opacity:1;fill-rule:evenodd;stroke:#000000;stroke-opacity:1"
       d="m 132.435,730.629 h 12.671 v 11.169 h -12.671 z" /><path
       inkscape:connector-curvature="0"
       id="path126"
       style="fill:#ffff6d;fill-opacity:1;fill-rule:evenodd;stroke:#000000;stroke-opacity:1"
       d="m 145.077,730.629 h 12.671 v 11.169 h -12.671 z" /><path
       inkscape:connector-curvature="0"
       id="path128"
       style="fill:#3465a4;fill-opacity:1;fill-rule:evenodd;stroke:#000000;stroke-opacity:1"
       d="m 170.362,730.629 h 12.671 v 11.169 h -12.671 z" /><path
       inkscape:connector-curvature="0"
       id="path130"
       style="fill:#3465a4;fill-opacity:1;fill-rule:evenodd;stroke:#000000;stroke-opacity:1"
       d="m 183.005,730.629 h 12.671 v 11.169 h -12.671 z" /><path
       inkscape:connector-curvature="0"
       id="path132"
       style="fill:#ffff6d;fill-opacity:1;fill-rule:evenodd;stroke:#000000;stroke-opacity:1"
       d="m 195.647,730.629 h 12.671 v 11.169 h -12.671 z" /><path
       inkscape:connector-curvature="0"
       id="path134"
       style="fill:#3465a4;fill-opacity:1;fill-rule:evenodd;stroke:#000000;stroke-opacity:1"
       d="m 220.932,730.629 h 12.671 v 11.169 h -12.671 z" /><path
       inkscape:connector-curvature="0"
       id="path136"
       style="fill:#3465a4;fill-opacity:1;fill-rule:evenodd;stroke:#000000;stroke-opacity:1"
       d="m 233.575,730.629 h 12.671 v 11.169 h -12.671 z" /><path
       inkscape:connector-curvature="0"
       id="path138"
       style="fill:#ffff6d;fill-opacity:1;fill-rule:evenodd;stroke:#000000;stroke-opacity:1"
       d="m 246.217,730.629 h 12.671 v 11.169 h -12.671 z" /><path
       inkscape:connector-curvature="0"
       id="path140"
       style="fill:#3465a4;fill-opacity:1;fill-rule:evenodd;stroke:#000000;stroke-opacity:1"
       d="m 271.502,730.629 h 12.671 v 11.169 h -12.671 z" /><path
       inkscape:connector-curvature="0"
       id="path142"
       style="fill:#3465a4;fill-opacity:1;fill-rule:evenodd;stroke:#000000;stroke-opacity:1"
       d="m 284.145,730.629 h 12.671 v 11.169 h -12.671 z" /><path
       inkscape:connector-curvature="0"
       id="path144"
       style="fill:#ffff6d;fill-opacity:1;fill-rule:evenodd;stroke:#000000;stroke-opacity:1"
       d="m 296.787,730.629 h 12.671 v 11.169 h -12.671 z" /><path
       inkscape:connector-curvature="0"
       id="path146"
       style="fill:#3465a4;fill-opacity:1;fill-rule:evenodd;stroke:#000000;stroke-opacity:1"
       d="m 322.072,730.629 h 12.671 v 11.169 h -12.671 z" /><path
       inkscape:connector-curvature="0"
       id="path148"
       style="fill:#3465a4;fill-opacity:1;fill-rule:evenodd;stroke:#000000;stroke-opacity:1"
       d="m 334.715,730.629 h 12.671 v 11.169 h -12.671 z" /><path
       inkscape:connector-curvature="0"
       id="path150"
       style="fill:#ffff6d;fill-opacity:1;fill-rule:evenodd;stroke:#000000;stroke-opacity:1"
       d="m 347.357,730.629 h 12.671 v 11.169 h -12.671 z" /><path
       inkscape:connector-curvature="0"
       id="path152"
       style="fill:#3465a4;fill-opacity:1;fill-rule:evenodd;stroke:#000000;stroke-opacity:1"
       d="m 372.643,730.629 h 12.671 v 11.169 h -12.671 z" /><path
       inkscape:connector-curvature="0"
       id="path154"
       style="fill:#88ba47;fill-opacity:1;fill-rule:evenodd;stroke:#000000;stroke-opacity:1"
       d="m 385.285,730.629 h 12.671 v 11.169 h -12.671 z" /><path
       inkscape:connector-curvature="0"
       id="path156"
       style="fill:#3465a4;fill-opacity:1;fill-rule:evenodd;stroke:#000000;stroke-opacity:1"
       d="m 397.928,730.629 h 12.671 v 11.169 h -12.671 z" /><path
       inkscape:connector-curvature="0"
       id="path158"
       style="fill:#3465a4;fill-opacity:1;fill-rule:evenodd;stroke:#000000;stroke-opacity:1"
       d="m 423.213,730.629 h 12.671 v 11.169 h -12.671 z" /><path
       inkscape:connector-curvature="0"
       id="path160"
       style="fill:#88ba47;fill-opacity:1;fill-rule:evenodd;stroke:#000000;stroke-opacity:1"
       d="m 435.855,730.629 h 12.671 v 11.169 h -12.671 z" /><path
       inkscape:connector-curvature="0"
       id="path162"
       style="fill:#3465a4;fill-opacity:1;fill-rule:evenodd;stroke:#000000;stroke-opacity:1"
       d="m 448.498,730.629 h 12.671 v 11.169 h -12.671 z" /><path
       inkscape:connector-curvature="0"
       id="path164"
       style="fill:#3465a4;fill-opacity:1;fill-rule:evenodd;stroke:#000000;stroke-opacity:1"
       d="m 473.783,730.629 h 12.671 v 11.169 h -12.671 z" /><path
       inkscape:connector-curvature="0"
       id="path166"
       style="fill:#3465a4;fill-opacity:1;fill-rule:evenodd;stroke:#000000;stroke-opacity:1"
       d="m 486.425,730.629 h 12.671 v 11.169 h -12.671 z" /><path
       inkscape:connector-curvature="0"
       id="path168"
       style="fill:#3465a4;fill-opacity:1;fill-rule:evenodd;stroke:#000000;stroke-opacity:1"
       d="m 499.068,730.629 h 12.671 v 11.169 h -12.671 z" /><path
       inkscape:connector-curvature="0"
       id="path170"
       style="fill:#3465a4;fill-opacity:1;fill-rule:evenodd;stroke:#000000;stroke-opacity:1"
       d="m 69.222,719.489 h 12.671 v 11.169 H 69.222 Z" /><path
       inkscape:connector-curvature="0"
       id="path172"
       style="fill:#3465a4;fill-opacity:1;fill-rule:evenodd;stroke:#000000;stroke-opacity:1"
       d="m 81.865,719.489 h 12.671 v 11.169 H 81.865 Z" /><path
       inkscape:connector-curvature="0"
       id="path174"
       style="fill:#3465a4;fill-opacity:1;fill-rule:evenodd;stroke:#000000;stroke-opacity:1"
       d="m 94.507,719.489 h 12.671 v 11.169 H 94.507 Z" /><path
       inkscape:connector-curvature="0"
       id="path176"
       style="fill:#3465a4;fill-opacity:1;fill-rule:evenodd;stroke:#000000;stroke-opacity:1"
       d="m 119.792,719.489 h 12.671 v 11.169 h -12.671 z" /><path
       inkscape:connector-curvature="0"
       id="path178"
       style="fill:#3465a4;fill-opacity:1;fill-rule:evenodd;stroke:#000000;stroke-opacity:1"
       d="m 132.435,719.489 h 12.671 v 11.169 h -12.671 z" /><path
       inkscape:connector-curvature="0"
       id="path180"
       style="fill:#88ba47;fill-opacity:1;fill-rule:evenodd;stroke:#000000;stroke-opacity:1"
       d="m 145.077,719.489 h 12.671 v 11.169 h -12.671 z" /><path
       inkscape:connector-curvature="0"
       id="path182"
       style="fill:#3465a4;fill-opacity:1;fill-rule:evenodd;stroke:#000000;stroke-opacity:1"
       d="m 170.362,719.489 h 12.671 v 11.169 h -12.671 z" /><path
       inkscape:connector-curvature="0"
       id="path184"
       style="fill:#88ba47;fill-opacity:1;fill-rule:evenodd;stroke:#000000;stroke-opacity:1"
       d="m 183.005,719.489 h 12.671 v 11.169 h -12.671 z" /><path
       inkscape:connector-curvature="0"
       id="path186"
       style="fill:#3465a4;fill-opacity:1;fill-rule:evenodd;stroke:#000000;stroke-opacity:1"
       d="m 195.647,719.489 h 12.671 v 11.169 h -12.671 z" /><path
       inkscape:connector-curvature="0"
       id="path188"
       style="fill:#3465a4;fill-opacity:1;fill-rule:evenodd;stroke:#000000;stroke-opacity:1"
       d="m 220.932,719.489 h 12.671 v 11.169 h -12.671 z" /><path
       inkscape:connector-curvature="0"
       id="path190"
       style="fill:#88ba47;fill-opacity:1;fill-rule:evenodd;stroke:#000000;stroke-opacity:1"
       d="m 233.575,719.489 h 12.671 v 11.169 h -12.671 z" /><path
       inkscape:connector-curvature="0"
       id="path192"
       style="fill:#88ba47;fill-opacity:1;fill-rule:evenodd;stroke:#000000;stroke-opacity:1"
       d="m 246.217,719.489 h 12.671 v 11.169 h -12.671 z" /><path
       inkscape:connector-curvature="0"
       id="path194"
       style="fill:#ffff6d;fill-opacity:1;fill-rule:evenodd;stroke:#000000;stroke-opacity:1"
       d="m 271.502,719.489 h 12.671 v 11.169 h -12.671 z" /><path
       inkscape:connector-curvature="0"
       id="path196"
       style="fill:#88ba47;fill-opacity:1;fill-rule:evenodd;stroke:#000000;stroke-opacity:1"
       d="m 284.145,719.489 h 12.671 v 11.169 h -12.671 z" /><path
       inkscape:connector-curvature="0"
       id="path198"
       style="fill:#3465a4;fill-opacity:1;fill-rule:evenodd;stroke:#000000;stroke-opacity:1"
       d="m 296.787,719.489 h 12.671 v 11.169 h -12.671 z" /><path
       inkscape:connector-curvature="0"
       id="path200"
       style="fill:#ffff6d;fill-opacity:1;fill-rule:evenodd;stroke:#000000;stroke-opacity:1"
       d="m 322.072,719.489 h 12.671 v 11.169 h -12.671 z" /><path
       inkscape:connector-curvature="0"
       id="path202"
       style="fill:#88ba47;fill-opacity:1;fill-rule:evenodd;stroke:#000000;stroke-opacity:1"
       d="m 334.715,719.489 h 12.671 v 11.169 h -12.671 z" /><path
       inkscape:connector-curvature="0"
       id="path204"
       style="fill:#88ba47;fill-opacity:1;fill-rule:evenodd;stroke:#000000;stroke-opacity:1"
       d="m 347.357,719.489 h 12.671 v 11.169 h -12.671 z" /><path
       inkscape:connector-curvature="0"
       id="path206"
       style="fill:#3465a4;fill-opacity:1;fill-rule:evenodd;stroke:#000000;stroke-opacity:1"
       d="m 372.643,719.489 h 12.671 v 11.169 h -12.671 z" /><path
       inkscape:connector-curvature="0"
       id="path208"
       style="fill:#3465a4;fill-opacity:1;fill-rule:evenodd;stroke:#000000;stroke-opacity:1"
       d="m 385.285,719.489 h 12.671 v 11.169 h -12.671 z" /><path
       inkscape:connector-curvature="0"
       id="path210"
       style="fill:#3465a4;fill-opacity:1;fill-rule:evenodd;stroke:#000000;stroke-opacity:1"
       d="m 397.928,719.489 h 12.671 v 11.169 h -12.671 z" /><path
       inkscape:connector-curvature="0"
       id="path212"
       style="fill:#3465a4;fill-opacity:1;fill-rule:evenodd;stroke:#000000;stroke-opacity:1"
       d="m 423.213,719.489 h 12.671 v 11.169 h -12.671 z" /><path
       inkscape:connector-curvature="0"
       id="path214"
       style="fill:#88ba47;fill-opacity:1;fill-rule:evenodd;stroke:#000000;stroke-opacity:1"
       d="m 435.855,719.489 h 12.671 v 11.169 h -12.671 z" /><path
       inkscape:connector-curvature="0"
       id="path216"
       style="fill:#3465a4;fill-opacity:1;fill-rule:evenodd;stroke:#000000;stroke-opacity:1"
       d="m 448.498,719.489 h 12.671 v 11.169 h -12.671 z" /><path
       inkscape:connector-curvature="0"
       id="path218"
       style="fill:#3465a4;fill-opacity:1;fill-rule:evenodd;stroke:#000000;stroke-opacity:1"
       d="m 473.783,719.489 h 12.671 v 11.169 h -12.671 z" /><path
       inkscape:connector-curvature="0"
       id="path220"
       style="fill:#ffff6d;fill-opacity:1;fill-rule:evenodd;stroke:#000000;stroke-opacity:1"
       d="m 486.425,719.489 h 12.671 v 11.169 h -12.671 z" /><path
       inkscape:connector-curvature="0"
       id="path222"
       style="fill:#ffff6d;fill-opacity:1;fill-rule:evenodd;stroke:#000000;stroke-opacity:1"
       d="m 499.068,719.489 h 12.671 v 11.169 h -12.671 z" /></g><g
     transform="translate(15.729222,-99.038087)"
     style="display:inline"
     inkscape:label="text"
     id="layer1"
     inkscape:groupmode="layer"><g
       id="g224"
       transform="matrix(1.3333333,0,0,-1.3333333,0,1122.5197)"><text
         id="text228"
         style="font-variant:normal;font-weight:normal;font-size:6.009px;font-family:'Liberation Serif';-inkscape-font-specification:LiberationSerif;writing-mode:lr-tb;fill:#000000;fill-opacity:1;fill-rule:nonzero;stroke:none"
         transform="matrix(1,0,0,-1,71.887,745.284)"><tspan
           id="tspan226"
           sodipodi:role="line"
           y="0"
           x="0 3.0044999 4.5067501">1.6</tspan></text></g><g
       id="g230"
       transform="matrix(1.3333333,0,0,-1.3333333,0,1122.5197)"><text
         id="text234"
         style="font-variant:normal;font-weight:normal;font-size:6.009px;font-family:'Liberation Serif';-inkscape-font-specification:LiberationSerif;writing-mode:lr-tb;fill:#000000;fill-opacity:1;fill-rule:nonzero;stroke:none"
         transform="matrix(1,0,0,-1,84.501,745.284)"><tspan
           id="tspan232"
           sodipodi:role="line"
           y="0"
           x="0 3.0044999 4.5067501">1.6</tspan></text></g><g
       id="g236"
       transform="matrix(1.3333333,0,0,-1.3333333,0,1122.5197)"><text
         id="text240"
         style="font-variant:normal;font-weight:normal;font-size:6.009px;font-family:'Liberation Serif';-inkscape-font-specification:LiberationSerif;writing-mode:lr-tb;fill:#000000;fill-opacity:1;fill-rule:nonzero;stroke:none"
         transform="matrix(1,0,0,-1,97.2,745.284)"><tspan
           id="tspan238"
           sodipodi:role="line"
           y="0"
           x="0 3.0044999 4.5067501">1.6</tspan></text></g><g
       id="g242"
       transform="matrix(1.3333333,0,0,-1.3333333,0,1122.5197)"><text
         id="text246"
         style="font-variant:normal;font-weight:normal;font-size:6.009px;font-family:'Liberation Serif';-inkscape-font-specification:LiberationSerif;writing-mode:lr-tb;fill:#000000;fill-opacity:1;fill-rule:nonzero;stroke:none"
         transform="matrix(1,0,0,-1,122.513,745.284)"><tspan
           id="tspan244"
           sodipodi:role="line"
           y="0"
           x="0 3.0044999 4.5067501">1.6</tspan></text></g><g
       id="g248"
       transform="matrix(1.3333333,0,0,-1.3333333,0,1122.5197)"><text
         id="text252"
         style="font-variant:normal;font-weight:normal;font-size:6.009px;font-family:'Liberation Serif';-inkscape-font-specification:LiberationSerif;writing-mode:lr-tb;fill:#000000;fill-opacity:1;fill-rule:nonzero;stroke:none"
         transform="matrix(1,0,0,-1,135.099,745.284)"><tspan
           id="tspan250"
           sodipodi:role="line"
           y="0"
           x="0 3.0044999 4.5067501">1.6</tspan></text></g><g
       id="g254"
       transform="matrix(1.3333333,0,0,-1.3333333,0,1122.5197)"><text
         id="text258"
         style="font-variant:normal;font-weight:normal;font-size:6.009px;font-family:'Liberation Serif';-inkscape-font-specification:LiberationSerif;writing-mode:lr-tb;fill:#000000;fill-opacity:1;fill-rule:nonzero;stroke:none"
         transform="matrix(1,0,0,-1,147.713,745.284)"><tspan
           id="tspan256"
           sodipodi:role="line"
           y="0"
           x="0 3.0044999 4.5067501">1.6</tspan></text></g><g
       id="g260"
       transform="matrix(1.3333333,0,0,-1.3333333,0,1122.5197)"><text
         id="text264"
         style="font-variant:normal;font-weight:normal;font-size:6.009px;font-family:'Liberation Serif';-inkscape-font-specification:LiberationSerif;writing-mode:lr-tb;fill:#000000;fill-opacity:1;fill-rule:nonzero;stroke:none"
         transform="matrix(1,0,0,-1,172.998,745.284)"><tspan
           id="tspan262"
           sodipodi:role="line"
           y="0"
           x="0 3.0044999 4.5067501">1.6</tspan></text></g><g
       id="g266"
       transform="matrix(1.3333333,0,0,-1.3333333,0,1122.5197)"><text
         id="text270"
         style="font-variant:normal;font-weight:normal;font-size:6.009px;font-family:'Liberation Serif';-inkscape-font-specification:LiberationSerif;writing-mode:lr-tb;fill:#000000;fill-opacity:1;fill-rule:nonzero;stroke:none"
         transform="matrix(1,0,0,-1,185.698,745.284)"><tspan
           id="tspan268"
           sodipodi:role="line"
           y="0"
           x="0 3.0044999 4.5067501">1.6</tspan></text></g><g
       id="g272"
       transform="matrix(1.3333333,0,0,-1.3333333,0,1122.5197)"><text
         id="text276"
         style="font-variant:normal;font-weight:normal;font-size:6.009px;font-family:'Liberation Serif';-inkscape-font-specification:LiberationSerif;writing-mode:lr-tb;fill:#000000;fill-opacity:1;fill-rule:nonzero;stroke:none"
         transform="matrix(1,0,0,-1,198.312,745.284)"><tspan
           id="tspan274"
           sodipodi:role="line"
           y="0"
           x="0 3.0044999 4.5067501">1.6</tspan></text></g><g
       id="g278"
       transform="matrix(1.3333333,0,0,-1.3333333,0,1122.5197)"><text
         id="text282"
         style="font-variant:normal;font-weight:normal;font-size:6.009px;font-family:'Liberation Serif';-inkscape-font-specification:LiberationSerif;writing-mode:lr-tb;fill:#000000;fill-opacity:1;fill-rule:nonzero;stroke:none"
         transform="matrix(1,0,0,-1,223.597,745.284)"><tspan
           id="tspan280"
           sodipodi:role="line"
           y="0"
           x="0 3.0044999 4.5067501">1.6</tspan></text></g><g
       id="g284"
       transform="matrix(1.3333333,0,0,-1.3333333,0,1122.5197)"><text
         id="text288"
         style="font-variant:normal;font-weight:normal;font-size:6.009px;font-family:'Liberation Serif';-inkscape-font-specification:LiberationSerif;writing-mode:lr-tb;fill:#000000;fill-opacity:1;fill-rule:nonzero;stroke:none"
         transform="matrix(1,0,0,-1,236.211,745.284)"><tspan
           id="tspan286"
           sodipodi:role="line"
           y="0"
           x="0 3.0044999 4.5067501">1.6</tspan></text></g><g
       id="g290"
       transform="matrix(1.3333333,0,0,-1.3333333,0,1122.5197)"><text
         id="text294"
         style="font-variant:normal;font-weight:normal;font-size:6.009px;font-family:'Liberation Serif';-inkscape-font-specification:LiberationSerif;writing-mode:lr-tb;fill:#000000;fill-opacity:1;fill-rule:nonzero;stroke:none"
         transform="matrix(1,0,0,-1,248.91,745.284)"><tspan
           id="tspan292"
           sodipodi:role="line"
           y="0"
           x="0 3.0044999 4.5067501">1.6</tspan></text></g><g
       id="g296"
       transform="matrix(1.3333333,0,0,-1.3333333,0,1122.5197)"><text
         id="text300"
         style="font-variant:normal;font-weight:normal;font-size:6.009px;font-family:'Liberation Serif';-inkscape-font-specification:LiberationSerif;writing-mode:lr-tb;fill:#000000;fill-opacity:1;fill-rule:nonzero;stroke:none"
         transform="matrix(1,0,0,-1,274.195,745.284)"><tspan
           id="tspan298"
           sodipodi:role="line"
           y="0"
           x="0 3.0044999 4.5067501">1.6</tspan></text></g><g
       id="g302"
       transform="matrix(1.3333333,0,0,-1.3333333,0,1122.5197)"><text
         id="text306"
         style="font-variant:normal;font-weight:normal;font-size:6.009px;font-family:'Liberation Serif';-inkscape-font-specification:LiberationSerif;writing-mode:lr-tb;fill:#000000;fill-opacity:1;fill-rule:nonzero;stroke:none"
         transform="matrix(1,0,0,-1,286.809,745.284)"><tspan
           id="tspan304"
           sodipodi:role="line"
           y="0"
           x="0 3.0044999 4.5067501">1.6</tspan></text></g><g
       id="g308"
       transform="matrix(1.3333333,0,0,-1.3333333,0,1122.5197)"><text
         id="text312"
         style="font-variant:normal;font-weight:normal;font-size:6.009px;font-family:'Liberation Serif';-inkscape-font-specification:LiberationSerif;writing-mode:lr-tb;fill:#000000;fill-opacity:1;fill-rule:nonzero;stroke:none"
         transform="matrix(1,0,0,-1,299.509,745.284)"><tspan
           id="tspan310"
           sodipodi:role="line"
           y="0"
           x="0 3.0044999 4.5067501">1.6</tspan></text></g><g
       id="g314"
       transform="matrix(1.3333333,0,0,-1.3333333,0,1122.5197)"><text
         id="text318"
         style="font-variant:normal;font-weight:normal;font-size:6.009px;font-family:'Liberation Serif';-inkscape-font-specification:LiberationSerif;writing-mode:lr-tb;fill:#000000;fill-opacity:1;fill-rule:nonzero;stroke:none"
         transform="matrix(1,0,0,-1,324.709,745.284)"><tspan
           id="tspan316"
           sodipodi:role="line"
           y="0"
           x="0 3.0044999 4.5067501">1.6</tspan></text></g><g
       id="g320"
       transform="matrix(1.3333333,0,0,-1.3333333,0,1122.5197)"><text
         id="text324"
         style="font-variant:normal;font-weight:normal;font-size:6.009px;font-family:'Liberation Serif';-inkscape-font-specification:LiberationSerif;writing-mode:lr-tb;fill:#000000;fill-opacity:1;fill-rule:nonzero;stroke:none"
         transform="matrix(1,0,0,-1,337.408,745.284)"><tspan
           id="tspan322"
           sodipodi:role="line"
           y="0"
           x="0 3.0044999 4.5067501">1.6</tspan></text></g><g
       id="g326"
       transform="matrix(1.3333333,0,0,-1.3333333,0,1122.5197)"><text
         id="text330"
         style="font-variant:normal;font-weight:normal;font-size:6.009px;font-family:'Liberation Serif';-inkscape-font-specification:LiberationSerif;writing-mode:lr-tb;fill:#000000;fill-opacity:1;fill-rule:nonzero;stroke:none"
         transform="matrix(1,0,0,-1,349.994,745.284)"><tspan
           id="tspan328"
           sodipodi:role="line"
           y="0"
           x="0 3.0044999 4.5067501">1.6</tspan></text></g><g
       id="g332"
       transform="matrix(1.3333333,0,0,-1.3333333,0,1122.5197)"><text
         id="text336"
         style="font-variant:normal;font-weight:normal;font-size:6.009px;font-family:'Liberation Serif';-inkscape-font-specification:LiberationSerif;writing-mode:lr-tb;fill:#000000;fill-opacity:1;fill-rule:nonzero;stroke:none"
         transform="matrix(1,0,0,-1,375.307,745.284)"><tspan
           id="tspan334"
           sodipodi:role="line"
           y="0"
           x="0 3.0044999 4.5067501">1.6</tspan></text></g><g
       id="g338"
       transform="matrix(1.3333333,0,0,-1.3333333,0,1122.5197)"><text
         id="text342"
         style="font-variant:normal;font-weight:normal;font-size:6.009px;font-family:'Liberation Serif';-inkscape-font-specification:LiberationSerif;writing-mode:lr-tb;fill:#000000;fill-opacity:1;fill-rule:nonzero;stroke:none"
         transform="matrix(1,0,0,-1,387.893,745.284)"><tspan
           id="tspan340"
           sodipodi:role="line"
           y="0"
           x="0 3.0044999 4.5067501">1.6</tspan></text></g><g
       id="g344"
       transform="matrix(1.3333333,0,0,-1.3333333,0,1122.5197)"><text
         id="text348"
         style="font-variant:normal;font-weight:normal;font-size:6.009px;font-family:'Liberation Serif';-inkscape-font-specification:LiberationSerif;writing-mode:lr-tb;fill:#000000;fill-opacity:1;fill-rule:nonzero;stroke:none"
         transform="matrix(1,0,0,-1,400.592,745.284)"><tspan
           id="tspan346"
           sodipodi:role="line"
           y="0"
           x="0 3.0044999 4.5067501">1.6</tspan></text></g><g
       id="g350"
       transform="matrix(1.3333333,0,0,-1.3333333,0,1122.5197)"><text
         id="text354"
         style="font-variant:normal;font-weight:normal;font-size:6.009px;font-family:'Liberation Serif';-inkscape-font-specification:LiberationSerif;writing-mode:lr-tb;fill:#000000;fill-opacity:1;fill-rule:nonzero;stroke:none"
         transform="matrix(1,0,0,-1,425.906,745.284)"><tspan
           id="tspan352"
           sodipodi:role="line"
           y="0"
           x="0 3.0044999 4.5067501">1.6</tspan></text></g><g
       id="g356"
       transform="matrix(1.3333333,0,0,-1.3333333,0,1122.5197)"><text
         id="text360"
         style="font-variant:normal;font-weight:normal;font-size:6.009px;font-family:'Liberation Serif';-inkscape-font-specification:LiberationSerif;writing-mode:lr-tb;fill:#000000;fill-opacity:1;fill-rule:nonzero;stroke:none"
         transform="matrix(1,0,0,-1,438.491,745.284)"><tspan
           id="tspan358"
           sodipodi:role="line"
           y="0"
           x="0 3.0044999 4.5067501">1.6</tspan></text></g><g
       id="g362"
       transform="matrix(1.3333333,0,0,-1.3333333,0,1122.5197)"><text
         id="text366"
         style="font-variant:normal;font-weight:normal;font-size:6.009px;font-family:'Liberation Serif';-inkscape-font-specification:LiberationSerif;writing-mode:lr-tb;fill:#000000;fill-opacity:1;fill-rule:nonzero;stroke:none"
         transform="matrix(1,0,0,-1,451.191,745.284)"><tspan
           id="tspan364"
           sodipodi:role="line"
           y="0"
           x="0 3.0044999 4.5067501">1.6</tspan></text></g><g
       id="g368"
       transform="matrix(1.3333333,0,0,-1.3333333,0,1122.5197)"><text
         id="text372"
         style="font-variant:normal;font-weight:normal;font-size:6.009px;font-family:'Liberation Serif';-inkscape-font-specification:LiberationSerif;writing-mode:lr-tb;fill:#000000;fill-opacity:1;fill-rule:nonzero;stroke:none"
         transform="matrix(1,0,0,-1,476.391,745.284)"><tspan
           id="tspan370"
           sodipodi:role="line"
           y="0"
           x="0 3.0044999 4.5067501">1.6</tspan></text></g><g
       id="g374"
       transform="matrix(1.3333333,0,0,-1.3333333,0,1122.5197)"><text
         id="text378"
         style="font-variant:normal;font-weight:normal;font-size:6.009px;font-family:'Liberation Serif';-inkscape-font-specification:LiberationSerif;writing-mode:lr-tb;fill:#000000;fill-opacity:1;fill-rule:nonzero;stroke:none"
         transform="matrix(1,0,0,-1,489.09,745.284)"><tspan
           id="tspan376"
           sodipodi:role="line"
           y="0"
           x="0 3.0044999 4.5067501">1.6</tspan></text></g><g
       id="g380"
       transform="matrix(1.3333333,0,0,-1.3333333,0,1122.5197)"><text
         id="text384"
         style="font-variant:normal;font-weight:normal;font-size:6.009px;font-family:'Liberation Serif';-inkscape-font-specification:LiberationSerif;writing-mode:lr-tb;fill:#000000;fill-opacity:1;fill-rule:nonzero;stroke:none"
         transform="matrix(1,0,0,-1,501.704,745.284)"><tspan
           id="tspan382"
           sodipodi:role="line"
           y="0"
           x="0 3.0044999 4.5067501">3.2</tspan></text></g><g
       id="g386"
       transform="matrix(1.3333333,0,0,-1.3333333,0,1122.5197)"><text
         id="text390"
         style="font-variant:normal;font-weight:normal;font-size:6.009px;font-family:'Liberation Serif';-inkscape-font-specification:LiberationSerif;writing-mode:lr-tb;fill:#000000;fill-opacity:1;fill-rule:nonzero;stroke:none"
         transform="matrix(1,0,0,-1,71.887,734.087)"><tspan
           id="tspan388"
           sodipodi:role="line"
           y="0"
           x="0 3.0044999 4.5067501">1.6</tspan></text></g><g
       id="g392"
       transform="matrix(1.3333333,0,0,-1.3333333,0,1122.5197)"><text
         id="text396"
         style="font-variant:normal;font-weight:normal;font-size:6.009px;font-family:'Liberation Serif';-inkscape-font-specification:LiberationSerif;writing-mode:lr-tb;fill:#000000;fill-opacity:1;fill-rule:nonzero;stroke:none"
         transform="matrix(1,0,0,-1,84.501,734.087)"><tspan
           id="tspan394"
           sodipodi:role="line"
           y="0"
           x="0 3.0044999 4.5067501">1.6</tspan></text></g><g
       id="g398"
       transform="matrix(1.3333333,0,0,-1.3333333,0,1122.5197)"><text
         id="text402"
         style="font-variant:normal;font-weight:normal;font-size:6.009px;font-family:'Liberation Serif';-inkscape-font-specification:LiberationSerif;writing-mode:lr-tb;fill:#000000;fill-opacity:1;fill-rule:nonzero;stroke:none"
         transform="matrix(1,0,0,-1,97.2,734.087)"><tspan
           id="tspan400"
           sodipodi:role="line"
           y="0"
           x="0 3.0044999 4.5067501">1.6</tspan></text></g><g
       id="g404"
       transform="matrix(1.3333333,0,0,-1.3333333,0,1122.5197)"><text
         id="text408"
         style="font-variant:normal;font-weight:normal;font-size:6.009px;font-family:'Liberation Serif';-inkscape-font-specification:LiberationSerif;writing-mode:lr-tb;fill:#000000;fill-opacity:1;fill-rule:nonzero;stroke:none"
         transform="matrix(1,0,0,-1,122.513,734.087)"><tspan
           id="tspan406"
           sodipodi:role="line"
           y="0"
           x="0 3.0044999 4.5067501">1.6</tspan></text></g><g
       id="g410"
       transform="matrix(1.3333333,0,0,-1.3333333,0,1122.5197)"><text
         id="text414"
         style="font-variant:normal;font-weight:normal;font-size:6.009px;font-family:'Liberation Serif';-inkscape-font-specification:LiberationSerif;writing-mode:lr-tb;fill:#000000;fill-opacity:1;fill-rule:nonzero;stroke:none"
         transform="matrix(1,0,0,-1,135.099,734.087)"><tspan
           id="tspan412"
           sodipodi:role="line"
           y="0"
           x="0 3.0044999 4.5067501">1.6</tspan></text></g><g
       id="g416"
       transform="matrix(1.3333333,0,0,-1.3333333,0,1122.5197)"><text
         id="text420"
         style="font-variant:normal;font-weight:normal;font-size:6.009px;font-family:'Liberation Serif';-inkscape-font-specification:LiberationSerif;writing-mode:lr-tb;fill:#000000;fill-opacity:1;fill-rule:nonzero;stroke:none"
         transform="matrix(1,0,0,-1,147.713,734.087)"><tspan
           id="tspan418"
           sodipodi:role="line"
           y="0"
           x="0 3.0044999 4.5067501">3.2</tspan></text></g><g
       id="g422"
       transform="matrix(1.3333333,0,0,-1.3333333,0,1122.5197)"><text
         id="text426"
         style="font-variant:normal;font-weight:normal;font-size:6.009px;font-family:'Liberation Serif';-inkscape-font-specification:LiberationSerif;writing-mode:lr-tb;fill:#000000;fill-opacity:1;fill-rule:nonzero;stroke:none"
         transform="matrix(1,0,0,-1,172.998,734.087)"><tspan
           id="tspan424"
           sodipodi:role="line"
           y="0"
           x="0 3.0044999 4.5067501">1.6</tspan></text></g><g
       id="g428"
       transform="matrix(1.3333333,0,0,-1.3333333,0,1122.5197)"><text
         id="text432"
         style="font-variant:normal;font-weight:normal;font-size:6.009px;font-family:'Liberation Serif';-inkscape-font-specification:LiberationSerif;writing-mode:lr-tb;fill:#000000;fill-opacity:1;fill-rule:nonzero;stroke:none"
         transform="matrix(1,0,0,-1,185.698,734.087)"><tspan
           id="tspan430"
           sodipodi:role="line"
           y="0"
           x="0 3.0044999 4.5067501">1.6</tspan></text></g><g
       id="g434"
       transform="matrix(1.3333333,0,0,-1.3333333,0,1122.5197)"><text
         id="text438"
         style="font-variant:normal;font-weight:normal;font-size:6.009px;font-family:'Liberation Serif';-inkscape-font-specification:LiberationSerif;writing-mode:lr-tb;fill:#000000;fill-opacity:1;fill-rule:nonzero;stroke:none"
         transform="matrix(1,0,0,-1,198.312,734.087)"><tspan
           id="tspan436"
           sodipodi:role="line"
           y="0"
           x="0 3.0044999 4.5067501">3.2</tspan></text></g><g
       id="g440"
       transform="matrix(1.3333333,0,0,-1.3333333,0,1122.5197)"><text
         id="text444"
         style="font-variant:normal;font-weight:normal;font-size:6.009px;font-family:'Liberation Serif';-inkscape-font-specification:LiberationSerif;writing-mode:lr-tb;fill:#000000;fill-opacity:1;fill-rule:nonzero;stroke:none"
         transform="matrix(1,0,0,-1,223.597,734.087)"><tspan
           id="tspan442"
           sodipodi:role="line"
           y="0"
           x="0 3.0044999 4.5067501">1.6</tspan></text></g><g
       id="g446"
       transform="matrix(1.3333333,0,0,-1.3333333,0,1122.5197)"><text
         id="text450"
         style="font-variant:normal;font-weight:normal;font-size:6.009px;font-family:'Liberation Serif';-inkscape-font-specification:LiberationSerif;writing-mode:lr-tb;fill:#000000;fill-opacity:1;fill-rule:nonzero;stroke:none"
         transform="matrix(1,0,0,-1,236.211,734.087)"><tspan
           id="tspan448"
           sodipodi:role="line"
           y="0"
           x="0 3.0044999 4.5067501">1.6</tspan></text></g><g
       id="g452"
       transform="matrix(1.3333333,0,0,-1.3333333,0,1122.5197)"><text
         id="text456"
         style="font-variant:normal;font-weight:normal;font-size:6.009px;font-family:'Liberation Serif';-inkscape-font-specification:LiberationSerif;writing-mode:lr-tb;fill:#000000;fill-opacity:1;fill-rule:nonzero;stroke:none"
         transform="matrix(1,0,0,-1,248.91,734.087)"><tspan
           id="tspan454"
           sodipodi:role="line"
           y="0"
           x="0 3.0044999 4.5067501">3.2</tspan></text></g><g
       id="g458"
       transform="matrix(1.3333333,0,0,-1.3333333,0,1122.5197)"><text
         id="text462"
         style="font-variant:normal;font-weight:normal;font-size:6.009px;font-family:'Liberation Serif';-inkscape-font-specification:LiberationSerif;writing-mode:lr-tb;fill:#000000;fill-opacity:1;fill-rule:nonzero;stroke:none"
         transform="matrix(1,0,0,-1,274.195,734.087)"><tspan
           id="tspan460"
           sodipodi:role="line"
           y="0"
           x="0 3.0044999 4.5067501">1.6</tspan></text></g><g
       id="g464"
       transform="matrix(1.3333333,0,0,-1.3333333,0,1122.5197)"><text
         id="text468"
         style="font-variant:normal;font-weight:normal;font-size:6.009px;font-family:'Liberation Serif';-inkscape-font-specification:LiberationSerif;writing-mode:lr-tb;fill:#000000;fill-opacity:1;fill-rule:nonzero;stroke:none"
         transform="matrix(1,0,0,-1,286.809,734.087)"><tspan
           id="tspan466"
           sodipodi:role="line"
           y="0"
           x="0 3.0044999 4.5067501">1.6</tspan></text></g><g
       id="g470"
       transform="matrix(1.3333333,0,0,-1.3333333,0,1122.5197)"><text
         id="text474"
         style="font-variant:normal;font-weight:normal;font-size:6.009px;font-family:'Liberation Serif';-inkscape-font-specification:LiberationSerif;writing-mode:lr-tb;fill:#000000;fill-opacity:1;fill-rule:nonzero;stroke:none"
         transform="matrix(1,0,0,-1,299.509,734.087)"><tspan
           id="tspan472"
           sodipodi:role="line"
           y="0"
           x="0 3.0044999 4.5067501">3.2</tspan></text></g><g
       id="g476"
       transform="matrix(1.3333333,0,0,-1.3333333,0,1122.5197)"><text
         id="text480"
         style="font-variant:normal;font-weight:normal;font-size:6.009px;font-family:'Liberation Serif';-inkscape-font-specification:LiberationSerif;writing-mode:lr-tb;fill:#000000;fill-opacity:1;fill-rule:nonzero;stroke:none"
         transform="matrix(1,0,0,-1,324.709,734.087)"><tspan
           id="tspan478"
           sodipodi:role="line"
           y="0"
           x="0 3.0044999 4.5067501">1.6</tspan></text></g><g
       id="g482"
       transform="matrix(1.3333333,0,0,-1.3333333,0,1122.5197)"><text
         id="text486"
         style="font-variant:normal;font-weight:normal;font-size:6.009px;font-family:'Liberation Serif';-inkscape-font-specification:LiberationSerif;writing-mode:lr-tb;fill:#000000;fill-opacity:1;fill-rule:nonzero;stroke:none"
         transform="matrix(1,0,0,-1,337.408,734.087)"><tspan
           id="tspan484"
           sodipodi:role="line"
           y="0"
           x="0 3.0044999 4.5067501">1.6</tspan></text></g><g
       id="g488"
       transform="matrix(1.3333333,0,0,-1.3333333,0,1122.5197)"><text
         id="text492"
         style="font-variant:normal;font-weight:normal;font-size:6.009px;font-family:'Liberation Serif';-inkscape-font-specification:LiberationSerif;writing-mode:lr-tb;fill:#000000;fill-opacity:1;fill-rule:nonzero;stroke:none"
         transform="matrix(1,0,0,-1,349.994,734.087)"><tspan
           id="tspan490"
           sodipodi:role="line"
           y="0"
           x="0 3.0044999 4.5067501">3.2</tspan></text></g><g
       id="g494"
       transform="matrix(1.3333333,0,0,-1.3333333,0,1122.5197)"><text
         id="text498"
         style="font-variant:normal;font-weight:normal;font-size:6.009px;font-family:'Liberation Serif';-inkscape-font-specification:LiberationSerif;writing-mode:lr-tb;fill:#000000;fill-opacity:1;fill-rule:nonzero;stroke:none"
         transform="matrix(1,0,0,-1,375.307,734.087)"><tspan
           id="tspan496"
           sodipodi:role="line"
           y="0"
           x="0 3.0044999 4.5067501">1.6</tspan></text></g><g
       id="g500"
       transform="matrix(1.3333333,0,0,-1.3333333,0,1122.5197)"><text
         id="text504"
         style="font-variant:normal;font-weight:normal;font-size:6.009px;font-family:'Liberation Serif';-inkscape-font-specification:LiberationSerif;writing-mode:lr-tb;fill:#000000;fill-opacity:1;fill-rule:nonzero;stroke:none"
         transform="matrix(1,0,0,-1,387.893,734.087)"><tspan
           id="tspan502"
           sodipodi:role="line"
           y="0"
           x="0 3.0044999 4.5067501">2.4</tspan></text></g><g
       id="g506"
       transform="matrix(1.3333333,0,0,-1.3333333,0,1122.5197)"><text
         id="text510"
         style="font-variant:normal;font-weight:normal;font-size:6.009px;font-family:'Liberation Serif';-inkscape-font-specification:LiberationSerif;writing-mode:lr-tb;fill:#000000;fill-opacity:1;fill-rule:nonzero;stroke:none"
         transform="matrix(1,0,0,-1,400.592,734.087)"><tspan
           id="tspan508"
           sodipodi:role="line"
           y="0"
           x="0 3.0044999 4.5067501">1.6</tspan></text></g><g
       id="g512"
       transform="matrix(1.3333333,0,0,-1.3333333,0,1122.5197)"><text
         id="text516"
         style="font-variant:normal;font-weight:normal;font-size:6.009px;font-family:'Liberation Serif';-inkscape-font-specification:LiberationSerif;writing-mode:lr-tb;fill:#000000;fill-opacity:1;fill-rule:nonzero;stroke:none"
         transform="matrix(1,0,0,-1,425.906,734.087)"><tspan
           id="tspan514"
           sodipodi:role="line"
           y="0"
           x="0 3.0044999 4.5067501">1.6</tspan></text></g><g
       id="g518"
       transform="matrix(1.3333333,0,0,-1.3333333,0,1122.5197)"><text
         id="text522"
         style="font-variant:normal;font-weight:normal;font-size:6.009px;font-family:'Liberation Serif';-inkscape-font-specification:LiberationSerif;writing-mode:lr-tb;fill:#000000;fill-opacity:1;fill-rule:nonzero;stroke:none"
         transform="matrix(1,0,0,-1,438.491,734.087)"><tspan
           id="tspan520"
           sodipodi:role="line"
           y="0"
           x="0 3.0044999 4.5067501">2.4</tspan></text></g><g
       id="g524"
       transform="matrix(1.3333333,0,0,-1.3333333,0,1122.5197)"><text
         id="text528"
         style="font-variant:normal;font-weight:normal;font-size:6.009px;font-family:'Liberation Serif';-inkscape-font-specification:LiberationSerif;writing-mode:lr-tb;fill:#000000;fill-opacity:1;fill-rule:nonzero;stroke:none"
         transform="matrix(1,0,0,-1,451.191,734.087)"><tspan
           id="tspan526"
           sodipodi:role="line"
           y="0"
           x="0 3.0044999 4.5067501">1.6</tspan></text></g><g
       id="g530"
       transform="matrix(1.3333333,0,0,-1.3333333,0,1122.5197)"><text
         id="text534"
         style="font-variant:normal;font-weight:normal;font-size:6.009px;font-family:'Liberation Serif';-inkscape-font-specification:LiberationSerif;writing-mode:lr-tb;fill:#000000;fill-opacity:1;fill-rule:nonzero;stroke:none"
         transform="matrix(1,0,0,-1,476.391,734.087)"><tspan
           id="tspan532"
           sodipodi:role="line"
           y="0"
           x="0 3.0044999 4.5067501">1.6</tspan></text></g><g
       id="g536"
       transform="matrix(1.3333333,0,0,-1.3333333,0,1122.5197)"><text
         id="text540"
         style="font-variant:normal;font-weight:normal;font-size:6.009px;font-family:'Liberation Serif';-inkscape-font-specification:LiberationSerif;writing-mode:lr-tb;fill:#000000;fill-opacity:1;fill-rule:nonzero;stroke:none"
         transform="matrix(1,0,0,-1,489.09,734.087)"><tspan
           id="tspan538"
           sodipodi:role="line"
           y="0"
           x="0 3.0044999 4.5067501">1.6</tspan></text></g><g
       id="g542"
       transform="matrix(1.3333333,0,0,-1.3333333,0,1122.5197)"><text
         id="text546"
         style="font-variant:normal;font-weight:normal;font-size:6.009px;font-family:'Liberation Serif';-inkscape-font-specification:LiberationSerif;writing-mode:lr-tb;fill:#000000;fill-opacity:1;fill-rule:nonzero;stroke:none"
         transform="matrix(1,0,0,-1,501.704,734.087)"><tspan
           id="tspan544"
           sodipodi:role="line"
           y="0"
           x="0 3.0044999 4.5067501">1.6</tspan></text></g><g
       id="g548"
       transform="matrix(1.3333333,0,0,-1.3333333,0,1122.5197)"><text
         id="text552"
         style="font-variant:normal;font-weight:normal;font-size:6.009px;font-family:'Liberation Serif';-inkscape-font-specification:LiberationSerif;writing-mode:lr-tb;fill:#000000;fill-opacity:1;fill-rule:nonzero;stroke:none"
         transform="matrix(1,0,0,-1,71.887,722.976)"><tspan
           id="tspan550"
           sodipodi:role="line"
           y="0"
           x="0 3.0044999 4.5067501">1.6</tspan></text></g><g
       id="g554"
       transform="matrix(1.3333333,0,0,-1.3333333,0,1122.5197)"><text
         id="text558"
         style="font-variant:normal;font-weight:normal;font-size:6.009px;font-family:'Liberation Serif';-inkscape-font-specification:LiberationSerif;writing-mode:lr-tb;fill:#000000;fill-opacity:1;fill-rule:nonzero;stroke:none"
         transform="matrix(1,0,0,-1,84.501,722.976)"><tspan
           id="tspan556"
           sodipodi:role="line"
           y="0"
           x="0 3.0044999 4.5067501">1.6</tspan></text></g><g
       id="g560"
       transform="matrix(1.3333333,0,0,-1.3333333,0,1122.5197)"><text
         id="text564"
         style="font-variant:normal;font-weight:normal;font-size:6.009px;font-family:'Liberation Serif';-inkscape-font-specification:LiberationSerif;writing-mode:lr-tb;fill:#000000;fill-opacity:1;fill-rule:nonzero;stroke:none"
         transform="matrix(1,0,0,-1,97.2,722.976)"><tspan
           id="tspan562"
           sodipodi:role="line"
           y="0"
           x="0 3.0044999 4.5067501">1.6</tspan></text></g><g
       id="g566"
       transform="matrix(1.3333333,0,0,-1.3333333,0,1122.5197)"><text
         id="text570"
         style="font-variant:normal;font-weight:normal;font-size:6.009px;font-family:'Liberation Serif';-inkscape-font-specification:LiberationSerif;writing-mode:lr-tb;fill:#000000;fill-opacity:1;fill-rule:nonzero;stroke:none"
         transform="matrix(1,0,0,-1,122.513,722.976)"><tspan
           id="tspan568"
           sodipodi:role="line"
           y="0"
           x="0 3.0044999 4.5067501">1.6</tspan></text></g><g
       id="g572"
       transform="matrix(1.3333333,0,0,-1.3333333,0,1122.5197)"><text
         id="text576"
         style="font-variant:normal;font-weight:normal;font-size:6.009px;font-family:'Liberation Serif';-inkscape-font-specification:LiberationSerif;writing-mode:lr-tb;fill:#000000;fill-opacity:1;fill-rule:nonzero;stroke:none"
         transform="matrix(1,0,0,-1,135.099,722.976)"><tspan
           id="tspan574"
           sodipodi:role="line"
           y="0"
           x="0 3.0044999 4.5067501">1.6</tspan></text></g><g
       id="g578"
       transform="matrix(1.3333333,0,0,-1.3333333,0,1122.5197)"><text
         id="text582"
         style="font-variant:normal;font-weight:normal;font-size:6.009px;font-family:'Liberation Serif';-inkscape-font-specification:LiberationSerif;writing-mode:lr-tb;fill:#000000;fill-opacity:1;fill-rule:nonzero;stroke:none"
         transform="matrix(1,0,0,-1,147.713,722.976)"><tspan
           id="tspan580"
           sodipodi:role="line"
           y="0"
           x="0 3.0044999 4.5067501">2.4</tspan></text></g><g
       id="g584"
       transform="matrix(1.3333333,0,0,-1.3333333,0,1122.5197)"><text
         id="text588"
         style="font-variant:normal;font-weight:normal;font-size:6.009px;font-family:'Liberation Serif';-inkscape-font-specification:LiberationSerif;writing-mode:lr-tb;fill:#000000;fill-opacity:1;fill-rule:nonzero;stroke:none"
         transform="matrix(1,0,0,-1,172.998,722.976)"><tspan
           id="tspan586"
           sodipodi:role="line"
           y="0"
           x="0 3.0044999 4.5067501">1.6</tspan></text></g><g
       id="g590"
       transform="matrix(1.3333333,0,0,-1.3333333,0,1122.5197)"><text
         id="text594"
         style="font-variant:normal;font-weight:normal;font-size:6.009px;font-family:'Liberation Serif';-inkscape-font-specification:LiberationSerif;writing-mode:lr-tb;fill:#000000;fill-opacity:1;fill-rule:nonzero;stroke:none"
         transform="matrix(1,0,0,-1,185.698,722.976)"><tspan
           id="tspan592"
           sodipodi:role="line"
           y="0"
           x="0 3.0044999 4.5067501">2.4</tspan></text></g><g
       id="g596"
       transform="matrix(1.3333333,0,0,-1.3333333,0,1122.5197)"><text
         id="text600"
         style="font-variant:normal;font-weight:normal;font-size:6.009px;font-family:'Liberation Serif';-inkscape-font-specification:LiberationSerif;writing-mode:lr-tb;fill:#000000;fill-opacity:1;fill-rule:nonzero;stroke:none"
         transform="matrix(1,0,0,-1,198.312,722.976)"><tspan
           id="tspan598"
           sodipodi:role="line"
           y="0"
           x="0 3.0044999 4.5067501">1.6</tspan></text></g><g
       id="g602"
       transform="matrix(1.3333333,0,0,-1.3333333,0,1122.5197)"><text
         id="text606"
         style="font-variant:normal;font-weight:normal;font-size:6.009px;font-family:'Liberation Serif';-inkscape-font-specification:LiberationSerif;writing-mode:lr-tb;fill:#000000;fill-opacity:1;fill-rule:nonzero;stroke:none"
         transform="matrix(1,0,0,-1,223.597,722.976)"><tspan
           id="tspan604"
           sodipodi:role="line"
           y="0"
           x="0 3.0044999 4.5067501">1.6</tspan></text></g><g
       id="g608"
       transform="matrix(1.3333333,0,0,-1.3333333,0,1122.5197)"><text
         id="text612"
         style="font-variant:normal;font-weight:normal;font-size:6.009px;font-family:'Liberation Serif';-inkscape-font-specification:LiberationSerif;writing-mode:lr-tb;fill:#000000;fill-opacity:1;fill-rule:nonzero;stroke:none"
         transform="matrix(1,0,0,-1,236.211,722.976)"><tspan
           id="tspan610"
           sodipodi:role="line"
           y="0"
           x="0 3.0044999 4.5067501">2.4</tspan></text></g><g
       id="g614"
       transform="matrix(1.3333333,0,0,-1.3333333,0,1122.5197)"><text
         id="text618"
         style="font-variant:normal;font-weight:normal;font-size:6.009px;font-family:'Liberation Serif';-inkscape-font-specification:LiberationSerif;writing-mode:lr-tb;fill:#000000;fill-opacity:1;fill-rule:nonzero;stroke:none"
         transform="matrix(1,0,0,-1,248.91,722.976)"><tspan
           id="tspan616"
           sodipodi:role="line"
           y="0"
           x="0 3.0044999 4.5067501">2.4</tspan></text></g><g
       id="g620"
       transform="matrix(1.3333333,0,0,-1.3333333,0,1122.5197)"><text
         id="text624"
         style="font-variant:normal;font-weight:normal;font-size:6.009px;font-family:'Liberation Serif';-inkscape-font-specification:LiberationSerif;writing-mode:lr-tb;fill:#000000;fill-opacity:1;fill-rule:nonzero;stroke:none"
         transform="matrix(1,0,0,-1,274.195,722.976)"><tspan
           id="tspan622"
           sodipodi:role="line"
           y="0"
           x="0 3.0044999 4.5067501">3.2</tspan></text></g><g
       id="g626"
       transform="matrix(1.3333333,0,0,-1.3333333,0,1122.5197)"><text
         id="text630"
         style="font-variant:normal;font-weight:normal;font-size:6.009px;font-family:'Liberation Serif';-inkscape-font-specification:LiberationSerif;writing-mode:lr-tb;fill:#000000;fill-opacity:1;fill-rule:nonzero;stroke:none"
         transform="matrix(1,0,0,-1,286.809,722.976)"><tspan
           id="tspan628"
           sodipodi:role="line"
           y="0"
           x="0 3.0044999 4.5067501">2.4</tspan></text></g><g
       id="g632"
       transform="matrix(1.3333333,0,0,-1.3333333,0,1122.5197)"><text
         id="text636"
         style="font-variant:normal;font-weight:normal;font-size:6.009px;font-family:'Liberation Serif';-inkscape-font-specification:LiberationSerif;writing-mode:lr-tb;fill:#000000;fill-opacity:1;fill-rule:nonzero;stroke:none"
         transform="matrix(1,0,0,-1,299.509,722.976)"><tspan
           id="tspan634"
           sodipodi:role="line"
           y="0"
           x="0 3.0044999 4.5067501">1.6</tspan></text></g><g
       id="g638"
       transform="matrix(1.3333333,0,0,-1.3333333,0,1122.5197)"><text
         id="text642"
         style="font-variant:normal;font-weight:normal;font-size:6.009px;font-family:'Liberation Serif';-inkscape-font-specification:LiberationSerif;writing-mode:lr-tb;fill:#000000;fill-opacity:1;fill-rule:nonzero;stroke:none"
         transform="matrix(1,0,0,-1,324.709,722.976)"><tspan
           id="tspan640"
           sodipodi:role="line"
           y="0"
           x="0 3.0044999 4.5067501">3.2</tspan></text></g><g
       id="g644"
       transform="matrix(1.3333333,0,0,-1.3333333,0,1122.5197)"><text
         id="text648"
         style="font-variant:normal;font-weight:normal;font-size:6.009px;font-family:'Liberation Serif';-inkscape-font-specification:LiberationSerif;writing-mode:lr-tb;fill:#000000;fill-opacity:1;fill-rule:nonzero;stroke:none"
         transform="matrix(1,0,0,-1,337.408,722.976)"><tspan
           id="tspan646"
           sodipodi:role="line"
           y="0"
           x="0 3.0044999 4.5067501">2.4</tspan></text></g><g
       id="g650"
       transform="matrix(1.3333333,0,0,-1.3333333,0,1122.5197)"><text
         id="text654"
         style="font-variant:normal;font-weight:normal;font-size:6.009px;font-family:'Liberation Serif';-inkscape-font-specification:LiberationSerif;writing-mode:lr-tb;fill:#000000;fill-opacity:1;fill-rule:nonzero;stroke:none"
         transform="matrix(1,0,0,-1,349.994,722.976)"><tspan
           id="tspan652"
           sodipodi:role="line"
           y="0"
           x="0 3.0044999 4.5067501">2.4</tspan></text></g><g
       id="g656"
       transform="matrix(1.3333333,0,0,-1.3333333,0,1122.5197)"><text
         id="text660"
         style="font-variant:normal;font-weight:normal;font-size:6.009px;font-family:'Liberation Serif';-inkscape-font-specification:LiberationSerif;writing-mode:lr-tb;fill:#000000;fill-opacity:1;fill-rule:nonzero;stroke:none"
         transform="matrix(1,0,0,-1,375.307,722.976)"><tspan
           id="tspan658"
           sodipodi:role="line"
           y="0"
           x="0 3.0044999 4.5067501">1.6</tspan></text></g><g
       id="g662"
       transform="matrix(1.3333333,0,0,-1.3333333,0,1122.5197)"><text
         id="text666"
         style="font-variant:normal;font-weight:normal;font-size:6.009px;font-family:'Liberation Serif';-inkscape-font-specification:LiberationSerif;writing-mode:lr-tb;fill:#000000;fill-opacity:1;fill-rule:nonzero;stroke:none"
         transform="matrix(1,0,0,-1,387.893,722.976)"><tspan
           id="tspan664"
           sodipodi:role="line"
           y="0"
           x="0 3.0044999 4.5067501">1.6</tspan></text></g><g
       id="g668"
       transform="matrix(1.3333333,0,0,-1.3333333,0,1122.5197)"><text
         id="text672"
         style="font-variant:normal;font-weight:normal;font-size:6.009px;font-family:'Liberation Serif';-inkscape-font-specification:LiberationSerif;writing-mode:lr-tb;fill:#000000;fill-opacity:1;fill-rule:nonzero;stroke:none"
         transform="matrix(1,0,0,-1,400.592,722.976)"><tspan
           id="tspan670"
           sodipodi:role="line"
           y="0"
           x="0 3.0044999 4.5067501">1.6</tspan></text></g><g
       id="g674"
       transform="matrix(1.3333333,0,0,-1.3333333,0,1122.5197)"><text
         id="text678"
         style="font-variant:normal;font-weight:normal;font-size:6.009px;font-family:'Liberation Serif';-inkscape-font-specification:LiberationSerif;writing-mode:lr-tb;fill:#000000;fill-opacity:1;fill-rule:nonzero;stroke:none"
         transform="matrix(1,0,0,-1,425.906,722.976)"><tspan
           id="tspan676"
           sodipodi:role="line"
           y="0"
           x="0 3.0044999 4.5067501">1.6</tspan></text></g><g
       id="g680"
       transform="matrix(1.3333333,0,0,-1.3333333,0,1122.5197)"><text
         id="text684"
         style="font-variant:normal;font-weight:normal;font-size:6.009px;font-family:'Liberation Serif';-inkscape-font-specification:LiberationSerif;writing-mode:lr-tb;fill:#000000;fill-opacity:1;fill-rule:nonzero;stroke:none"
         transform="matrix(1,0,0,-1,438.491,722.976)"><tspan
           id="tspan682"
           sodipodi:role="line"
           y="0"
           x="0 3.0044999 4.5067501">2.4</tspan></text></g><g
       id="g686"
       transform="matrix(1.3333333,0,0,-1.3333333,0,1122.5197)"><text
         id="text690"
         style="font-variant:normal;font-weight:normal;font-size:6.009px;font-family:'Liberation Serif';-inkscape-font-specification:LiberationSerif;writing-mode:lr-tb;fill:#000000;fill-opacity:1;fill-rule:nonzero;stroke:none"
         transform="matrix(1,0,0,-1,451.191,722.976)"><tspan
           id="tspan688"
           sodipodi:role="line"
           y="0"
           x="0 3.0044999 4.5067501">1.6</tspan></text></g><g
       id="g692"
       transform="matrix(1.3333333,0,0,-1.3333333,0,1122.5197)"><text
         id="text696"
         style="font-variant:normal;font-weight:normal;font-size:6.009px;font-family:'Liberation Serif';-inkscape-font-specification:LiberationSerif;writing-mode:lr-tb;fill:#000000;fill-opacity:1;fill-rule:nonzero;stroke:none"
         transform="matrix(1,0,0,-1,476.391,722.976)"><tspan
           id="tspan694"
           sodipodi:role="line"
           y="0"
           x="0 3.0044999 4.5067501">1.6</tspan></text></g><g
       id="g698"
       transform="matrix(1.3333333,0,0,-1.3333333,0,1122.5197)"><text
         id="text702"
         style="font-variant:normal;font-weight:normal;font-size:6.009px;font-family:'Liberation Serif';-inkscape-font-specification:LiberationSerif;writing-mode:lr-tb;fill:#000000;fill-opacity:1;fill-rule:nonzero;stroke:none"
         transform="matrix(1,0,0,-1,489.09,722.976)"><tspan
           id="tspan700"
           sodipodi:role="line"
           y="0"
           x="0 3.0044999 4.5067501">3.2</tspan></text></g><g
       id="g704"
       transform="matrix(1.3333333,0,0,-1.3333333,0,1122.5197)"><text
         id="text708"
         style="font-variant:normal;font-weight:normal;font-size:6.009px;font-family:'Liberation Serif';-inkscape-font-specification:LiberationSerif;writing-mode:lr-tb;fill:#000000;fill-opacity:1;fill-rule:nonzero;stroke:none"
         transform="matrix(1,0,0,-1,501.704,722.976)"><tspan
           id="tspan706"
           sodipodi:role="line"
           y="0"
           x="0 3.0044999 4.5067501">3.2</tspan></text></g><g
       id="g710"
       transform="matrix(1.3333333,0,0,-1.3333333,0,1122.5197)"><text
         id="text714"
         style="font-variant:normal;font-weight:normal;font-size:6.009px;font-family:'Liberation Serif';-inkscape-font-specification:LiberationSerif;writing-mode:lr-tb;fill:#000000;fill-opacity:1;fill-rule:nonzero;stroke:none"
         transform="matrix(1,0,0,-1,84.501,711.779)"><tspan
           id="tspan712"
           sodipodi:role="line"
           y="0"
           x="0 3.0044999 4.5067501">1.6</tspan></text></g><g
       id="g716"
       transform="matrix(1.3333333,0,0,-1.3333333,0,1122.5197)"><text
         id="text720"
         style="font-variant:normal;font-weight:normal;font-size:6.009px;font-family:'Liberation Serif';-inkscape-font-specification:LiberationSerif;writing-mode:lr-tb;fill:#000000;fill-opacity:1;fill-rule:nonzero;stroke:none"
         transform="matrix(1,0,0,-1,133.597,711.779)"><tspan
           id="tspan718"
           sodipodi:role="line"
           y="0"
           x="0 3.0044999 4.5067501 7.51125">1.87</tspan></text></g><g
       id="g722"
       transform="matrix(1.3333333,0,0,-1.3333333,0,1122.5197)"><text
         id="text726"
         style="font-variant:normal;font-weight:normal;font-size:6.009px;font-family:'Liberation Serif';-inkscape-font-specification:LiberationSerif;writing-mode:lr-tb;fill:#000000;fill-opacity:1;fill-rule:nonzero;stroke:none"
         transform="matrix(1,0,0,-1,184.195,711.779)"><tspan
           id="tspan724"
           sodipodi:role="line"
           y="0"
           x="0 3.0044999 4.5067501 7.51125">1.87</tspan></text></g><g
       id="g728"
       transform="matrix(1.3333333,0,0,-1.3333333,0,1122.5197)"><text
         id="text732"
         style="font-variant:normal;font-weight:normal;font-size:6.009px;font-family:'Liberation Serif';-inkscape-font-specification:LiberationSerif;writing-mode:lr-tb;fill:#000000;fill-opacity:1;fill-rule:nonzero;stroke:none"
         transform="matrix(1,0,0,-1,238.507,711.779)"><tspan
           id="tspan730"
           y="0"
           x="0">2</tspan></text></g><g
       id="g734"
       transform="matrix(1.3333333,0,0,-1.3333333,0,1122.5197)"><text
         id="text738"
         style="font-variant:normal;font-weight:normal;font-size:6.009px;font-family:'Liberation Serif';-inkscape-font-specification:LiberationSerif;writing-mode:lr-tb;fill:#000000;fill-opacity:1;fill-rule:nonzero;stroke:none"
         transform="matrix(1,0,0,-1,288.992,711.779)"><tspan
           id="tspan736"
           y="0"
           x="0">2</tspan></text></g><g
       id="g740"
       transform="matrix(1.3333333,0,0,-1.3333333,0,1122.5197)"><text
         id="text744"
         style="font-variant:normal;font-weight:normal;font-size:6.009px;font-family:'Liberation Serif';-inkscape-font-specification:LiberationSerif;writing-mode:lr-tb;fill:#000000;fill-opacity:1;fill-rule:nonzero;stroke:none"
         transform="matrix(1,0,0,-1,335.906,711.779)"><tspan
           id="tspan742"
           sodipodi:role="line"
           y="0"
           x="0 3.0044999 4.5067501 7.51125">2.13</tspan></text></g><g
       id="g746"
       transform="matrix(1.3333333,0,0,-1.3333333,0,1122.5197)"><text
         id="text750"
         style="font-variant:normal;font-weight:normal;font-size:6.009px;font-family:'Liberation Serif';-inkscape-font-specification:LiberationSerif;writing-mode:lr-tb;fill:#000000;fill-opacity:1;fill-rule:nonzero;stroke:none"
         transform="matrix(1,0,0,-1,386.391,711.779)"><tspan
           id="tspan748"
           sodipodi:role="line"
           y="0"
           x="0 3.0044999 4.5067501 7.51125">1.69</tspan></text></g><g
       id="g752"
       transform="matrix(1.3333333,0,0,-1.3333333,0,1122.5197)"><text
         id="text756"
         style="font-variant:normal;font-weight:normal;font-size:6.009px;font-family:'Liberation Serif';-inkscape-font-specification:LiberationSerif;writing-mode:lr-tb;fill:#000000;fill-opacity:1;fill-rule:nonzero;stroke:none"
         transform="matrix(1,0,0,-1,436.989,711.779)"><tspan
           id="tspan754"
           sodipodi:role="line"
           y="0"
           x="0 3.0044999 4.5067501 7.51125">1.78</tspan></text></g><g
       id="g758"
       transform="matrix(1.3333333,0,0,-1.3333333,0,1122.5197)"><text
         id="text762"
         style="font-variant:normal;font-weight:normal;font-size:6.009px;font-family:'Liberation Serif';-inkscape-font-specification:LiberationSerif;writing-mode:lr-tb;fill:#000000;fill-opacity:1;fill-rule:nonzero;stroke:none"
         transform="matrix(1,0,0,-1,487.587,711.779)"><tspan
           id="tspan760"
           sodipodi:role="line"
           y="0"
           x="0 3.0044999 4.5067501 7.51125">2.13</tspan></text></g><g
       id="g764"
       transform="matrix(1.3333333,0,0,-1.3333333,0,1122.5197)"><text
         id="text768"
         style="font-variant:normal;font-weight:normal;font-size:6.009px;font-family:'Liberation Serif';-inkscape-font-specification:LiberationSerif;writing-mode:lr-tb;fill:#000000;fill-opacity:1;fill-rule:nonzero;stroke:none"
         transform="matrix(1,0,0,-1,84.501,700.695)"><tspan
           id="tspan766"
           sodipodi:role="line"
           y="0"
           x="0 3.0044999 4.5067501">2.1</tspan></text></g><g
       id="g770"
       transform="matrix(1.3333333,0,0,-1.3333333,0,1122.5197)"><text
         id="text774"
         style="font-variant:normal;font-weight:normal;font-size:6.009px;font-family:'Liberation Serif';-inkscape-font-specification:LiberationSerif;writing-mode:lr-tb;fill:#000000;fill-opacity:1;fill-rule:nonzero;stroke:none"
         transform="matrix(1,0,0,-1,133.597,700.695)"><tspan
           id="tspan772"
           sodipodi:role="line"
           y="0"
           x="0 3.0044999 4.5067501 7.51125">1.69</tspan></text></g><g
       id="g776"
       transform="matrix(1.3333333,0,0,-1.3333333,0,1122.5197)"><text
         id="text780"
         style="font-variant:normal;font-weight:normal;font-size:6.009px;font-family:'Liberation Serif';-inkscape-font-specification:LiberationSerif;writing-mode:lr-tb;fill:#000000;fill-opacity:1;fill-rule:nonzero;stroke:none"
         transform="matrix(1,0,0,-1,184.195,700.695)"><tspan
           id="tspan778"
           sodipodi:role="line"
           y="0"
           x="0 3.0044999 4.5067501 7.51125">1.66</tspan></text></g><g
       id="g782"
       transform="matrix(1.3333333,0,0,-1.3333333,0,1122.5197)"><text
         id="text786"
         style="font-variant:normal;font-weight:normal;font-size:6.009px;font-family:'Liberation Serif';-inkscape-font-specification:LiberationSerif;writing-mode:lr-tb;fill:#000000;fill-opacity:1;fill-rule:nonzero;stroke:none"
         transform="matrix(1,0,0,-1,234.709,700.695)"><tspan
           id="tspan784"
           sodipodi:role="line"
           y="0"
           x="0 3.0044999 4.5067501 7.51125">1.66</tspan></text></g><g
       id="g788"
       transform="matrix(1.3333333,0,0,-1.3333333,0,1122.5197)"><text
         id="text792"
         style="font-variant:normal;font-weight:normal;font-size:6.009px;font-family:'Liberation Serif';-inkscape-font-specification:LiberationSerif;writing-mode:lr-tb;fill:#000000;fill-opacity:1;fill-rule:nonzero;stroke:none"
         transform="matrix(1,0,0,-1,285.307,700.695)"><tspan
           id="tspan790"
           sodipodi:role="line"
           y="0"
           x="0 3.0044999 4.5067501 7.51125">1.72</tspan></text></g><g
       id="g794"
       transform="matrix(1.3333333,0,0,-1.3333333,0,1122.5197)"><text
         id="text798"
         style="font-variant:normal;font-weight:normal;font-size:6.009px;font-family:'Liberation Serif';-inkscape-font-specification:LiberationSerif;writing-mode:lr-tb;fill:#000000;fill-opacity:1;fill-rule:nonzero;stroke:none"
         transform="matrix(1,0,0,-1,335.906,700.695)"><tspan
           id="tspan796"
           sodipodi:role="line"
           y="0"
           x="0 3.0044999 4.5067501 7.51125">1.62</tspan></text></g><g
       id="g800"
       transform="matrix(1.3333333,0,0,-1.3333333,0,1122.5197)"><text
         id="text804"
         style="font-variant:normal;font-weight:normal;font-size:6.009px;font-family:'Liberation Serif';-inkscape-font-specification:LiberationSerif;writing-mode:lr-tb;fill:#000000;fill-opacity:1;fill-rule:nonzero;stroke:none"
         transform="matrix(1,0,0,-1,386.391,700.695)"><tspan
           id="tspan802"
           sodipodi:role="line"
           y="0"
           x="0 3.0044999 4.5067501 7.51125">1.94</tspan></text></g><g
       id="g806"
       transform="matrix(1.3333333,0,0,-1.3333333,0,1122.5197)"><text
         id="text810"
         style="font-variant:normal;font-weight:normal;font-size:6.009px;font-family:'Liberation Serif';-inkscape-font-specification:LiberationSerif;writing-mode:lr-tb;fill:#000000;fill-opacity:1;fill-rule:nonzero;stroke:none"
         transform="matrix(1,0,0,-1,436.989,700.695)"><tspan
           id="tspan808"
           sodipodi:role="line"
           y="0"
           x="0 3.0044999 4.5067501 7.51125">1.83</tspan></text></g><g
       id="g812"
       transform="matrix(1.3333333,0,0,-1.3333333,0,1122.5197)"><text
         id="text816"
         style="font-variant:normal;font-weight:normal;font-size:6.009px;font-family:'Liberation Serif';-inkscape-font-specification:LiberationSerif;writing-mode:lr-tb;fill:#000000;fill-opacity:1;fill-rule:nonzero;stroke:none"
         transform="matrix(1,0,0,-1,487.587,700.695)"><tspan
           id="tspan814"
           sodipodi:role="line"
           y="0"
           x="0 3.0044999 4.5067501 7.51125">1.62</tspan></text></g><text
       transform="matrix(1.3333333,0,0,1.3333333,0,1122.5197)"
       id="text1590"
       y="-711.96552"
       x="83.074066"
       style="font-style:normal;font-variant:normal;font-weight:normal;font-stretch:normal;font-size:6px;line-height:0;font-family:'Liberation Serif';-inkscape-font-specification:'Liberation Serif';text-align:end;letter-spacing:0px;word-spacing:0px;text-anchor:end;display:inline;fill:#000000;fill-opacity:1;stroke:none;stroke-width:0.75"
       xml:space="preserve"><tspan
         style="font-weight:bold;font-size:6.5px;line-height:165%;stroke-width:0.75"
         y="-711.96552"
         x="83.074066"
         id="tspan1588"
         sodipodi:role="line">mean enrichment(w/o U235):</tspan><tspan
         style="font-weight:bold;line-height:165%;stroke-width:0.75"
         id="tspan1592"
         y="-701.24054"
         x="83.074066"
         sodipodi:role="line"><tspan
           id="tspan1594"
           style="font-size:6.5px;line-height:165%;stroke-width:0.75">PPF</tspan><tspan
           id="tspan3205"
           style="font-size:6.5px">                     </tspan><tspan
           id="tspan3203"
           style="font-size:6.5px">      :</tspan></tspan></text></g></svg>
