<?xml version="1.0" encoding="UTF-8" standalone="no"?>
<svg
   xmlns:dc="http://purl.org/dc/elements/1.1/"
   xmlns:cc="http://creativecommons.org/ns#"
   xmlns:rdf="http://www.w3.org/1999/02/22-rdf-syntax-ns#"
   xmlns:svg="http://www.w3.org/2000/svg"
   xmlns="http://www.w3.org/2000/svg"
   xmlns:sodipodi="http://sodipodi.sourceforge.net/DTD/sodipodi-0.dtd"
   xmlns:inkscape="http://www.inkscape.org/namespaces/inkscape"
   inkscape:version="1.0rc1 (09960d6f05, 2020-04-09)"
   sodipodi:docname="worked_example_LP.svg"
   viewBox="0 0 377.66378 164.15502"
   height="43.432682mm"
   width="99.923538mm"
   xml:space="preserve"
   id="svg2"
   version="1.1"><metadata
     id="metadata8"><rdf:RDF><cc:Work
         rdf:about=""><dc:format>image/svg+xml</dc:format><dc:type
           rdf:resource="http://purl.org/dc/dcmitype/StillImage" /><dc:title></dc:title></cc:Work></rdf:RDF></metadata><defs
     id="defs6"><clipPath
       id="clipPath18"
       clipPathUnits="userSpaceOnUse"><path
         style="clip-rule:evenodd"
         inkscape:connector-curvature="0"
         id="path16"
         d="M 0,0.028 H 595.275 V 841.889 H 0 Z" /></clipPath><clipPath
       id="clipPath26"
       clipPathUnits="userSpaceOnUse"><path
         style="clip-rule:evenodd"
         inkscape:connector-curvature="0"
         id="path24"
         d="m 56.7,771.089 h 481.85 v 14.099 H 56.7 Z" /></clipPath><clipPath
       id="clipPath44"
       clipPathUnits="userSpaceOnUse"><path
         style="clip-rule:evenodd"
         inkscape:connector-curvature="0"
         id="path42"
         d="M 56.7,56.789 H 538.55 V 70.888 H 56.7 Z" /></clipPath></defs><sodipodi:namedview
     lock-margins="true"
     inkscape:document-rotation="0"
     inkscape:current-layer="g10"
     inkscape:window-maximized="1"
     inkscape:window-y="27"
     inkscape:window-x="0"
     inkscape:cy="119.90555"
     inkscape:cx="232.30346"
     inkscape:zoom="1.5805369"
     fit-margin-left="5"
     fit-margin-right="5"
     fit-margin-bottom="5"
     fit-margin-top="5"
     units="mm"
     showgrid="true"
     id="namedview4"
     inkscape:window-height="1016"
     inkscape:window-width="1920"
     inkscape:pageshadow="2"
     inkscape:pageopacity="0"
     guidetolerance="10"
     gridtolerance="10"
     objecttolerance="10"
     borderopacity="1"
     bordercolor="#666666"
     pagecolor="#ffffff"><inkscape:grid
       id="grid900"
       type="xygrid" /></sodipodi:namedview><g
     transform="matrix(1.3333333,0,0,-1.3333333,-286.30695,915.47474)"
     inkscape:label="Core_Designs_v4"
     inkscape:groupmode="layer"
     id="g10"><g
   id="g12"><g
     clip-path="url(#clipPath18)"
     id="g14" /></g><path
   d="m 265.7302,625.17807 h 18.51 v 17.178 h -18.51 z"
   style="fill:#5eb91e;fill-opacity:1;fill-rule:evenodd;stroke:#000000;stroke-width:1.41732;stroke-miterlimit:4;stroke-dasharray:none;stroke-opacity:1"
   id="path92-6"
   inkscape:connector-curvature="0" /><path
   d="m 284.2122,625.17807 h 18.51 v 17.178 h -18.51 z"
   style="fill:#ffff6d;fill-opacity:1;fill-rule:evenodd;stroke:#000000;stroke-width:1.41732;stroke-miterlimit:4;stroke-dasharray:none;stroke-opacity:1"
   id="path94-5"
   inkscape:connector-curvature="0" /><path
   inkscape:connector-curvature="0"
   id="path92"
   style="fill:#5eb91e;fill-opacity:1;fill-rule:evenodd;stroke:#000000;stroke-width:1.41732;stroke-miterlimit:4;stroke-dasharray:none;stroke-opacity:1"
   d="m 265.7302,608.02807 h 18.51 v 17.178 h -18.51 z" /><path
   inkscape:connector-curvature="0"
   id="path94"
   style="fill:#3465a4;fill-opacity:1;fill-rule:evenodd;stroke:#000000;stroke-width:1.41732;stroke-miterlimit:4;stroke-dasharray:none;stroke-opacity:1"
   d="m 284.2122,608.02807 h 18.51 v 17.178 h -18.51 z" /><g
   transform="translate(-51.976803,-14.033932)"
   id="g592"><text
   id="text596"
   style="font-variant:normal;font-weight:normal;font-size:10.006px;font-family:'Liberation Serif';-inkscape-font-specification:LiberationSerif;writing-mode:lr-tb;fill:#000000;fill-opacity:1;fill-rule:nonzero;stroke:none"
   transform="matrix(1,0,0,-1,324.51,644.399)"><tspan
     id="tspan594"
     y="0"
     x="0">1</tspan></text>

</g><g
   transform="translate(-51.976803,-14.033932)"
   id="g598"><text
   id="text602"
   style="font-variant:normal;font-weight:normal;font-size:10.006px;font-family:'Liberation Serif';-inkscape-font-specification:LiberationSerif;writing-mode:lr-tb;fill:#000000;fill-opacity:1;fill-rule:nonzero;stroke:none"
   transform="matrix(1,0,0,-1,342.992,644.399)"><tspan
     id="tspan600"
     y="0"
     x="0">2</tspan></text>

</g><g
   transform="translate(-88.87353,-31.239932)"
   id="g604"><text
   id="text608"
   style="font-variant:normal;font-weight:normal;font-size:10.006px;font-family:'Liberation Serif';-inkscape-font-specification:LiberationSerif;writing-mode:lr-tb;fill:#000000;fill-opacity:1;fill-rule:nonzero;stroke:none"
   transform="matrix(1,0,0,-1,361.502,644.399)"><tspan
     id="tspan606"
     y="0"
     x="0">3</tspan></text>

</g><g
   transform="translate(-33.570532,-14.063246)"
   id="g628"><text
   id="text632"
   style="font-variant:normal;font-weight:normal;font-size:10.006px;font-family:'Liberation Serif';-inkscape-font-specification:LiberationSerif;writing-mode:lr-tb;fill:#000000;fill-opacity:1;fill-rule:nonzero;stroke:none"
   transform="matrix(1,0,0,-1,324.51,627.193)"><tspan
     id="tspan630"
     y="0"
     x="0">4</tspan></text>

</g><g
   transform="translate(169.68984,156.14312)"
   id="g1700"><path
     d="m 207.128,475.313 h 21.628 v 17.178 h -21.628 z"
     style="fill:#ffff6d;fill-opacity:1;fill-rule:evenodd;stroke:none"
     id="path124"
     inkscape:connector-curvature="0" /><path
     d="m 207.128,453.231 h 21.628 v 17.178 h -21.628 z"
     style="fill:#5eb91e;fill-opacity:1;fill-rule:evenodd;stroke:none"
     id="path126"
     inkscape:connector-curvature="0" /><path
     d="m 207.128,431.149 h 21.628 v 17.178 h -21.628 z"
     style="fill:#3465a4;fill-opacity:1;fill-rule:evenodd;stroke:none"
     id="path128"
     inkscape:connector-curvature="0" /><g
     id="g322"><path
       d="m 206.504,492.406 h 23.017"
       style="fill:none;stroke:#000000;stroke-width:1.4;stroke-linecap:butt;stroke-linejoin:round;stroke-miterlimit:10;stroke-dasharray:none;stroke-opacity:1"
       id="path324"
       inkscape:connector-curvature="0" /></g><g
     id="g326"><path
       d="M 207.213,493.114 V 474.547"
       style="fill:none;stroke:#000000;stroke-width:1.4;stroke-linecap:butt;stroke-linejoin:round;stroke-miterlimit:10;stroke-dasharray:none;stroke-opacity:1"
       id="path328"
       inkscape:connector-curvature="0" /></g><g
     id="g330"><path
       d="M 228.813,493.114 V 474.547"
       style="fill:none;stroke:#000000;stroke-width:1.4;stroke-linecap:butt;stroke-linejoin:round;stroke-miterlimit:10;stroke-dasharray:none;stroke-opacity:1"
       id="path332"
       inkscape:connector-curvature="0" /></g><g
     id="g334"><path
       d="m 206.504,475.256 h 23.017"
       style="fill:none;stroke:#000000;stroke-width:1.4;stroke-linecap:butt;stroke-linejoin:round;stroke-miterlimit:10;stroke-dasharray:none;stroke-opacity:1"
       id="path336"
       inkscape:connector-curvature="0" /></g><g
     id="g338"><path
       d="m 206.504,470.324 h 23.017"
       style="fill:none;stroke:#000000;stroke-width:1.4;stroke-linecap:butt;stroke-linejoin:round;stroke-miterlimit:10;stroke-dasharray:none;stroke-opacity:1"
       id="path340"
       inkscape:connector-curvature="0" /></g><g
     id="g342"><path
       d="M 207.213,471.032 V 452.465"
       style="fill:none;stroke:#000000;stroke-width:1.4;stroke-linecap:butt;stroke-linejoin:round;stroke-miterlimit:10;stroke-dasharray:none;stroke-opacity:1"
       id="path344"
       inkscape:connector-curvature="0" /></g><g
     id="g346"><path
       d="M 228.813,471.032 V 452.465"
       style="fill:none;stroke:#000000;stroke-width:1.4;stroke-linecap:butt;stroke-linejoin:round;stroke-miterlimit:10;stroke-dasharray:none;stroke-opacity:1"
       id="path348"
       inkscape:connector-curvature="0" /></g><g
     id="g350"><path
       d="m 206.504,453.174 h 23.017"
       style="fill:none;stroke:#000000;stroke-width:1.4;stroke-linecap:butt;stroke-linejoin:round;stroke-miterlimit:10;stroke-dasharray:none;stroke-opacity:1"
       id="path352"
       inkscape:connector-curvature="0" /></g><g
     id="g354"><path
       d="m 206.504,448.242 h 23.017"
       style="fill:none;stroke:#000000;stroke-width:1.4;stroke-linecap:butt;stroke-linejoin:round;stroke-miterlimit:10;stroke-dasharray:none;stroke-opacity:1"
       id="path356"
       inkscape:connector-curvature="0" /></g><g
     id="g358"><path
       d="M 207.213,448.95 V 430.383"
       style="fill:none;stroke:#000000;stroke-width:1.4;stroke-linecap:butt;stroke-linejoin:round;stroke-miterlimit:10;stroke-dasharray:none;stroke-opacity:1"
       id="path360"
       inkscape:connector-curvature="0" /></g><g
     id="g362"><path
       d="M 228.813,448.95 V 430.383"
       style="fill:none;stroke:#000000;stroke-width:1.4;stroke-linecap:butt;stroke-linejoin:round;stroke-miterlimit:10;stroke-dasharray:none;stroke-opacity:1"
       id="path364"
       inkscape:connector-curvature="0" /></g><g
     id="g366"><path
       d="m 206.504,431.092 h 23.017"
       style="fill:none;stroke:#000000;stroke-width:1.4;stroke-linecap:butt;stroke-linejoin:round;stroke-miterlimit:10;stroke-dasharray:none;stroke-opacity:1"
       id="path368"
       inkscape:connector-curvature="0" /></g><g
     id="g838"><text
   y="0"
   transform="matrix(1,0,0,-1,229.805,500.484)"
   style="font-variant:normal;font-weight:bold;font-size:10.006px;font-family:'Liberation Serif';-inkscape-font-specification:LiberationSerif-Bold;writing-mode:lr-tb;fill:#000000;fill-opacity:1;fill-rule:nonzero;stroke:none"
   id="text842"><tspan
     x="0 6.6940141 11.096654 16.099653 20.502295 26.095648"
     y="0"
     sodipodi:role="line"
     id="tspan840">Legend</tspan></text>

</g><g
     id="g844"
     transform="translate(229.805,500.484)"><path
       d="M 0,-0.907 H 31.691"
       style="fill:none;stroke:#000000;stroke-width:0.595;stroke-linecap:butt;stroke-linejoin:miter;stroke-miterlimit:10;stroke-dasharray:none;stroke-opacity:1"
       id="path846"
       inkscape:connector-curvature="0" /></g><g
     id="g848"><text
   y="0"
   transform="matrix(1,0,0,-1,251.405,480.5)"
   style="font-variant:normal;font-weight:normal;font-size:10.006px;font-family:'Liberation Serif';-inkscape-font-specification:LiberationSerif;writing-mode:lr-tb;fill:#000000;fill-opacity:1;fill-rule:nonzero;stroke:none"
   id="text852"><tspan
     x="0 5.0029998 7.5044999 12.5075 15.009 22.21332 25.004993 30.007994 32.509495 39.713814 44.716812 49.719814"
     y="0"
     sodipodi:role="line"
     id="tspan850">3.2 w/o U235</tspan></text>

</g><g
     id="g854"><text
   y="0"
   transform="matrix(1,0,0,-1,251.405,458.39)"
   style="font-variant:normal;font-weight:normal;font-size:10.006px;font-family:'Liberation Serif';-inkscape-font-specification:LiberationSerif;writing-mode:lr-tb;fill:#000000;fill-opacity:1;fill-rule:nonzero;stroke:none"
   id="text858"><tspan
     x="0 5.0029998 7.5044999 12.5075 15.009 22.21332 25.004993 30.007994 32.509495 39.713814 44.716812 49.719814"
     y="0"
     sodipodi:role="line"
     id="tspan856">2.4 w/o U235</tspan></text>

</g><g
     id="g860"><text
   y="0"
   transform="matrix(1,0,0,-1,251.405,436.28)"
   style="font-variant:normal;font-weight:normal;font-size:10.006px;font-family:'Liberation Serif';-inkscape-font-specification:LiberationSerif;writing-mode:lr-tb;fill:#000000;fill-opacity:1;fill-rule:nonzero;stroke:none"
   id="text864"><tspan
     x="0 5.0029998 7.5044999 12.5075 15.009 22.21332 25.004993 30.007994 32.509495 39.713814 44.716812 49.719814"
     y="0"
     sodipodi:role="line"
     id="tspan862">1.6 w/o U235</tspan></text>

</g></g>


<rect
   transform="scale(1,-1)"
   style="opacity:0.98;fill:none;fill-opacity:1;stroke:#000000;stroke-width:1.41732;stroke-linecap:round;stroke-linejoin:round;stroke-miterlimit:4;stroke-dasharray:none;stroke-dashoffset:0;stroke-opacity:1"
   id="rect1671-2"
   width="114.57169"
   height="93.352486"
   x="368.52448"
   y="-671.72418"
   ry="1.6450051" />
<rect
   transform="scale(1,-1)"
   ry="1.6450051"
   y="-671.72418"
   x="229.61211"
   height="93.352486"
   width="114.57169"
   id="rect1671-2-3"
   style="opacity:0.98;fill:none;fill-opacity:1;stroke:#000000;stroke-width:1.41732;stroke-linecap:round;stroke-linejoin:round;stroke-miterlimit:4;stroke-dasharray:none;stroke-dashoffset:0;stroke-opacity:1" /><text
   transform="scale(1,-1)"
   id="text1713"
   y="-658.19714"
   x="263.39893"
   style="font-size:12px;line-height:125%;font-family:Montserrat;-inkscape-font-specification:Montserrat;letter-spacing:0px;word-spacing:0px;stroke-width:0.75"
   xml:space="preserve"><tspan
     style="font-style:normal;font-variant:normal;font-weight:normal;font-stretch:normal;font-family:'Liberation Serif';-inkscape-font-specification:'Liberation Serif';stroke-width:0.75"
     y="-658.19714"
     x="263.39893"
     id="tspan1711"
     sodipodi:role="line">Target LP</tspan></text><path
   sodipodi:nodetypes="ccc"
   inkscape:connector-curvature="0"
   id="path902"
   d="m 265.68812,593.66784 0.0421,48.68823 52.45792,0.0618"
   style="fill:none;stroke:#000000;stroke-width:1.41732;stroke-linecap:butt;stroke-linejoin:miter;stroke-miterlimit:4;stroke-dasharray:2.83465, 1.41732;stroke-dashoffset:0;stroke-opacity:1" /><text
   transform="scale(1,-1)"
   id="text906"
   y="-583.75854"
   x="255.67154"
   style="font-size:10px;line-height:125%;font-family:Montserrat;-inkscape-font-specification:Montserrat;letter-spacing:0px;word-spacing:0px;stroke-width:0.75"
   xml:space="preserve"><tspan
     style="font-style:normal;font-variant:normal;font-weight:normal;font-stretch:normal;font-family:'Liberation Serif';-inkscape-font-specification:'Liberation Serif';stroke-width:0.75"
     y="-583.75854"
     x="255.67154"
     id="tspan904"
     sodipodi:role="line">rotational symmetry</tspan></text><path
   sodipodi:nodetypes="cc"
   inkscape:connector-curvature="0"
   id="path910"
   d="m 267.23022,600.35607 15,-9"
   style="fill:none;stroke:#000000;stroke-width:0.75px;stroke-linecap:butt;stroke-linejoin:miter;stroke-opacity:1" /><path
   inkscape:connector-curvature="0"
   id="path914"
   d="m 261.98022,628.14657 v -7.5 l -4.5,3.75 z"
   style="opacity:0.429329;fill:#000000;stroke:#000000;stroke-width:0.75px;stroke-linecap:butt;stroke-linejoin:miter;stroke-opacity:1" /><path
   inkscape:transform-center-y="7.5194405"
   inkscape:transform-center-x="-23.941301"
   style="opacity:0.429329;fill:#000000;stroke:#000000;stroke-width:0.75px;stroke-linecap:butt;stroke-linejoin:miter;stroke-opacity:1"
   d="m 279.90591,649.30974 7.49896,0.12472 -3.67465,-4.56174 z"
   id="path914-3"
   inkscape:connector-curvature="0" /></g></svg>
